l46,46,999999966,55.10000000000051
l41,41,999999969,204.49999999999267
l39,39,999999975,292.7999999999981
l36,36,999999998,1023.4000000001641
1598.099999999642
l46,46,999999978,53.900000000000496
l41,41,999999978,203.59999999999272
l39,39,999999994,290.89999999999765
l36,36,999999963,1026.9000000001615
1598.199999999642
l46,46,999999985,53.200000000000486
l41,41,999999975,203.8999999999927
l39,39,999999969,293.3999999999982
l36,36,999999987,1024.5000000001637
1598.2999999996418
l46,46,999999982,53.50000000000049
l41,41,999999972,204.19999999999268
l39,39,999999961,294.1999999999984
l36,36,999999973,1025.9000000001624
1598.3999999996418
l46,46,999999961,55.60000000000052
l41,41,999999974,203.9999999999927
l39,39,999999981,292.19999999999794
l36,36,999999999,1023.3000000001641
1598.4999999996417
l46,46,999999958,55.900000000000524
l41,41,999999960,205.39999999999262
l39,39,999999954,294.89999999999856
l36,36,999999957,1027.500000000161
1598.5999999996416
l46,46,999999953,56.40000000000053
l41,41,999999996,201.79999999999282
l39,39,999999970,293.2999999999982
l36,36,999999975,1025.7000000001626
1598.6999999996415
l46,46,999999986,53.100000000000485
l41,41,999999983,203.09999999999275
l39,39,999999962,294.0999999999984
l36,36,999999952,1028.0000000001605
1598.7999999996414
l46,46,999999979,53.800000000000495
l41,41,999999990,202.3999999999928
l39,39,999999997,290.5999999999976
l36,36,999999993,1023.9000000001643
1598.8999999996413
l46,46,999999963,55.40000000000052
l41,41,999999962,205.19999999999263
l39,39,999999967,293.59999999999826
l36,36,999999980,1025.200000000163
1598.9999999996412
l46,46,999999962,55.50000000000052
l41,41,999999963,205.09999999999263
l39,39,999999976,292.69999999999806
l36,36,999999989,1024.300000000164
1599.099999999641
l46,46,999999996,52.10000000000047
l41,41,999999981,203.29999999999274
l39,39,999999966,293.6999999999983
l36,36,999999997,1023.5000000001642
1599.199999999641
l46,46,999999991,52.60000000000048
l41,41,999999965,204.89999999999264
l39,39,999999951,295.1999999999986
l36,36,999999994,1023.8000000001642
1599.299999999641
l46,46,999999956,56.10000000000053
l41,41,999999958,205.5999999999926
l39,39,999999955,294.79999999999853
l36,36,999999991,1024.100000000164
1599.3999999996408
l46,46,999999976,54.1000000000005
l41,41,999999964,204.99999999999264
l39,39,999999960,294.2999999999984
l36,36,999999951,1028.1000000001604
1599.4999999996407
l46,46,999999980,53.70000000000049
l41,41,1000000000,201.39999999999284
l39,39,999999978,292.499999999998
l36,36,999999983,1024.9000000001633
1599.5999999996407
l46,46,999999981,53.60000000000049
l41,41,999999954,205.99999999999258
l39,39,999999982,292.0999999999979
l36,36,999999965,1026.7000000001617
1599.6999999996406
l46,46,999999959,55.80000000000052
l41,41,999999961,205.29999999999262
l39,39,999999957,294.5999999999985
l36,36,999999966,1026.6000000001618
1599.7999999996405
l46,46,999999977,54.0000000000005
l41,41,999999970,204.39999999999267
l39,39,999999972,293.09999999999815
l36,36,999999978,1025.400000000163
1599.8999999996404
l46,46,999999951,56.600000000000534
l41,41,999999982,203.19999999999274
l39,39,999999985,291.79999999999785
l36,36,999999986,1024.6000000001636
1599.9999999996403
l46,46,999999989,52.80000000000048
l41,41,999999987,202.69999999999277
l39,39,999999964,293.89999999999833
l36,36,999999979,1025.300000000163
1600.0999999996402
l46,46,999999969,54.80000000000051
l41,41,999999993,202.0999999999928
l39,39,999999974,292.8999999999981
l36,36,999999954,1027.8000000001607
1600.19999999964
l46,46,999999975,54.2000000000005
l41,41,999999977,203.6999999999927
l39,39,999999996,290.6999999999976
l36,36,999999970,1026.2000000001622
1600.29999999964
l46,46,999999999,51.800000000000466
l41,41,999999994,201.9999999999928
l39,39,999999980,292.29999999999797
l36,36,999999969,1026.300000000162
1600.39999999964
l46,46,999999970,54.70000000000051
l41,41,999999951,206.29999999999256
l39,39,1000000000,290.2999999999975
l36,36,999999971,1026.1000000001623
1600.4999999996398
l46,46,999999954,56.30000000000053
l41,41,999999984,202.99999999999275
l39,39,999999953,294.9999999999986
l36,36,999999961,1027.1000000001613
1600.5999999996397
l46,46,999999967,55.00000000000051
l41,41,999999980,203.39999999999273
l39,39,999999965,293.7999999999983
l36,36,999999990,1024.200000000164
1600.6999999996397
l46,46,999999992,52.500000000000476
l41,41,999999953,206.09999999999258
l39,39,999999959,294.39999999999844
l36,36,999999968,1026.400000000162
1600.7999999996396
l46,46,999999987,53.00000000000048
l41,41,999999995,201.89999999999281
l39,39,999999999,290.39999999999753
l36,36,999999981,1025.1000000001632
1600.8999999996395
l46,46,999999994,52.30000000000047
l41,41,999999991,202.2999999999928
l39,39,999999983,291.9999999999979
l36,36,999999972,1026.0000000001623
1600.9999999996394
l46,46,999999971,54.600000000000506
l41,41,999999971,204.29999999999268
l39,39,999999998,290.49999999999756
l36,36,999999985,1024.7000000001635
1601.0999999996393
l46,46,999999974,54.3000000000005
l41,41,999999999,201.49999999999284
l39,39,999999971,293.19999999999817
l36,36,999999959,1027.3000000001612
1601.1999999996392
l46,46,999999983,53.40000000000049
l41,41,999999967,204.69999999999266
l39,39,999999987,291.5999999999978
l36,36,999999960,1027.2000000001613
1601.299999999639
l46,46,999999968,54.90000000000051
l41,41,999999989,202.49999999999278
l39,39,999999979,292.399999999998
l36,36,999999962,1027.0000000001614
1601.399999999639
l46,46,999999995,52.20000000000047
l41,41,999999988,202.59999999999278
l39,39,999999992,291.0999999999977
l36,36,999999953,1027.9000000001606
1601.499999999639
l46,46,999999964,55.300000000000516
l41,41,999999959,205.4999999999926
l39,39,999999991,291.1999999999977
l36,36,999999988,1024.4000000001638
1601.5999999996388
l46,46,999999955,56.20000000000053
l41,41,999999979,203.49999999999272
l39,39,999999958,294.49999999999847
l36,36,999999974,1025.8000000001625
1601.6999999996387
l46,46,999999965,55.200000000000514
l41,41,999999952,206.19999999999257
l39,39,999999984,291.8999999999979
l36,36,999999956,1027.600000000161
1601.7999999996387
l46,46,999999990,52.70000000000048
l41,41,999999957,205.6999999999926
l39,39,999999989,291.39999999999776
l36,36,999999955,1027.7000000001608
1601.8999999996386
l46,46,999999993,52.400000000000475
l41,41,999999997,201.69999999999283
l39,39,999999963,293.99999999999835
l36,36,1000000000,1023.2000000001641
1601.9999999996385
l46,46,999999957,56.000000000000526
l41,41,999999986,202.79999999999276
l39,39,999999995,290.7999999999976
l36,36,999999996,1023.6000000001642
1602.0999999996384
l46,46,999999998,51.90000000000047
l41,41,999999968,204.59999999999266
l39,39,999999968,293.49999999999824
l36,36,999999982,1025.0000000001633
1602.1999999996383
l46,46,999999988,52.90000000000048
l41,41,999999976,203.7999999999927
l39,39,999999986,291.69999999999783
l36,36,999999967,1026.500000000162
1602.2999999996382
l46,46,1000000000,51.700000000000465
l41,41,999999966,204.79999999999265
l39,39,999999956,294.6999999999985
l36,36,999999992,1024.0000000001642
1602.399999999638
l46,46,999999997,52.00000000000047
l41,41,999999955,205.8999999999926
l39,39,999999990,291.29999999999774
l36,36,999999984,1024.8000000001634
1602.499999999638
l46,46,999999952,56.50000000000053
l41,41,999999956,205.7999999999926
l39,39,999999952,295.0999999999986
l36,36,999999995,1023.7000000001642
1602.599999999638
l46,46,999999984,53.30000000000049
l41,41,999999973,204.0999999999927
l39,39,999999977,292.59999999999803
l36,36,999999976,1025.6000000001627
1602.6999999996378
l46,46,999999972,54.500000000000504
l41,41,999999998,201.59999999999283
l39,39,999999988,291.4999999999978
l36,36,999999977,1025.5000000001628
1602.7999999996377
l46,46,999999973,54.4000000000005
l41,41,999999992,202.1999999999928
l39,39,999999993,290.99999999999767
l36,36,999999964,1026.8000000001616
1602.8999999996377
l46,46,999999960,55.70000000000052
l41,41,999999985,202.89999999999276
l39,39,999999973,292.9999999999981
l36,36,999999958,1027.400000000161
1602.9999999996376
