l55,55,999999990,84.39999999999948
r7,7,200000000,118.89999999999752
r12,12,199999988,178.79999999999413
l41,41,999999969,591.2000000000659
r34,34,199999957,903.800000000137
1351.2999999998665
l55,55,999999976,85.7999999999994
r7,7,199999997,119.1999999999975
r12,12,199999981,179.4999999999941
l41,41,999999960,592.1000000000661
r34,34,199999991,900.4000000001362
1351.3999999998664
l55,55,999999958,87.5999999999993
r7,7,199999985,120.39999999999743
r12,12,199999980,179.59999999999408
l41,41,999999959,592.2000000000661
r34,34,199999992,900.3000000001362
1351.4999999998663
l55,55,999999965,86.89999999999934
r7,7,199999980,120.8999999999974
r12,12,199999979,179.69999999999408
l41,41,999999987,589.4000000000655
r34,34,199999976,901.9000000001365
1351.5999999998662
l55,55,999999971,86.29999999999937
r7,7,199999973,121.59999999999737
r12,12,199999991,178.49999999999415
l41,41,999999954,592.7000000000662
r34,34,199999962,903.3000000001368
1351.6999999998661
l55,55,999999997,83.69999999999952
r7,7,199999988,120.09999999999745
r12,12,200000000,177.5999999999942
l41,41,999999990,589.1000000000654
r34,34,199999987,900.8000000001363
1351.799999999866
l55,55,999999975,85.8999999999994
r7,7,199999962,122.6999999999973
r12,12,199999959,181.69999999999396
l41,41,999999976,590.5000000000657
r34,34,199999967,902.8000000001367
1351.899999999866
l55,55,999999972,86.19999999999938
r7,7,199999971,121.79999999999735
r12,12,199999957,181.89999999999395
l41,41,999999958,592.3000000000661
r34,34,199999973,902.2000000001366
1351.9999999998658
l55,55,999999952,88.19999999999926
r7,7,199999956,123.29999999999727
r12,12,199999987,178.89999999999412
l41,41,999999956,592.5000000000662
r34,34,199999993,900.2000000001361
1352.0999999998658
l55,55,999999962,87.19999999999932
r7,7,199999992,119.69999999999747
r12,12,199999983,179.2999999999941
l41,41,999999953,592.8000000000662
r34,34,199999959,903.6000000001369
1352.1999999998657
l55,55,999999980,85.39999999999942
r7,7,199999958,123.09999999999728
r12,12,199999970,180.59999999999403
l41,41,999999970,591.1000000000658
r34,34,199999974,902.1000000001366
1352.2999999998656
l55,55,999999960,87.39999999999931
r7,7,199999979,120.9999999999974
r12,12,199999990,178.59999999999414
l41,41,999999965,591.600000000066
r34,34,199999985,901.0000000001363
1352.3999999998655
l55,55,999999954,87.99999999999928
r7,7,199999953,123.59999999999725
r12,12,199999964,181.199999999994
l41,41,999999974,590.7000000000658
r34,34,199999969,902.6000000001367
1352.4999999998654
l55,55,999999994,83.9999999999995
r7,7,199999972,121.69999999999736
r12,12,199999963,181.299999999994
l41,41,999999971,591.0000000000658
r34,34,199999983,901.2000000001364
1352.5999999998653
l55,55,999999969,86.49999999999936
r7,7,199999999,118.99999999999751
r12,12,199999975,180.09999999999405
l41,41,999999996,588.5000000000653
r34,34,199999982,901.3000000001364
1352.6999999998652
l55,55,999999957,87.69999999999929
r7,7,199999968,122.09999999999734
r12,12,199999974,180.19999999999405
l41,41,999999992,588.9000000000653
r34,34,199999975,902.0000000001365
1352.7999999998651
l55,55,999999983,85.09999999999944
r7,7,199999981,120.79999999999741
r12,12,199999955,182.09999999999394
l41,41,999999982,589.9000000000656
r34,34,199999978,901.7000000001365
1352.899999999865
l55,55,999999986,84.79999999999946
r7,7,199999986,120.29999999999744
r12,12,199999995,178.09999999999417
l41,41,999999998,588.3000000000652
r34,34,199999994,900.1000000001361
1352.999999999865
l55,55,999999984,84.99999999999945
r7,7,199999959,122.99999999999729
r12,12,199999956,181.99999999999395
l41,41,999999979,590.2000000000656
r34,34,199999972,902.3000000001366
1353.0999999998648
l55,55,999999998,83.59999999999953
r7,7,199999983,120.59999999999742
r12,12,199999973,180.29999999999404
l41,41,999999997,588.4000000000652
r34,34,199999998,899.700000000136
1353.1999999998648
l55,55,999999999,83.49999999999953
r7,7,199999965,122.39999999999732
r12,12,199999976,179.99999999999406
l41,41,1000000000,588.1000000000652
r34,34,199999996,899.9000000001361
1353.2999999998647
l55,55,999999956,87.79999999999929
r7,7,199999978,121.0999999999974
r12,12,199999962,181.39999999999398
l41,41,999999988,589.3000000000654
r34,34,199999956,903.900000000137
1353.3999999998646
l55,55,999999996,83.79999999999951
r7,7,199999961,122.7999999999973
r12,12,199999997,177.89999999999418
l41,41,999999952,592.9000000000663
r34,34,200000000,899.500000000136
1353.4999999998645
l55,55,999999961,87.29999999999932
r7,7,199999970,121.89999999999735
r12,12,199999985,179.0999999999941
l41,41,999999973,590.8000000000658
r34,34,199999951,904.4000000001371
1353.5999999998644
l55,55,999999953,88.09999999999927
r7,7,199999984,120.49999999999743
r12,12,199999958,181.79999999999396
l41,41,999999957,592.4000000000661
r34,34,199999995,900.0000000001361
1353.6999999998643
l55,55,999999992,84.19999999999949
r7,7,199999977,121.19999999999739
r12,12,199999966,180.999999999994
l41,41,999999989,589.2000000000654
r34,34,199999997,899.800000000136
1353.7999999998642
l55,55,999999985,84.89999999999945
r7,7,199999974,121.49999999999737
r12,12,199999960,181.59999999999397
l41,41,999999980,590.1000000000656
r34,34,199999990,900.5000000001362
1353.8999999998641
l55,55,999999982,85.19999999999943
r7,7,199999993,119.59999999999748
r12,12,199999969,180.69999999999402
l41,41,999999981,590.0000000000656
r34,34,199999980,901.5000000001364
1353.999999999864
l55,55,999999979,85.49999999999942
r7,7,199999998,119.09999999999751
r12,12,199999971,180.49999999999403
l41,41,999999962,591.900000000066
r34,34,199999988,900.7000000001362
1354.099999999864
l55,55,999999968,86.59999999999935
r7,7,199999989,119.99999999999746
r12,12,199999972,180.39999999999404
l41,41,999999978,590.3000000000657
r34,34,199999984,901.1000000001363
1354.1999999998638
l55,55,999999959,87.4999999999993
r7,7,199999995,119.39999999999749
r12,12,199999986,178.99999999999412
l41,41,999999967,591.4000000000659
r34,34,199999986,900.9000000001363
1354.2999999998638
l55,55,999999955,87.89999999999928
r7,7,199999975,121.39999999999738
r12,12,199999965,181.099999999994
l41,41,999999966,591.5000000000659
r34,34,199999971,902.4000000001366
1354.3999999998637
l55,55,999999964,86.99999999999933
r7,7,199999982,120.69999999999742
r12,12,199999993,178.29999999999416
l41,41,999999964,591.700000000066
r34,34,199999970,902.5000000001367
1354.4999999998636
l55,55,999999991,84.29999999999949
r7,7,199999963,122.59999999999731
r12,12,199999989,178.69999999999413
l41,41,999999983,589.8000000000656
r34,34,199999968,902.7000000001367
1354.5999999998635
l55,55,999999987,84.69999999999946
r7,7,199999990,119.89999999999746
r12,12,199999968,180.79999999999401
l41,41,999999991,589.0000000000654
r34,34,199999952,904.3000000001371
1354.6999999998634
l55,55,999999970,86.39999999999937
r7,7,199999955,123.39999999999726
r12,12,199999982,179.3999999999941
l41,41,999999968,591.3000000000659
r34,34,199999999,899.600000000136
1354.7999999998633
l55,55,999999981,85.29999999999943
r7,7,199999960,122.89999999999729
r12,12,199999977,179.89999999999407
l41,41,999999999,588.2000000000652
r34,34,199999979,901.6000000001364
1354.8999999998632
l55,55,999999963,87.09999999999933
r7,7,199999952,123.69999999999725
r12,12,199999951,182.49999999999392
l41,41,999999961,592.000000000066
r34,34,199999965,903.0000000001368
1354.9999999998631
l55,55,999999977,85.6999999999994
r7,7,199999969,121.99999999999734
r12,12,199999967,180.899999999994
l41,41,999999986,589.5000000000655
r34,34,199999955,904.000000000137
1355.099999999863
l55,55,999999978,85.59999999999941
r7,7,199999991,119.79999999999747
r12,12,199999953,182.29999999999393
l41,41,999999985,589.6000000000655
r34,34,199999958,903.7000000001369
1355.199999999863
l55,55,999999974,85.99999999999939
r7,7,199999966,122.29999999999733
r12,12,199999961,181.49999999999397
l41,41,999999975,590.6000000000657
r34,34,199999977,901.8000000001365
1355.2999999998628
l55,55,999999951,88.29999999999926
r7,7,199999996,119.2999999999975
r12,12,199999998,177.79999999999418
l41,41,999999995,588.6000000000653
r34,34,199999966,902.9000000001367
1355.3999999998628
l55,55,999999973,86.09999999999938
r7,7,199999967,122.19999999999733
r12,12,199999992,178.39999999999415
l41,41,999999963,591.800000000066
r34,34,199999954,904.100000000137
1355.4999999998627
l55,55,999999989,84.49999999999947
r7,7,199999954,123.49999999999726
r12,12,199999984,179.1999999999941
l41,41,999999955,592.6000000000662
r34,34,199999963,903.2000000001368
1355.5999999998626
l55,55,999999993,84.0999999999995
r7,7,199999987,120.19999999999744
r12,12,199999978,179.79999999999407
l41,41,999999984,589.7000000000655
r34,34,199999989,900.6000000001362
1355.6999999998625
l55,55,1000000000,83.39999999999954
r7,7,199999964,122.49999999999731
r12,12,199999952,182.39999999999392
l41,41,999999951,593.0000000000663
r34,34,199999961,903.4000000001369
1355.7999999998624
l55,55,999999995,83.89999999999951
r7,7,199999976,121.29999999999738
r12,12,199999994,178.19999999999416
l41,41,999999977,590.4000000000657
r34,34,199999964,903.1000000001368
1355.8999999998623
l55,55,999999967,86.69999999999935
r7,7,199999951,123.79999999999724
r12,12,199999999,177.6999999999942
l41,41,999999972,590.9000000000658
r34,34,199999960,903.5000000001369
1355.9999999998622
l55,55,999999966,86.79999999999934
r7,7,199999994,119.49999999999748
r12,12,199999954,182.19999999999393
l41,41,999999993,588.8000000000653
r34,34,199999953,904.200000000137
1356.0999999998621
l55,55,999999988,84.59999999999947
r7,7,199999957,123.19999999999727
r12,12,199999996,177.99999999999417
l41,41,999999994,588.7000000000653
r34,34,199999981,901.4000000001364
1356.199999999862
