e69,69,1799999983,104.09999999999836
l62,62,999999958,195.0999999999932
l35,35,999999970,764.3000000001052
e92,92,1799999986,924.5000000001417
l48,48,999999974,1144.6000000000545
1575.3999999996627
e69,69,1799999967,105.69999999999827
l62,62,999999977,193.1999999999933
l35,35,999999977,763.6000000001051
e92,92,1799999973,925.800000000142
l48,48,999999971,1144.9000000000542
1575.4999999996626
e69,69,1799999963,106.09999999999825
l62,62,999999989,191.99999999999338
l35,35,999999984,762.9000000001049
e92,92,1799999976,925.5000000001419
l48,48,999999992,1142.8000000000561
1575.5999999996625
e69,69,1799999981,104.29999999999835
l62,62,1000000000,190.89999999999344
l35,35,999999990,762.3000000001048
e92,92,1799999968,926.3000000001421
l48,48,999999984,1143.6000000000554
1575.6999999996624
e69,69,1799999965,105.89999999999826
l62,62,999999979,192.99999999999332
l35,35,999999994,761.9000000001047
e92,92,1799999980,925.1000000001418
l48,48,999999991,1142.900000000056
1575.7999999996623
e69,69,1799999992,103.19999999999841
l62,62,999999990,191.89999999999338
l35,35,999999986,762.7000000001049
e92,92,1799999982,924.9000000001417
l48,48,999999983,1143.7000000000553
1575.8999999996622
e69,69,1799999968,105.59999999999827
l62,62,999999968,194.09999999999326
l35,35,999999985,762.8000000001049
e92,92,1799999978,925.3000000001418
l48,48,999999975,1144.5000000000546
1575.9999999996621
e69,69,1799999997,102.69999999999844
l62,62,999999996,191.29999999999342
l35,35,999999968,764.5000000001053
e92,92,1799999991,924.0000000001415
l48,48,999999996,1142.4000000000565
1576.099999999662
e69,69,1799999974,104.99999999999831
l62,62,999999959,194.9999999999932
l35,35,999999982,763.100000000105
e92,92,1799999996,923.5000000001414
l48,48,999999997,1142.3000000000566
1576.199999999662
e69,69,1799999960,106.39999999999823
l62,62,999999982,192.69999999999334
l35,35,999999973,764.0000000001052
e92,92,1799999998,923.3000000001414
l48,48,999999998,1142.2000000000567
1576.2999999996618
e69,69,1799999990,103.3999999999984
l62,62,999999951,195.79999999999316
l35,35,999999995,761.8000000001047
e92,92,1799999999,923.2000000001414
l48,48,999999972,1144.8000000000543
1576.3999999996618
e69,69,1799999996,102.79999999999843
l62,62,999999985,192.39999999999336
l35,35,999999998,761.5000000001046
e92,92,1799999993,923.8000000001415
l48,48,999999973,1144.7000000000544
1576.4999999996617
e69,69,1799999977,104.69999999999833
l62,62,999999965,194.39999999999324
l35,35,999999981,763.200000000105
e92,92,1799999971,926.000000000142
l48,48,999999980,1144.000000000055
1576.5999999996616
e69,69,1799999998,102.59999999999845
l62,62,999999961,194.79999999999322
l35,35,1000000000,761.3000000001045
e92,92,1799999989,924.2000000001416
l48,48,999999987,1143.3000000000557
1576.6999999996615
e69,69,1799999982,104.19999999999835
l62,62,999999955,195.39999999999318
l35,35,999999969,764.4000000001053
e92,92,1799999970,926.100000000142
l48,48,999999990,1143.000000000056
1576.7999999996614
e69,69,1799999961,106.29999999999824
l62,62,999999972,193.69999999999328
l35,35,999999993,762.0000000001047
e92,92,1799999992,923.9000000001415
l48,48,999999995,1142.5000000000564
1576.8999999996613
e69,69,1799999954,106.9999999999982
l62,62,999999974,193.4999999999933
l35,35,999999983,763.0000000001049
e92,92,1799999994,923.7000000001415
l48,48,999999970,1145.0000000000541
1576.9999999996612
e69,69,1799999975,104.89999999999831
l62,62,999999960,194.8999999999932
l35,35,999999997,761.6000000001046
e92,92,1799999975,925.6000000001419
l48,48,999999982,1143.8000000000552
1577.0999999996611
e69,69,1799999989,103.4999999999984
l62,62,999999986,192.29999999999336
l35,35,999999988,762.5000000001048
e92,92,1799999983,924.8000000001417
l48,48,999999977,1144.3000000000548
1577.199999999661
e69,69,1799999951,107.29999999999818
l62,62,999999998,191.09999999999343
l35,35,999999989,762.4000000001048
e92,92,1799999990,924.1000000001416
l48,48,999999989,1143.1000000000558
1577.299999999661
e69,69,1799999984,103.99999999999837
l62,62,999999975,193.3999999999933
l35,35,999999971,764.2000000001052
e92,92,1799999979,925.2000000001418
l48,48,1000000000,1142.0000000000568
1577.3999999996608
e69,69,1799999993,103.09999999999842
l62,62,999999976,193.2999999999933
l35,35,999999980,763.300000000105
e92,92,1799999995,923.6000000001414
l48,48,999999999,1142.1000000000568
1577.4999999996608
e69,69,1800000000,102.39999999999846
l62,62,999999984,192.49999999999335
l35,35,999999976,763.7000000001051
e92,92,1800000000,923.1000000001413
l48,48,999999969,1145.100000000054
1577.5999999996607
e69,69,1799999985,103.89999999999837
l62,62,999999952,195.69999999999317
l35,35,999999996,761.7000000001046
e92,92,1799999969,926.200000000142
l48,48,999999988,1143.2000000000558
1577.6999999996606
e69,69,1799999966,105.79999999999826
l62,62,999999971,193.79999999999328
l35,35,999999987,762.6000000001048
e92,92,1799999987,924.4000000001416
l48,48,999999979,1144.100000000055
1577.7999999996605
e69,69,1799999972,105.1999999999983
l62,62,999999973,193.5999999999933
l35,35,999999975,763.8000000001051
e92,92,1799999985,924.6000000001417
l48,48,999999978,1144.2000000000548
1577.8999999996604
e69,69,1799999952,107.19999999999818
l62,62,999999987,192.19999999999337
l35,35,999999991,762.2000000001048
e92,92,1799999977,925.4000000001419
l48,48,999999994,1142.6000000000563
1577.9999999996603
e69,69,1799999970,105.39999999999829
l62,62,999999953,195.59999999999317
l35,35,999999992,762.1000000001047
e92,92,1799999974,925.7000000001419
l48,48,999999968,1145.200000000054
1578.0999999996602
e69,69,1799999959,106.49999999999822
l62,62,999999988,192.09999999999337
l35,35,999999978,763.500000000105
e92,92,1799999997,923.4000000001414
l48,48,999999981,1143.9000000000551
1578.1999999996601
e69,69,1799999962,106.19999999999824
l62,62,999999970,193.89999999999327
l35,35,999999999,761.4000000001046
e92,92,1799999988,924.3000000001416
l48,48,999999985,1143.5000000000555
1578.29999999966
e69,69,1799999956,106.7999999999982
l62,62,999999963,194.59999999999323
l35,35,999999972,764.1000000001052
e92,92,1799999984,924.7000000001417
l48,48,999999976,1144.4000000000547
1578.39999999966
e69,69,1799999964,105.99999999999825
l62,62,999999964,194.49999999999324
l35,35,999999974,763.9000000001051
e92,92,1799999981,925.0000000001418
l48,48,999999986,1143.4000000000556
1578.4999999996598
e69,69,1799999971,105.29999999999829
l62,62,999999983,192.59999999999334
l35,35,999999979,763.400000000105
e92,92,1799999972,925.900000000142
l48,48,999999993,1142.7000000000562
1578.5999999996598
e69,69,1799999988,103.59999999999839
e98,98,1799999965,532.5000000000525
r13,13,199999966,1059.0000000001323
r3,3,199999951,1436.1999999997893
e89,89,1799999985,1602.9999999996376
1968.699999999305
e69,69,1799999979,104.49999999999834
e98,98,1799999986,530.400000000052
r13,13,199999986,1057.0000000001342
r3,3,199999955,1435.7999999997896
e89,89,1799999986,1602.8999999996377
1968.7999999993049
e69,69,1799999987,103.69999999999838
e98,98,1799999966,532.4000000000525
r13,13,199999974,1058.200000000133
r3,3,199999975,1433.7999999997915
e89,89,1799999978,1603.699999999637
1968.8999999993048
e69,69,1799999958,106.59999999999822
e98,98,1799999994,529.6000000000519
r13,13,199999952,1060.400000000131
r3,3,199999971,1434.199999999791
e89,89,1799999989,1602.599999999638
1968.9999999993047
e69,69,1799999999,102.49999999999845
e98,98,1799999988,530.200000000052
r13,13,199999959,1059.7000000001317
r3,3,199999976,1433.6999999997915
e89,89,1799999995,1601.9999999996385
1969.0999999993046
e69,69,1799999957,106.69999999999821
e98,98,1799999963,532.7000000000526
r13,13,199999993,1056.3000000001348
r3,3,199999998,1431.4999999997935
e89,89,1799999984,1603.0999999996375
1969.1999999993045
e69,69,1799999953,107.09999999999819
e98,98,1799999957,533.3000000000527
r13,13,199999969,1058.7000000001326
r3,3,199999993,1431.999999999793
e89,89,1799999994,1602.0999999996384
1969.2999999993044
e69,69,1799999995,102.89999999999843
e98,98,1799999982,530.8000000000521
r13,13,199999983,1057.3000000001339
r3,3,199999982,1433.099999999792
e89,89,1799999990,1602.499999999638
1969.3999999993043
e69,69,1799999973,105.0999999999983
e98,98,1799999981,530.9000000000522
r13,13,199999998,1055.8000000001352
r3,3,199999996,1431.6999999997934
e89,89,1799999988,1602.6999999996378
1969.4999999993042
e69,69,1799999978,104.59999999999833
e98,98,1799999971,531.9000000000524
r13,13,199999956,1060.0000000001314
r3,3,199999978,1433.4999999997917
e89,89,1799999979,1603.599999999637
1969.5999999993041
e69,69,1799999955,106.8999999999982
e98,98,1799999987,530.300000000052
r13,13,199999964,1059.2000000001321
r3,3,200000000,1431.2999999997937
e89,89,1799999983,1603.1999999996374
1969.699999999304
e69,69,1799999976,104.79999999999832
e98,98,1799999962,532.8000000000526
r13,13,199999980,1057.6000000001336
r3,3,199999953,1435.9999999997895
e89,89,1799999981,1603.3999999996372
1969.799999999304
l43,43,999999965,946.4000000001466
r5,5,199999994,1119.5000000000773
l35,35,999999955,1148.9000000000506
r9,9,199999969,1263.0999999999467
1981.9999999992929
l43,43,999999968,946.1000000001466
r5,5,199999956,1123.3000000000739
l35,35,999999967,1147.7000000000517
r9,9,200000000,1259.9999999999495
1982.0999999992928
l43,43,999999953,947.6000000001469
r5,5,199999986,1120.3000000000766
l35,35,999999961,1148.300000000051
r9,9,199999951,1264.899999999945
1982.1999999992927
l43,43,999999963,946.6000000001467
r5,5,199999999,1119.0000000000778
l35,35,999999963,1148.1000000000513
r9,9,199999990,1260.9999999999486
1982.2999999992926
l43,43,999999980,944.9000000001463
r5,5,199999967,1122.2000000000749
l35,35,999999959,1148.500000000051
r9,9,199999957,1264.2999999999456
1982.3999999992925
