3999999
6060604
3999999
3999999
2147483647
3999999
19999999
3999999
3999999
3999999
16666662
3999999
3999999
3999999
3999999
3999999
3999999
3999999
19999999
35999999
3999999
19999999
3999999
3999999
19999999
