l50,50,999999977,322.4000000000048
e70,70,1799999979,734.7000000000985
r18,18,199999998,857.9000000001265
1230.6999999999762
l50,50,999999966,323.50000000000506
e70,70,1799999998,732.8000000000981
r18,18,199999953,862.4000000001275
1230.799999999976
l50,50,999999978,322.3000000000048
e70,70,1799999991,733.5000000000982
r18,18,199999985,859.2000000001268
1230.899999999976
l50,50,999999964,323.7000000000051
e70,70,1799999966,736.0000000000988
r18,18,199999995,858.2000000001266
1230.999999999976
l50,50,999999997,320.40000000000435
e70,70,1799999955,737.100000000099
r18,18,199999955,862.2000000001275
1231.0999999999758
l50,50,999999989,321.20000000000454
e70,70,1799999958,736.800000000099
r18,18,199999965,861.2000000001273
1231.1999999999757
l50,50,999999955,324.6000000000053
e70,70,1799999995,733.1000000000981
r18,18,199999981,859.6000000001269
1231.2999999999756
l50,50,999999986,321.5000000000046
e70,70,1799999974,735.2000000000986
r18,18,199999972,860.5000000001271
1231.3999999999755
l50,50,999999960,324.1000000000052
e70,70,1799999954,737.2000000000991
r18,18,199999954,862.3000000001275
1231.4999999999754
l50,50,999999965,323.6000000000051
e70,70,1799999968,735.8000000000987
r18,18,199999982,859.5000000001269
1231.5999999999754
l50,50,1000000000,320.1000000000043
e70,70,1799999977,734.9000000000985
r18,18,199999969,860.8000000001272
1231.6999999999753
l50,50,999999962,323.90000000000515
e70,70,1799999994,733.2000000000982
r18,18,199999989,858.8000000001267
1231.7999999999752
l50,50,999999972,322.9000000000049
e70,70,1799999987,733.9000000000983
r18,18,199999979,859.8000000001269
1231.899999999975
l50,50,999999961,324.0000000000052
e70,70,1800000000,732.600000000098
r18,18,199999960,861.7000000001274
1231.999999999975
l50,50,999999991,321.0000000000045
e70,70,1799999997,732.9000000000981
r18,18,199999993,858.4000000001266
1232.099999999975
l50,50,999999973,322.8000000000049
e70,70,1799999957,736.900000000099
r18,18,199999975,860.200000000127
1232.1999999999748
l50,50,999999981,322.0000000000047
e70,70,1799999967,735.9000000000988
r18,18,199999964,861.3000000001273
1232.2999999999747
l50,50,999999994,320.7000000000044
e70,70,1799999971,735.5000000000987
r18,18,199999959,861.8000000001274
1232.3999999999746
l50,50,999999953,324.80000000000535
e70,70,1799999989,733.7000000000983
r18,18,199999997,858.0000000001265
1232.4999999999745
l50,50,999999952,324.9000000000054
e70,70,1799999953,737.3000000000991
r18,18,199999968,860.9000000001272
1232.5999999999744
l50,50,999999967,323.40000000000504
e70,70,1799999996,733.0000000000981
r18,18,199999988,858.9000000001267
1232.6999999999744
l50,50,999999954,324.70000000000533
e70,70,1799999973,735.3000000000986
r18,18,199999957,862.0000000001274
1232.7999999999743
l50,50,999999957,324.40000000000526
e70,70,1799999990,733.6000000000982
r18,18,199999987,859.0000000001268
1232.8999999999742
l50,50,999999999,320.2000000000043
e70,70,1799999982,734.4000000000984
r18,18,199999992,858.5000000001266
1232.999999999974
l50,50,999999990,321.1000000000045
e70,70,1799999962,736.4000000000989
r18,18,199999974,860.300000000127
1233.099999999974
l50,50,999999995,320.6000000000044
e70,70,1799999981,734.5000000000985
r18,18,199999962,861.5000000001273
1233.199999999974
l50,50,999999975,322.60000000000485
e70,70,1799999963,736.3000000000989
r18,18,199999990,858.7000000001267
1233.2999999999738
l50,50,999999992,320.90000000000447
e70,70,1799999961,736.5000000000989
r18,18,199999980,859.7000000001269
1233.3999999999737
l50,50,999999976,322.50000000000483
e70,70,1799999956,737.000000000099
r18,18,199999986,859.1000000001268
1233.4999999999736
l50,50,999999970,323.10000000000497
e70,70,1799999960,736.6000000000989
r18,18,199999977,860.000000000127
1233.5999999999735
l50,50,999999959,324.2000000000052
e70,70,1799999999,732.700000000098
r18,18,199999991,858.6000000001267
1233.6999999999734
l50,50,999999993,320.80000000000445
e70,70,1799999992,733.4000000000982
r18,18,200000000,857.7000000001265
1233.7999999999734
l50,50,999999956,324.5000000000053
e70,70,1799999984,734.2000000000984
r18,18,199999966,861.1000000001272
1233.8999999999733
l50,50,999999998,320.30000000000433
e70,70,1799999964,736.2000000000988
r18,18,199999963,861.4000000001273
1233.9999999999732
l50,50,999999979,322.20000000000476
e70,70,1799999986,734.0000000000983
r18,18,199999952,862.5000000001276
1234.099999999973
l50,50,999999987,321.4000000000046
e70,70,1799999985,734.1000000000984
r18,18,199999956,862.1000000001275
1234.199999999973
l50,50,999999968,323.300000000005
e70,70,1799999951,737.5000000000991
r18,18,199999976,860.100000000127
1234.299999999973
l50,50,999999984,321.70000000000465
e70,70,1799999952,737.4000000000991
r18,18,199999999,857.8000000001265
1234.3999999999728
l50,50,999999963,323.8000000000051
e70,70,1799999965,736.1000000000988
r18,18,199999994,858.3000000001266
1234.4999999999727
l50,50,999999985,321.6000000000046
e70,70,1799999969,735.7000000000987
r18,18,199999951,862.6000000001276
1234.5999999999726
l50,50,999999983,321.8000000000047
e70,70,1799999978,734.8000000000985
r18,18,199999971,860.6000000001271
1234.6999999999725
l50,50,999999969,323.200000000005
e70,70,1799999988,733.8000000000983
r18,18,199999970,860.7000000001271
1234.7999999999724
l50,50,999999988,321.30000000000456
e70,70,1799999975,735.1000000000986
r18,18,199999958,861.9000000001274
1234.8999999999724
l50,50,999999982,321.9000000000047
e70,70,1799999980,734.6000000000985
r18,18,199999978,859.900000000127
1234.9999999999723
l50,50,999999951,325.0000000000054
e70,70,1799999993,733.3000000000982
r18,18,199999961,861.6000000001274
1235.0999999999722
l50,50,999999971,323.00000000000495
e70,70,1799999959,736.700000000099
r18,18,199999996,858.1000000001266
1235.199999999972
l50,50,999999980,322.10000000000474
e70,70,1799999976,735.0000000000986
r18,18,199999983,859.4000000001269
1235.299999999972
l50,50,999999996,320.5000000000044
e70,70,1799999983,734.3000000000984
r18,18,199999967,861.0000000001272
1235.399999999972
l50,50,999999958,324.30000000000524
e70,70,1799999972,735.4000000000987
r18,18,199999973,860.4000000001271
1235.4999999999718
l50,50,999999974,322.7000000000049
e70,70,1799999970,735.6000000000987
r18,18,199999984,859.3000000001268
1235.5999999999717
