e87,87,1799999976,315.50000000000324
l39,39,999999996,515.9000000000487
e72,72,1799999972,880.6000000001317
l54,54,999999961,914.0000000001393
1025.400000000163
e87,87,1799999991,314.0000000000029
l39,39,999999967,518.8000000000494
e72,72,1799999964,881.4000000001319
l54,54,999999972,912.900000000139
1025.5000000001628
e87,87,1799999972,315.90000000000333
l39,39,999999954,520.1000000000497
e72,72,1799999952,882.6000000001321
l54,54,999999964,913.7000000001392
1025.6000000001627
e87,87,1799999982,314.9000000000031
l39,39,999999987,516.800000000049
e72,72,1799999965,881.3000000001318
l54,54,999999979,912.2000000001389
1025.7000000001626
e87,87,1799999953,317.80000000000376
l39,39,999999960,519.5000000000496
e72,72,1799999998,878.0000000001311
l54,54,999999952,914.9000000001395
1025.8000000001625
e87,87,1799999962,316.90000000000356
l39,39,999999982,517.3000000000491
e72,72,1799999969,880.9000000001317
l54,54,999999976,912.5000000001389
1025.9000000001624
e87,87,1799999952,317.9000000000038
l39,39,999999979,517.6000000000491
e72,72,1799999990,878.8000000001313
l54,54,999999955,914.6000000001394
1026.0000000001623
e87,87,1799999955,317.6000000000037
l39,39,999999981,517.4000000000491
e72,72,1799999979,879.9000000001315
l54,54,999999997,910.4000000001384
1026.1000000001623
e87,87,1799999973,315.8000000000033
l39,39,999999951,520.4000000000498
e72,72,1799999961,881.7000000001319
l54,54,999999956,914.5000000001394
1026.2000000001622
e87,87,1799999989,314.20000000000294
l39,39,999999984,517.100000000049
e72,72,1799999992,878.6000000001312
l54,54,999999970,913.1000000001391
1026.300000000162
e87,87,1799999970,316.1000000000034
l39,39,999999993,516.2000000000488
e72,72,1799999960,881.800000000132
l54,54,999999987,911.4000000001387
1026.400000000162
e87,87,1799999966,316.50000000000347
l39,39,1000000000,515.5000000000487
e72,72,1799999991,878.7000000001312
l54,54,999999988,911.3000000001387
1026.500000000162
e87,87,1799999971,316.00000000000335
l39,39,999999977,517.8000000000492
e72,72,1799999976,880.2000000001316
l54,54,999999984,911.7000000001387
1026.6000000001618
e87,87,1799999977,315.4000000000032
l39,39,999999952,520.3000000000497
e72,72,1799999968,881.0000000001318
l54,54,999999966,913.5000000001392
1026.7000000001617
e87,87,1799999997,313.40000000000276
l39,39,999999983,517.200000000049
e72,72,1799999957,882.100000000132
l54,54,999999986,911.5000000001387
1026.8000000001616
e87,87,1799999990,314.1000000000029
l39,39,999999973,518.2000000000493
e72,72,1799999958,882.000000000132
l54,54,999999999,910.2000000001384
1026.9000000001615
e87,87,1799999994,313.70000000000283
l39,39,999999969,518.6000000000494
e72,72,1799999970,880.8000000001317
l54,54,999999971,913.000000000139
1027.0000000001614
e87,87,1799999969,316.2000000000034
l39,39,999999994,516.1000000000488
e72,72,1799999987,879.1000000001313
l54,54,999999990,911.1000000001386
1027.1000000001613
e87,87,1799999951,318.0000000000038
l39,39,999999975,518.0000000000492
e72,72,1799999999,877.9000000001311
l54,54,999999994,910.7000000001385
1027.2000000001613
e87,87,1799999983,314.8000000000031
l39,39,999999999,515.6000000000487
e72,72,1799999962,881.6000000001319
l54,54,999999954,914.7000000001394
1027.3000000001612
e87,87,1799999992,313.9000000000029
l39,39,999999964,519.1000000000495
e72,72,1799999995,878.3000000001311
l54,54,999999962,913.9000000001392
1027.400000000161
e87,87,1800000000,313.1000000000027
l39,39,999999978,517.7000000000492
e72,72,1799999989,878.9000000001313
l54,54,999999983,911.8000000001388
1027.500000000161
e87,87,1799999979,315.2000000000032
l39,39,999999966,518.9000000000494
e72,72,1799999954,882.4000000001321
l54,54,999999968,913.3000000001391
1027.600000000161
e87,87,1799999978,315.3000000000032
l39,39,999999991,516.4000000000489
e72,72,1799999975,880.3000000001316
l54,54,999999969,913.2000000001391
1027.7000000001608
e87,87,1799999996,313.5000000000028
l39,39,999999992,516.3000000000488
e72,72,1799999982,879.6000000001314
l54,54,999999989,911.2000000001386
1027.8000000001607
e87,87,1799999954,317.70000000000374
l39,39,999999985,517.000000000049
e72,72,1799999978,880.0000000001315
l54,54,999999953,914.8000000001394
1027.9000000001606
e87,87,1799999980,315.10000000000315
l39,39,999999974,518.1000000000492
e72,72,1799999951,882.7000000001321
l54,54,999999998,910.3000000001384
1028.0000000001605
e87,87,1799999975,315.60000000000326
l39,39,999999998,515.7000000000487
e72,72,1799999994,878.4000000001312
l54,54,999999959,914.2000000001393
1028.1000000001604
e87,87,1799999988,314.30000000000297
l39,39,999999986,516.900000000049
e72,72,1799999953,882.5000000001321
l54,54,999999977,912.4000000001389
1028.2000000001603
e87,87,1799999956,317.5000000000037
l39,39,999999957,519.8000000000496
e72,72,1799999959,881.900000000132
l54,54,999999981,912.0000000001388
1028.3000000001603
e87,87,1799999964,316.7000000000035
l39,39,999999961,519.4000000000495
e72,72,1799999971,880.7000000001317
l54,54,999999995,910.6000000001385
1028.4000000001602
e87,87,1799999958,317.30000000000365
l39,39,999999963,519.2000000000495
e72,72,1799999988,879.0000000001313
l54,54,999999980,912.1000000001388
1028.50000000016
e87,87,1799999981,315.0000000000031
l39,39,999999970,518.5000000000493
e72,72,1799999963,881.5000000001319
l54,54,999999992,910.9000000001386
1028.60000000016
e87,87,1799999987,314.400000000003
l39,39,999999968,518.7000000000494
e72,72,1799999985,879.3000000001314
l54,54,1000000000,910.1000000001384
1028.70000000016
e87,87,1799999959,317.2000000000036
l39,39,999999956,519.9000000000497
e72,72,1799999955,882.3000000001321
l54,54,999999974,912.700000000139
1028.8000000001598
e87,87,1799999960,317.1000000000036
l39,39,999999990,516.5000000000489
e72,72,1799999984,879.4000000001314
l54,54,999999965,913.6000000001392
1028.9000000001597
e87,87,1799999965,316.6000000000035
l39,39,999999972,518.3000000000493
e72,72,1799999967,881.1000000001318
l54,54,999999978,912.3000000001389
1029.0000000001596
e87,87,1799999957,317.4000000000037
l39,39,999999965,519.0000000000495
e72,72,1799999993,878.5000000001312
l54,54,999999982,911.9000000001388
1029.1000000001595
e87,87,1799999993,313.80000000000285
l39,39,999999958,519.7000000000496
e72,72,1799999977,880.1000000001316
l54,54,999999967,913.4000000001391
1029.2000000001594
e87,87,1799999998,313.30000000000274
l39,39,999999997,515.8000000000487
e72,72,1799999966,881.2000000001318
l54,54,999999996,910.5000000001385
1029.3000000001593
e87,87,1799999968,316.3000000000034
l39,39,999999953,520.2000000000497
e72,72,1799999996,878.2000000001311
l54,54,999999951,915.0000000001395
1029.4000000001593
e87,87,1799999995,313.6000000000028
l39,39,999999962,519.3000000000495
e72,72,1799999980,879.8000000001315
l54,54,999999963,913.8000000001392
1029.5000000001592
e87,87,1799999985,314.60000000000304
l39,39,999999971,518.4000000000493
e72,72,1799999983,879.5000000001314
l54,54,999999957,914.4000000001394
1029.600000000159
e87,87,1799999999,313.2000000000027
l39,39,999999959,519.6000000000496
e72,72,1799999974,880.4000000001316
l54,54,999999973,912.800000000139
1029.700000000159
e87,87,1799999963,316.80000000000354
l39,39,999999955,520.0000000000497
e72,72,1799999956,882.200000000132
l54,54,999999958,914.3000000001393
1029.800000000159
e87,87,1799999961,317.0000000000036
l39,39,999999989,516.6000000000489
e72,72,1799999973,880.5000000001316
l54,54,999999960,914.1000000001393
1029.9000000001588
e87,87,1799999986,314.500000000003
l39,39,999999988,516.7000000000489
e72,72,1799999997,878.1000000001311
l54,54,999999975,912.600000000139
1030.0000000001587
e87,87,1799999967,316.40000000000344
l39,39,999999980,517.5000000000491
e72,72,1799999981,879.7000000001315
l54,54,999999991,911.0000000001386
1030.1000000001586
e87,87,1799999974,315.7000000000033
l39,39,999999995,516.0000000000488
e72,72,1799999986,879.2000000001314
l54,54,999999993,910.8000000001385
1030.2000000001585
e87,87,1799999984,314.70000000000306
l39,39,999999976,517.9000000000492
e72,72,1800000000,877.800000000131
l54,54,999999985,911.6000000001387
1030.3000000001584
