l45,45,999999974,319.7000000000042
1718.7999999995322
l45,45,999999989,318.20000000000385
1718.8999999995322
l45,45,999999953,321.8000000000047
1718.999999999532
l45,45,999999962,320.90000000000447
1719.099999999532
l45,45,999999973,319.8000000000042
1719.1999999995319
l45,45,999999972,319.90000000000424
1719.2999999995318
l45,45,999999967,320.40000000000435
1719.3999999995317
l45,45,999999988,318.3000000000039
1719.4999999995316
l45,45,999999995,317.6000000000037
1719.5999999995315
l45,45,999999997,317.4000000000037
1719.6999999995314
l45,45,999999951,322.0000000000047
1719.7999999995313
l45,45,999999975,319.6000000000042
1719.8999999995312
l45,45,1000000000,317.1000000000036
1719.9999999995312
l45,45,999999970,320.1000000000043
1720.099999999531
l45,45,999999965,320.6000000000044
1720.199999999531
l45,45,999999964,320.7000000000044
1720.2999999995309
l45,45,999999991,318.0000000000038
1720.3999999995308
l45,45,999999968,320.30000000000433
1720.4999999995307
l45,45,999999957,321.4000000000046
1720.5999999995306
l45,45,999999999,317.2000000000036
1720.6999999995305
l45,45,999999952,321.9000000000047
1720.7999999995304
l45,45,999999992,317.9000000000038
1720.8999999995303
l45,45,999999987,318.4000000000039
1720.9999999995302
l45,45,999999966,320.5000000000044
1721.0999999995302
l45,45,999999971,320.00000000000426
1721.19999999953
l45,45,999999993,317.80000000000376
1721.29999999953
l45,45,999999990,318.10000000000383
1721.3999999995299
l45,45,999999976,319.50000000000415
1721.4999999995298
l45,45,999999980,319.10000000000406
1721.5999999995297
l45,45,999999961,321.0000000000045
1721.6999999995296
l45,45,999999979,319.2000000000041
1721.7999999995295
l45,45,999999981,319.00000000000404
1721.8999999995294
l45,45,999999977,319.4000000000041
1721.9999999995293
l45,45,999999996,317.5000000000037
1722.0999999995292
l45,45,999999984,318.70000000000397
1722.1999999995292
l45,45,999999985,318.60000000000394
1722.299999999529
l45,45,999999982,318.900000000004
1722.399999999529
l45,45,999999954,321.70000000000465
1722.4999999995289
l45,45,999999963,320.80000000000445
1722.5999999995288
l45,45,999999958,321.30000000000456
1722.6999999995287
l45,45,999999969,320.2000000000043
1722.7999999995286
l45,45,999999956,321.5000000000046
1722.8999999995285
l45,45,999999959,321.20000000000454
1722.9999999995284
l45,45,999999998,317.30000000000365
1723.0999999995283
l45,45,999999994,317.70000000000374
1723.1999999995282
l45,45,999999986,318.5000000000039
1723.2999999995282
l45,45,999999978,319.3000000000041
1723.399999999528
l45,45,999999983,318.800000000004
1723.499999999528
l45,45,999999960,321.1000000000045
1723.5999999995279
l45,45,999999955,321.6000000000046
1723.6999999995278
