e101,101,1799999966,678.5000000000857
1900.0999999993674
e101,101,1799999990,676.1000000000852
1900.1999999993673
e101,101,1799999973,677.8000000000856
1900.2999999993672
e101,101,1799999989,676.2000000000852
1900.399999999367
e101,101,1799999971,678.0000000000856
1900.499999999367
e101,101,1799999968,678.3000000000857
1900.599999999367
e101,101,1799999963,678.8000000000858
1900.6999999993668
e101,101,1799999969,678.2000000000857
1900.7999999993667
e101,101,1799999979,677.2000000000854
1900.8999999993666
e101,101,1799999978,677.3000000000854
1900.9999999993665
e101,101,1799999960,679.1000000000859
1901.0999999993664
e101,101,1799999985,676.6000000000853
1901.1999999993664
e101,101,1799999964,678.7000000000858
1901.2999999993663
e101,101,1799999982,676.9000000000854
1901.3999999993662
e101,101,1799999993,675.8000000000851
1901.499999999366
e101,101,1799999954,679.700000000086
1901.599999999366
e101,101,1799999996,675.500000000085
1901.699999999366
e101,101,1799999986,676.5000000000853
1901.7999999993658
e101,101,1799999992,675.9000000000851
1901.8999999993657
e101,101,1799999956,679.500000000086
1901.9999999993656
e101,101,1799999972,677.9000000000856
1902.0999999993655
e101,101,1799999951,680.0000000000861
1902.1999999993654
e101,101,1799999955,679.600000000086
1902.2999999993654
e101,101,1799999998,675.300000000085
1902.3999999993653
e101,101,1799999991,676.0000000000852
1902.4999999993652
e101,101,1799999981,677.0000000000854
1902.599999999365
e101,101,1799999953,679.800000000086
1902.699999999365
e101,101,1799999995,675.6000000000851
1902.799999999365
e101,101,1799999962,678.9000000000858
1902.8999999993648
e101,101,1799999976,677.5000000000855
1902.9999999993647
e101,101,1799999970,678.1000000000856
1903.0999999993646
e101,101,1799999997,675.400000000085
1903.1999999993645
e101,101,1799999977,677.4000000000855
1903.2999999993644
e101,101,1799999958,679.3000000000859
1903.3999999993644
e101,101,1799999983,676.8000000000853
1903.4999999993643
e101,101,1799999952,679.900000000086
1903.5999999993642
e101,101,1799999988,676.3000000000852
1903.699999999364
e101,101,1799999987,676.4000000000852
1903.799999999364
e101,101,1799999957,679.4000000000859
1903.899999999364
e101,101,1799999984,676.7000000000853
1903.9999999993638
e101,101,1799999974,677.7000000000855
1904.0999999993637
e101,101,1799999980,677.1000000000854
1904.1999999993636
e101,101,1799999975,677.6000000000855
1904.2999999993635
e101,101,1799999967,678.4000000000857
1904.3999999993634
e101,101,1799999999,675.200000000085
1904.4999999993634
e101,101,1799999959,679.2000000000859
1904.5999999993633
e101,101,1799999961,679.0000000000858
1904.6999999993632
e101,101,1799999994,675.7000000000851
1904.799999999363
e101,101,1799999965,678.6000000000857
1904.899999999363
e101,101,1800000000,675.100000000085
1904.999999999363
