e89,89,1472999998,43366.49999964943
l67,67,666999957,43444.89999964829
e79,79,1469999955,43665.799999645074
r31,31,999977,44875.39999962747
1733.2999999747772
e89,89,1471999988,43367.599999649414
l67,67,670999971,43443.099999648315
e79,79,1469999961,43665.19999964508
r31,31,999981,44873.099999627506
1734.4999999747597
e89,89,1471999956,43370.79999964937
l67,67,674000000,43439.99999964836
e79,79,1474999991,43661.699999645134
r31,31,999989,44868.999999627566
1732.2999999747917
e89,89,1471999969,43369.499999649386
l67,67,670999982,43441.99999964833
e79,79,1471999970,43664.0999996451
r31,31,999986,44871.59999962753
1732.699999974786
e89,89,1472999997,43366.59999964943
l67,67,670999974,43442.79999964832
e73,73,1465999965,43588.099999646205
r20,20,999989,43652.19999964527
r11,11,999985,43981.099999640486
l49,49,665999998,44365.79999963489
r31,31,999996,44679.09999963033
1732.5999999747874
e89,89,1471999951,43371.29999964936
l67,67,668999960,43444.399999648296
e79,79,1471999971,43663.9999996451
r31,31,999982,44872.79999962751
1731.8999999747975
e89,89,1471999966,43369.79999964938
l67,67,673999992,43440.69999964835
e79,79,1477999998,43660.69999964515
r31,31,999987,44870.19999962755
1732.4999999747888
e89,89,1471999993,43367.09999964942
l67,67,670999979,43442.29999964833
e73,73,1465999964,43588.199999646204
r20,20,999978,43659.99999964516
r11,11,999989,43978.19999964053
l49,49,665999992,44366.39999963488
r31,31,999999,44677.69999963035
1733.6999999747713
e89,89,1471999960,43370.39999964937
l67,67,673999990,43440.89999964835
e79,79,1472999979,43663.099999645114
r31,31,999992,44867.79999962758
1733.999999974767
e89,89,1471999980,43368.3999996494
l67,67,671999983,43441.799999648334
e79,79,1469999952,43666.09999964507
r31,31,999993,44867.599999627586
1734.7999999747553
e89,89,1471999968,43369.599999649385
l67,67,668999962,43444.1999996483
e73,73,1463999952,43589.59999964618
r20,20,999979,43659.89999964516
r11,11,999991,43977.29999964054
l49,49,664999988,44366.89999963487
r31,31,999994,44682.899999630274
1733.5999999747728
e89,89,1471999975,43368.899999649395
l67,67,670999963,43443.8999996483
e79,79,1469999958,43665.49999964508
r31,31,999978,44875.199999627475
1736.399999974732
e89,89,1471999991,43367.29999964942
l67,67,666999951,43445.49999964828
e79,79,1474999986,43662.19999964513
r31,31,999988,44869.99999962755
1732.3999999747903
e89,89,1472999996,43366.69999964943
l67,67,670999973,43442.89999964832
e79,79,1472999972,43663.7999996451
r31,31,999990,44868.69999962757
1736.2999999747335
e89,89,1471999954,43370.999999649364
l67,67,670999981,43442.09999964833
e73,73,1467999978,43586.59999964623
r20,20,999977,43660.09999964516
r11,11,999982,43983.79999964045
l49,49,664999987,44366.99999963487
r31,31,999997,44678.49999963034
1735.9999999747379
e89,89,1471999964,43369.99999964938
l67,67,673999997,43440.19999964836
e73,73,1467999977,43586.699999646225
r20,20,999992,43650.1999996453
r11,11,999984,43982.499999640466
l49,49,665999991,44366.49999963488
r31,31,999995,44680.799999630304
1733.2999999747772
e89,89,1471999990,43367.39999964942
l67,67,666999955,43445.099999648286
e79,79,1470999966,43664.59999964509
r31,31,999985,44871.89999962752
1734.0999999747655
e89,89,1471999992,43367.19999964942
l67,67,670999975,43442.69999964832
e79,79,1474999984,43662.399999645124
r31,31,999980,44874.69999962748
1735.9999999747379
e89,89,1471999970,43369.39999964939
l67,67,670999969,43443.29999964831
e79,79,1469999956,43665.699999645076
r31,31,999984,44872.59999962751
1734.5999999747582
e89,89,1471999955,43370.899999649366
l67,67,671999986,43441.49999964834
e73,73,1471999996,43584.39999964626
r20,20,999987,43652.89999964526
r11,11,999993,43976.999999640546
l49,49,665999993,44366.29999963488
r31,31,1000000,44676.599999630365
1737.6999999747131
e89,89,1471999994,43366.99999964942
l67,67,673999991,43440.79999964835
e73,73,1471999995,43584.49999964626
r20,20,999988,43652.79999964526
r11,11,999990,43977.699999640536
l49,49,665999995,44366.099999634884
r31,31,999998,44677.89999963035
1733.09999997478
e89,89,1471999959,43370.49999964937
l67,67,670999967,43443.49999964831
e79,79,1470999963,43664.89999964509
r31,31,999991,44868.399999627574
1737.5999999747146
e89,89,1471999962,43370.199999649376
l67,67,670999968,43443.39999964831
e79,79,1476999995,43661.09999964514
r31,31,999979,44874.99999962748
1735.7999999747408
e89,89,1471999973,43369.09999964939
l67,67,668999961,43444.2999996483
e79,79,1472999975,43663.49999964511
r31,31,999983,44872.69999962751
1737.6999999747131
e89,89,1471999971,43369.29999964939
e70,70,1460999964,44364.699999634904
l59,59,668999968,45103.49999962415
l66,66,663999980,45559.09999961752
2409.499999964937
e89,89,1471999965,43369.89999964938
e70,70,1459999953,44365.89999963489
l59,59,664999957,45104.99999962413
l66,66,654999954,45562.59999961747
2409.3999999649386
e89,89,1471999981,43368.2999996494
e70,70,1461999989,44362.09999963494
l59,59,672999980,45101.89999962418
l66,66,662999979,45559.29999961752
2409.29999996494
e89,89,1472999999,43366.39999964943
e70,70,1461999967,44364.29999963491
l59,59,669999970,45103.19999962416
l66,66,661999968,45560.4999996175
2408.699999964949
e89,89,1471999967,43369.69999964938
e70,70,1461999969,44364.09999963491
l59,59,676999998,45099.69999962421
l66,66,654999955,45562.499999617474
2408.399999964953
e89,89,1471999961,43370.299999649375
e70,70,1461999986,44362.39999963494
l59,59,674999990,45100.699999624194
l66,66,665999997,45557.19999961755
2410.6999999649197
e89,89,1471999976,43368.799999649396
e70,70,1461999975,44363.49999963492
l59,59,667999967,45103.69999962415
l66,66,661999976,45559.699999617515
2412.0999999648993
e89,89,1472999995,43366.799999649425
e70,70,1461999971,44363.899999634916
l59,59,674999985,45101.19999962419
l66,66,661999977,45559.599999617516
2408.5999999649503
e89,89,1471999963,43370.09999964938
e70,70,1461999985,44362.499999634936
l59,59,669999971,45103.09999962416
l66,66,661999973,45559.99999961751
2410.899999964917
e89,89,1471999953,43371.09999964936
e70,70,1461999987,44362.29999963494
l59,59,672999979,45101.999999624175
l66,66,665999993,45557.599999617545
2411.3999999649095
e89,89,1471999987,43367.69999964941
e70,70,1461999979,44363.09999963493
l59,59,674999992,45100.4999996242
l66,66,663999982,45558.899999617526
2411.8999999649022
e89,89,1471999974,43368.99999964939
e70,70,1461999968,44364.19999963491
l59,59,674999986,45101.09999962419
l66,66,665999998,45557.09999961755
2412.199999964898
e89,89,1471999952,43371.19999964936
e70,70,1461999992,44361.799999634946
l59,59,676999996,45099.899999624206
l66,66,654999953,45562.69999961747
2411.7999999649037
e89,89,1471999979,43368.4999996494
e70,70,1461999999,44361.09999963496
l59,59,666999961,45104.39999962414
l66,66,663999988,45558.299999617535
2412.8999999648877
e89,89,1473000000,43366.29999964943
e70,70,1460999962,44364.8999996349
l59,59,664999952,45105.499999624124
l66,66,659999961,45561.39999961749
2412.6999999648906
e89,89,1471999978,43368.5999996494
e70,70,1459999955,44365.69999963489
l59,59,670999972,45102.89999962416
l66,66,661999969,45560.399999617504
2413.7999999648746
e89,89,1471999972,43369.19999964939
e70,70,1461999965,44364.49999963491
l59,59,664999955,45105.19999962413
l66,66,664999992,45557.79999961754
2410.2999999649255
e89,89,1471999957,43370.69999964937
e70,70,1461999983,44362.69999963493
l59,59,672999976,45102.29999962417
l66,66,664999991,45557.89999961754
2413.699999964876
e89,89,1471999983,43368.09999964941
e70,70,1462000000,44360.99999963496
l59,59,674999995,45100.1999996242
l66,66,661999974,45559.89999961751
2413.6999996167287
e89,89,1471999958,43370.59999964937
e70,70,1461999977,44363.299999634924
l59,59,666999965,45103.999999624146
l66,66,661999966,45560.6999996175
2411.699999964905
e89,89,1471999985,43367.89999964941
e70,70,1461999982,44362.79999963493
l59,59,666999963,45104.19999962414
l66,66,661999972,45560.09999961751
2409.6999999649342
e89,89,1471999989,43367.499999649415
e70,70,1461999980,44362.99999963493
l59,59,670999973,45102.79999962416
l66,66,655999957,45562.19999961748
2413.299999964882
e89,89,1471999986,43367.79999964941
e70,70,1461999978,44363.199999634926
l59,59,674999987,45100.99999962419
l66,66,654999951,45562.89999961747
2410.2999999649255
e89,89,1471999982,43368.199999649405
e70,70,1460999961,44364.9999996349
l59,59,666999964,45104.099999624144
l66,66,663999986,45558.49999961753
2412.6999999648906
e89,89,1471999984,43367.99999964941
e70,70,1460999959,44365.1999996349
l59,59,677999999,45099.49999962421
l66,66,665999995,45557.39999961755
2414.4999999648644
e89,89,1471999977,43368.6999996494
e70,70,1461999998,44361.199999634955
l59,59,672999983,45101.59999962418
l66,66,665999994,45557.49999961755
2412.399999964895
