e87,87,1467999970,44063.09999963929
l61,61,661999979,44786.499999628766
e96,96,1461999989,44915.59999962689
2897.9999999578285
e87,87,1466999952,44064.999999639265
l61,61,663999993,44784.89999962879
e96,96,1459999974,44917.29999962686
2897.19999995784
e87,87,1466999957,44064.49999963927
l61,61,664999999,44784.1999996288
e96,96,1460999987,44915.89999962688
2901.2999999577805
e87,87,1467999966,44063.49999963929
l61,61,662999987,44785.59999962878
e96,96,1461999991,44915.39999962689
2896.8999999578446
e87,87,1467999965,44063.599999639286
l61,61,661999977,44786.69999962876
e96,96,1459999951,44919.59999962683
2899.2999999578096
e87,87,1468999993,44060.69999963933
l61,61,661999965,44787.899999628746
e96,96,1459999971,44917.59999962686
2900.499999957792
e87,87,1468999995,44060.49999963933
l61,61,663999994,44784.79999962879
e96,96,1460999985,44916.09999962688
2897.499999957836
e87,87,1466999953,44064.89999963927
l61,61,661999963,44788.09999962874
e96,96,1461999999,44914.5999996269
2900.8999999577863
e87,87,1468999998,44060.199999639335
l61,61,661999960,44788.39999962874
e96,96,1460999976,44916.99999962687
2897.499999957836
e87,87,1467999976,44062.4999996393
l61,61,661999954,44788.99999962873
e96,96,1460999986,44915.99999962688
2900.6999999577893
e87,87,1468999985,44061.499999639316
l61,61,663999992,44784.99999962879
e96,96,1461999994,44915.099999626895
2901.899999957772
e87,87,1467999961,44063.99999963928
l61,61,662999986,44785.69999962878
e96,96,1459999960,44918.69999962684
2898.999999957814
e87,87,1468999999,44060.09999963934
l61,61,661999956,44788.79999962873
e96,96,1460999981,44916.499999626874
2898.8999999578155
e87,87,1467999972,44062.899999639296
l61,61,664999995,44784.599999628794
e96,96,1459999973,44917.39999962686
2900.8999999577863
e87,87,1468999979,44062.09999963931
l61,61,661999955,44788.89999962873
e96,96,1460999983,44916.29999962688
2902.099999957769
e87,87,1467999969,44063.19999963929
l61,61,663999989,44785.29999962878
e96,96,1459999967,44917.99999962685
2902.7999999577587
e87,87,1467999964,44063.699999639284
l61,61,663999990,44785.199999628785
e96,96,1461999993,44915.19999962689
2902.4999996096158
e87,87,1467999978,44062.299999639305
l61,61,661999969,44787.49999962875
e96,96,1461999995,44914.999999626896
2900.8999999577863
e87,87,1466999951,44065.099999639264
l61,61,665000000,44784.0999996288
e96,96,1459999961,44918.599999626844
2899.399999957808
e87,87,1468999982,44061.79999963931
l61,61,661999962,44788.19999962874
e96,96,1459999953,44919.39999962683
2899.399999957808
e87,87,1466999954,44064.79999963927
l61,61,660999952,44789.299999628725
e96,96,1460999978,44916.79999962687
2900.1999999577965
e87,87,1467999977,44062.3999996393
l61,61,661999980,44786.39999962877
e96,96,1461999998,44914.6999996269
2900.5999999577907
e87,87,1468999990,44060.99999963932
l61,61,664999997,44784.3999996288
e96,96,1459999957,44918.99999962684
2900.499999957792
e87,87,1468999992,44060.79999963933
l61,61,661999974,44786.99999962876
e96,96,1460999979,44916.69999962687
2902.1999999577674
e87,87,1467999975,44062.5999996393
l61,61,661999971,44787.299999628754
e96,96,1460999982,44916.399999626876
2902.999999957756
e87,87,1468999987,44061.29999963932
l61,61,661999976,44786.79999962876
e96,96,1460999984,44916.19999962688
2902.8999999577572
e87,87,1469000000,44059.99999963934
l61,61,661999973,44787.09999962876
e96,96,1459999959,44918.79999962684
2901.199999957782
e87,87,1468999984,44061.599999639315
l61,61,661999982,44786.19999962877
e96,96,1461999990,44915.49999962689
2901.4999999577776
e87,87,1467999968,44063.29999963929
l61,61,661999967,44787.69999962875
e96,96,1459999966,44918.09999962685
2899.9999999577994
e87,87,1466999958,44064.399999639274
l61,61,662999988,44785.49999962878
e96,96,1459999972,44917.49999962686
2903.199999957753
e87,87,1467999967,44063.39999963929
l61,61,660999951,44789.399999628724
e96,96,1459999954,44919.29999962683
2903.9999999577412
e87,87,1468999994,44060.59999963933
l61,61,664999998,44784.2999996288
e96,96,1459999969,44917.799999626855
2901.7999999577733
e87,87,1467999963,44063.79999963928
l61,61,661999978,44786.599999628765
e96,96,1461999996,44914.8999996269
2901.2999999577805
e87,87,1467999974,44062.6999996393
l61,61,661999968,44787.59999962875
e96,96,1459999956,44919.09999962684
2900.6999999577893
e87,87,1468999996,44060.39999963933
l61,61,661999964,44787.999999628744
e96,96,1459999958,44918.89999962684
2900.3999999577936
e87,87,1466999956,44064.59999963927
l61,61,662999985,44785.799999628776
e96,96,1459999964,44918.29999962685
2900.799999957788
e87,87,1467999960,44064.09999963928
l61,61,664999996,44784.499999628795
e96,96,1459999952,44919.49999962683
2900.3999999577936
e87,87,1467999962,44063.89999963928
l61,61,661999972,44787.199999628756
e96,96,1459999963,44918.39999962685
2902.099999957769
e87,87,1468999989,44061.09999963932
l61,61,661999961,44788.29999962874
e96,96,1459999965,44918.19999962685
2903.0999999577543
e87,87,1468999997,44060.299999639334
l61,61,661999975,44786.89999962876
e96,96,1460999980,44916.59999962687
2903.39999995775
e87,87,1467999971,44062.999999639294
l61,61,661999958,44788.599999628736
e96,96,1462000000,44914.4999996269
2902.999999957756
e87,87,1466999955,44064.69999963927
l61,61,662999984,44785.899999628775
e96,96,1461999997,44914.7999996269
2904.5999999577325
e87,87,1468999991,44060.899999639325
l61,61,661999957,44788.699999628734
e96,96,1459999962,44918.499999626845
2903.8999999577427
e87,87,1468999981,44061.89999963931
l61,61,661999966,44787.79999962875
e96,96,1460999988,44915.799999626885
2905.0999999577252
e87,87,1467999973,44062.7999996393
l61,61,663999991,44785.09999962879
e96,96,1460999975,44917.099999626866
2903.4999999577485
e87,87,1468999986,44061.39999963932
l61,61,661999981,44786.29999962877
e96,96,1459999955,44919.199999626835
2900.999999957785
e87,87,1468999980,44061.99999963931
l61,61,661999959,44788.49999962874
e96,96,1460999977,44916.89999962687
2902.3999999577645
e87,87,1466999959,44064.299999639275
l61,61,661999953,44789.09999962873
e96,96,1461999992,44915.29999962689
2904.09999995774
e87,87,1468999983,44061.69999963931
l61,61,661999970,44787.39999962875
e96,96,1459999970,44917.69999962686
2905.999999957712
e87,87,1468999988,44061.19999963932
l61,61,661999983,44786.09999962877
e96,96,1459999968,44917.899999626854
2904.9999999577267
