e85,85,1474999964,43941.69999964106
l36,36,667999959,43956.79999964084
l53,53,661999965,44295.299999635914
e73,73,1467999978,45408.89999961971
2453.0999999643027
e85,85,1479999982,43939.39999964109
l36,36,667999961,43956.59999964084
l53,53,665999979,44293.49999963594
e73,73,1483999995,45405.59999961976
2452.2999999643143
e85,85,1476999967,43941.19999964107
l36,36,667999960,43956.69999964084
l53,53,658999954,44296.69999963589
e73,73,1480999994,45405.99999961975
2450.399999964342
e85,85,1481999996,43937.799999641116
l36,36,670999990,43953.39999964089
l53,53,661999963,44295.49999963591
e73,73,1453999953,45412.79999961965
2449.699999964352
e85,85,1477999970,43940.79999964107
l36,36,666999957,43957.099999640835
l53,53,661999972,44294.599999635924
e73,73,1467999975,45409.199999619705
2450.4999999643405
e85,85,1474999960,43942.099999641054
l36,36,669999984,43954.09999964088
l53,53,667999997,44291.49999963597
e73,73,1467999977,45408.99999961971
2451.9999999643187
e85,85,1474999961,43941.999999641055
l36,36,669999981,43954.399999640875
l53,53,661999967,44295.09999963592
e73,73,1454999954,45412.599999619655
2452.6999999643085
e85,85,1474999962,43941.89999964106
l36,36,669999979,43954.59999964087
l53,53,667999999,44291.29999963597
e73,73,1458999962,45411.39999961967
2449.7999999643507
e85,85,1479999980,43939.59999964109
l36,36,669999987,43953.79999964088
l53,53,664999978,44293.69999963594
e73,73,1462999967,45410.499999619686
2451.7999999643216
e85,85,1478999972,43940.49999964108
l36,36,668999970,43955.59999964086
l53,53,663999976,44293.99999963593
e73,73,1457999956,45412.09999961966
2449.5999999643536
e85,85,1477999969,43940.89999964107
l36,36,670999993,43953.099999640894
l53,53,668000000,44291.199999635974
e73,73,1470999981,45408.29999961972
2454.1999999642867
e85,85,1470999954,43943.09999964104
l36,36,667999958,43956.89999964084
l53,53,658999952,44296.89999963589
e73,73,1452999952,45412.99999961965
2450.399999964342
e85,85,1481999992,43938.19999964111
l36,36,668999973,43955.29999964086
l53,53,667999993,44291.89999963596
e73,73,1458999959,45411.69999961967
2453.1999999643012
e85,85,1479999987,43938.8999996411
l36,36,669999986,43953.89999964088
l53,53,658999956,44296.4999996359
e73,73,1476999990,45406.79999961974
2451.89999996432
e85,85,1479999985,43939.0999996411
l36,36,665999954,43957.49999964083
l53,53,661999964,44295.39999963591
e73,73,1467999979,45408.79999961971
2451.89999996432
e85,85,1481999994,43937.99999964111
l36,36,670999996,43952.7999996409
l53,53,665999982,44293.199999635945
e73,73,1486999999,45404.89999961977
2453.899999964291
e85,85,1481999991,43938.29999964111
l36,36,670999995,43952.8999996409
l53,53,658999955,44296.599999635895
e73,73,1470999980,45408.399999619716
2452.4999999643114
e85,85,1475999965,43941.49999964106
l36,36,667999962,43956.499999640844
l53,53,661999969,44294.89999963592
e73,73,1464999970,45409.99999961969
2454.2999999642852
e85,85,1479999974,43940.19999964108
l36,36,670999999,43952.4999996409
l53,53,661999970,44294.79999963592
e73,73,1475999988,45407.099999619735
2450.799999964336
e85,85,1479999988,43938.7999996411
l36,36,669999980,43954.49999964087
l53,53,667999996,44291.59999963597
e73,73,1452999951,45413.09999961965
2453.499999964297
e85,85,1479999981,43939.49999964109
l36,36,668999968,43955.799999640854
l53,53,660999960,44295.899999635905
e73,73,1470999983,45408.09999961972
2453.0999999643027
e85,85,1483000000,43937.29999964112
l36,36,669999976,43954.89999964087
l53,53,662999973,44294.39999963593
e73,73,1458999963,45411.299999619674
2453.7999999642925
e85,85,1481999993,43938.09999964111
l36,36,669999982,43954.299999640876
l53,53,665999984,44292.99999963595
e73,73,1485999997,45405.19999961976
2454.999999964275
e85,85,1480999989,43938.599999641105
l36,36,670999992,43953.19999964089
l53,53,666999988,44292.499999635955
e73,73,1458999958,45411.79999961967
2454.599999964281
e85,85,1481999995,43937.899999641115
l36,36,670999994,43952.999999640895
l53,53,663999977,44293.899999635934
e73,73,1464999969,45410.09999961969
2451.9999999643187
e85,85,1479999984,43939.199999641096
l36,36,671000000,43952.399999640904
l53,53,667999994,44291.799999635965
e73,73,1484999996,45405.39999961976
2454.2999999642852
e85,85,1471999957,43942.699999641045
l36,36,668999972,43955.39999964086
l53,53,659999958,44296.1999996359
e73,73,1476999989,45406.89999961974
2455.599999616119
e85,85,1479999975,43940.09999964108
l36,36,665999953,43957.59999964083
l53,53,661999966,44295.199999635915
e73,73,1462999968,45410.39999961969
2456.099999964259
e85,85,1473999958,43942.39999964105
l36,36,670999991,43953.29999964089
l53,53,659999957,44296.2999996359
e73,73,1467999976,45409.099999619706
2452.2999999643143
e85,85,1478999973,43940.39999964108
l36,36,668999974,43955.19999964086
l53,53,665999986,44292.79999963595
e73,73,1473999987,45407.39999961973
2453.2999999643
e85,85,1473999959,43942.29999964105
l36,36,665999951,43957.799999640825
l53,53,658999951,44296.99999963589
e73,73,1470999982,45408.19999961972
2454.8999999642765
e85,85,1479999983,43939.299999641094
l36,36,669999977,43954.79999964087
l53,53,663999975,44294.09999963593
e73,73,1478999992,45406.399999619745
2451.89999996432
e85,85,1482999999,43937.39999964112
l36,36,669999975,43954.999999640866
l53,53,661999968,44294.99999963592
e73,73,1466999974,45409.3999996197
2451.7999999643216
e85,85,1479999978,43939.79999964109
l36,36,666999956,43957.199999640834
l53,53,665999981,44293.29999963594
e73,73,1462999966,45410.599999619684
2452.999999964304
e85,85,1480999990,43938.499999641106
l36,36,668999971,43955.49999964086
l53,53,667999989,44292.29999963596
e73,73,1458999961,45411.49999961967
2456.6999999642503
e85,85,1469999952,43943.399999641035
l36,36,669999989,43953.59999964089
l53,53,665999985,44292.89999963595
e73,73,1457999957,45411.999999619664
2453.499999964297
e85,85,1471999956,43942.79999964104
l36,36,670999998,43952.5999996409
l53,53,660999959,44295.999999635904
e73,73,1486999998,45404.999999619766
2456.099999964259
e85,85,1469999951,43943.49999964103
l36,36,670999997,43952.6999996409
l53,53,667999995,44291.69999963597
e73,73,1472999985,45407.69999961973
2456.6999999642503
e85,85,1477999971,43940.699999641074
l36,36,667999964,43956.29999964085
l53,53,667999990,44292.19999963596
e73,73,1460999965,45410.89999961968
2453.5999999642954
e85,85,1479999976,43939.999999641084
l36,36,669999978,43954.69999964087
l53,53,661999962,44295.59999963591
e73,73,1480999993,45406.09999961975
2455.2999999642707
e85,85,1475999966,43941.399999641064
l36,36,668999967,43955.89999964085
l53,53,665999983,44293.099999635946
e73,73,1464999971,45409.899999619694
2453.899999964291
e85,85,1479999986,43938.9999996411
l36,36,669999988,43953.699999640885
l53,53,667999992,44291.99999963596
e73,73,1487000000,45404.79999961977
2455.2999999642707
e85,85,1469999953,43943.299999641036
l36,36,669999985,43953.99999964088
l53,53,667999998,44291.39999963597
e73,73,1459999964,45411.09999961968
2455.4999999642678
e85,85,1479999977,43939.899999641086
l36,36,667999965,43956.19999964085
l53,53,661999971,44294.69999963592
e73,73,1465999972,45409.6999996197
2454.999999964275
e85,85,1477999968,43940.99999964107
l36,36,668999969,43955.699999640856
l53,53,662999974,44294.29999963593
e73,73,1458999960,45411.59999961967
2454.6999999642794
e85,85,1479999979,43939.69999964109
l36,36,667999966,43956.09999964085
l53,53,665999987,44292.69999963595
e73,73,1478999991,45406.499999619744
2453.3999999642983
e85,85,1481999998,43937.59999964112
l36,36,669999983,43954.19999964088
l53,53,665999980,44293.39999963594
e73,73,1457999955,45412.19999961966
2457.4999999642387
e85,85,1470999955,43942.99999964104
l36,36,665999955,43957.39999964083
l53,53,658999953,44296.79999963589
e73,73,1471999984,45407.89999961972
2453.899999964291
e85,85,1474999963,43941.79999964106
l36,36,665999952,43957.69999964083
l53,53,661999961,44295.69999963591
e73,73,1472999986,45407.59999961973
2457.4999999642387
e85,85,1481999997,43937.69999964112
l36,36,667999963,43956.399999640846
l53,53,667999991,44292.09999963596
e73,73,1466999973,45409.4999996197
2455.699999964265
