e81,81,1475999972,43301.09999965038
l40,40,673999961,43925.599999641294
l48,48,672999997,44043.39999963958
l39,39,675999974,44263.699999636374
l35,35,670999987,44700.39999963002
l51,51,663999970,45043.19999962503
e71,71,1450999968,46164.59999960871
3630.4999999471693
e81,81,1475999967,43301.599999650374
l40,40,674999977,43923.89999964132
l48,48,671999980,44045.19999963955
l39,39,679999995,44261.19999963641
l35,35,670999988,44700.29999963002
l51,51,665999987,45041.29999962506
e71,71,1459999997,46160.79999960877
3628.099999947204
e81,81,1475999985,43299.7999996504
e75,75,1472999969,44173.99999963768
l44,44,669999968,45241.59999962214
e85,85,1463999980,45388.99999962
l51,51,656999952,45628.59999961651
e71,71,1451999972,46164.09999960872
3630.4999999471693
e81,81,1475999981,43300.199999650395
l40,40,675999998,43921.69999964135
l48,48,669999962,44047.199999639524
l39,39,679999998,44260.899999636415
l35,35,666999957,44703.79999962997
l51,51,671999997,45039.69999962508
e71,71,1455999992,46161.699999608754
3629.7999999471795
e81,81,1473999953,43303.19999965035
l40,40,674999984,43923.19999964133
l48,48,666999951,44048.599999639504
l39,39,674999973,44263.89999963637
l35,35,670999994,44699.69999963003
l51,51,669999992,45040.39999962507
e71,71,1455999993,46161.599999608756
3630.099999947175
e81,81,1475999970,43301.29999965038
l40,40,675999992,43922.29999964134
l48,48,668999959,44047.59999963952
l39,39,679999996,44261.09999963641
l35,35,670999979,44701.19999963001
l51,51,664999977,45042.39999962504
e71,71,1454999987,46162.299999608746
3629.899999947178
e81,81,1475999991,43299.19999965041
l40,40,674999976,43923.99999964132
l48,48,668999956,44047.899999639514
l39,39,675999980,44263.09999963638
l35,35,666999956,44703.89999962997
l51,51,662999967,45043.599999625025
e71,71,1454999988,46162.19999960875
3632.8999999471343
e81,81,1475999969,43301.39999965038
l40,40,675999990,43922.49999964134
l48,48,670999969,44046.399999639536
l39,39,679999994,44261.29999963641
l35,35,671999998,44699.19999963004
l51,51,664999975,45042.59999962504
e71,71,1450999962,46165.1999996087
3631.2999999471576
e81,81,1475999975,43300.799999650386
l40,40,673999968,43924.899999641304
l48,48,672999988,44044.29999963957
l39,39,670999964,44265.19999963635
l35,35,670999977,44701.399999630004
l51,51,665999988,45041.19999962506
e71,71,1452999982,46162.999999608735
3630.3999999471707
e81,81,1476000000,43298.29999965042
l40,40,673999973,43924.39999964131
l48,48,671999976,44045.59999963955
l39,39,676999984,44262.59999963639
l35,35,672999999,44698.99999963004
l51,51,664999980,45042.09999962505
e71,71,1453999984,46162.69999960874
3633.0999999471314
e81,81,1475999978,43300.49999965039
l40,40,674999978,43923.79999964132
l48,48,671999975,44045.699999639546
l39,39,680000000,44260.69999963642
l35,35,670999971,44701.999999629996
l51,51,665999990,45040.99999962506
e71,71,1450999961,46165.2999996087
3631.0999999471605
e81,81,1475999971,43301.19999965038
e83,83,1469999967,43784.29999964335
e90,90,1461999965,44867.99999962758
e71,71,1449999951,46732.59999960045
3632.5999999471387
e81,81,1475999990,43299.29999965041
e83,83,1472999996,43781.0999996434
e90,90,1465999978,44866.299999627605
e71,71,1449999952,46732.49999960045
3628.999999947191
e81,81,1475999974,43300.899999650384
l40,40,673999960,43925.69999964129
l48,48,671999985,44044.69999963956
l39,39,670999962,44265.39999963635
l35,35,673000000,44698.89999963004
l51,51,664999976,45042.49999962504
e71,71,1459999999,46160.59999960877
3629.3999999471853
e81,81,1475999988,43299.499999650405
l40,40,672999952,43926.59999964128
l48,48,673000000,44043.099999639584
l39,39,675999976,44263.49999963638
l35,35,670999970,44702.099999629994
l51,51,661999956,45044.79999962501
e71,71,1452999981,46163.099999608734
3629.699999947181
e81,81,1475999966,43301.69999965037
l40,40,674999979,43923.69999964132
l48,48,672999999,44043.19999963958
l39,39,673999969,44264.399999636364
l35,35,670999981,44700.99999963001
l51,51,671999996,45039.79999962508
e71,71,1451999973,46163.99999960872
3632.8999999471343
e81,81,1473999954,43303.09999965035
l40,40,676000000,43921.49999964135
l48,48,672999991,44043.99999963957
l39,39,675999979,44263.19999963638
l35,35,670999984,44700.699999630015
l51,51,671999999,45039.499999625084
e71,71,1459999998,46160.69999960877
3631.399999947156
e81,81,1475999987,43299.5999996504
l40,40,673999966,43925.0999996413
l48,48,668999957,44047.799999639516
l39,39,670999959,44265.699999636345
l35,35,668999963,44702.99999962998
l51,51,661999958,45044.59999962501
e71,71,1451999975,46163.799999608724
3630.1999999471736
e81,81,1475999976,43300.69999965039
l40,40,672999957,43926.09999964129
l48,48,667999952,44048.39999963951
l39,39,671999965,44264.999999636355
l35,35,670999965,44702.59999962999
l51,51,661999960,45044.39999962501
e71,71,1450999959,46165.4999996087
3633.399999947127
e81,81,1475999995,43298.799999650415
r14,14,999985,46510.39999960368
r15,15,999989,46579.89999960267
e71,71,1450999955,46633.29999960189
3629.5999999471824
e81,81,1475999973,43300.99999965038
l40,40,673999959,43925.79999964129
l48,48,670999970,44046.29999963954
l39,39,676999985,44262.49999963639
l35,35,670999975,44701.59999963
l51,51,662999968,45043.499999625026
e71,71,1450999963,46165.099999608705
3630.599999947168
e81,81,1475999977,43300.59999965039
l40,40,672999956,43926.199999641285
l48,48,670999971,44046.19999963954
l39,39,677999986,44262.299999636394
l35,35,670999992,44699.899999630026
l51,51,665999989,45041.09999962506
e71,71,1450999964,46164.999999608706
3630.999999947162
e81,81,1473999956,43302.899999650355
l40,40,673999962,43925.499999641295
l48,48,672999989,44044.19999963957
l39,39,676999982,44262.79999963639
l35,35,670999974,44701.69999963
l51,51,671999998,45039.59999962508
e71,71,1454999991,46161.89999960875
3631.2999999471576
e81,81,1473999960,43302.49999965036
l40,40,675999993,43922.19999964134
l48,48,669999965,44046.89999963953
l39,39,679999992,44261.499999636406
l35,35,670999989,44700.19999963002
l51,51,661999962,45044.199999625016
e71,71,1459999996,46160.899999608766
3632.1999999471445
e81,81,1475999986,43299.6999996504
l40,40,675999997,43921.79999964135
l48,48,672999994,44043.699999639575
l39,39,673999971,44264.19999963637
l35,35,670999982,44700.89999963001
l51,51,663999971,45043.09999962503
e71,71,1453999985,46162.59999960874
3633.4999999471256
e81,81,1475999979,43300.39999965039
e75,75,1474999990,44171.69999963771
l44,44,671999981,45240.0
e85,85,1463999962,45390.79999961997
l51,51,654999951,45628.89999961651
e71,71,1450999958,46165.5999996087
3633.7999999471213
e81,81,1475999984,43299.8999996504
e83,83,1470999983,43782.599999643375
e90,90,1464999971,44867.09999962759
e71,71,1449999953,46732.39999960045
3632.5999999471387
e81,81,1475999997,43298.59999965042
l40,40,672999955,43926.299999641284
l48,48,671999982,44044.999999639556
l39,39,670999961,44265.49999963635
l35,35,670999995,44699.59999963003
l51,51,660999955,45044.999999625004
e71,71,1456999995,46161.29999960876
3631.0999999471605
e81,81,1475999962,43302.09999965037
l40,40,673999969,43924.799999641305
l48,48,671999983,44044.89999963956
l39,39,674999972,44263.99999963637
l35,35,666999955,44703.99999962997
l51,51,665999985,45041.499999625055
e71,71,1454999986,46162.399999608744
3630.3999999471707
e81,81,1473999961,43302.39999965036
l40,40,675999994,43922.099999641345
l48,48,668999960,44047.49999963952
l39,39,670999960,44265.599999636346
l35,35,670999969,44702.19999962999
l51,51,670999995,45039.99999962508
e71,71,1452999980,46163.19999960873
3631.0999999471605
e81,81,1473999955,43302.999999650354
l40,40,673999965,43925.1999996413
l48,48,671999978,44045.39999963955
l39,39,675999977,44263.39999963638
l35,35,666999958,44703.69999962997
l51,51,665999983,45041.69999962505
e71,71,1451999977,46163.59999960873
3634.999999947104
e81,81,1473999957,43302.79999965036
l40,40,675999987,43922.799999641335
l48,48,671999981,44045.099999639555
l39,39,673999970,44264.299999636365
l35,35,670999993,44699.79999963003
l51,51,664999978,45042.299999625044
e71,71,1450999960,46165.3999996087
3630.999999947162
e81,81,1475999996,43298.69999965042
l40,40,675999988,43922.699999641336
l48,48,669999964,44046.99999963953
l39,39,671999967,44264.79999963636
l35,35,670999996,44699.49999963003
l51,51,663999969,45043.29999962503
e71,71,1451999979,46163.39999960873
3635.0999999471023
e81,81,1475999965,43301.79999965037
l40,40,673999974,43924.29999964131
l48,48,671999972,44045.99999963954
l39,39,679999997,44260.99999963641
l35,35,669999964,44702.799999629984
l51,51,664999979,45042.199999625045
e71,71,1450999956,46165.799999608695
3632.099999947146
e81,81,1475999998,43298.49999965042
l40,40,672999953,43926.49999964128
l48,48,671999974,44045.799999639545
l39,39,669999958,44265.89999963634
l35,35,670999978,44701.299999630006
l51,51,665999981,45041.89999962505
e71,71,1455999994,46161.49999960876
3635.299999598952
e81,81,1475999963,43301.99999965037
e75,75,1468999951,44176.19999963765
l44,44,666999956,45243.09999962212
e85,85,1463999981,45388.89999962
l51,51,657999954,45628.299999616516
e71,71,1450999965,46164.89999960871
3632.6999999471373
e81,81,1473999952,43303.29999965035
e83,83,1470999985,43782.39999964338
e90,90,1465999980,44866.09999962761
e71,71,1449999954,46732.29999960045
3632.5999999471387
e81,81,1475999994,43298.89999965041
l40,40,673999964,43925.2999996413
l48,48,668999958,44047.69999963952
l39,39,676999983,44262.69999963639
l35,35,670999973,44701.79999963
l51,51,662999964,45043.89999962502
e71,71,1451999978,46163.49999960873
3634.3999999471125
e81,81,1475999982,43300.099999650396
l40,40,674999980,43923.59999964132
l48,48,672999995,44043.59999963958
l39,39,671999966,44264.89999963636
l35,35,670999967,44702.39999962999
l51,51,663999972,45042.99999962503
e71,71,1450999969,46164.49999960871
3633.9999999471183
e81,81,1475999980,43300.29999965039
l40,40,675999999,43921.59999964135
l48,48,667999953,44048.29999963951
l39,39,678999990,44261.7999996364
l35,35,668999960,44703.29999962998
l51,51,661999959,45044.49999962501
e71,71,1452999983,46162.89999960874
3631.399999947156
e81,81,1473999951,43303.39999965035
e75,75,1473999987,44172.09999963771
l44,44,666999959,45242.799999622126
e85,85,1463999999,45387.099999620026
l51,51,656999953,45628.49999961651
e71,71,1460000000,46160.49999960877
3634.3999999471125
e81,81,1475999999,43298.39999965042
l40,40,674999982,43923.399999641326
l48,48,667999954,44048.19999963951
l39,39,668999957,44266.09999963634
l35,35,671999997,44699.299999630035
l51,51,664999974,45042.69999962504
e71,71,1451999976,46163.699999608725
3635.8999999470907
e81,81,1475999993,43298.99999965041
l40,40,673999958,43925.89999964129
l48,48,670999968,44046.499999639535
l39,39,671999968,44264.69999963636
l35,35,668999959,44703.399999629975
l51,51,662999963,45043.99999962502
e71,71,1450999957,46165.699999608696
3632.8999999471343
e81,81,1473999958,43302.69999965036
l40,40,673999963,43925.3999996413
l48,48,669999961,44047.29999963952
l39,39,668999956,44266.19999963634
l35,35,670999986,44700.49999963002
l51,51,665999991,45040.899999625064
e71,71,1454999989,46162.09999960875
3635.4999999470965
e81,81,1475999983,43299.9999996504
l40,40,675999991,43922.39999964134
l48,48,671999973,44045.89999963954
l39,39,678999989,44261.8999996364
l35,35,668999961,44703.19999962998
l51,51,662999966,45043.69999962502
e71,71,1454999990,46161.99999960875
3636.099999947088
e81,81,1475999968,43301.499999650376
l40,40,672999951,43926.69999964128
l48,48,671999977,44045.49999963955
l39,39,677999988,44262.0999996364
l35,35,670999966,44702.49999962999
l51,51,665999982,45041.79999962505
e71,71,1451999974,46163.89999960872
3633.7999999471213
e81,81,1475999989,43299.399999650406
l40,40,675999989,43922.59999964134
l48,48,671999987,44044.49999963956
l39,39,675999975,44263.599999636375
l35,35,670999991,44699.999999630025
l51,51,664999973,45042.79999962504
e71,71,1450999970,46164.399999608715
3635.599999947095
e81,81,1475999992,43299.09999965041
l40,40,675999995,43921.999999641346
l48,48,672999993,44043.799999639574
l39,39,675999978,44263.29999963638
l35,35,670999990,44700.09999963002
l51,51,661999957,45044.69999962501
e71,71,1451999971,46164.19999960872
3635.4999999470965
e81,81,1475999964,43301.89999965037
l40,40,675999986,43922.89999964133
l48,48,672999992,44043.89999963957
l39,39,678999991,44261.6999996364
l35,35,670999972,44701.89999963
l51,51,665999984,45041.599999625054
e71,71,1450999966,46164.79999960871
3636.899999947076
e81,81,1473999959,43302.59999965036
l40,40,674999975,43924.099999641316
l48,48,668999955,44047.99999963951
l39,39,670999963,44265.29999963635
l35,35,670999968,44702.29999962999
l51,51,670999994,45040.099999625076
e71,71,1450999967,46164.69999960871
3635.799999947092
