r10,10,999987,43235.09999965134
e89,89,1486999990,43408.89999964881
r10,10,999984,43422.59999964861
l51,51,672999993,43649.899999645306
e88,88,1473999992,43872.69999964206
l35,35,668999990,43892.29999964178
r20,20,999995,44281.99999963611
1483.7999999784079
r10,10,999971,43245.39999965119
l51,51,672999997,43649.49999964531
e88,88,1474999995,43872.29999964207
l35,35,668999994,43891.899999641784
r20,20,999994,44283.09999963609
1485.299999978386
r10,10,999967,43249.19999965114
l51,51,672999994,43649.79999964531
l63,63,679999996,43715.79999964435
e98,98,1469999994,44069.799999639195
r20,20,999994,44554.49999963214
1481.799999978437
r10,10,999969,43246.09999965118
l51,51,672999996,43649.59999964531
e88,88,1473999993,43872.599999642065
l35,35,668999993,43891.99999964178
r20,20,999998,44274.39999963622
1485.3999999783846
r10,10,999973,43242.69999965123
l51,51,672999998,43649.39999964531
e88,88,1472999990,43872.99999964206
l35,35,670999998,43891.29999964179
r20,20,999997,44275.4999996362
1482.3999999784282
r10,10,999972,43245.199999651195
l51,51,672999995,43649.69999964531
l63,63,670999991,43717.19999964433
e98,98,1476999999,44068.59999963921
r20,20,999993,44556.09999963212
1481.799999978437
r10,10,999970,43245.69999965119
l51,51,672999999,43649.299999645315
l63,63,679999998,43715.59999964435
e98,98,1467999990,44070.39999963919
r20,20,999992,44556.79999963211
1482.3999999784282
r10,10,999968,43249.09999965114
l51,51,672999992,43649.999999645304
e88,88,1478000000,43871.49999964208
l35,35,670999997,43891.39999964179
r20,20,999996,44279.19999963615
1485.9999999783759
r10,10,999988,43234.99999965134
e89,89,1487999994,43408.39999964882
r10,10,999985,43422.19999964862
l51,51,671999990,43650.2999996453
e88,88,1476999997,43871.899999642075
l35,35,670999999,43891.199999641794
l46,46,672999996,43990.89999964034
l37,37,666999992,44002.89999964017
2197.1999999680265
l37,37,666999989,44066.09999963925
2198.7999999680032
l37,37,666999969,44068.09999963922
2195.999999968044
l37,37,666999984,44066.59999963924
2194.699999968063
l37,37,665999956,44069.4999996392
2197.6999999680193
l37,37,666999988,44066.19999963925
2196.699999968034
l37,37,665999955,44069.5999996392
2198.599999968006
l37,37,665999962,44068.89999963921
2196.7999999680324
l37,37,666999979,44067.099999639235
2198.199999968012
l37,37,665999959,44069.199999639204
2196.5999999680353
l37,37,666999982,44066.79999963924
2198.4999999680076
l37,37,666999985,44066.49999963924
2197.3999999680236
l37,37,664999951,44070.09999963919
2197.099999968028
r10,10,999998,43232.899999651374
e89,89,1484999983,43409.7999996488
r10,10,999984,43423.2999996486
l51,51,671999991,43650.1999996453
e88,88,1474999994,43872.39999964207
l35,35,669999996,43891.59999964179
l46,46,669999991,43991.69999964033
l37,37,666999990,44003.099999640166
2200.199999967983
l37,37,665999958,44069.2999996392
2199.7999999679887
l37,37,665999954,44069.6999996392
2196.9999999680294
l37,37,666999976,44067.39999963923
2196.7999999680324
l37,37,666999972,44067.799999639225
2200.299999619834
l37,37,666999978,44067.19999963923
2197.099999968028
l37,37,665999963,44068.79999963921
2196.9999999680294
l37,37,666999973,44067.699999639226
2198.399999968009
l37,37,666999986,44066.399999639245
2198.0999999680134
l37,37,666999980,44066.999999639236
2197.5999999680207
l37,37,666999975,44067.49999963923
2198.899999968002
l37,37,666999968,44068.19999963922
2201.1999999679683
l37,37,665999966,44068.499999639214
2200.39999996798
r10,10,999996,43233.09999965137
e89,89,1479999968,43411.79999964877
r10,10,999985,43424.19999964859
l51,51,673000000,43649.199999645316
e88,88,1476999998,43871.79999964208
l35,35,668999991,43892.19999964178
l46,46,670999993,43991.399999640336
l37,37,667999995,44002.499999640175
2201.5999999679625
l37,37,665999952,44069.899999639194
2197.5999999680207
l37,37,665999967,44068.399999639216
2199.499999967993
l37,37,666999987,44066.29999963925
2200.599999967977
l37,37,665999965,44068.59999963921
2201.5999999679625
l37,37,665999964,44068.69999963921
2199.999999967986
l37,37,665999957,44069.3999996392
2197.8999999680163
l37,37,665999961,44068.99999963921
2197.799999968018
l37,37,666999970,44067.99999963922
2200.4999999679785
l37,37,666999977,44067.29999963923
2201.9999999679567
l37,37,665999960,44069.099999639206
2199.1999999679974
l37,37,666999983,44066.69999963924
2201.299999967967
l37,37,665999953,44069.799999639195
2201.5999999679625
l37,37,666999971,44067.89999963922
2198.0999999680134
l37,37,666999981,44066.89999963924
2200.9999999679712
l37,37,666999974,44067.59999963923
2200.599999967977
