l42,42,680999980,43370.899999649366
l60,60,677999989,44383.899999634625
1341.8999999804728
l42,42,680999962,43372.69999964934
l60,60,671999961,44387.299999634575
1341.6999999804757
l42,42,680999971,43371.79999964935
l60,60,675999981,44384.89999963461
1343.399999980451
l42,42,680999988,43370.09999964938
l60,60,676999984,44384.499999634616
1339.2999999805106
l42,42,679999956,43373.39999964933
l60,60,675999982,44384.79999963461
1342.3999999804655
l42,42,680999966,43372.299999649345
l60,60,675999978,44385.199999634606
1339.6999999805048
l42,42,680999987,43370.199999649376
l60,60,680999995,44382.99999963464
1341.7999999804742
l42,42,680999994,43369.499999649386
l60,60,673999972,44385.999999634594
1341.4999999804786
l42,42,680999986,43370.299999649375
l60,60,676999987,44384.19999963462
1340.299999980496
l42,42,680999981,43370.79999964937
l60,60,672999965,44386.79999963458
1339.7999999805033
l42,42,680999976,43371.29999964936
l60,60,680999993,44383.199999634635
1343.8999999804437
l42,42,680999996,43369.29999964939
l60,60,679999992,44383.39999963463
1344.5999999804335
l42,42,680999979,43370.999999649364
l60,60,671999960,44387.399999634574
1341.0999999804844
l42,42,680999999,43368.99999964939
l60,60,676999986,44384.29999963462
1344.5999996322862
l42,42,680999983,43370.59999964937
l60,60,671999962,44387.19999963458
1341.8999999804728
l42,42,680999989,43369.99999964938
l60,60,672999966,44386.699999634584
1343.8999999804437
l42,42,680999993,43369.599999649385
l60,60,672999964,44386.89999963458
1341.199999980483
l42,42,680999960,43372.89999964934
l60,60,672999967,44386.599999634585
1344.2999999804379
l42,42,680999970,43371.89999964935
l60,60,671999955,44387.89999963457
1341.7999999804742
l42,42,679999951,43373.89999964932
l60,60,681999999,44382.499999634645
1341.2999999804815
l42,42,680999990,43369.89999964938
l60,60,671999951,44388.29999963456
1343.399999980451
l42,42,680999992,43369.69999964938
l60,60,676999985,44384.39999963462
1341.39999998048
l42,42,680999958,43373.099999649334
l60,60,671999958,44387.59999963457
1343.8999999804437
l42,42,680999974,43371.49999964936
l60,60,671999952,44388.19999963456
1344.9999999804277
l42,42,679999952,43373.79999964932
l60,60,674999974,44385.6999996346
1342.5999999804626
l42,42,680999965,43372.399999649344
l60,60,673999971,44386.09999963459
1342.5999999804626
l42,42,680999957,43373.19999964933
l60,60,677999988,44383.99999963462
1343.599999980448
l42,42,680999984,43370.49999964937
l60,60,680999994,44383.099999634636
1345.6999999804175
l42,42,679999954,43373.59999964933
l60,60,680999998,44382.69999963464
1344.5999999804335
l42,42,680999969,43371.99999964935
l60,60,674999973,44385.7999996346
1343.599999980448
l42,42,680999973,43371.599999649356
l60,60,674999975,44385.5999996346
1345.4999999804204
l42,42,680999978,43371.09999964936
l60,60,674999976,44385.4999996346
1342.7999999804597
l42,42,681000000,43368.899999649395
l60,60,673999969,44386.29999963459
1344.699999980432
l42,42,680999972,43371.699999649354
l60,60,671999953,44388.09999963456
1346.8999999804
l42,42,680999961,43372.79999964934
l60,60,675999980,44384.99999963461
1346.4999999804058
l42,42,680999997,43369.19999964939
l60,60,675999983,44384.69999963461
1343.8999999804437
l42,42,679999953,43373.699999649325
l60,60,673999968,44386.39999963459
1344.1999999804393
l42,42,680999975,43371.39999964936
l60,60,671999957,44387.69999963457
1345.8999999804146
l42,42,680999959,43372.999999649335
l60,60,671999959,44387.49999963457
1344.699999980432
l42,42,680999964,43372.49999964934
l60,60,673999970,44386.19999963459
1343.6999999804466
l42,42,680999991,43369.79999964938
l60,60,675999979,44385.09999963461
1346.2999999804088
l42,42,680999982,43370.69999964937
l60,60,680999996,44382.89999963464
1345.1999999804248
l42,42,680999968,43372.09999964935
l60,60,671999954,44387.999999634565
1345.4999999804204
l42,42,680999977,43371.19999964936
l60,60,671999956,44387.79999963457
1344.5999999804335
l42,42,680999998,43369.09999964939
l60,60,682000000,44382.39999963465
1348.0999999803826
l42,42,680999985,43370.39999964937
l60,60,677999990,44383.799999634626
1347.799999980387
l42,42,680999995,43369.39999964939
l60,60,674999977,44385.3999996346
1347.3999999803927
l42,42,680999967,43372.19999964935
l60,60,672999963,44386.99999963458
1346.7999999804015
l42,42,679999955,43373.49999964933
l60,60,677999991,44383.69999963463
1348.199999980381
l42,42,680999963,43372.59999964934
l60,60,680999997,44382.79999963464
1343.9999999804422
