r14,14,999984,45470.79999961881
e99,99,1454999990,45966.1999996116
r32,32,999995,46132.099999609185
e71,71,1458999987,46281.69999960701
3095.6999999549516
r14,14,999983,45470.999999618805
e99,99,1455999999,45965.199999611614
r32,32,999986,46137.9999996091
e71,71,1460999989,46281.299999607014
3093.199999954988
r14,14,999992,45468.39999961884
e99,99,1454999979,45967.29999961158
r32,32,999994,46134.199999609154
e71,71,1463999993,46280.599999607024
3094.099999954975
r14,14,999991,45468.59999961884
e99,99,1454999989,45966.2999996116
r32,32,999998,46130.59999960921
e71,71,1464999997,46280.09999960703
3095.0999999549604
r14,14,999986,45470.49999961881
e99,99,1454999978,45967.39999961158
r32,32,999991,46134.799999609146
e71,71,1461999991,46280.99999960702
3097.0999999549313
r14,14,999990,45468.79999961884
e99,99,1454999983,45966.89999961159
r32,32,1000000,46128.599999609236
e71,71,1460999990,46281.199999607015
3094.5999999549676
r14,14,999989,45469.39999961883
e99,99,1454999991,45966.0999996116
r32,32,999988,46136.09999960913
e71,71,1464999999,46279.899999607034
3096.7999999549356
r14,14,999977,45473.39999961877
e99,99,1456000000,45965.099999611615
r32,32,999997,46131.1999996092
e71,71,1464999998,46279.99999960703
3095.2999999549575
r14,14,999985,45470.69999961881
e99,99,1455999998,45965.29999961161
r32,32,999992,46134.49999960915
e71,71,1466000000,46279.69999960704
3096.5999999549385
r14,14,999998,45465.99999961888
e99,99,1455999995,45965.59999961161
r32,32,999987,46137.7999996091
e71,71,1464999996,46280.19999960703
3093.6999999549807
r14,14,999980,45471.699999618795
e99,99,1454999984,45966.79999961159
r32,32,999993,46134.39999960915
e71,71,1464999995,46280.29999960703
3096.299999954943
r14,14,999995,45467.29999961886
e99,99,1454999974,45967.799999611576
r32,32,999996,46131.2999996092
e71,71,1459999988,46281.49999960701
3094.299999954972
r14,14,999999,45465.599999618884
e99,99,1454999985,45966.69999961159
r32,32,999990,46135.39999960914
e71,71,1463999994,46280.499999607026
3095.199999954959
r14,14,999982,45471.1999996188
e99,99,1454999982,45966.99999961159
r32,32,999999,46128.79999960923
e71,71,1461999992,46280.89999960702
3096.7999999549356
r14,14,999988,45469.49999961883
e99,99,1454999981,45967.099999611586
r32,32,999989,46135.79999960913
e71,71,1458999986,46281.79999960701
3093.9999999549764
e80,80,1459999951,45619.69999961664
l46,46,655999968,45673.99999961585
r19,19,999983,46371.4999996057
r31,31,999983,46544.59999960318
r10,10,999991,47060.79999959567
r3,3,999989,47129.299999594674
l62,62,654999997,47491.399999589405
4430.899999935522
r18,18,999976,43358.69999964954
l59,59,679999999,43562.09999964658
l62,62,664999999,45918.0999996123
4431.799999935509
e80,80,1459999967,45618.099999616665
l46,46,655999952,45675.59999961583
r19,19,999986,46370.79999960571
l51,51,654999991,46576.89999960271
e79,79,1459999996,46686.599999601116
r13,13,999984,47084.99999959532
l39,39,650999987,47249.499999592925
e98,98,1448999996,47357.49999959135
r3,3,999989,47377.899999591056
l62,62,652999995,47491.7999995894
4435.399999587309
e80,80,1459999982,45616.59999961669
l46,46,655999955,45675.29999961583
r19,19,999976,46376.699999605626
l51,51,654999983,46577.6999996027
e79,79,1459999998,46686.39999960112
r13,13,999986,47086.0999995953
l39,39,651999992,47248.89999959293
e98,98,1450999998,47357.09999959136
r3,3,999988,47381.29999959101
l62,62,656999998,47491.09999958941
4432.999999935491
e80,80,1459999992,45615.5999996167
l46,46,657999975,45673.099999615864
r19,19,999991,46368.79999960574
l51,51,654999988,46577.19999960271
e79,79,1452999978,46689.09999960108
5053.199999926466
e80,80,1459999974,45617.399999616675
l46,46,657999991,45671.49999961589
r19,19,999997,46366.99999960577
l51,51,654999985,46577.4999996027
e79,79,1453999984,46688.39999960109
5055.099999926439
e80,80,1459999998,45614.99999961671
l54,54,655999972,45746.69999961479
e70,70,1449999983,46898.79999959803
e79,79,1447999957,47884.89999958368
5053.899999926456
e80,80,1459999994,45615.399999616704
l54,54,655999964,45747.49999961478
e70,70,1450999996,46897.39999959805
e79,79,1447999963,47884.29999958369
5052.199999926481
e80,80,1459999955,45619.29999961665
l54,54,655999971,45746.79999961479
e70,70,1448999972,46899.99999959801
e79,79,1447999953,47885.29999958367
5053.899999926456
e80,80,1459999959,45618.89999961665
l54,54,655999974,45746.499999614796
e70,70,1448999955,46901.699999597986
e79,79,1447999964,47884.19999958369
5055.399999926434
e80,80,1459999996,45615.19999961671
l54,54,652999951,45749.09999961476
e70,70,1450999990,46897.99999959804
e79,79,1447999967,47883.89999958369
5055.099999926439
e80,80,1459999975,45617.299999616676
l54,54,656999985,45745.299999614814
e70,70,1448999959,46901.29999959799
e79,79,1447999959,47884.69999958368
5053.199999926466
e80,80,1459999970,45617.79999961667
l54,54,656999987,45745.09999961482
e70,70,1450999995,46897.49999959805
e79,79,1447999968,47883.799999583694
5054.8999999264415
e80,80,1459999971,45617.69999961667
l54,54,657999991,45744.599999614824
e70,70,1449999980,46899.099999598024
e79,79,1448999970,47883.4999995837
5054.799999926443
e80,80,1459999957,45619.09999961665
l54,54,654999959,45748.09999961477
e70,70,1448999954,46901.799999597984
e79,79,1447999961,47884.499999583684
5055.199999926437
e80,80,1459999968,45617.999999616666
l54,54,654999958,45748.19999961477
e70,70,1449999981,46898.999999598025
e79,79,1448999971,47883.3999995837
5055.899999926427
e80,80,1459999956,45619.19999961665
l54,54,657999995,45744.19999961483
e70,70,1448999977,46899.49999959802
e79,79,1446999952,47885.49999958367
5052.199999926481
e80,80,1459999952,45619.59999961664
l54,54,654999962,45747.79999961478
e70,70,1448999974,46899.79999959801
e79,79,1447999969,47883.699999583696
5052.199999926481
e80,80,1459999980,45616.79999961668
l54,54,654999956,45748.39999961477
e70,70,1450999991,46897.89999959804
e79,79,1446999951,47885.59999958367
5055.9999999264255
e80,80,1459999997,45615.09999961671
l54,54,654999957,45748.29999961477
e70,70,1450999985,46898.49999959803
e79,79,1447999962,47884.399999583686
5056.199999926423
e80,80,1459999969,45617.89999961667
l54,54,656999988,45744.99999961482
e70,70,1449999984,46898.69999959803
e79,79,1447999956,47884.99999958368
5055.199999926437
e80,80,1459999995,45615.299999616705
l46,46,655999964,45674.399999615845
r19,19,999988,46369.899999605725
l51,51,654999994,46576.59999960272
e79,79,1454999985,46688.19999960109
5052.199999926481
e80,80,1459999960,45618.799999616655
l46,46,657999982,45672.399999615875
r19,19,999984,46371.09999960571
l51,51,653999980,46578.099999602695
e79,79,1458999993,46686.99999960111
5054.399999926449
e80,80,1459999985,45616.29999961669
l46,46,655999956,45675.199999615834
r19,19,999985,46370.89999960571
l51,51,654999993,46576.699999602715
e79,79,1454999986,46688.099999601094
5053.199999926466
e80,80,1459999953,45619.499999616644
l46,46,655999953,45675.49999961583
r19,19,999995,46367.49999960576
l51,51,654999984,46577.5999996027
e79,79,1458999994,46686.89999960111
5052.599999926475
e80,80,1459999990,45615.7999996167
l46,46,655999961,45674.69999961584
r19,19,999981,46373.999999605665
l51,51,652999975,46578.699999602686
e79,79,1459999997,46686.49999960112
5054.399999926449
e80,80,1459999979,45616.89999961668
l46,46,655999957,45675.099999615835
r19,19,999979,46374.79999960565
l51,51,654999982,46577.7999996027
e79,79,1451999975,46689.499999601074
5055.199999926437
e80,80,1459999954,45619.399999616646
l46,46,657999979,45672.69999961587
r19,19,999994,46368.29999960575
l51,51,654999992,46576.799999602714
e79,79,1454999987,46687.999999601096
5056.299999926421
e80,80,1459999993,45615.4999996167
l54,54,656999986,45745.199999614815
e70,70,1448999956,46901.59999959799
e79,79,1450999973,47882.999999583706
5053.7999999264575
e80,80,1459999973,45617.49999961667
l46,46,657999980,45672.59999961587
r19,19,999987,46370.09999960572
l51,51,654999996,46576.39999960272
e79,79,1452999977,46689.19999960108
5053.699999926459
e80,80,1459999958,45618.99999961665
l54,54,656999982,45745.59999961481
e70,70,1448999970,46900.19999959801
e79,79,1447999954,47885.199999583674
5054.399999926449
e80,80,1459999961,45618.699999616656
l46,46,656999970,45673.699999615856
r19,19,999998,46366.69999960577
l51,51,654999997,46576.29999960272
e79,79,1454999988,46687.8999996011
5055.499999926433
e80,80,1459999963,45618.49999961666
l54,54,652999953,45748.89999961476
e70,70,1448999958,46901.39999959799
e79,79,1447999960,47884.59999958368
5054.799999926443
e80,80,1459999986,45616.19999961669
l54,54,658999998,45743.799999614836
e70,70,1448999964,46900.799999598
e79,79,1447999955,47885.099999583676
5055.599999926431
e80,80,1459999981,45616.699999616685
l54,54,658999997,45743.899999614834
e70,70,1448999965,46900.699999598
e79,79,1447999966,47883.99999958369
5057.399999926405
