l66,66,662999953,45878.39999961288
e83,83,1462999978,45905.999999612475
l35,35,658999977,46059.299999610244
r27,27,999985,46353.59999960596
3624.4999999472566
l66,66,667999983,45874.89999961293
e83,83,1461999963,45907.59999961245
l35,35,657999967,46060.39999961023
r27,27,999980,46356.59999960592
3621.4999999473002
l66,66,668999987,45874.399999612935
e83,83,1463999986,45905.09999961249
l35,35,659999991,46057.799999610266
r27,27,999989,46351.199999606
3622.0999999472915
l66,66,671999995,45873.29999961295
e83,83,1462999973,45906.49999961247
l35,35,659999985,46058.39999961026
r27,27,999998,46348.599999606035
3623.999999947264
l66,66,666999973,45875.99999961291
e83,83,1461999960,45907.89999961245
l35,35,656999963,46060.89999961022
r27,27,999991,46350.799999606
3624.2999999472595
l66,66,667999977,45875.49999961292
e83,83,1461999964,45907.49999961245
l35,35,658999973,46059.69999961024
r27,27,999993,46349.999999606014
3622.5999999472842
l66,66,666999974,45875.89999961291
e83,83,1465999996,45903.899999612506
l35,35,660999999,46056.89999961028
r27,27,999992,46350.699999606004
3625.499999947242
l66,66,667999982,45874.999999612926
e83,83,1462999982,45905.59999961248
l35,35,659999989,46057.99999961026
r27,27,999994,46349.899999606016
3624.0999999472624
l66,66,666999970,45876.29999961291
e83,83,1462999972,45906.59999961247
l35,35,659999988,46058.09999961026
r27,27,999983,46355.09999960594
3623.3999999472726
l66,66,668999990,45874.09999961294
e83,83,1466000000,45903.49999961251
l35,35,659999983,46058.599999610255
r27,27,999988,46352.599999605976
3626.6999999472246
l66,66,667999979,45875.29999961292
e83,83,1461999968,45907.09999961246
l35,35,656999960,46061.19999961022
r27,27,999995,46349.69999960602
3625.9999999472348
l66,66,666999960,45877.29999961289
e83,83,1465999998,45903.69999961251
l35,35,658999978,46059.199999610246
r27,27,999996,46348.79999960603
3625.3999999472435
l66,66,663999958,45877.799999612886
e83,83,1461999961,45907.79999961245
l35,35,660999995,46057.29999961027
r27,27,999982,46356.099999605925
3624.2999999472595
l66,66,666999967,45876.5999996129
e83,83,1461999967,45907.19999961246
l35,35,657999965,46060.599999610225
r27,27,999997,46348.69999960603
3625.099999947248
l66,66,667999981,45875.099999612925
e83,83,1460999955,45908.49999961244
l35,35,658999980,46058.99999961025
r27,27,999979,46357.499999605905
3622.5999999472842
l66,66,666999962,45877.099999612896
e83,83,1460999951,45908.89999961243
l35,35,657999970,46060.09999961023
r27,27,999978,46358.199999605895
3625.499999947242
l66,66,673000000,45872.69999961296
e83,83,1463999992,45904.4999996125
l35,35,660999993,46057.49999961027
r27,27,999984,46354.799999605944
3623.8999999472653
l66,66,667999978,45875.39999961292
e83,83,1460999953,45908.699999612436
l35,35,657999972,46059.899999610236
r27,27,1000000,46348.09999960604
3627.69999994721
l66,66,668999988,45874.29999961294
e83,83,1461999958,45908.099999612445
l35,35,660999996,46057.199999610275
r27,27,999981,46356.29999960592
3625.099999947248
l66,66,671999997,45873.099999612954
e83,83,1462999975,45906.29999961247
l35,35,659999990,46057.899999610265
r27,27,999986,46353.399999605965
3625.499999947242
l66,66,670999992,45873.699999612945
e83,83,1462999981,45905.69999961248
l35,35,658999975,46059.49999961024
r27,27,999987,46352.99999960597
3624.399999947258
l66,66,665999959,45877.49999961289
e83,83,1461999965,45907.399999612455
l35,35,656999958,46061.399999610214
r27,27,999990,46350.899999606
3627.69999994721
l66,66,662999954,45878.29999961288
e83,83,1462999971,45906.699999612465
l35,35,659999984,46058.499999610256
r27,27,999999,46348.499999606036
3626.8999999472217
e80,80,1472999984,44251.09999963656
r19,19,999995,45612.599999616745
e74,74,1464000000,46391.099999605416
r17,17,999967,47078.299999595416
l50,50,658999963,47464.599999589795
e77,77,1456999988,47616.09999958759
4450.999999935229
e85,85,1461999952,46995.199999596625
e74,74,1457999981,47001.49999959653
r17,17,999962,47094.69999959518
l50,50,659999964,47464.3999995898
e77,77,1455999985,47616.499999587584
4448.699999935263
e85,85,1463999980,46992.19999959667
e74,74,1457999984,47001.19999959654
r17,17,999965,47081.59999959537
l50,50,659999972,47463.59999958981
e77,77,1453999966,47618.59999958755
4452.2999999352105
e85,85,1463999981,46992.09999959667
e74,74,1456999975,47002.19999959652
r17,17,999969,47083.199999595345
l50,50,659999966,47464.1999995898
e77,77,1453999970,47618.19999958756
4450.29999993524
e85,85,1461999951,46995.299999596624
e74,74,1455999966,47003.19999959651
r17,17,999967,47091.09999959523
l50,50,660999995,47461.199999589844
e77,77,1458999998,47614.89999958761
4448.699999935263
e85,85,1462999964,46993.899999596644
e74,74,1457999978,47001.79999959653
r17,17,999967,47078.59999959541
l50,50,660999993,47461.39999958984
e77,77,1453999971,47618.09999958756
4452.8999995870545
e85,85,1463999966,46993.59999959665
e74,74,1453999961,47003.8999995965
r17,17,999971,47087.59999959528
l50,50,659999983,47462.499999589825
e77,77,1456999987,47616.19999958759
4451.799999935218
e80,80,1472999985,44250.99999963656
r19,19,999991,45613.899999616726
e74,74,1462999996,46391.59999960541
r17,17,999970,47074.39999959547
l50,50,662999998,47460.69999958985
e77,77,1453999978,47617.39999958757
4450.199999935241
e80,80,1472999987,44250.79999963656
r19,19,999986,45615.999999616695
e74,74,1458999988,46392.79999960539
r17,17,999967,47080.79999959538
l50,50,659999969,47463.899999589805
e77,77,1453999969,47618.29999958756
4449.799999935247
e80,80,1472999999,44249.59999963658
r19,19,999987,45615.09999961671
e74,74,1459999992,46392.2999996054
r17,17,999971,47085.49999959531
l50,50,660999992,47461.49999958984
e77,77,1454999982,47616.89999958758
4453.199999935197
e85,85,1463999973,46992.89999959666
e74,74,1453999954,47004.59999959649
r17,17,999968,47089.999999595246
l50,50,659999970,47463.799999589806
e77,77,1457999991,47615.699999587596
4452.599999935206
e80,80,1471999963,44253.299999636525
r19,19,999988,45614.99999961671
e74,74,1459999989,46392.599999605394
r17,17,999968,47076.299999595445
l50,50,660999986,47462.09999958983
e77,77,1453999976,47617.59999958757
4449.199999935256
e85,85,1463999974,46992.79999959666
e74,74,1455999968,47002.99999959651
r17,17,999967,47079.2999995954
l50,50,660999987,47461.99999958983
e77,77,1458999995,47615.1999995876
4450.499999935237
e85,85,1461999953,46995.09999959663
e74,74,1457999979,47001.69999959653
r17,17,999968,47088.29999959527
l50,50,659999971,47463.69999958981
e77,77,1454999981,47616.99999958758
4449.799999935247
e85,85,1463999968,46993.39999959665
e74,74,1453999955,47004.49999959649
r17,17,999967,47077.79999959542
l50,50,659999976,47463.199999589815
e77,77,1458999997,47614.999999587606
4453.299999935196
e85,85,1462999958,46994.499999596635
e74,74,1456999974,47002.29999959652
r17,17,999967,47074.899999595465
l50,50,659999980,47462.79999958982
e77,77,1452999964,47618.89999958755
4449.899999935245
e85,85,1463999987,46991.49999959668
e74,74,1456999976,47002.099999596525
r17,17,999968,47074.69999959547
l50,50,659999978,47462.99999958982
e77,77,1457999994,47615.3999995876
4453.599999935192
e85,85,1463999967,46993.49999959665
e74,74,1457999977,47001.89999959653
r17,17,999969,47084.79999959532
l50,50,659999981,47462.69999958982
e77,77,1453999967,47618.499999587555
4453.899999935187
e85,85,1463999985,46991.699999596676
e74,74,1455999970,47002.799999596515
r17,17,999968,47090.99999959523
l50,50,660999989,47461.799999589835
e77,77,1453999968,47618.39999958756
4452.099999935213
e85,85,1462999960,46994.29999959664
e74,74,1456999973,47002.39999959652
r17,17,999970,47087.79999959528
l50,50,660999991,47461.59999958984
e77,77,1453999974,47617.799999587565
4451.499999935222
e85,85,1462999961,46994.19999959664
e74,74,1457999983,47001.29999959654
r17,17,999964,47092.199999595214
l50,50,662999997,47460.79999958985
e77,77,1456999989,47615.99999958759
4453.3999999351945
l66,66,671999996,45873.19999961295
4655.399999932255
l66,66,666999971,45876.19999961291
4659.399999932197
l66,66,662999952,45878.499999612875
4659.299999932198
l66,66,666999965,45876.7999996129
4656.699999932236
l66,66,666999961,45877.199999612894
4656.699999932236
l66,66,670999994,45873.49999961295
4657.999999932217
