l65,65,669999990,43617.39999964578
e92,92,1465999966,43626.39999964565
r16,16,999976,44389.999999634536
l46,46,664999997,44713.099999629834
r16,16,999992,44714.499999629814
1662.0999999758133
l65,65,667999952,43621.39999964572
e92,92,1466999980,43624.89999964567
r16,16,999968,44397.79999963442
1658.4999999758656
l65,65,669999991,43617.29999964578
e92,92,1467999990,43623.799999645686
l61,61,658999955,45372.19999962024
r29,29,999962,45713.29999961528
3370.9999999509455
l65,65,667999979,43618.69999964576
e92,92,1465999951,43627.899999645626
l36,36,680999975,43766.799999643605
e100,100,1471999963,44302.799999635805
l42,42,667999993,44473.99999963331
r29,29,999973,46551.49999960308
3371.799999950934
l65,65,669999997,43616.69999964579
e92,92,1466999986,43624.29999964568
l36,36,681999984,43765.79999964362
e100,100,1476999985,44300.099999635844
l42,42,666999974,44475.999999633284
r29,29,999971,46547.799999603136
3373.5999999509077
l65,65,669999994,43616.999999645785
e79,79,1466999958,43677.29999964491
l56,56,671999993,43806.09999964303
r29,29,999967,45383.49999962008
3374.599999950893
l65,65,667999977,43618.89999964576
e92,92,1466999974,43625.49999964566
l61,61,658999961,45371.59999962025
r29,29,999964,45712.49999961529
3371.999999950931
l65,65,667999974,43619.19999964575
e92,92,1465999965,43626.499999645646
l36,36,685999992,43764.59999964364
e100,100,1476999995,44299.09999963586
l42,42,665999958,44477.69999963326
r29,29,999972,46549.199999603115
3374.599999950893
l65,65,667999978,43618.79999964576
e79,79,1471999976,43674.99999964494
l56,56,667999968,43808.99999964299
r29,29,999966,45383.799999620074
3373.1999999509135
l65,65,668999980,43618.49999964576
e79,79,1468999959,43676.99999964491
l61,61,659999971,45128.99999962378
r29,29,999961,45715.79999961524
3373.099999950915
l65,65,667999966,43619.99999964574
e79,79,1471999969,43675.69999964493
l56,56,661999957,43810.699999642966
r29,29,999965,45383.99999962007
3371.8999999509324
l65,65,667999973,43619.29999964575
e79,79,1471999971,43675.49999964493
l61,61,659999994,45126.699999623816
r29,29,999963,45717.19999961522
3374.599999950893
l65,65,669999998,43616.59999964579
e79,79,1475999991,43673.09999964497
l61,61,659999979,45128.199999623794
r29,29,999967,45718.5999996152
3371.799999950934
l65,65,667999965,43620.09999964574
e92,92,1466999987,43624.19999964568
l36,36,668999954,43770.09999964356
e100,100,1471999964,44302.699999635806
l42,42,663999951,44478.59999963325
r29,29,999972,46547.59999960314
3375.299999950883
l65,65,668999985,43617.99999964577
e79,79,1474999989,43673.399999644964
l56,56,669999987,43806.89999964302
r29,29,999976,45376.899999620175
3374.2999999508975
l65,65,671000000,43616.299999645795
e92,92,1466999977,43625.199999645665
l36,36,675999965,43768.29999964358
e100,100,1476999990,44299.59999963585
l42,42,665999964,44477.09999963327
r29,29,999970,46545.89999960316
3371.499999950938
l65,65,670999999,43616.39999964579
e79,79,1478999998,43672.09999964498
l56,56,669999991,43806.49999964303
r29,29,999968,45381.7999996201
3374.8999999508887
l65,65,667999956,43620.999999645726
e92,92,1465999964,43626.599999645645
l36,36,669999955,43769.89999964356
e100,100,1471999968,44302.29999963581
l42,42,663999952,44478.49999963325
r29,29,999973,46550.99999960309
3371.1999999509426
l65,65,669999995,43616.899999645786
e79,79,1473999984,43673.999999644955
l56,56,676999999,43804.99999964305
r29,29,999974,45377.599999620164
3371.3999999509397
l65,65,669999989,43617.49999964578
e79,79,1477999994,43672.599999644975
l56,56,669999978,43807.79999964301
r29,29,999975,45377.39999962017
3374.399999950896
l65,65,667999969,43619.699999645745
e79,79,1471999974,43675.19999964494
l61,61,659999987,45127.399999623805
r29,29,999963,45713.19999961528
3374.79999995089
l65,65,667999960,43620.59999964573
e79,79,1468999961,43676.799999644914
l56,56,668999971,43808.599999643
r29,29,999971,45378.79999962015
3376.2999999508684
l65,65,667999964,43620.19999964574
e92,92,1468999994,43623.29999964569
l36,36,674999964,43768.49999964358
e100,100,1476999996,44298.99999963586
l42,42,666999966,44476.79999963327
r29,29,999971,46549.79999960311
3375.1999999508844
l65,65,669999988,43617.599999645776
e79,79,1480000000,43671.79999964499
l56,56,669999977,43807.89999964301
r29,29,999969,45380.299999620125
3372.599999950922
l65,65,669999993,43617.09999964578
e79,79,1471999966,43675.999999644926
l56,56,663999958,43810.39999964297
r29,29,999973,45378.39999962015
3374.0999999509004
l65,65,667999959,43620.69999964573
e79,79,1469999964,43676.39999964492
l56,56,670999992,43806.29999964303
r29,29,999970,45380.19999962013
3373.5999999509077
l65,65,667999951,43621.49999964572
e92,92,1465999961,43626.89999964564
l36,36,679999971,43767.2999996436
e100,100,1476999984,44300.19999963584
l42,42,667999988,44474.499999633306
r29,29,999973,46548.599999603124
3374.4999999508946
l65,65,669999987,43617.699999645774
e92,92,1466999985,43624.39999964568
l36,36,673999963,43768.69999964358
e100,100,1471999960,44303.0999996358
l42,42,665999959,44477.59999963326
r29,29,999971,46549.299999603114
3372.599999950922
l65,65,667999971,43619.49999964575
e92,92,1466999976,43625.299999645664
l36,36,667999951,43770.49999964355
e100,100,1476999993,44299.299999635856
l42,42,668999994,44473.79999963332
r29,29,999972,46551.59999960308
3373.499999950909
l65,65,668999981,43618.399999645764
e92,92,1466999979,43624.99999964567
l36,36,686999995,43764.19999964364
e100,100,1478999999,44298.49999963587
l42,42,668999996,44473.59999963332
r29,29,999971,46552.39999960307
3374.8999999508887
l65,65,667999972,43619.39999964575
e79,79,1464999951,43678.199999644894
l56,56,669999981,43807.49999964301
r29,29,999972,45378.49999962015
3374.199999950899
l65,65,667999961,43620.49999964573
e70,70,1460999983,44593.499999631575
l45,45,663999989,44701.09999963001
e94,94,1455999969,45235.399999622234
e87,87,1464999994,45252.69999962198
l58,58,657999976,45621.19999961662
3620.899999947309
l65,65,669999986,43617.79999964577
e70,70,1458999957,44596.299999631534
l45,45,658999960,44704.49999962996
e94,94,1454999955,45236.89999962221
e87,87,1461999973,45255.09999962195
l58,58,656999963,45622.5999996166
3620.0999999473206
l65,65,667999958,43620.79999964573
e70,70,1460999979,44593.89999963157
l45,45,659999975,44702.89999962998
e94,94,1454999959,45236.49999962222
e87,87,1455999951,45257.899999621906
l58,58,656999957,45623.19999961659
3620.0999999473206
l65,65,668999983,43618.19999964577
e70,70,1458999958,44596.199999631535
l45,45,658999962,44704.29999962996
e94,94,1455999967,45235.59999962223
e87,87,1456999954,45257.49999962191
l58,58,656999968,45622.09999961661
3617.39999994736
l65,65,667999962,43620.399999645735
e70,70,1460999968,44594.99999963155
l45,45,658999963,44704.199999629964
e94,94,1454999962,45236.19999962222
e87,87,1462999983,45253.99999962196
l58,58,656999966,45622.2999996166
3621.4999999473002
l65,65,667999963,43620.29999964574
e70,70,1460999992,44592.59999963159
l45,45,658999957,44704.799999629955
e94,94,1454999963,45236.09999962222
e87,87,1455999952,45257.79999962191
l58,58,663999990,45619.19999961665
3618.299999947347
l65,65,669999992,43617.19999964578
e70,70,1459999966,44595.29999963155
l45,45,664999997,44700.19999963002
e94,94,1455999976,45234.699999622244
e87,87,1459999964,45256.19999962193
l58,58,657999980,45620.799999616625
3621.299999947303
l65,65,667999975,43619.099999645754
e70,70,1462999993,44592.29999963159
l45,45,664999991,44700.79999963001
e94,94,1456999981,45234.09999962225
e87,87,1461999974,45254.99999962195
l58,58,665999995,45618.49999961666
3620.0999999473206
l65,65,667999976,43618.999999645755
e70,70,1462999995,44592.099999631595
l45,45,658999958,44704.69999962996
e94,94,1457999983,45233.79999962226
e87,87,1462999980,45254.29999962196
l58,58,656999967,45622.199999616605
3621.899999599147
l65,65,667999953,43621.29999964572
e92,92,1466999973,43625.59999964566
l64,64,668999982,43812.799999642935
e90,90,1472999986,44080.099999639046
r9,9,999989,44849.69999962785
e97,97,1458999999,44925.299999626746
e94,94,1457999985,45200.199999622746
e87,87,1456999955,45257.39999962191
l58,58,665999993,45618.699999616656
3618.3999999473453
l65,65,667999954,43621.19999964572
e79,79,1471999973,43675.299999644936
r12,12,999999,45069.89999962464
e87,87,1464999999,45220.59999962245
l58,58,665999996,45618.39999961666
3618.699999947341
l65,65,667999955,43621.099999645725
e70,70,1459999960,44595.89999963154
l45,45,659999976,44702.799999629984
e94,94,1454999953,45237.09999962221
e87,87,1459999963,45256.29999962193
l58,58,656999958,45623.09999961659
3618.0999999473497
l65,65,668999984,43618.09999964577
e92,92,1467999991,43623.69999964569
l64,64,668999994,43811.59999964295
e90,90,1472999993,44079.399999639056
r9,9,999992,44845.9999996279
e97,97,1458999992,44925.999999626736
e94,94,1459999987,45199.79999962275
e87,87,1461999968,45255.59999962194
l58,58,657999975,45621.29999961662
3620.0999999473206
l65,65,667999957,43620.89999964573
e92,92,1466999983,43624.599999645674
l64,64,668999997,43811.29999964296
e90,90,1469999978,44081.19999963903
r9,9,1000000,44842.39999962795
e97,97,1458999998,44925.399999626745
e94,94,1459999999,45198.59999962277
e87,87,1464999992,45252.89999962198
l58,58,661999983,45620.099999616636
3618.699999947341
l65,65,667999970,43619.59999964575
e70,70,1459999967,44595.19999963155
l45,45,664999998,44700.09999963002
e94,94,1455999973,45234.99999962224
e87,87,1461999967,45255.69999962194
l58,58,656999959,45622.99999961659
3620.499999947315
l65,65,667999967,43619.89999964574
e70,70,1459999965,44595.39999963155
l45,45,659999980,44702.39999962999
e94,94,1455999972,45235.09999962224
e87,87,1462999985,45253.799999621966
l58,58,663999988,45619.399999616646
3619.799999947325
l65,65,667999968,43619.799999645744
e70,70,1459999959,44595.99999963154
l45,45,664999990,44700.89999963001
e94,94,1455999971,45235.19999962224
e87,87,1456999957,45257.19999962192
l58,58,661999986,45619.79999961664
3622.5999999472842
l65,65,669999996,43616.79999964579
e70,70,1460999990,44592.799999631585
l45,45,659999979,44702.49999962999
e94,94,1455999970,45235.299999622235
e87,87,1462999981,45254.19999962196
l58,58,664999992,45618.89999961665
3620.2999999473177
l65,65,668999982,43618.299999645766
e70,70,1460999985,44593.29999963158
l45,45,658999953,44705.19999962995
e94,94,1455999968,45235.49999962223
e87,87,1464999996,45252.499999621985
l58,58,661999984,45619.99999961664
3621.3999999473017
