l42,42,672999982,43887.099999641854
r24,24,999982,44224.79999963694
e80,80,1471000000,44392.5999996345
r28,28,999988,44489.19999963309
2389.6999999652253
l42,42,672999952,43890.09999964181
r24,24,999997,44216.799999637056
e80,80,1470999997,44392.899999634494
r28,28,999996,44482.49999963319
2389.299999965231
l42,42,672999993,43885.99999964187
r24,24,999986,44223.39999963696
e80,80,1468999987,44394.099999634476
r28,28,999993,44485.29999963315
2387.3999999652588
l42,42,672999991,43886.19999964187
r24,24,999983,44224.69999963694
e80,80,1470999998,44392.799999634495
r28,28,999989,44488.4999996331
2388.2999999652457
l42,42,672999989,43886.399999641864
r24,24,999980,44226.69999963691
e80,80,1468999982,44394.59999963447
r28,28,999994,44484.49999963316
2391.299999965202
l42,42,672999959,43889.39999964182
r24,24,999990,44220.899999637
e80,80,1469999994,44393.29999963449
r28,28,999991,44488.19999963311
2389.099999965234
l42,42,672999978,43887.49999964185
r24,24,999995,44218.39999963703
e80,80,1468999981,44394.69999963447
r28,28,999992,44485.99999963314
2390.899999965208
l42,42,672999957,43889.59999964182
r24,24,999988,44222.59999963697
e80,80,1469999993,44393.39999963449
r28,28,999995,44483.99999963317
2389.3999999652297
l42,42,672999995,43885.79999964187
r24,24,999992,44218.999999637024
e80,80,1469999989,44393.79999963448
r28,28,999990,44488.299999633105
2391.7999999651947
l42,42,672999956,43889.699999641816
r24,24,999989,44221.699999636985
e80,80,1469999995,44393.19999963449
l50,50,667999982,44453.59999963361
e96,96,1463999984,46114.79999960944
3297.699999952012
l42,42,672999970,43888.29999964184
l50,50,663999974,45914.199999612356
e96,96,1461999981,46115.29999960943
3299.499999951986
l42,42,672999966,43888.69999964183
l50,50,663999965,45915.09999961234
e96,96,1461999965,46116.899999609406
3297.3999999520165
l42,42,672999990,43886.299999641866
l50,50,662999953,45916.399999612324
e96,96,1461999962,46117.1999996094
3295.1999999520485
l42,42,672999968,43888.499999641834
l50,50,664999977,45913.79999961236
e96,96,1461999957,46117.699999609395
3296.899999952024
l42,42,672999972,43888.09999964184
l50,50,663999968,45914.79999961235
e96,96,1461999982,46115.19999960943
3296.899999952024
l42,42,672999958,43889.49999964182
r24,24,999981,44226.19999963692
e80,80,1468999985,44394.29999963447
l50,50,669999995,44452.09999963363
e96,96,1464999993,46113.79999960945
3299.6999996038357
l42,42,672999983,43886.999999641856
l50,50,662999951,45916.59999961232
e96,96,1461999969,46116.49999960941
3299.7999999519816
l42,42,672999967,43888.59999964183
l50,50,663999975,45914.09999961236
e96,96,1461999972,46116.19999960942
3299.7999999519816
l42,42,672999969,43888.399999641835
l50,50,662999961,45915.599999612336
e96,96,1461999961,46117.2999996094
3296.2999999520325
l42,42,672999974,43887.89999964184
l50,50,664999976,45913.89999961236
e96,96,1461999966,46116.79999960941
3299.1999999519903
l42,42,673000000,43885.29999964188
l50,50,662999955,45916.19999961233
e96,96,1461999977,46115.699999609424
3296.6999999520267
l42,42,672999962,43889.099999641825
l50,50,663999969,45914.69999961235
e96,96,1461999959,46117.4999996094
3299.499999951986
l42,42,672999984,43886.89999964186
l50,50,663999967,45914.899999612346
e96,96,1461999963,46117.0999996094
3296.4999999520296
l42,42,672999953,43889.99999964181
l50,50,663999970,45914.59999961235
e96,96,1464999995,46113.599999609454
3297.5999999520136
l42,42,672999951,43890.19999964181
r24,24,999999,44215.499999637075
e80,80,1468999983,44394.49999963447
l50,50,671999997,44451.69999963364
e96,96,1465000000,46113.09999960946
3297.1999999520194
l42,42,672999965,43888.79999964183
r24,24,999984,44224.19999963695
e80,80,1469999992,44393.499999634485
l50,50,667999981,44453.69999963361
e96,96,1464999992,46113.89999960945
3299.3999999519874
l42,42,672999955,43889.799999641815
r24,24,999993,44218.899999637026
e80,80,1468999980,44394.799999634466
l50,50,667999983,44453.49999963361
e96,96,1461999951,46118.299999609386
3301.199999951961
l42,42,672999997,43885.599999641876
l50,50,662999956,45916.09999961233
e96,96,1464999994,46113.69999960945
3296.899999952024
l42,42,672999976,43887.699999641845
l50,50,664999979,45913.599999612365
e96,96,1461999971,46116.299999609415
3296.599999952028
l42,42,672999996,43885.699999641874
r24,24,999996,44217.499999637046
e80,80,1469999991,44393.59999963448
l50,50,668999990,44452.69999963362
e96,96,1461999955,46117.89999960939
3297.8999999520092
l42,42,672999977,43887.59999964185
l50,50,663999972,45914.39999961235
e96,96,1461999968,46116.59999960941
3300.1999999519758
l42,42,672999988,43886.49999964186
r24,24,999991,44219.19999963702
e80,80,1468999986,44394.199999634475
l50,50,669999993,44452.29999963363
e96,96,1461999967,46116.69999960941
3298.8999999519947
l42,42,672999971,43888.19999964184
l50,50,662999952,45916.49999961232
e96,96,1461999979,46115.49999960943
3300.999999951964
l42,42,672999973,43887.99999964184
r24,24,999987,44223.099999636965
e80,80,1468999984,44394.39999963447
l50,50,668999989,44452.79999963362
e96,96,1464999998,46113.29999960946
3297.1999999520194
l42,42,672999987,43886.59999964186
l50,50,662999962,45915.49999961234
e96,96,1461999973,46116.09999960942
3298.2999999520034
l42,42,672999964,43888.89999964183
l50,50,663999964,45915.19999961234
e96,96,1461999952,46118.19999960939
3300.4999999519714
l42,42,672999985,43886.79999964186
r24,24,999998,44215.89999963707
e80,80,1470999999,44392.6999996345
l50,50,667999984,44453.39999963361
e96,96,1461999958,46117.599999609396
3301.5999999519554
l42,42,672999981,43887.19999964185
r24,24,999985,44223.99999963695
e80,80,1469999996,44393.09999963449
l50,50,667999988,44452.99999963362
e96,96,1463999985,46114.69999960944
3297.7999999520107
l42,42,672999954,43889.89999964181
l50,50,663999971,45914.49999961235
e96,96,1461999953,46118.09999960939
3301.2999999519598
l42,42,672999975,43887.799999641844
l50,50,663999966,45914.999999612344
e96,96,1461999974,46115.99999960942
3298.9999999519932
l42,42,672999963,43888.99999964183
l50,50,662999958,45915.89999961233
e96,96,1461999960,46117.3999996094
3299.89999995198
l42,42,672999998,43885.49999964188
r24,24,1000000,44214.69999963709
e80,80,1468999988,44393.99999963448
l50,50,667999987,44453.09999963362
e96,96,1464999990,46114.09999960945
3300.4999999519714
l42,42,672999999,43885.39999964188
r24,24,999994,44218.79999963703
e80,80,1469999990,44393.69999963448
l50,50,669999991,44452.49999963363
e96,96,1463999986,46114.59999960944
3298.599999951999
l42,42,672999979,43887.39999964185
l50,50,662999960,45915.699999612334
e96,96,1463999988,46114.39999960944
3300.799999951967
l42,42,672999992,43886.09999964187
l50,50,662999954,45916.299999612325
e96,96,1464999997,46113.39999960946
3301.9999999519496
l42,42,672999961,43889.19999964182
l50,50,662999963,45915.39999961234
e96,96,1461999980,46115.39999960943
3301.199999951961
l42,42,672999960,43889.29999964182
l50,50,664999978,45913.69999961236
e96,96,1464999996,46113.499999609456
3299.7999999519816
l42,42,672999986,43886.69999964186
l50,50,662999959,45915.79999961233
e96,96,1461999970,46116.39999960941
3300.399999951973
l42,42,672999980,43887.29999964185
l50,50,663999973,45914.299999612354
e96,96,1464999991,46113.99999960945
3302.6999999519394
l42,42,672999994,43885.89999964187
l50,50,662999957,45915.99999961233
e96,96,1461999978,46115.599999609425
3301.0999999519627
