l46,46,999999956,56.10000000000053
r3,3,199999985,994.0000000001575
1037.0000000001523
l46,46,999999962,55.50000000000052
r3,3,199999969,995.6000000001578
1037.1000000001522
l46,46,1000000000,51.700000000000465
r3,3,199999993,993.2000000001573
1037.2000000001522
l46,46,999999985,53.200000000000486
r3,3,199999972,995.3000000001578
1037.300000000152
l46,46,999999974,54.3000000000005
r3,3,199999952,997.3000000001582
1037.400000000152
l46,46,999999979,53.800000000000495
r3,3,199999960,996.500000000158
1037.5000000001519
l46,46,999999997,52.00000000000047
r3,3,199999988,993.7000000001574
1037.6000000001518
l46,46,999999957,56.000000000000526
r3,3,199999954,997.1000000001582
1037.7000000001517
l46,46,999999988,52.90000000000048
r3,3,199999997,992.8000000001572
1037.8000000001516
l46,46,999999954,56.30000000000053
r3,3,199999953,997.2000000001582
1037.9000000001515
l46,46,999999963,55.40000000000052
r3,3,199999961,996.400000000158
1038.0000000001514
l46,46,999999961,55.60000000000052
r3,3,199999979,994.6000000001576
1038.1000000001513
l46,46,999999975,54.2000000000005
r3,3,199999962,996.300000000158
1038.2000000001512
l46,46,999999970,54.70000000000051
r3,3,199999966,995.9000000001579
1038.3000000001512
l46,46,999999958,55.900000000000524
r3,3,199999970,995.5000000001578
1038.400000000151
l46,46,999999983,53.40000000000049
r3,3,199999999,992.6000000001571
1038.500000000151
l46,46,999999967,55.00000000000051
r3,3,199999992,993.3000000001573
1038.6000000001509
l46,46,999999972,54.500000000000504
r3,3,199999986,993.9000000001574
1038.7000000001508
l46,46,999999960,55.70000000000052
r3,3,199999994,993.1000000001573
1038.8000000001507
l46,46,999999996,52.10000000000047
r3,3,199999974,995.1000000001577
1038.9000000001506
l46,46,999999987,53.00000000000048
r3,3,199999995,993.0000000001572
1039.0000000001505
l46,46,999999998,51.90000000000047
r3,3,199999967,995.8000000001579
1039.1000000001504
l46,46,999999999,51.800000000000466
r3,3,199999955,997.0000000001581
1039.2000000001503
l46,46,999999953,56.40000000000053
r3,3,199999983,994.2000000001575
1039.3000000001502
l46,46,999999976,54.1000000000005
r3,3,199999990,993.5000000001573
1039.4000000001502
l46,46,999999989,52.80000000000048
r3,3,199999971,995.4000000001578
1039.50000000015
l46,46,999999982,53.50000000000049
r3,3,199999956,996.9000000001581
1039.60000000015
l46,46,999999971,54.600000000000506
r3,3,199999968,995.7000000001578
1039.7000000001499
l46,46,999999986,53.100000000000485
r3,3,199999963,996.200000000158
1039.8000000001498
l46,46,999999973,54.4000000000005
r3,3,199999957,996.8000000001581
1039.9000000001497
l46,46,999999968,54.90000000000051
r3,3,199999991,993.4000000001573
1040.0000000001496
l46,46,999999993,52.400000000000475
r3,3,199999989,993.6000000001574
1040.1000000001495
l46,46,999999981,53.60000000000049
r3,3,199999976,994.9000000001577
1040.2000000001494
l46,46,999999978,53.900000000000496
r3,3,199999982,994.3000000001575
1040.3000000001493
l46,46,999999984,53.30000000000049
r3,3,199999965,996.0000000001579
1040.4000000001492
l46,46,999999980,53.70000000000049
r3,3,199999987,993.8000000001574
1040.5000000001492
l46,46,999999995,52.20000000000047
r3,3,199999978,994.7000000001576
1040.600000000149
l46,46,999999952,56.50000000000053
r3,3,199999973,995.2000000001577
1040.700000000149
l46,46,999999959,55.80000000000052
r3,3,199999996,992.9000000001572
1040.8000000001489
l46,46,999999955,56.20000000000053
r3,3,199999964,996.1000000001579
1040.9000000001488
l46,46,999999994,52.30000000000047
r3,3,200000000,992.5000000001571
1041.0000000001487
l46,46,999999977,54.0000000000005
r3,3,199999998,992.7000000001572
1041.1000000001486
l46,46,999999991,52.60000000000048
r3,3,199999980,994.5000000001576
1041.2000000001485
l46,46,999999990,52.70000000000048
r3,3,199999975,995.0000000001577
1041.3000000001484
l46,46,999999965,55.200000000000514
r3,3,199999981,994.4000000001575
1041.4000000001483
l46,46,999999964,55.300000000000516
r3,3,199999951,997.4000000001582
1041.5000000001482
l46,46,999999992,52.500000000000476
r3,3,199999958,996.7000000001581
1041.6000000001482
l46,46,999999966,55.10000000000051
r3,3,199999959,996.600000000158
1041.700000000148
l46,46,999999951,56.600000000000534
r3,3,199999984,994.1000000001575
1041.800000000148
l46,46,999999969,54.80000000000051
r3,3,199999977,994.8000000001576
1041.9000000001479
