l49,49,999999997,243.69999999999044
r7,7,199999976,507.5000000000469
r12,12,199999982,1197.0000000000068
1301.5999999999117
l49,49,999999966,246.79999999999026
r7,7,199999970,508.10000000004703
r12,12,199999978,1197.4000000000065
1301.6999999999116
l49,49,999999970,246.39999999999029
r7,7,199999988,506.3000000000466
r12,12,199999992,1196.0000000000077
1301.7999999999115
l49,49,999999955,247.8999999999902
r7,7,199999995,505.60000000004646
r12,12,199999953,1199.9000000000042
1301.8999999999114
l49,49,999999999,243.49999999999045
r7,7,199999979,507.2000000000468
r12,12,199999977,1197.5000000000064
1301.9999999999113
l49,49,999999958,247.59999999999022
r7,7,199999986,506.50000000004667
r12,12,199999956,1199.6000000000045
1302.0999999999112
l49,49,999999989,244.4999999999904
r7,7,199999984,506.7000000000467
r12,12,199999971,1198.1000000000058
1302.1999999999111
l49,49,999999976,245.79999999999032
r7,7,199999952,509.90000000004744
r12,12,199999991,1196.1000000000076
1302.299999999911
l49,49,999999969,246.49999999999028
r7,7,199999967,508.4000000000471
r12,12,199999952,1200.000000000004
1302.399999999911
l49,49,999999957,247.6999999999902
r7,7,199999951,510.00000000004746
r12,12,199999958,1199.4000000000046
1302.4999999999109
l49,49,999999977,245.69999999999033
r7,7,199999957,509.4000000000473
r12,12,199999988,1196.4000000000074
1302.5999999999108
l49,49,999999985,244.89999999999037
r7,7,199999954,509.7000000000474
r12,12,199999959,1199.3000000000047
1302.6999999999107
l49,49,999999979,245.49999999999034
r7,7,199999982,506.90000000004676
r12,12,199999999,1195.3000000000084
1302.7999999999106
l49,49,1000000000,243.39999999999046
r7,7,199999974,507.70000000004694
r12,12,199999989,1196.3000000000075
1302.8999999999105
l49,49,999999978,245.59999999999033
r7,7,199999971,508.000000000047
r12,12,199999980,1197.2000000000066
1302.9999999999104
l49,49,999999994,243.99999999999042
r7,7,199999998,505.3000000000464
r12,12,199999972,1198.000000000006
1303.0999999999103
l49,49,999999987,244.69999999999038
r7,7,199999989,506.2000000000466
r12,12,199999990,1196.2000000000075
1303.1999999999102
l49,49,999999975,245.8999999999903
r7,7,199999953,509.8000000000474
r12,12,199999961,1199.100000000005
1303.2999999999101
l49,49,999999967,246.69999999999027
r7,7,199999978,507.30000000004685
r12,12,199999968,1198.4000000000055
1303.39999999991
l49,49,999999988,244.5999999999904
r7,7,199999959,509.2000000000473
r12,12,199999993,1195.9000000000078
1303.49999999991
l49,49,999999951,248.29999999999018
r7,7,199999994,505.7000000000465
r12,12,199999970,1198.2000000000057
1303.5999999999099
l49,49,999999963,247.09999999999025
r7,7,199999961,509.00000000004724
r12,12,199999963,1198.900000000005
1303.6999999999098
l49,49,999999960,247.39999999999023
r7,7,199999955,509.6000000000474
r12,12,199999981,1197.1000000000067
1303.7999999999097
l49,49,999999981,245.29999999999035
r7,7,199999996,505.50000000004644
r12,12,199999976,1197.6000000000063
1303.8999999999096
l49,49,999999995,243.89999999999043
r7,7,199999966,508.5000000000471
r12,12,199999986,1196.6000000000072
1303.9999999999095
l49,49,999999965,246.89999999999026
r7,7,199999972,507.900000000047
r12,12,199999996,1195.600000000008
1304.0999999999094
l49,49,999999959,247.49999999999022
r7,7,199999985,506.6000000000467
r12,12,199999974,1197.800000000006
1304.1999999999093
l49,49,999999982,245.19999999999035
r7,7,199999958,509.3000000000473
r12,12,199999997,1195.5000000000082
1304.2999999999092
l49,49,999999952,248.19999999999018
r7,7,199999973,507.80000000004696
r12,12,199999964,1198.8000000000052
1304.3999999999091
l49,49,999999954,247.9999999999902
r7,7,199999968,508.3000000000471
r12,12,199999969,1198.3000000000056
1304.499999999909
l49,49,999999974,245.9999999999903
r7,7,199999991,506.00000000004655
r12,12,199999955,1199.7000000000044
1304.599999999909
l49,49,999999983,245.09999999999036
r7,7,199999981,507.0000000000468
r12,12,199999966,1198.6000000000054
1304.6999999999089
l49,49,999999971,246.2999999999903
r7,7,199999965,508.60000000004715
r12,12,199999985,1196.700000000007
1304.7999999999088
l49,49,999999964,246.99999999999025
r7,7,199999960,509.10000000004726
r12,12,199999957,1199.5000000000045
1304.8999999999087
l49,49,999999984,244.99999999999037
r7,7,199999990,506.1000000000466
r12,12,199999962,1199.000000000005
1304.9999999999086
l49,49,999999953,248.0999999999902
r7,7,199999992,505.90000000004653
r12,12,199999984,1196.800000000007
1305.0999999999085
l49,49,999999980,245.39999999999034
r7,7,199999975,507.6000000000469
r12,12,200000000,1195.2000000000085
1305.1999999999084
l49,49,999999956,247.7999999999902
r7,7,199999962,508.9000000000472
r12,12,199999995,1195.700000000008
1305.2999999999083
l49,49,999999961,247.29999999999023
r7,7,199999969,508.20000000004705
r12,12,199999967,1198.5000000000055
1305.3999999999082
l49,49,999999996,243.79999999999043
r7,7,199999983,506.80000000004674
r12,12,199999960,1199.2000000000048
1305.4999999999081
l49,49,999999990,244.3999999999904
r7,7,199999997,505.4000000000464
r12,12,199999983,1196.900000000007
1305.599999999908
l49,49,999999968,246.59999999999027
r7,7,199999977,507.4000000000469
r12,12,199999954,1199.8000000000043
1305.699999999908
l49,49,999999986,244.79999999999038
r7,7,199999999,505.2000000000464
r12,12,199999975,1197.7000000000062
1305.7999999999079
l49,49,999999962,247.19999999999024
r7,7,199999963,508.8000000000472
r12,12,199999994,1195.800000000008
1305.8999999999078
l49,49,999999998,243.59999999999044
r7,7,199999980,507.1000000000468
r12,12,199999987,1196.5000000000073
1305.9999999999077
l49,49,999999991,244.2999999999904
r7,7,199999964,508.70000000004717
r12,12,199999965,1198.7000000000053
1306.0999999999076
l49,49,999999993,244.09999999999042
r7,7,199999987,506.40000000004665
r12,12,199999973,1197.900000000006
1306.1999999999075
l49,49,999999992,244.1999999999904
r7,7,199999993,505.8000000000465
r12,12,199999951,1200.100000000004
1306.2999999999074
l49,49,999999972,246.1999999999903
r7,7,199999956,509.50000000004735
r12,12,199999998,1195.4000000000083
1306.3999999999073
l49,49,999999973,246.0999999999903
r7,7,200000000,505.10000000004635
r12,12,199999979,1197.3000000000065
1306.4999999999072
