l44,44,999999956,36.40000000000025
l45,45,999999994,348.3000000000107
l42,42,999999966,802.6000000001139
l39,39,999999962,869.000000000129
r11,11,199999958,888.1000000001334
l63,63,999999952,1173.2000000000285
2465.1999999988534
l44,44,999999966,35.40000000000023
l45,45,999999987,349.00000000001086
l42,42,999999995,799.7000000001133
l39,39,999999996,865.6000000001283
r11,11,199999969,887.0000000001331
l63,63,999999995,1168.9000000000324
2465.2999999988533
l44,44,999999974,34.60000000000022
l45,45,999999973,350.4000000000112
l42,42,999999981,801.1000000001136
l39,39,999999964,868.800000000129
r11,11,199999956,888.3000000001334
l63,63,999999988,1169.6000000000317
2465.399999998853
l44,44,999999964,35.600000000000236
l45,45,999999958,351.9000000000115
l42,42,999999971,802.1000000001138
l39,39,999999997,865.5000000001282
r11,11,199999997,884.2000000001325
l63,63,999999982,1170.2000000000312
2465.499999998853
l44,44,999999955,36.50000000000025
l45,45,999999955,352.2000000000116
l42,42,999999998,799.4000000001132
l39,39,999999981,867.1000000001286
r11,11,199999957,888.2000000001334
l63,63,999999966,1171.8000000000297
2465.599999998853
l44,44,999999965,35.500000000000234
l45,45,999999995,348.2000000000107
l42,42,999999996,799.6000000001133
l39,39,999999952,870.0000000001293
r11,11,199999962,887.7000000001333
l63,63,999999990,1169.400000000032
2465.699999998853
l44,44,999999952,36.80000000000025
l45,45,999999957,352.00000000001154
l42,42,999999973,801.9000000001138
l39,39,999999955,869.7000000001292
r11,11,199999967,887.2000000001332
l63,63,999999965,1171.9000000000296
2465.799999998853
l44,44,999999984,33.60000000000021
l45,45,999999959,351.8000000000115
l42,42,999999967,802.5000000001139
l39,39,999999988,866.4000000001284
r11,11,199999952,888.7000000001335
l63,63,999999986,1169.8000000000316
2465.8999999988528
l44,44,999999969,35.10000000000023
l45,45,999999951,352.6000000000117
l42,42,999999955,803.7000000001142
l39,39,999999973,867.9000000001288
r11,11,199999980,885.9000000001329
l63,63,999999983,1170.1000000000313
2465.9999999988527
l44,44,999999990,33.0000000000002
l45,45,999999970,350.70000000001124
l42,42,999999991,800.1000000001134
l39,39,999999958,869.4000000001291
r11,11,199999966,887.3000000001332
l63,63,999999997,1168.7000000000326
2466.0999999988526
l44,44,999999997,32.30000000000019
l45,45,999999963,351.4000000000114
l42,42,999999989,800.3000000001134
l39,39,999999970,868.2000000001289
r11,11,199999971,886.8000000001331
l63,63,999999967,1171.7000000000298
2466.1999999988525
l44,44,999999954,36.60000000000025
l45,45,999999960,351.70000000001147
l42,42,999999965,802.700000000114
l39,39,999999951,870.1000000001293
r11,11,199999990,884.9000000001326
l63,63,999999975,1170.9000000000306
2466.2999999988524
l44,44,999999958,36.200000000000244
l45,45,999999967,351.0000000000113
l42,42,999999964,802.800000000114
l39,39,999999985,866.7000000001285
r11,11,199999989,885.0000000001327
l63,63,999999969,1171.50000000003
2466.3999999988523
l44,44,999999982,33.80000000000021
l45,45,999999969,350.80000000001127
l42,42,999999962,803.000000000114
l39,39,999999965,868.700000000129
r11,11,199999999,884.0000000001324
l63,63,999999998,1168.6000000000327
2466.499999998852
l44,44,999999953,36.70000000000025
l45,45,999999952,352.50000000001165
l42,42,999999983,800.9000000001136
l39,39,999999986,866.6000000001285
r11,11,199999984,885.5000000001328
l63,63,999999985,1169.9000000000315
2466.599999998852
l44,44,999999959,36.10000000000024
l45,45,999999971,350.6000000000112
l42,42,999999977,801.5000000001137
l39,39,999999998,865.4000000001282
r11,11,199999995,884.4000000001325
l63,63,999999954,1173.0000000000286
2466.699999998852
l44,44,999999961,35.90000000000024
l45,45,999999984,349.3000000000109
l42,42,999999951,804.1000000001143
l39,39,999999995,865.7000000001283
r11,11,199999955,888.4000000001334
l63,63,999999956,1172.8000000000288
2466.799999998852
l44,44,999999957,36.300000000000246
l45,45,999999983,349.40000000001095
l42,42,999999976,801.6000000001137
l39,39,999999990,866.2000000001284
r11,11,199999992,884.7000000001326
l63,63,999999993,1169.1000000000322
2466.899999998852
l44,44,999999951,36.900000000000254
l45,45,999999972,350.5000000000112
l42,42,999999979,801.3000000001136
l39,39,999999954,869.8000000001292
r11,11,199999982,885.7000000001328
l63,63,999999974,1171.0000000000305
2466.9999999988518
l44,44,999999980,34.00000000000021
l45,45,999999965,351.20000000001136
l42,42,999999960,803.2000000001141
l39,39,999999992,866.0000000001284
r11,11,199999963,887.6000000001333
l63,63,999999962,1172.2000000000294
2467.0999999988517
l44,44,999999976,34.40000000000022
l45,45,999999956,352.10000000001156
l42,42,999999993,799.9000000001133
l39,39,999999960,869.2000000001291
r11,11,199999986,885.3000000001327
l63,63,999999984,1170.0000000000314
2467.1999999988516
l44,44,999999986,33.400000000000205
l45,45,999999979,349.80000000001104
l42,42,1000000000,799.2000000001132
l39,39,999999969,868.3000000001289
r11,11,199999970,886.9000000001331
l63,63,999999989,1169.5000000000318
2467.2999999988515
l44,44,999999995,32.50000000000019
l45,45,999999954,352.3000000000116
l42,42,999999992,800.0000000001133
l39,39,999999961,869.1000000001291
r11,11,199999961,887.8000000001333
l63,63,999999981,1170.300000000031
2467.3999999988514
l44,44,999999992,32.800000000000196
l45,45,999999978,349.90000000001106
l42,42,999999988,800.4000000001134
l39,39,999999972,868.0000000001288
r11,11,199999975,886.400000000133
l63,63,999999955,1172.9000000000287
2467.4999999988513
l44,44,999999978,34.200000000000216
l45,45,999999961,351.60000000001145
l42,42,999999956,803.6000000001142
l39,39,999999974,867.8000000001288
r11,11,199999953,888.6000000001335
l63,63,999999992,1169.200000000032
2467.599999998851
l44,44,999999962,35.80000000000024
l45,45,999999976,350.1000000000111
l42,42,999999957,803.5000000001141
l39,39,999999999,865.3000000001282
r11,11,199999991,884.8000000001326
l63,63,999999999,1168.5000000000327
2467.699999998851
l44,44,999999972,34.800000000000225
l45,45,999999996,348.10000000001065
l42,42,999999952,804.0000000001143
l39,39,999999989,866.3000000001284
r11,11,199999960,887.9000000001333
l63,63,999999960,1172.4000000000292
2467.799999998851
l44,44,999999960,36.00000000000024
l45,45,999999980,349.700000000011
l42,42,999999961,803.100000000114
l39,39,999999966,868.600000000129
r11,11,199999973,886.600000000133
l63,63,999999978,1170.6000000000308
2467.899999998851
l44,44,999999963,35.70000000000024
l45,45,999999985,349.2000000000109
l42,42,999999999,799.3000000001132
l39,39,999999957,869.5000000001291
r11,11,199999977,886.200000000133
l63,63,999999958,1172.600000000029
2467.999999998851
l44,44,999999979,34.100000000000215
l45,45,999999968,350.9000000000113
l42,42,999999959,803.3000000001141
l39,39,999999991,866.1000000001284
r11,11,199999983,885.6000000001328
l63,63,1000000000,1168.4000000000328
2468.0999999988508
l44,44,999999987,33.3000000000002
l45,45,999999977,350.0000000000111
l42,42,999999978,801.4000000001137
l39,39,999999979,867.3000000001286
r11,11,199999954,888.5000000001335
l63,63,999999980,1170.400000000031
2468.1999999988507
l44,44,999999998,32.20000000000019
l45,45,999999964,351.3000000000114
l42,42,999999970,802.2000000001138
l39,39,1000000000,865.2000000001282
r11,11,199999964,887.5000000001332
l63,63,999999968,1171.60000000003
2468.2999999988506
l44,44,999999981,33.90000000000021
l45,45,1000000000,347.70000000001056
l42,42,999999987,800.5000000001135
l39,39,999999978,867.4000000001287
r11,11,199999974,886.500000000133
l63,63,999999953,1173.1000000000286
2468.3999999988505
l44,44,999999973,34.70000000000022
l45,45,999999997,348.00000000001063
l42,42,999999969,802.3000000001139
l39,39,999999994,865.8000000001283
r11,11,199999985,885.4000000001328
l63,63,999999976,1170.8000000000306
2468.4999999988504
l44,44,999999994,32.60000000000019
l45,45,999999966,351.10000000001133
l42,42,999999986,800.6000000001135
l39,39,999999968,868.4000000001289
r11,11,199999981,885.8000000001329
l63,63,999999996,1168.8000000000325
2468.5999999988503
l44,44,999999991,32.9000000000002
l45,45,999999953,352.40000000001163
l42,42,999999980,801.2000000001136
l39,39,999999956,869.6000000001292
r11,11,199999994,884.5000000001326
l63,63,999999959,1172.500000000029
2468.69999999885
l44,44,999999967,35.30000000000023
l45,45,999999998,347.9000000000106
l42,42,999999972,802.0000000001138
l39,39,999999983,866.9000000001286
r11,11,200000000,883.9000000001324
l63,63,999999964,1172.0000000000296
2468.79999999885
l44,44,999999977,34.30000000000022
l45,45,999999975,350.20000000001113
l42,42,999999982,801.0000000001136
l39,39,999999984,866.8000000001285
r11,11,199999979,886.0000000001329
l63,63,999999977,1170.7000000000307
2468.89999999885
l44,44,999999968,35.20000000000023
l45,45,999999999,347.8000000000106
l42,42,999999975,801.7000000001137
l39,39,999999976,867.6000000001287
r11,11,199999993,884.6000000001326
l63,63,999999951,1173.3000000000284
2468.99999999885
l44,44,999999999,32.100000000000186
l45,45,999999988,348.90000000001083
l42,42,999999994,799.8000000001133
l39,39,999999982,867.0000000001286
r11,11,199999978,886.1000000001329
l63,63,999999963,1172.1000000000295
2469.09999999885
l44,44,999999983,33.70000000000021
l45,45,999999991,348.60000000001077
l42,42,999999984,800.8000000001135
l39,39,999999963,868.900000000129
r11,11,199999951,888.8000000001335
l63,63,999999970,1171.40000000003
2469.1999999988498
l44,44,1000000000,32.000000000000185
l45,45,999999974,350.30000000001115
l42,42,999999997,799.5000000001132
l39,39,999999975,867.7000000001287
r11,11,199999996,884.3000000001325
l63,63,999999987,1169.7000000000317
2469.2999999988497
l44,44,999999970,35.00000000000023
l45,45,999999986,349.1000000000109
l42,42,999999963,802.900000000114
l39,39,999999993,865.9000000001283
r11,11,199999965,887.4000000001332
l63,63,999999971,1171.3000000000302
2469.3999999988496
l44,44,999999971,34.900000000000226
l45,45,999999992,348.50000000001074
l42,42,999999953,803.9000000001142
l39,39,999999967,868.5000000001289
r11,11,199999959,888.0000000001334
l63,63,999999994,1169.0000000000323
2469.4999999988495
l44,44,999999975,34.50000000000022
l45,45,999999981,349.600000000011
l42,42,999999985,800.7000000001135
l39,39,999999977,867.5000000001287
r11,11,199999976,886.300000000133
l63,63,999999972,1171.2000000000303
2469.5999999988494
l44,44,999999985,33.500000000000206
l45,45,999999990,348.7000000000108
l42,42,999999958,803.4000000001141
l39,39,999999959,869.3000000001291
r11,11,199999972,886.7000000001331
l63,63,999999961,1172.3000000000293
2469.6999999988493
l44,44,999999996,32.40000000000019
l45,45,999999962,351.5000000000114
l42,42,999999954,803.8000000001142
l39,39,999999980,867.2000000001286
r11,11,199999988,885.1000000001327
l63,63,999999973,1171.1000000000304
2469.799999998849
l44,44,999999989,33.1000000000002
l45,45,999999989,348.8000000000108
l42,42,999999968,802.4000000001139
l39,39,999999953,869.9000000001292
r11,11,199999998,884.1000000001325
l63,63,999999991,1169.300000000032
2469.899999998849
l44,44,999999993,32.700000000000195
l45,45,999999993,348.4000000000107
l42,42,999999974,801.8000000001138
l39,39,999999987,866.5000000001285
r11,11,199999987,885.2000000001327
l63,63,999999957,1172.700000000029
2469.999999998849
l44,44,999999988,33.2000000000002
l45,45,999999982,349.50000000001097
l42,42,999999990,800.2000000001134
l39,39,999999971,868.1000000001288
r11,11,199999968,887.1000000001332
l63,63,999999979,1170.500000000031
2470.099999998849
