r29,29,199999959,96.49999999999879
941.0000000001454
r29,29,199999979,94.4999999999989
941.1000000001454
r29,29,199999954,96.99999999999876
941.2000000001455
r29,29,199999967,95.69999999999884
941.3000000001455
r29,29,199999970,95.39999999999885
941.4000000001455
r29,29,199999988,93.59999999999896
941.5000000001455
r29,29,200000000,92.39999999999903
941.6000000001455
r29,29,199999957,96.69999999999878
941.7000000001456
r29,29,199999982,94.19999999999892
941.8000000001456
r29,29,199999981,94.29999999999892
941.9000000001456
r29,29,199999962,96.19999999999881
942.0000000001456
r29,29,199999994,92.99999999999899
942.1000000001457
r29,29,199999987,93.69999999999895
942.2000000001457
r29,29,199999976,94.79999999999889
942.3000000001457
r29,29,199999971,95.29999999999886
942.4000000001457
r29,29,199999953,97.09999999999876
942.5000000001457
r29,29,199999998,92.59999999999901
942.6000000001458
r29,29,199999993,93.09999999999899
942.7000000001458
r29,29,199999965,95.89999999999883
942.8000000001458
r29,29,199999958,96.59999999999879
942.9000000001458
r29,29,199999995,92.899999999999
943.0000000001459
r29,29,199999999,92.49999999999902
943.1000000001459
r29,29,199999989,93.49999999999896
943.2000000001459
r29,29,199999980,94.39999999999891
943.3000000001459
r29,29,199999966,95.79999999999883
943.400000000146
r29,29,199999972,95.19999999999887
943.500000000146
r29,29,199999961,96.2999999999988
943.600000000146
r29,29,199999977,94.6999999999989
943.700000000146
r29,29,199999975,94.89999999999888
943.800000000146
r29,29,199999983,94.09999999999893
943.9000000001461
r29,29,199999992,93.19999999999898
944.0000000001461
r29,29,199999985,93.89999999999894
944.1000000001461
r29,29,199999997,92.69999999999901
944.2000000001461
r29,29,199999978,94.5999999999989
944.3000000001462
r29,29,199999968,95.59999999999884
944.4000000001462
r29,29,199999986,93.79999999999895
944.5000000001462
r29,29,199999996,92.799999999999
944.6000000001462
r29,29,199999960,96.3999999999988
944.7000000001462
r29,29,199999969,95.49999999999885
944.8000000001463
r29,29,199999955,96.89999999999877
944.9000000001463
r29,29,199999952,97.19999999999875
945.0000000001463
r29,29,199999991,93.29999999999897
945.1000000001463
r29,29,199999973,95.09999999999887
945.2000000001464
r29,29,199999951,97.29999999999875
945.3000000001464
r29,29,199999990,93.39999999999897
945.4000000001464
r29,29,199999974,94.99999999999888
945.5000000001464
r29,29,199999963,96.09999999999881
945.6000000001465
r29,29,199999956,96.79999999999878
945.7000000001465
r29,29,199999984,93.99999999999893
945.8000000001465
r29,29,199999964,95.99999999999882
945.9000000001465
