l51,51,999999969,163.699999999995
l36,36,999999995,531.4000000000523
e94,94,1799999983,827.7000000001196
l52,52,999999999,910.2000000001384
1503.1999999997283
l51,51,999999955,165.0999999999949
l36,36,999999996,531.3000000000523
e94,94,1799999952,830.8000000001203
l52,52,999999989,911.2000000001386
1503.2999999997282
l51,51,999999956,164.9999999999949
l36,36,999999962,534.700000000053
e94,94,1799999988,827.2000000001195
l52,52,999999979,912.2000000001389
1503.3999999997282
l51,51,999999989,161.6999999999951
l36,36,999999998,531.1000000000522
e94,94,1799999982,827.8000000001197
l52,52,999999981,912.0000000001388
1503.499999999728
l51,51,999999974,163.19999999999501
l36,36,999999980,532.9000000000526
e94,94,1799999969,829.10000000012
l52,52,999999974,912.700000000139
1503.599999999728
l51,51,999999952,165.3999999999949
l36,36,999999993,531.6000000000523
e94,94,1799999992,826.8000000001194
l52,52,999999962,913.9000000001392
1503.6999999997279
l51,51,999999961,164.49999999999494
l36,36,999999991,531.8000000000524
e94,94,1799999998,826.2000000001193
l52,52,999999971,913.000000000139
1503.7999999997278
l51,51,999999983,162.29999999999507
l36,36,999999972,533.7000000000528
e94,94,1799999961,829.9000000001201
l52,52,999999992,910.9000000001386
1503.8999999997277
l51,51,999999975,163.09999999999502
l36,36,999999983,532.6000000000525
e94,94,1799999975,828.5000000001198
l52,52,999999952,914.9000000001395
1503.9999999997276
l51,51,999999973,163.299999999995
l36,36,999999957,535.2000000000531
e94,94,1799999971,828.9000000001199
l52,52,999999987,911.4000000001387
1504.0999999997275
l51,51,999999954,165.1999999999949
l36,36,999999987,532.2000000000525
e94,94,1799999959,830.1000000001202
l52,52,999999967,913.4000000001391
1504.1999999997274
l51,51,999999958,164.79999999999492
l36,36,999999999,531.0000000000522
e94,94,1799999993,826.7000000001194
l52,52,999999951,915.0000000001395
1504.2999999997273
l51,51,999999988,161.7999999999951
l36,36,1000000000,530.9000000000522
e94,94,1799999996,826.4000000001193
l52,52,999999975,912.600000000139
1504.3999999997272
l51,51,999999951,165.49999999999488
l36,36,999999968,534.1000000000529
e94,94,1799999978,828.2000000001198
l52,52,999999966,913.5000000001392
1504.4999999997272
l51,51,999999984,162.19999999999507
l36,36,999999989,532.0000000000524
e94,94,1799999987,827.3000000001196
l52,52,999999973,912.800000000139
1504.599999999727
l51,51,999999991,161.4999999999951
l36,36,999999971,533.8000000000528
e94,94,1799999953,830.7000000001203
l52,52,999999963,913.8000000001392
1504.699999999727
l51,51,999999996,160.99999999999514
l36,36,999999955,535.4000000000532
e94,94,1799999985,827.5000000001196
l52,52,1000000000,910.1000000001384
1504.7999999997269
l51,51,999999964,164.19999999999496
l36,36,999999967,534.2000000000529
e94,94,1799999991,826.9000000001195
l52,52,999999984,911.7000000001387
1504.8999999997268
l51,51,1000000000,160.59999999999516
l36,36,999999964,534.500000000053
e94,94,1799999979,828.1000000001197
l52,52,999999995,910.6000000001385
1504.9999999997267
l51,51,999999990,161.5999999999951
l36,36,999999970,533.9000000000528
e94,94,1799999955,830.5000000001203
l52,52,999999991,911.0000000001386
1505.0999999997266
l51,51,999999963,164.29999999999495
l36,36,999999984,532.5000000000525
e94,94,1799999966,829.40000000012
l52,52,999999957,914.4000000001394
1505.1999999997265
l51,51,999999998,160.79999999999515
l36,36,999999966,534.3000000000529
e94,94,1799999984,827.6000000001196
l52,52,999999990,911.1000000001386
1505.2999999997264
l51,51,999999995,161.09999999999513
l36,36,999999997,531.2000000000522
e94,94,1799999990,827.0000000001195
l52,52,999999980,912.1000000001388
1505.3999999997263
l51,51,999999993,161.29999999999512
l36,36,999999982,532.7000000000526
e94,94,1799999981,827.9000000001197
l52,52,999999993,910.8000000001385
1505.4999999997262
l51,51,999999992,161.39999999999512
l36,36,999999974,533.5000000000528
e94,94,1799999972,828.8000000001199
l52,52,999999972,912.900000000139
1505.5999999997262
l51,51,999999960,164.59999999999494
l36,36,999999994,531.5000000000523
e94,94,1799999962,829.8000000001201
l52,52,999999986,911.5000000001387
1505.699999999726
l51,51,999999953,165.2999999999949
l36,36,999999988,532.1000000000524
e94,94,1799999954,830.6000000001203
l52,52,999999985,911.6000000001387
1505.799999999726
l51,51,999999980,162.59999999999505
l36,36,999999976,533.3000000000527
e94,94,1799999997,826.3000000001193
l52,52,999999988,911.3000000001387
1505.8999999997259
l51,51,999999999,160.69999999999516
l36,36,999999954,535.5000000000532
e94,94,1799999980,828.0000000001197
l52,52,999999954,914.7000000001394
1505.9999999997258
l51,51,999999978,162.79999999999504
l36,36,999999959,535.0000000000531
e94,94,1799999970,829.0000000001199
l52,52,999999982,911.9000000001388
1506.0999999997257
l51,51,999999965,164.09999999999496
l36,36,999999953,535.6000000000532
e94,94,1799999960,830.0000000001202
l52,52,999999968,913.3000000001391
1506.1999999997256
l51,51,999999959,164.69999999999493
l36,36,999999975,533.4000000000527
e94,94,1799999964,829.6000000001201
l52,52,999999997,910.4000000001384
1506.2999999997255
l51,51,999999972,163.399999999995
l36,36,999999992,531.7000000000523
e94,94,1799999989,827.1000000001195
l52,52,999999978,912.3000000001389
1506.3999999997254
l51,51,999999977,162.89999999999503
l36,36,999999965,534.400000000053
e94,94,1799999968,829.20000000012
l52,52,999999959,914.2000000001393
1506.4999999997253
l51,51,999999968,163.79999999999498
l36,36,999999952,535.7000000000533
e94,94,1799999951,830.9000000001204
l52,52,999999960,914.1000000001393
1506.5999999997252
l51,51,999999970,163.599999999995
l36,36,999999981,532.8000000000526
e94,94,1799999958,830.2000000001202
l52,52,999999953,914.8000000001394
1506.6999999997252
l51,51,999999967,163.89999999999498
l36,36,999999969,534.0000000000529
e94,94,1799999999,826.1000000001193
l52,52,999999955,914.6000000001394
1506.799999999725
l51,51,999999966,163.99999999999497
l36,36,999999951,535.8000000000533
e94,94,1799999967,829.30000000012
l52,52,999999958,914.3000000001393
1506.899999999725
l51,51,999999985,162.09999999999508
l36,36,999999985,532.4000000000525
e94,94,1799999957,830.3000000001202
l52,52,999999964,913.7000000001392
1506.9999999997249
l51,51,999999997,160.89999999999515
l36,36,999999986,532.3000000000525
e94,94,1799999995,826.5000000001194
l52,52,999999983,911.8000000001388
1507.0999999997248
l51,51,999999982,162.39999999999506
l36,36,999999956,535.3000000000532
e94,94,1799999956,830.4000000001203
l52,52,999999961,914.0000000001393
1507.1999999997247
l51,51,999999976,162.99999999999503
l36,36,999999977,533.2000000000527
e94,94,1799999973,828.7000000001199
l52,52,999999994,910.7000000001385
1507.2999999997246
l51,51,999999986,161.99999999999508
l36,36,999999961,534.800000000053
e94,94,1799999965,829.50000000012
l52,52,999999970,913.1000000001391
1507.3999999997245
l51,51,999999957,164.89999999999492
l36,36,999999973,533.6000000000528
e94,94,1799999994,826.6000000001194
l52,52,999999998,910.3000000001384
1507.4999999997244
l51,51,999999971,163.499999999995
l36,36,999999979,533.0000000000526
e94,94,1800000000,826.0000000001193
l52,52,999999956,914.5000000001394
1507.5999999997243
l51,51,999999987,161.8999999999951
l36,36,999999958,535.1000000000531
e94,94,1799999986,827.4000000001196
l52,52,999999969,913.2000000001391
1507.6999999997242
l51,51,999999981,162.49999999999505
l36,36,999999990,531.9000000000524
e94,94,1799999977,828.3000000001198
l52,52,999999977,912.4000000001389
1507.7999999997242
l51,51,999999994,161.19999999999513
l36,36,999999960,534.9000000000531
e94,94,1799999974,828.6000000001198
l52,52,999999965,913.6000000001392
1507.899999999724
l51,51,999999979,162.69999999999504
l36,36,999999978,533.1000000000527
e94,94,1799999976,828.4000000001198
l52,52,999999976,912.5000000001389
1507.999999999724
l51,51,999999962,164.39999999999495
l36,36,999999963,534.600000000053
e94,94,1799999963,829.7000000001201
l52,52,999999996,910.5000000001385
1508.0999999997239
