2147483647
2147483647
19999999
3999999
3999999
3999999
2147483647
2147483647
3999999
3999999
3999999
3999999
3999999
3999999
19999999
3999999
3999999
19999999
3999999
19999999
7692305
19999999
4347825
22727271
3999999
