e98,98,1799999955,703.2000000000913
2411.1999999989025
e98,98,1799999986,700.1000000000906
2411.2999999989024
e98,98,1799999951,703.6000000000914
2411.3999999989023
e98,98,1799999971,701.600000000091
2411.4999999989022
e98,98,1799999963,702.4000000000912
2411.599999998902
e98,98,1799999973,701.4000000000909
2411.699999998902
e98,98,1799999991,699.6000000000905
2411.799999998902
e98,98,1799999959,702.8000000000912
2411.899999998902
e98,98,1799999977,701.0000000000908
2411.999999998902
e98,98,1799999980,700.7000000000908
2412.0999999989017
e98,98,1799999953,703.4000000000914
2412.1999999989016
e98,98,1799999974,701.3000000000909
2412.2999999989015
e98,98,1799999983,700.4000000000907
2412.3999999989014
e98,98,1799999952,703.5000000000914
2412.4999999989013
e98,98,1799999962,702.5000000000912
2412.5999999989012
e98,98,1799999972,701.500000000091
2412.699999998901
e98,98,1799999999,698.8000000000903
2412.799999998901
e98,98,1799999994,699.3000000000904
2412.899999998901
e98,98,1799999992,699.5000000000905
2412.999999998901
e98,98,1799999993,699.4000000000905
2413.099999998901
e98,98,1799999978,700.9000000000908
2413.1999999989007
e98,98,1799999969,701.800000000091
2413.2999999989006
e98,98,1799999989,699.8000000000906
2413.3999999989005
e98,98,1799999956,703.1000000000913
2413.4999999989004
e98,98,1799999990,699.7000000000905
2413.5999999989003
e98,98,1799999979,700.8000000000908
2413.6999999989002
e98,98,1799999958,702.9000000000913
2413.7999999989
e98,98,1799999967,702.0000000000911
2413.8999999989
e98,98,1799999998,698.9000000000904
2413.9999999989
e98,98,1799999985,700.2000000000907
2414.0999999989
e98,98,1799999997,699.0000000000904
2414.1999999989
e98,98,1799999965,702.2000000000911
2414.2999999988997
e98,98,1799999981,700.6000000000907
2414.3999999988996
e98,98,1799999968,701.900000000091
2414.4999999988995
e98,98,1799999961,702.6000000000912
2414.5999999988994
e98,98,1799999964,702.3000000000911
2414.6999999988993
e98,98,1799999960,702.7000000000912
2414.7999999988992
e98,98,1799999966,702.1000000000911
2414.899999998899
e98,98,1799999988,699.9000000000906
2414.999999998899
e98,98,1799999982,700.5000000000907
2415.099999998899
e98,98,1799999954,703.3000000000914
2415.199999998899
e98,98,1799999996,699.1000000000904
2415.299999998899
e98,98,1799999976,701.1000000000909
2415.3999999988987
e98,98,1799999987,700.0000000000906
2415.4999999988986
e98,98,1799999975,701.2000000000909
2415.5999999988985
e98,98,1799999984,700.3000000000907
2415.6999999988984
e98,98,1800000000,698.7000000000903
2415.7999999988983
e98,98,1799999970,701.700000000091
2415.8999999988982
e98,98,1799999957,703.0000000000913
2415.999999998898
e98,98,1799999995,699.2000000000904
2416.099999998898
