l43,43,999999975,338.6000000000085
r18,18,199999960,653.10000000008
r8,8,199999978,753.3000000001027
e86,86,1799999955,1182.50000000002
2001.599999999275
l43,43,999999996,336.500000000008
r18,18,199999998,649.3000000000791
e79,79,1799999982,786.5000000001103
r8,8,199999963,1171.0000000000305
e86,86,1799999953,1182.7000000000198
2001.699999999275
l43,43,999999957,340.4000000000089
r18,18,199999970,652.1000000000797
e79,79,1799999971,787.6000000001105
r8,8,199999953,1172.0000000000296
e86,86,1799999968,1181.2000000000212
2001.7999999992749
l43,43,999999988,337.3000000000082
r18,18,199999961,653.0000000000799
e79,79,1799999996,785.10000000011
r8,8,199999956,1171.7000000000298
e86,86,1799999956,1182.40000000002
2001.8999999992748
l43,43,999999978,338.3000000000084
r18,18,200000000,649.100000000079
r8,8,199999976,753.5000000001028
e86,86,1799999966,1181.400000000021
2001.9999999992747
l43,43,999999952,340.900000000009
r18,18,199999981,651.0000000000795
e79,79,1799999974,787.3000000001105
r8,8,199999962,1171.1000000000304
e86,86,1799999999,1178.100000000024
2002.0999999992746
l43,43,999999994,336.70000000000806
r18,18,199999971,652.0000000000797
r8,8,199999980,753.1000000001027
e86,86,1799999972,1180.8000000000216
2002.1999999992745
l43,43,999999998,336.30000000000797
r18,18,199999990,650.1000000000793
e79,79,1799999966,788.1000000001106
r8,8,199999954,1171.9000000000296
e86,86,1799999995,1178.5000000000236
2002.2999999992744
l43,43,999999991,337.00000000000813
r18,18,199999984,650.7000000000794
e79,79,1799999967,788.0000000001106
r8,8,199999972,1170.1000000000313
e86,86,1799999998,1178.200000000024
2002.3999999992743
l43,43,999999967,339.4000000000087
r18,18,199999993,649.8000000000792
e79,79,1799999981,786.6000000001103
r8,8,199999951,1172.2000000000294
e86,86,1799999994,1178.6000000000236
2002.4999999992742
l43,43,999999965,339.6000000000087
r18,18,199999979,651.2000000000795
r8,8,199999975,753.6000000001028
e86,86,1799999957,1182.3000000000202
2002.5999999992741
l43,43,999999971,339.0000000000086
r18,18,199999963,652.8000000000799
r8,8,199999985,752.6000000001026
e86,86,1799999990,1179.0000000000232
2002.699999999274
l43,43,1000000000,336.1000000000079
r18,18,199999997,649.4000000000791
e79,79,1799999985,786.2000000001102
r8,8,199999961,1171.2000000000303
e86,86,1799999993,1178.7000000000235
2002.799999999274
l43,43,999999999,336.20000000000795
r18,18,199999967,652.4000000000798
r8,8,199999992,751.9000000001024
e86,86,1799999988,1179.200000000023
2002.8999999992739
l43,43,999999977,338.40000000000845
r18,18,199999980,651.1000000000795
r8,8,199999994,751.7000000001024
e86,86,1799999980,1180.0000000000223
2002.9999999992738
l43,43,999999963,339.80000000000877
r18,18,199999985,650.6000000000794
r8,8,199999998,751.3000000001023
e86,86,1799999985,1179.5000000000227
2003.0999999992737
l43,43,999999981,338.00000000000836
r18,18,199999956,653.50000000008
r8,8,199999986,752.5000000001025
e86,86,1799999965,1181.500000000021
2003.1999999992736
l43,43,999999970,339.1000000000086
r18,18,199999977,651.4000000000796
e79,79,1799999952,789.500000000111
r8,8,199999955,1171.8000000000297
e86,86,1799999976,1180.400000000022
2003.2999999992735
l43,43,999999989,337.2000000000082
r18,18,199999991,650.0000000000792
r8,8,199999999,751.2000000001022
e86,86,1799999992,1178.8000000000234
2003.3999999992734
l43,43,999999997,336.400000000008
r18,18,199999953,653.8000000000801
r8,8,199999977,753.4000000001028
e86,86,1799999975,1180.5000000000218
2003.4999999992733
l43,43,999999986,337.50000000000824
r18,18,199999966,652.5000000000798
r8,8,199999973,753.8000000001028
e86,86,1799999997,1178.3000000000238
2003.5999999992732
l43,43,999999973,338.80000000000854
r18,18,199999951,654.0000000000801
e79,79,1799999978,786.9000000001104
r8,8,199999967,1170.6000000000308
e86,86,1800000000,1178.000000000024
2003.6999999992731
l43,43,999999954,340.70000000000897
r18,18,199999992,649.9000000000792
e79,79,1799999994,785.30000000011
r8,8,199999968,1170.500000000031
e86,86,1799999952,1182.8000000000197
2003.799999999273
l43,43,999999982,337.90000000000833
r18,18,199999987,650.4000000000793
r8,8,199999990,752.1000000001025
e86,86,1799999984,1179.6000000000226
2003.899999999273
l43,43,999999993,336.8000000000081
r18,18,199999957,653.40000000008
e79,79,1799999990,785.7000000001101
r8,8,199999964,1170.9000000000306
e86,86,1799999960,1182.0000000000205
2003.9999999992729
l43,43,999999966,339.5000000000087
r18,18,199999994,649.7000000000792
r8,8,199999993,751.8000000001024
e86,86,1799999962,1181.8000000000206
2004.0999999992728
l43,43,999999974,338.7000000000085
r18,18,199999999,649.2000000000791
r8,8,199999996,751.5000000001023
e86,86,1799999987,1179.300000000023
2004.1999999992727
l43,43,999999985,337.60000000000827
r18,18,199999968,652.3000000000798
r8,8,199999982,752.9000000001026
e86,86,1799999970,1181.0000000000214
2004.2999999992726
l43,43,999999962,339.9000000000088
r18,18,199999955,653.6000000000801
r8,8,199999984,752.7000000001026
e86,86,1799999954,1182.60000000002
2004.3999999992725
l43,43,999999983,337.8000000000083
r18,18,199999972,651.9000000000797
e79,79,1799999961,788.6000000001108
r8,8,199999969,1170.400000000031
e86,86,1799999964,1181.6000000000208
2004.4999999992724
l43,43,999999976,338.50000000000847
r18,18,199999954,653.7000000000801
e79,79,1799999956,789.1000000001109
r8,8,199999965,1170.8000000000306
e86,86,1799999983,1179.7000000000226
2004.5999999992723
l43,43,999999987,337.4000000000082
r18,18,199999962,652.9000000000799
e79,79,1799999955,789.2000000001109
r8,8,199999957,1171.60000000003
e86,86,1799999977,1180.300000000022
2004.6999999992722
l43,43,999999959,340.20000000000886
r18,18,199999988,650.3000000000793
r8,8,199999991,752.0000000001024
e86,86,1799999989,1179.100000000023
2004.7999999992721
l43,43,999999960,340.10000000000883
r18,18,199999965,652.6000000000798
e79,79,1799999975,787.2000000001104
r8,8,199999959,1171.40000000003
e86,86,1799999959,1182.1000000000204
2004.899999999272
l43,43,999999968,339.30000000000865
r18,18,199999974,651.7000000000796
r8,8,200000000,751.1000000001022
e86,86,1799999971,1180.9000000000215
2004.999999999272
l43,43,999999992,336.9000000000081
r18,18,199999983,650.8000000000794
e79,79,1799999986,786.1000000001102
r8,8,199999970,1170.300000000031
e86,86,1799999981,1179.9000000000224
2005.0999999992719
l43,43,999999995,336.60000000000804
r18,18,199999973,651.8000000000796
r8,8,199999983,752.8000000001026
e86,86,1799999986,1179.4000000000228
2005.1999999992718
l43,43,999999984,337.7000000000083
r18,18,199999995,649.6000000000791
e79,79,1799999960,788.7000000001108
r8,8,199999952,1172.1000000000295
e86,86,1799999978,1180.200000000022
2005.2999999992717
l43,43,999999980,338.1000000000084
r18,18,199999976,651.5000000000796
r8,8,199999981,753.0000000001027
e86,86,1799999963,1181.7000000000207
2005.3999999992716
l43,43,999999990,337.10000000000815
r18,18,199999978,651.3000000000795
r8,8,199999974,753.7000000001028
e86,86,1799999974,1180.6000000000217
2005.4999999992715
l43,43,999999969,339.20000000000863
r18,18,199999964,652.7000000000799
r8,8,199999987,752.4000000001025
e86,86,1799999996,1178.4000000000237
2005.5999999992714
l43,43,999999964,339.70000000000874
r18,18,199999982,650.9000000000794
e79,79,1799999984,786.3000000001102
r8,8,199999966,1170.7000000000307
e86,86,1799999967,1181.300000000021
2005.6999999992713
l43,43,999999961,340.0000000000088
r18,18,199999989,650.2000000000793
r8,8,199999979,753.2000000001027
e86,86,1799999969,1181.1000000000213
2005.7999999992712
l43,43,999999953,340.800000000009
r18,18,199999996,649.5000000000791
r8,8,199999989,752.2000000001025
e86,86,1799999979,1180.1000000000222
2005.8999999992711
l43,43,999999979,338.2000000000084
r18,18,199999969,652.2000000000797
e79,79,1799999987,786.0000000001102
r8,8,199999958,1171.50000000003
e86,86,1799999951,1182.9000000000196
2005.999999999271
l43,43,999999955,340.60000000000895
r18,18,199999986,650.5000000000794
e79,79,1799999992,785.50000000011
r8,8,199999971,1170.2000000000312
e86,86,1799999991,1178.9000000000233
2006.099999999271
l43,43,999999958,340.3000000000089
r18,18,199999975,651.6000000000796
r8,8,199999995,751.6000000001023
e86,86,1799999958,1182.2000000000203
2006.1999999992709
l43,43,999999951,341.00000000000904
r18,18,199999952,653.9000000000801
r8,8,199999988,752.3000000001025
e86,86,1799999973,1180.7000000000216
2006.2999999992708
l43,43,999999956,340.5000000000089
r18,18,199999958,653.30000000008
e79,79,1799999959,788.8000000001108
r8,8,199999960,1171.3000000000302
e86,86,1799999961,1181.9000000000206
2006.3999999992707
l43,43,999999972,338.90000000000856
r18,18,199999959,653.20000000008
r8,8,199999997,751.4000000001023
e86,86,1799999982,1179.8000000000225
2006.4999999992706
