e97,97,1799999987,205.4999999999926
l51,51,999999980,874.6000000001303
1307.5999999999062
e97,97,1799999996,204.59999999999266
l51,51,999999993,873.30000000013
1307.6999999999061
e97,97,1799999984,205.7999999999926
l51,51,999999968,875.8000000001306
1307.799999999906
e97,97,1799999953,208.89999999999242
l51,51,999999967,875.9000000001306
1307.899999999906
e97,97,1799999982,205.99999999999258
l51,51,999999979,874.7000000001303
1307.9999999999059
e97,97,1799999969,207.2999999999925
l51,51,999999960,876.6000000001308
1308.0999999999058
e97,97,1799999955,208.69999999999243
l51,51,999999998,872.8000000001299
1308.1999999999057
e97,97,1799999965,207.69999999999249
l51,51,999999971,875.5000000001305
1308.2999999999056
e97,97,1799999985,205.6999999999926
l51,51,999999966,876.0000000001306
1308.3999999999055
e97,97,1799999990,205.19999999999263
l51,51,999999978,874.8000000001304
1308.4999999999054
e97,97,1799999968,207.3999999999925
l51,51,999999963,876.3000000001307
1308.5999999999053
e97,97,1799999997,204.49999999999267
l51,51,999999989,873.7000000001301
1308.6999999999052
e97,97,1799999993,204.89999999999264
l51,51,999999987,873.9000000001301
1308.7999999999051
e97,97,1799999974,206.79999999999254
l51,51,999999985,874.1000000001302
1308.899999999905
e97,97,1799999999,204.29999999999268
l51,51,999999951,877.500000000131
1308.999999999905
e97,97,1799999951,209.0999999999924
l51,51,999999977,874.9000000001304
1309.0999999999049
e97,97,1799999981,206.09999999999258
l51,51,999999988,873.8000000001301
1309.1999999999048
e97,97,1799999967,207.4999999999925
l51,51,999999961,876.5000000001307
1309.2999999999047
e97,97,1799999989,205.29999999999262
l51,51,999999959,876.7000000001308
1309.3999999999046
e97,97,1799999960,208.19999999999246
l51,51,999999958,876.8000000001308
1309.4999999999045
e97,97,1799999971,207.09999999999252
l51,51,999999982,874.4000000001303
1309.5999999999044
e97,97,1799999977,206.49999999999255
l51,51,999999991,873.5000000001301
1309.6999999999043
e97,97,1799999959,208.29999999999245
l51,51,999999984,874.2000000001302
1309.7999999999042
e97,97,1799999958,208.39999999999245
l51,51,999999995,873.10000000013
1309.8999999999041
e97,97,1799999998,204.39999999999267
l51,51,999999954,877.2000000001309
1309.999999999904
e97,97,1799999986,205.5999999999926
l51,51,999999969,875.7000000001306
1310.099999999904
e97,97,1799999963,207.89999999999247
l51,51,999999999,872.7000000001299
1310.1999999999039
e97,97,1799999994,204.79999999999265
l51,51,999999981,874.5000000001303
1310.2999999999038
e97,97,1799999962,207.99999999999247
l51,51,999999974,875.2000000001304
1310.3999999999037
e97,97,1799999978,206.39999999999256
l51,51,999999996,873.00000000013
1310.4999999999036
e97,97,1799999966,207.5999999999925
l51,51,999999953,877.3000000001309
1310.5999999999035
e97,97,1799999980,206.19999999999257
l51,51,999999976,875.0000000001304
1310.6999999999034
e97,97,1799999957,208.49999999999244
l51,51,1000000000,872.6000000001299
1310.7999999999033
e97,97,1799999952,208.9999999999924
l51,51,999999952,877.400000000131
1310.8999999999032
e97,97,1800000000,204.19999999999268
l51,51,999999957,876.9000000001308
1310.9999999999031
e97,97,1799999995,204.69999999999266
l51,51,999999973,875.3000000001305
1311.099999999903
e97,97,1799999988,205.39999999999262
l51,51,999999994,873.20000000013
1311.199999999903
e97,97,1799999972,206.99999999999253
l51,51,999999955,877.1000000001309
1311.2999999999029
e97,97,1799999954,208.79999999999242
l51,51,999999983,874.3000000001302
1311.3999999999028
e97,97,1799999964,207.79999999999248
l51,51,999999956,877.0000000001309
1311.4999999999027
e97,97,1799999992,204.99999999999264
l51,51,999999975,875.1000000001304
1311.5999999999026
e97,97,1799999961,208.09999999999246
l51,51,999999992,873.40000000013
1311.6999999999025
e97,97,1799999970,207.1999999999925
l51,51,999999962,876.4000000001307
1311.7999999999024
e97,97,1799999973,206.89999999999253
l51,51,999999964,876.2000000001307
1311.8999999999023
e97,97,1799999983,205.8999999999926
l51,51,999999990,873.6000000001301
1311.9999999999022
e97,97,1799999976,206.59999999999255
l51,51,999999972,875.4000000001305
1312.0999999999021
e97,97,1799999991,205.09999999999263
l51,51,999999970,875.6000000001305
1312.199999999902
e97,97,1799999975,206.69999999999254
l51,51,999999965,876.1000000001306
1312.299999999902
e97,97,1799999979,206.29999999999256
l51,51,999999997,872.9000000001299
1312.3999999999019
e97,97,1799999956,208.59999999999243
l51,51,999999986,874.0000000001302
1312.4999999999018
