e94,94,1799999993,0.8999999999999999
l44,44,999999960,244.79999999999038
r29,29,199999973,568.1000000000606
l47,47,999999985,628.5000000000744
l62,62,999999966,848.6000000001244
1134.5000000000637
e94,94,1799999999,0.30000000000000004
l44,44,999999985,242.29999999999052
r29,29,199999956,569.800000000061
l47,47,999999979,629.1000000000745
l62,62,999999953,849.9000000001247
1134.6000000000636
e94,94,1799999960,4.200000000000001
l44,44,999999973,243.49999999999045
r29,29,199999986,566.8000000000603
l47,47,999999986,628.4000000000743
l62,62,999999971,848.1000000001243
1134.7000000000635
e94,94,1799999986,1.6000000000000003
l44,44,999999993,241.49999999999056
r29,29,199999963,569.1000000000608
l47,47,999999958,631.200000000075
l62,62,999999961,849.1000000001245
1134.8000000000634
e94,94,1799999953,4.899999999999999
l44,44,999999951,245.69999999999033
r29,29,199999997,565.7000000000601
l47,47,999999983,628.7000000000744
l62,62,999999951,850.1000000001247
1134.9000000000633
e94,94,1799999979,2.3000000000000007
l44,44,999999952,245.59999999999033
r29,29,199999970,568.4000000000607
l47,47,999999994,627.6000000000741
l62,62,999999995,845.7000000001237
1135.0000000000632
e94,94,1799999992,0.9999999999999999
l44,44,999999995,241.29999999999058
r29,29,199999989,566.5000000000603
l47,47,999999998,627.200000000074
l62,62,999999977,847.5000000001241
1135.1000000000631
e94,94,1799999997,0.5
l44,44,999999955,245.29999999999035
r29,29,199999957,569.700000000061
l47,47,999999978,629.2000000000745
l62,62,999999993,845.9000000001238
1135.200000000063
e94,94,1799999973,2.9000000000000012
l44,44,999999984,242.3999999999905
r29,29,199999953,570.1000000000611
l47,47,999999961,630.9000000000749
l62,62,999999972,848.0000000001243
1135.300000000063
e94,94,1799999991,1.0999999999999999
l44,44,999999970,243.79999999999043
r29,29,199999974,568.0000000000606
l47,47,999999951,631.9000000000751
l62,62,999999998,845.4000000001237
1135.4000000000628
e94,94,1799999971,3.1000000000000014
l44,44,999999999,240.8999999999906
r29,29,199999975,567.9000000000606
l47,47,999999957,631.300000000075
l62,62,999999990,846.2000000001239
1135.5000000000628
e94,94,1799999962,4.000000000000002
l44,44,999999986,242.19999999999052
r29,29,199999981,567.3000000000604
l47,47,999999989,628.1000000000743
l62,62,999999968,848.4000000001244
1135.6000000000627
e94,94,1799999955,4.699999999999999
l44,44,999999974,243.39999999999046
r29,29,199999971,568.3000000000607
l47,47,999999969,630.1000000000747
l62,62,999999965,848.7000000001244
1135.7000000000626
e94,94,1799999963,3.900000000000002
l44,44,999999956,245.19999999999035
r29,29,199999968,568.6000000000607
l47,47,999999995,627.5000000000741
l62,62,999999997,845.5000000001237
1135.8000000000625
e94,94,1799999957,4.5
l44,44,999999958,244.99999999999037
r29,29,199999964,569.0000000000608
l47,47,999999987,628.3000000000743
l62,62,999999991,846.1000000001238
1135.9000000000624
e94,94,1799999961,4.100000000000001
l44,44,999999991,241.69999999999055
r29,29,199999978,567.6000000000605
l47,47,999999991,627.9000000000742
l62,62,999999970,848.2000000001243
1136.0000000000623
e94,94,1799999980,2.2000000000000006
l44,44,999999953,245.49999999999034
r29,29,199999999,565.50000000006
l47,47,1000000000,627.000000000074
l62,62,1000000000,845.2000000001236
1136.1000000000622
e94,94,1799999954,4.799999999999999
l44,44,999999962,244.5999999999904
r29,29,199999996,565.8000000000601
l47,47,999999960,631.0000000000749
l62,62,999999964,848.8000000001244
1136.2000000000621
e94,94,1799999995,0.7
l44,44,1000000000,240.7999999999906
r29,29,199999984,567.0000000000604
l47,47,999999981,628.9000000000744
l62,62,999999967,848.5000000001244
1136.300000000062
e94,94,1800000000,0.2
l44,44,999999990,241.79999999999055
r29,29,199999992,566.2000000000602
l47,47,999999973,629.7000000000746
l62,62,999999956,849.6000000001246
1136.400000000062
e94,94,1799999984,1.8000000000000005
l44,44,999999961,244.69999999999038
r29,29,199999962,569.2000000000609
l47,47,999999967,630.3000000000748
l62,62,999999981,847.100000000124
1136.5000000000618
e94,94,1799999982,2.0000000000000004
l44,44,999999983,242.4999999999905
r29,29,199999954,570.000000000061
l47,47,999999955,631.500000000075
l62,62,999999959,849.3000000001246
1136.6000000000618
e94,94,1799999978,2.400000000000001
l44,44,999999996,241.19999999999058
r29,29,199999955,569.900000000061
l47,47,999999988,628.2000000000743
l62,62,999999984,846.800000000124
1136.7000000000617
e94,94,1799999966,3.600000000000002
l44,44,999999959,244.89999999999037
r29,29,199999988,566.6000000000603
l47,47,999999982,628.8000000000744
l62,62,999999957,849.5000000001246
1136.8000000000616
e94,94,1799999981,2.1000000000000005
l44,44,999999965,244.2999999999904
r29,29,199999965,568.9000000000608
l47,47,999999966,630.4000000000748
l62,62,999999952,850.0000000001247
1136.9000000000615
e94,94,1799999969,3.3000000000000016
l44,44,999999971,243.69999999999044
r29,29,199999952,570.2000000000611
l47,47,999999964,630.6000000000748
l62,62,999999958,849.4000000001246
1137.0000000000614
e94,94,1799999952,4.999999999999998
l44,44,999999988,241.99999999999054
r29,29,199999994,566.0000000000601
l47,47,999999996,627.4000000000741
l62,62,999999999,845.3000000001236
1137.1000000000613
e94,94,1799999990,1.2
l44,44,999999954,245.39999999999034
r29,29,199999982,567.2000000000604
l47,47,999999963,630.7000000000749
l62,62,999999974,847.8000000001242
1137.2000000000612
e94,94,1799999996,0.6
l44,44,999999964,244.3999999999904
r29,29,199999972,568.2000000000606
l47,47,999999953,631.7000000000751
l62,62,999999955,849.7000000001246
1137.3000000000611
e94,94,1799999983,1.9000000000000006
l44,44,999999975,243.29999999999046
r29,29,199999983,567.1000000000604
l47,47,999999997,627.3000000000741
l62,62,999999969,848.3000000001243
1137.400000000061
e94,94,1799999968,3.4000000000000017
l44,44,999999972,243.59999999999044
r29,29,199999967,568.7000000000608
l47,47,999999971,629.9000000000747
l62,62,999999963,848.9000000001245
1137.500000000061
e94,94,1799999974,2.800000000000001
l44,44,999999994,241.39999999999057
r29,29,199999995,565.9000000000601
l47,47,999999954,631.600000000075
l62,62,999999987,846.5000000001239
1137.6000000000608
e94,94,1799999975,2.700000000000001
l44,44,999999980,242.7999999999905
r29,29,199999951,570.3000000000611
l47,47,999999968,630.2000000000747
l62,62,999999976,847.6000000001242
1137.7000000000608
e94,94,1799999977,2.500000000000001
l44,44,999999977,243.09999999999047
r29,29,199999969,568.5000000000607
l47,47,999999974,629.6000000000746
l62,62,999999962,849.0000000001245
1137.8000000000607
e94,94,1799999988,1.4000000000000001
l44,44,999999967,244.09999999999042
r29,29,199999998,565.60000000006
l47,47,999999993,627.7000000000742
l62,62,999999982,847.000000000124
1137.9000000000606
e94,94,1799999976,2.600000000000001
l44,44,999999989,241.89999999999054
r29,29,199999961,569.3000000000609
l47,47,999999980,629.0000000000745
l62,62,999999992,846.0000000001238
1138.0000000000605
e94,94,1799999998,0.4
l44,44,999999968,243.99999999999042
r29,29,199999985,566.9000000000603
l47,47,999999976,629.4000000000746
l62,62,999999960,849.2000000001245
1138.1000000000604
e94,94,1799999964,3.800000000000002
l44,44,999999957,245.09999999999036
r29,29,199999990,566.4000000000602
l47,47,999999952,631.8000000000751
l62,62,999999996,845.6000000001237
1138.2000000000603
e94,94,1799999989,1.3
l44,44,999999982,242.5999999999905
r29,29,199999991,566.3000000000602
l47,47,999999970,630.0000000000747
l62,62,999999989,846.3000000001239
1138.3000000000602
e94,94,1799999994,0.7999999999999999
l44,44,999999981,242.6999999999905
r29,29,199999958,569.600000000061
l47,47,999999965,630.5000000000748
l62,62,999999980,847.2000000001241
1138.4000000000601
e94,94,1799999951,5.099999999999998
l44,44,999999976,243.19999999999047
r29,29,199999987,566.7000000000603
l47,47,999999956,631.400000000075
l62,62,999999975,847.7000000001242
1138.50000000006
e94,94,1799999959,4.300000000000001
l44,44,999999997,241.0999999999906
r29,29,199999966,568.8000000000608
l47,47,999999962,630.8000000000749
l62,62,999999973,847.9000000001242
1138.60000000006
e94,94,1799999965,3.700000000000002
l44,44,999999963,244.4999999999904
r29,29,200000000,565.40000000006
l47,47,999999992,627.8000000000742
l62,62,999999983,846.900000000124
1138.7000000000598
e94,94,1799999958,4.4
l44,44,999999978,242.99999999999048
r29,29,199999977,567.7000000000605
l47,47,999999999,627.100000000074
l62,62,999999954,849.8000000001247
1138.8000000000598
e94,94,1799999972,3.0000000000000013
l44,44,999999979,242.89999999999048
r29,29,199999980,567.4000000000605
l47,47,999999977,629.3000000000745
l62,62,999999994,845.8000000001238
1138.9000000000597
e94,94,1799999987,1.5000000000000002
l44,44,999999966,244.1999999999904
r29,29,199999979,567.5000000000605
l47,47,999999990,628.0000000000742
l62,62,999999979,847.3000000001241
1139.0000000000596
e94,94,1799999967,3.5000000000000018
l44,44,999999987,242.09999999999053
r29,29,199999993,566.1000000000602
l47,47,999999972,629.8000000000746
l62,62,999999988,846.4000000001239
1139.1000000000595
e94,94,1799999970,3.2000000000000015
l44,44,999999998,240.9999999999906
r29,29,199999959,569.5000000000609
l47,47,999999959,631.1000000000749
l62,62,999999978,847.4000000001241
1139.2000000000594
e94,94,1799999985,1.7000000000000004
l44,44,999999992,241.59999999999056
r29,29,199999960,569.4000000000609
l47,47,999999984,628.6000000000744
l62,62,999999985,846.700000000124
1139.3000000000593
e94,94,1799999956,4.6
l44,44,999999969,243.89999999999043
r29,29,199999976,567.8000000000605
l47,47,999999975,629.5000000000746
l62,62,999999986,846.6000000001239
1139.4000000000592
