e72,72,1799999989,97.29999999999875
l39,39,999999977,265.0999999999918
l51,51,999999971,325.60000000000554
790.8000000001113
e72,72,1799999967,99.49999999999862
l39,39,999999954,267.3999999999923
l51,51,999999991,323.6000000000051
790.9000000001113
e72,72,1799999956,100.59999999999856
l39,39,999999966,266.19999999999203
l51,51,999999999,322.8000000000049
791.0000000001113
e72,72,1799999986,97.59999999999873
l39,39,999999996,263.19999999999135
l51,51,999999980,324.70000000000533
791.1000000001113
e72,72,1799999955,100.69999999999855
l39,39,999999991,263.69999999999146
l51,51,999999997,323.00000000000495
791.2000000001113
e72,72,1799999996,96.59999999999879
l39,39,999999955,267.2999999999923
l51,51,999999970,325.70000000000556
791.3000000001114
e72,72,1799999968,99.39999999999863
l39,39,999999989,263.8999999999915
l51,51,999999973,325.4000000000055
791.4000000001114
e72,72,1799999966,99.59999999999862
l39,39,999999994,263.3999999999914
l51,51,999999977,325.0000000000054
791.5000000001114
e72,72,1799999975,98.69999999999867
l39,39,999999995,263.29999999999137
l51,51,999999967,326.0000000000056
791.6000000001114
e72,72,1800000000,96.19999999999881
l39,39,999999970,265.79999999999194
l51,51,999999963,326.4000000000057
791.7000000001115
e72,72,1799999957,100.49999999999856
l39,39,999999953,267.4999999999923
l51,51,1000000000,322.7000000000049
791.8000000001115
e72,72,1799999963,99.8999999999986
l39,39,999999963,266.4999999999921
l51,51,999999962,326.50000000000574
791.9000000001115
e72,72,1799999958,100.39999999999857
l39,39,999999960,266.79999999999217
l51,51,999999966,326.10000000000565
792.0000000001115
e72,72,1799999988,97.39999999999874
l39,39,999999992,263.59999999999144
l51,51,999999958,326.90000000000583
792.1000000001115
e72,72,1799999984,97.79999999999872
l39,39,999999971,265.6999999999919
l51,51,999999956,327.1000000000059
792.2000000001116
e72,72,1799999994,96.79999999999878
l39,39,999999993,263.4999999999914
l51,51,999999969,325.8000000000056
792.3000000001116
e72,72,1799999953,100.89999999999854
l39,39,999999988,263.99999999999153
l51,51,999999964,326.3000000000057
792.4000000001116
e72,72,1799999987,97.49999999999874
l39,39,999999957,267.09999999999224
l51,51,999999976,325.1000000000054
792.5000000001116
e72,72,1799999961,100.09999999999859
l39,39,999999986,264.1999999999916
l51,51,999999998,322.9000000000049
792.6000000001117
e72,72,1799999952,100.99999999999854
l39,39,999999952,267.59999999999235
l51,51,999999993,323.40000000000504
792.7000000001117
e72,72,1799999974,98.79999999999866
l39,39,999999983,264.49999999999164
l51,51,999999955,327.2000000000059
792.8000000001117
e72,72,1799999959,100.29999999999858
l39,39,999999961,266.69999999999214
l51,51,999999987,324.0000000000052
792.9000000001117
e72,72,1799999962,99.9999999999986
l39,39,999999984,264.3999999999916
l51,51,999999994,323.300000000005
793.0000000001118
e72,72,1799999983,97.89999999999871
l39,39,999999962,266.5999999999921
l51,51,999999988,323.90000000000515
793.1000000001118
e72,72,1799999973,98.89999999999866
l39,39,999999999,262.8999999999913
l51,51,999999986,324.1000000000052
793.2000000001118
e72,72,1799999977,98.49999999999868
l39,39,999999990,263.7999999999915
l51,51,999999975,325.20000000000545
793.3000000001118
e72,72,1799999990,97.19999999999875
l39,39,999999981,264.6999999999917
l51,51,999999981,324.6000000000053
793.4000000001118
e72,72,1799999980,98.1999999999987
l39,39,999999973,265.49999999999187
l51,51,999999968,325.9000000000056
793.5000000001119
e72,72,1799999965,99.69999999999861
l39,39,999999964,266.3999999999921
l51,51,999999990,323.7000000000051
793.6000000001119
e72,72,1799999979,98.29999999999869
l39,39,999999972,265.5999999999919
l51,51,999999995,323.200000000005
793.7000000001119
e72,72,1799999993,96.89999999999877
l39,39,999999956,267.19999999999226
l51,51,999999952,327.50000000000597
793.8000000001119
e72,72,1799999972,98.99999999999865
l39,39,999999976,265.1999999999918
l51,51,999999959,326.8000000000058
793.900000000112
e72,72,1799999964,99.7999999999986
l39,39,999999968,265.999999999992
l51,51,999999996,323.10000000000497
794.000000000112
e72,72,1799999978,98.39999999999868
l39,39,999999998,262.9999999999913
l51,51,999999951,327.600000000006
794.100000000112
e72,72,1799999992,96.99999999999876
l39,39,999999965,266.29999999999205
l51,51,999999979,324.80000000000535
794.200000000112
e72,72,1799999969,99.29999999999863
l39,39,1000000000,262.79999999999126
l51,51,999999983,324.40000000000526
794.300000000112
e72,72,1799999982,97.9999999999987
l39,39,999999969,265.89999999999196
l51,51,999999960,326.7000000000058
794.4000000001121
e72,72,1799999951,101.09999999999853
l39,39,999999982,264.59999999999167
l51,51,999999953,327.40000000000595
794.5000000001121
e72,72,1799999981,98.0999999999987
l39,39,999999959,266.8999999999922
l51,51,999999957,327.00000000000585
794.6000000001121
e72,72,1799999995,96.69999999999878
l39,39,999999979,264.89999999999173
l51,51,999999974,325.30000000000547
794.7000000001121
e72,72,1799999971,99.09999999999864
l39,39,999999980,264.7999999999917
l51,51,999999978,324.9000000000054
794.8000000001122
e72,72,1799999954,100.79999999999855
l39,39,999999951,267.6999999999924
l51,51,999999992,323.50000000000506
794.9000000001122
e72,72,1799999960,100.19999999999858
l39,39,999999975,265.2999999999918
l51,51,999999982,324.5000000000053
795.0000000001122
e72,72,1799999985,97.69999999999872
l39,39,999999978,264.99999999999176
l51,51,999999954,327.3000000000059
795.1000000001122
e72,72,1799999976,98.59999999999867
l39,39,999999967,266.099999999992
l51,51,999999984,324.30000000000524
795.2000000001123
e72,72,1799999991,97.09999999999876
l39,39,999999974,265.39999999999185
l51,51,999999989,323.8000000000051
795.3000000001123
e72,72,1799999998,96.3999999999988
l39,39,999999985,264.2999999999916
l51,51,999999965,326.2000000000057
795.4000000001123
e72,72,1799999997,96.49999999999879
l39,39,999999997,263.0999999999913
l51,51,999999985,324.2000000000052
795.5000000001123
e72,72,1799999970,99.19999999999864
l39,39,999999987,264.09999999999155
l51,51,999999961,326.60000000000576
795.6000000001123
e72,72,1799999999,96.2999999999988
l39,39,999999958,266.9999999999922
l51,51,999999972,325.5000000000055
795.7000000001124
