l61,61,999999952,109.39999999999806
l38,38,999999960,356.80000000001263
l37,37,999999989,554.1000000000574
l47,47,999999964,1052.2000000001385
r29,29,199999975,1324.4999999998909
l68,68,999999968,1372.8999999998468
2058.2999999992235
l61,61,999999966,107.99999999999814
l38,38,999999965,356.3000000000125
l37,37,999999972,555.8000000000578
l47,47,999999971,1051.5000000001392
r29,29,199999995,1322.4999999998927
l68,68,999999984,1371.2999999998483
2058.3999999992234
l61,61,999999974,107.19999999999818
l38,38,999999994,353.40000000001186
l37,37,999999970,556.0000000000579
l47,47,999999956,1053.0000000001378
r29,29,199999982,1323.7999999998915
l68,68,999999998,1369.8999999998496
2058.4999999992233
l61,61,999999971,107.49999999999817
l38,38,999999968,356.00000000001245
l37,37,999999953,557.7000000000583
l47,47,999999967,1051.9000000001388
r29,29,199999955,1326.499999999889
l68,68,999999974,1372.2999999998474
2058.599999999223
l61,61,999999962,108.39999999999812
l38,38,999999990,353.80000000001195
l37,37,999999982,554.8000000000576
l47,47,999999951,1053.5000000001373
r29,29,199999999,1322.099999999893
l68,68,999999983,1371.3999999998482
2058.699999999223
l61,61,999999955,109.09999999999808
l38,38,999999954,357.40000000001277
l37,37,999999975,555.5000000000578
l47,47,1000000000,1048.6000000001418
r29,29,199999973,1324.6999999998907
l68,68,999999967,1372.9999999998468
2058.799999999223
l61,61,999999957,108.89999999999809
l38,38,999999955,357.30000000001274
l37,37,999999954,557.6000000000582
l47,47,999999952,1053.4000000001374
r29,29,199999956,1326.3999999998891
l68,68,999999966,1373.0999999998467
2058.899999999223
l61,61,999999961,108.49999999999811
l38,38,999999958,357.0000000000127
l37,37,999999984,554.6000000000575
l47,47,999999973,1051.3000000001393
r29,29,199999972,1324.7999999998906
l68,68,999999980,1371.699999999848
2058.999999999223
l61,61,999999976,106.9999999999982
l38,38,999999957,357.1000000000127
l37,37,999999965,556.500000000058
l47,47,999999972,1051.4000000001392
r29,29,199999952,1326.7999999998888
l68,68,999999991,1370.599999999849
2059.0999999992227
l61,61,999999968,107.79999999999815
l38,38,999999956,357.2000000000127
l37,37,999999961,556.9000000000581
l47,47,999999996,1049.0000000001414
r29,29,199999958,1326.1999999998893
l68,68,999999981,1371.599999999848
2059.1999999992227
l61,61,999999998,104.79999999999832
l38,38,999999988,354.000000000012
l37,37,999999979,555.1000000000577
l47,47,999999978,1050.8000000001398
r29,29,199999986,1323.3999999998919
l68,68,999999995,1370.1999999998493
2059.2999999992226
l61,61,999999959,108.6999999999981
l38,38,999999967,356.10000000001247
l37,37,999999985,554.5000000000575
l47,47,999999986,1050.0000000001405
r29,29,199999965,1325.49999999989
l68,68,1000000000,1369.6999999998498
2059.3999999992225
l61,61,999999969,107.69999999999816
l38,38,999999953,357.5000000000128
l37,37,999999955,557.5000000000582
l47,47,999999990,1049.6000000001409
r29,29,199999959,1326.0999999998894
l68,68,999999994,1370.2999999998492
2059.4999999992224
l61,61,999999951,109.49999999999805
l38,38,999999962,356.6000000000126
l37,37,999999960,557.0000000000581
l47,47,999999991,1049.500000000141
r29,29,199999994,1322.5999999998926
l68,68,999999971,1372.5999999998471
2059.5999999992223
l61,61,999999978,106.7999999999982
l38,38,999999992,353.6000000000119
l37,37,999999967,556.3000000000579
l47,47,999999997,1048.9000000001415
r29,29,199999951,1326.8999999998887
l68,68,999999951,1374.5999999998453
2059.699999999222
l61,61,999999965,108.09999999999813
l38,38,999999972,355.60000000001236
l37,37,999999992,553.8000000000574
l47,47,999999983,1050.3000000001402
r29,29,199999957,1326.2999999998892
l68,68,999999965,1373.1999999998466
2059.799999999222
l61,61,1000000000,104.59999999999833
l38,38,999999983,354.5000000000121
l37,37,999999980,555.0000000000576
l47,47,999999985,1050.1000000001404
r29,29,199999985,1323.4999999998918
l68,68,999999992,1370.499999999849
2059.899999999222
l61,61,999999991,105.49999999999828
l38,38,999999982,354.60000000001213
l37,37,999999968,556.2000000000579
l47,47,999999987,1049.9000000001406
r29,29,199999997,1322.2999999998929
l68,68,999999953,1374.3999999998455
2059.999999999222
l61,61,999999958,108.7999999999981
l38,38,999999961,356.7000000000126
l37,37,999999956,557.4000000000582
l47,47,999999977,1050.9000000001397
r29,29,199999979,1324.0999999998912
l68,68,999999977,1371.9999999998477
2060.099999999222
l61,61,999999979,106.69999999999821
l38,38,999999987,354.100000000012
l37,37,1000000000,553.0000000000572
l47,47,999999993,1049.3000000001412
r29,29,199999978,1324.1999999998911
l68,68,999999973,1372.3999999998473
2060.1999999992217
l61,61,999999983,106.29999999999824
l38,38,999999995,353.30000000001183
l37,37,999999977,555.3000000000577
l47,47,999999979,1050.7000000001399
r29,29,199999967,1325.2999999998901
l68,68,999999957,1373.9999999998458
2060.2999999992217
l61,61,999999982,106.39999999999823
l38,38,999999999,352.90000000001174
l37,37,999999990,554.0000000000574
l47,47,999999969,1051.700000000139
r29,29,199999991,1322.8999999998923
l68,68,999999975,1372.1999999998475
2060.3999999992216
l61,61,999999990,105.59999999999827
l38,38,999999998,353.00000000001177
l37,37,999999988,554.2000000000575
l47,47,999999989,1049.7000000001408
r29,29,199999974,1324.5999999998908
l68,68,999999996,1370.0999999998494
2060.4999999992215
l61,61,999999960,108.5999999999981
l38,38,999999976,355.20000000001227
l37,37,999999971,555.9000000000578
l47,47,999999981,1050.50000000014
r29,29,199999968,1325.1999999998902
l68,68,999999978,1371.8999999998478
2060.5999999992214
l61,61,999999980,106.59999999999822
l38,38,999999981,354.70000000001215
l37,37,999999974,555.6000000000578
l47,47,999999957,1052.9000000001379
r29,29,199999953,1326.6999999998889
l68,68,999999964,1373.2999999998465
2060.6999999992213
l61,61,999999975,107.09999999999819
l38,38,999999993,353.5000000000119
l37,37,999999963,556.700000000058
l47,47,999999968,1051.8000000001389
r29,29,199999981,1323.8999999998914
l68,68,999999961,1373.5999999998462
2060.799999999221
l61,61,999999996,104.99999999999831
l38,38,999999997,353.1000000000118
l37,37,999999969,556.1000000000579
l47,47,999999961,1052.5000000001382
r29,29,200000000,1321.9999999998931
l68,68,999999979,1371.7999999998478
2060.899999999221
l61,61,999999985,106.09999999999825
l38,38,999999978,355.0000000000122
l37,37,999999973,555.7000000000578
l47,47,999999970,1051.600000000139
r29,29,199999988,1323.199999999892
l68,68,999999987,1370.9999999998486
2060.999999999221
l61,61,999999993,105.29999999999829
l38,38,999999974,355.4000000000123
l37,37,999999964,556.600000000058
l47,47,999999999,1048.7000000001417
r29,29,199999971,1324.8999999998905
l68,68,999999990,1370.6999999998488
2061.099999999221
l61,61,999999984,106.19999999999824
l38,38,999999996,353.2000000000118
l37,37,999999959,557.1000000000581
l47,47,999999965,1052.1000000001386
r29,29,199999984,1323.5999999998917
l68,68,999999956,1374.0999999998457
2061.199999999221
l61,61,999999972,107.39999999999817
l38,38,999999985,354.30000000001206
l37,37,999999962,556.800000000058
l47,47,999999959,1052.700000000138
r29,29,199999983,1323.6999999998916
l68,68,999999963,1373.3999999998464
2061.2999999992207
l61,61,999999995,105.0999999999983
l38,38,999999952,357.6000000000128
l37,37,999999986,554.4000000000575
l47,47,999999966,1052.0000000001387
r29,29,199999992,1322.7999999998924
l68,68,999999985,1371.1999999998484
2061.3999999992207
l61,61,999999956,108.99999999999808
l38,38,999999970,355.8000000000124
l37,37,999999997,553.3000000000573
l47,47,999999962,1052.4000000001383
r29,29,199999977,1324.299999999891
l68,68,999999999,1369.7999999998497
2061.4999999992206
l61,61,999999970,107.59999999999816
l38,38,999999969,355.9000000000124
l37,37,999999996,553.4000000000573
l47,47,999999984,1050.2000000001403
r29,29,199999976,1324.399999999891
l68,68,999999976,1372.0999999998476
2061.5999999992205
l61,61,999999967,107.89999999999814
l38,38,999999979,354.9000000000122
l37,37,999999958,557.2000000000581
l47,47,999999982,1050.4000000001402
r29,29,199999970,1324.9999999998904
l68,68,999999955,1374.1999999998457
2061.6999999992204
l61,61,999999953,109.29999999999806
l38,38,999999964,356.40000000001254
l37,37,999999957,557.3000000000582
l47,47,999999980,1050.60000000014
r29,29,199999963,1325.6999999998898
l68,68,999999960,1373.699999999846
2061.7999999992203
l61,61,999999977,106.8999999999982
l38,38,999999973,355.50000000001234
l37,37,999999952,557.8000000000583
l47,47,999999960,1052.6000000001382
r29,29,199999962,1325.7999999998897
l68,68,999999993,1370.3999999998491
2061.89999999922
l61,61,999999997,104.89999999999831
l38,38,999999989,353.90000000001197
l37,37,999999976,555.4000000000577
l47,47,999999958,1052.800000000138
r29,29,199999980,1323.9999999998913
l68,68,999999997,1369.9999999998495
2061.99999999922
l61,61,999999988,105.79999999999826
l38,38,999999959,356.90000000001265
l37,37,999999994,553.6000000000573
l47,47,999999974,1051.2000000001394
r29,29,199999998,1322.199999999893
l68,68,999999989,1370.7999999998488
2062.09999999922
l61,61,999999987,105.89999999999826
l38,38,999999984,354.4000000000121
l37,37,999999978,555.2000000000577
l47,47,999999955,1053.1000000001377
r29,29,199999989,1323.0999999998921
l68,68,999999958,1373.899999999846
2062.19999999922
l61,61,999999963,108.29999999999812
l38,38,999999966,356.2000000000125
l37,37,999999998,553.2000000000572
l47,47,999999992,1049.400000000141
r29,29,199999964,1325.5999999998899
l68,68,999999986,1371.0999999998485
2062.29999999922
l61,61,999999994,105.1999999999983
l38,38,999999991,353.7000000000119
l37,37,999999951,557.9000000000583
l47,47,999999975,1051.1000000001395
r29,29,199999960,1325.9999999998895
l68,68,999999972,1372.4999999998472
2062.3999999992197
l61,61,999999973,107.29999999999818
l38,38,999999975,355.3000000000123
l37,37,999999966,556.400000000058
l47,47,999999963,1052.3000000001384
r29,29,199999966,1325.39999999989
l68,68,999999970,1372.699999999847
2062.4999999992197
l61,61,999999986,105.99999999999825
l38,38,999999980,354.8000000000122
l37,37,999999981,554.9000000000576
l47,47,999999994,1049.2000000001412
r29,29,199999996,1322.3999999998928
l68,68,999999954,1374.2999999998456
2062.5999999992196
l61,61,999999981,106.49999999999822
l38,38,999999971,355.7000000000124
l37,37,999999995,553.5000000000573
l47,47,999999988,1049.8000000001407
r29,29,199999987,1323.299999999892
l68,68,999999982,1371.4999999998481
2062.6999999992195
l61,61,999999992,105.39999999999829
l38,38,999999986,354.20000000001204
l37,37,999999993,553.7000000000573
l47,47,999999953,1053.3000000001375
r29,29,199999993,1322.6999999998925
l68,68,999999988,1370.8999999998487
2062.7999999992194
l61,61,999999989,105.69999999999827
l38,38,1000000000,352.8000000000117
l37,37,999999983,554.7000000000576
l47,47,999999976,1051.0000000001396
r29,29,199999961,1325.8999999998896
l68,68,999999952,1374.4999999998454
2062.8999999992193
l61,61,999999954,109.19999999999807
l38,38,999999977,355.10000000001224
l37,37,999999987,554.3000000000575
l47,47,999999998,1048.8000000001416
r29,29,199999969,1325.0999999998903
l68,68,999999959,1373.799999999846
2062.999999999219
l61,61,999999964,108.19999999999813
l38,38,999999951,357.70000000001284
l37,37,999999999,553.1000000000572
l47,47,999999995,1049.1000000001413
r29,29,199999990,1322.9999999998922
l68,68,999999969,1372.799999999847
2063.099999999219
l61,61,999999999,104.69999999999833
l38,38,999999963,356.50000000001256
l37,37,999999991,553.9000000000574
l47,47,999999954,1053.2000000001376
r29,29,199999954,1326.599999999889
l68,68,999999962,1373.4999999998463
2063.199999999219
