r8,8,199999962,165.69999999999487
e90,90,1799999973,227.79999999999134
r15,15,199999951,416.8000000000263
1400.8999999998214
r8,8,200000000,161.8999999999951
e90,90,1799999976,227.49999999999136
r15,15,199999964,415.500000000026
1400.9999999998213
r8,8,199999992,162.69999999999504
e90,90,1799999953,229.79999999999123
r15,15,199999995,412.4000000000253
1401.0999999998212
r8,8,199999957,166.19999999999484
e90,90,1799999993,225.79999999999146
r15,15,199999960,415.90000000002607
1401.199999999821
r8,8,199999989,162.99999999999503
e90,90,1799999962,228.89999999999128
r15,15,199999992,412.70000000002534
1401.299999999821
r8,8,199999958,166.09999999999485
e90,90,1799999954,229.69999999999123
r15,15,199999956,416.30000000002616
1401.399999999821
r8,8,199999979,163.99999999999497
e90,90,1799999984,226.6999999999914
r15,15,199999953,416.6000000000262
1401.4999999998208
r8,8,199999961,165.79999999999487
e90,90,1799999997,225.39999999999148
r15,15,199999952,416.70000000002625
1401.5999999998207
r8,8,199999951,166.7999999999948
e90,90,1799999978,227.29999999999137
r15,15,199999983,413.60000000002555
1401.6999999998206
r8,8,199999986,163.299999999995
e90,90,1799999991,225.99999999999145
r15,15,199999994,412.5000000000253
1401.7999999998206
r8,8,199999987,163.19999999999501
e90,90,1799999982,226.8999999999914
r15,15,199999996,412.30000000002525
1401.8999999998205
r8,8,199999965,165.3999999999949
e90,90,1799999965,228.5999999999913
r15,15,200000000,411.90000000002516
1401.9999999998204
r8,8,199999996,162.29999999999507
e90,90,1799999964,228.6999999999913
r15,15,199999979,414.00000000002564
1402.0999999998203
r8,8,199999988,163.09999999999502
e90,90,1799999992,225.89999999999145
r15,15,199999982,413.70000000002557
1402.1999999998202
r8,8,199999975,164.39999999999495
e90,90,1799999967,228.3999999999913
r15,15,199999963,415.600000000026
1402.29999999982
r8,8,199999968,165.0999999999949
e90,90,1799999974,227.69999999999135
r15,15,199999997,412.2000000000252
1402.39999999982
r8,8,199999995,162.39999999999506
e90,90,1799999987,226.39999999999142
r15,15,199999966,415.30000000002593
1402.49999999982
r8,8,199999976,164.29999999999495
e90,90,1799999951,229.99999999999122
r15,15,199999976,414.3000000000257
1402.5999999998198
r8,8,199999973,164.59999999999494
e90,90,1799999972,227.89999999999134
r15,15,199999977,414.2000000000257
1402.6999999998197
r8,8,199999953,166.59999999999482
e90,90,1799999998,225.29999999999148
r15,15,199999958,416.1000000000261
1402.7999999998196
r8,8,199999964,165.49999999999488
e90,90,1799999986,226.49999999999142
r15,15,199999984,413.5000000000255
1402.8999999998196
r8,8,199999980,163.89999999999498
e90,90,1799999980,227.09999999999138
r15,15,199999971,414.8000000000258
1402.9999999998195
r8,8,199999960,165.89999999999486
e90,90,1799999996,225.49999999999147
r15,15,199999965,415.40000000002595
1403.0999999998194
r8,8,199999978,164.09999999999496
e90,90,1799999981,226.9999999999914
r15,15,199999972,414.7000000000258
1403.1999999998193
r8,8,199999969,164.9999999999949
e90,90,1799999952,229.89999999999122
r15,15,199999981,413.8000000000256
1403.2999999998192
r8,8,199999966,165.2999999999949
e90,90,1799999999,225.1999999999915
r15,15,199999989,413.0000000000254
1403.399999999819
r8,8,199999998,162.09999999999508
e90,90,1799999963,228.7999999999913
r15,15,199999978,414.10000000002566
1403.499999999819
r8,8,199999983,163.599999999995
e90,90,1799999966,228.4999999999913
r15,15,199999998,412.1000000000252
1403.599999999819
r8,8,199999956,166.29999999999484
e90,90,1799999955,229.59999999999124
r15,15,199999955,416.4000000000262
1403.6999999998188
r8,8,199999993,162.59999999999505
e90,90,1799999957,229.39999999999125
r15,15,199999973,414.6000000000258
1403.7999999998187
r8,8,199999984,163.499999999995
e90,90,1800000000,225.0999999999915
r15,15,199999985,413.4000000000255
1403.8999999998186
r8,8,199999990,162.89999999999503
e90,90,1799999969,228.19999999999132
r15,15,199999999,412.0000000000252
1403.9999999998186
r8,8,199999981,163.79999999999498
e90,90,1799999958,229.29999999999126
r15,15,199999993,412.6000000000253
1404.0999999998185
r8,8,199999954,166.49999999999483
e90,90,1799999960,229.09999999999127
r15,15,199999991,412.80000000002536
1404.1999999998184
r8,8,199999970,164.89999999999492
e90,90,1799999988,226.29999999999143
r15,15,199999957,416.20000000002614
1404.2999999998183
r8,8,199999972,164.69999999999493
e90,90,1799999956,229.49999999999125
r15,15,199999988,413.10000000002543
1404.3999999998182
r8,8,199999952,166.69999999999482
e90,90,1799999989,226.19999999999143
r15,15,199999974,414.50000000002575
1404.499999999818
r8,8,199999963,165.59999999999488
e90,90,1799999990,226.09999999999144
r15,15,199999959,416.0000000000261
1404.599999999818
r8,8,199999999,161.99999999999508
e90,90,1799999961,228.99999999999127
r15,15,199999968,415.1000000000259
1404.699999999818
r8,8,199999985,163.399999999995
e90,90,1799999985,226.5999999999914
r15,15,199999954,416.5000000000262
1404.7999999998178
r8,8,199999959,165.99999999999486
e90,90,1799999968,228.29999999999131
r15,15,199999990,412.9000000000254
1404.8999999998177
r8,8,199999977,164.19999999999496
e90,90,1799999959,229.19999999999126
r15,15,199999962,415.700000000026
1404.9999999998176
r8,8,199999982,163.699999999995
e90,90,1799999975,227.59999999999135
r15,15,199999961,415.80000000002605
1405.0999999998176
r8,8,199999971,164.79999999999492
e90,90,1799999979,227.19999999999138
r15,15,199999967,415.2000000000259
1405.1999999998175
r8,8,199999994,162.49999999999505
e90,90,1799999971,227.99999999999133
r15,15,199999987,413.20000000002545
1405.2999999998174
r8,8,199999974,164.49999999999494
e90,90,1799999995,225.59999999999147
r15,15,199999970,414.90000000002584
1405.3999999998173
r8,8,199999997,162.19999999999507
e90,90,1799999994,225.69999999999146
r15,15,199999980,413.9000000000256
1405.4999999998172
r8,8,199999955,166.39999999999483
e90,90,1799999970,228.09999999999133
r15,15,199999975,414.4000000000257
1405.599999999817
r8,8,199999967,165.1999999999949
e90,90,1799999983,226.7999999999914
r15,15,199999969,415.00000000002586
1405.699999999817
r8,8,199999991,162.79999999999504
e90,90,1799999977,227.39999999999137
r15,15,199999986,413.3000000000255
1405.799999999817
