e82,82,1799999968,322.60000000000485
l48,48,999999985,567.0000000000604
e79,79,1799999952,886.400000000133
l64,64,999999995,1846.9999999994156
r28,28,199999961,1943.8999999993275
1964.0999999993091
e82,82,1799999953,324.1000000000052
l48,48,999999953,570.2000000000611
e79,79,1799999964,885.2000000001327
l64,64,999999999,1846.599999999416
r28,28,199999983,1941.6999999993295
1964.199999999309
e82,82,1799999993,320.1000000000043
l48,48,1000000000,565.50000000006
e79,79,1799999991,882.5000000001321
l64,64,999999997,1846.7999999994158
r28,28,199999969,1943.0999999993282
1964.299999999309
e82,82,1799999997,319.7000000000042
l48,48,999999969,568.6000000000607
e79,79,1799999968,884.8000000001326
l64,64,999999984,1848.0999999994146
r28,28,199999984,1941.5999999993296
1964.3999999993089
e82,82,1799999992,320.2000000000043
l48,48,999999954,570.1000000000611
e79,79,1799999999,881.7000000001319
l64,64,999999970,1849.4999999994134
r28,28,199999963,1943.6999999993277
1964.4999999993088
e82,82,1799999973,322.10000000000474
l48,48,999999998,565.7000000000601
e79,79,1799999972,884.4000000001325
l64,64,999999971,1849.3999999994135
r28,28,199999986,1941.3999999993298
1964.5999999993087
e82,82,1799999980,321.4000000000046
l48,48,999999959,569.600000000061
e79,79,1799999987,882.9000000001322
l64,64,999999957,1850.7999999994122
r28,28,199999973,1942.6999999993286
1964.6999999993086
e82,82,1799999998,319.6000000000042
l48,48,999999981,567.4000000000605
e79,79,1799999960,885.6000000001328
l64,64,1000000000,1846.499999999416
r28,28,199999996,1940.3999999993307
1964.7999999993085
e82,82,1799999972,322.20000000000476
l48,48,999999958,569.700000000061
e79,79,1799999984,883.2000000001323
l64,64,999999985,1847.9999999994147
r28,28,199999975,1942.4999999993288
1964.8999999993084
e82,82,1799999988,320.6000000000044
l48,48,999999989,566.6000000000603
e79,79,1799999958,885.8000000001329
l64,64,999999977,1848.799999999414
r28,28,199999952,1944.7999999993267
1964.9999999993083
e82,82,1799999987,320.7000000000044
l48,48,999999994,566.1000000000602
e79,79,1799999969,884.7000000001326
l64,64,999999952,1851.2999999994117
r28,28,199999959,1944.0999999993273
1965.0999999993082
e82,82,1799999991,320.30000000000433
l48,48,999999995,566.0000000000601
e79,79,1799999990,882.6000000001321
l64,64,999999965,1849.999999999413
r28,28,199999988,1941.19999999933
1965.1999999993081
e82,82,1799999999,319.50000000000415
l48,48,999999962,569.3000000000609
e79,79,1799999963,885.3000000001327
l64,64,999999962,1850.2999999994126
r28,28,199999974,1942.5999999993287
1965.299999999308
e82,82,1799999958,323.6000000000051
l48,48,999999991,566.4000000000602
e79,79,1799999998,881.800000000132
l64,64,999999961,1850.3999999994126
r28,28,199999965,1943.4999999993279
1965.399999999308
e82,82,1799999996,319.8000000000042
l48,48,999999990,566.5000000000603
e79,79,1799999951,886.500000000133
l64,64,999999963,1850.1999999994127
r28,28,199999982,1941.7999999993294
1965.4999999993079
e82,82,1799999964,323.00000000000495
l48,48,999999979,567.6000000000605
e79,79,1799999978,883.8000000001324
l64,64,999999951,1851.3999999994116
r28,28,199999999,1940.099999999331
1965.5999999993078
e82,82,1799999974,322.0000000000047
l48,48,999999997,565.8000000000601
e79,79,1799999988,882.8000000001322
l64,64,999999955,1850.999999999412
r28,28,199999966,1943.399999999328
1965.6999999993077
e82,82,1799999965,322.9000000000049
l48,48,999999961,569.4000000000609
e79,79,1799999983,883.3000000001323
l64,64,999999993,1847.1999999994155
r28,28,199999958,1944.1999999993272
1965.7999999993076
e82,82,1799999983,321.1000000000045
l48,48,999999992,566.3000000000602
e79,79,1799999986,883.0000000001322
l64,64,999999990,1847.4999999994152
r28,28,199999993,1940.6999999993304
1965.8999999993075
e82,82,1799999976,321.8000000000047
l48,48,999999996,565.9000000000601
e79,79,1799999953,886.300000000133
l64,64,999999966,1849.899999999413
r28,28,199999968,1943.1999999993282
1965.9999999993074
e82,82,1799999989,320.5000000000044
l48,48,999999952,570.3000000000611
e79,79,1800000000,881.6000000001319
l64,64,999999991,1847.3999999994153
r28,28,199999955,1944.499999999327
1966.0999999993073
e82,82,1799999959,323.50000000000506
l48,48,999999976,567.9000000000606
e79,79,1799999992,882.4000000001321
l64,64,999999959,1850.5999999994124
r28,28,199999985,1941.4999999993297
1966.1999999993072
e82,82,1799999962,323.200000000005
l48,48,999999970,568.5000000000607
e79,79,1799999995,882.100000000132
l64,64,999999974,1849.0999999994137
r28,28,199999970,1942.9999999993283
1966.2999999993071
e82,82,1799999985,320.90000000000447
l48,48,999999956,569.900000000061
e79,79,1799999957,885.9000000001329
l64,64,999999972,1849.2999999994136
r28,28,199999954,1944.5999999993269
1966.399999999307
e82,82,1799999975,321.9000000000047
l48,48,999999984,567.1000000000604
e79,79,1799999971,884.5000000001326
l64,64,999999973,1849.1999999994136
r28,28,199999953,1944.6999999993268
1966.499999999307
e82,82,1800000000,319.4000000000041
l48,48,999999999,565.60000000006
e79,79,1799999994,882.200000000132
l64,64,999999976,1848.899999999414
r28,28,199999972,1942.7999999993285
1966.5999999993069
e82,82,1799999969,322.50000000000483
l48,48,999999964,569.1000000000608
e79,79,1799999961,885.5000000001328
l64,64,999999994,1847.0999999994156
r28,28,200000000,1939.999999999331
1966.6999999993068
e82,82,1799999952,324.2000000000052
l48,48,999999965,569.0000000000608
e79,79,1799999974,884.2000000001325
l64,64,999999967,1849.799999999413
r28,28,199999957,1944.2999999993272
1966.7999999993067
e82,82,1799999990,320.40000000000435
l48,48,999999967,568.8000000000608
e79,79,1799999976,884.0000000001324
l64,64,999999986,1847.8999999994148
r28,28,199999971,1942.8999999993284
1966.8999999993066
e82,82,1799999978,321.6000000000046
l48,48,999999963,569.2000000000609
e79,79,1799999954,886.200000000133
l64,64,999999992,1847.2999999994154
r28,28,199999981,1941.8999999993293
1966.9999999993065
e82,82,1799999966,322.8000000000049
l48,48,999999971,568.4000000000607
e79,79,1799999977,883.9000000001324
l64,64,999999996,1846.8999999994157
r28,28,199999997,1940.2999999993308
1967.0999999993064
e82,82,1799999957,323.7000000000051
l48,48,999999968,568.7000000000608
e79,79,1799999996,882.000000000132
l64,64,999999983,1848.1999999994146
r28,28,199999977,1942.299999999329
1967.1999999993063
e82,82,1799999961,323.300000000005
l48,48,999999974,568.1000000000606
e79,79,1799999993,882.3000000001321
l64,64,999999989,1847.599999999415
r28,28,199999998,1940.1999999993309
1967.2999999993062
e82,82,1799999960,323.40000000000504
l48,48,999999993,566.2000000000602
e79,79,1799999979,883.7000000001324
l64,64,999999981,1848.3999999994144
r28,28,199999979,1942.0999999993292
1967.3999999993061
e82,82,1799999967,322.7000000000049
l48,48,999999987,566.8000000000603
e79,79,1799999965,885.1000000001327
l64,64,999999953,1851.1999999994118
r28,28,199999964,1943.5999999993278
1967.499999999306
e82,82,1799999981,321.30000000000456
l48,48,999999982,567.3000000000604
e79,79,1799999970,884.6000000001326
l64,64,999999975,1848.9999999994138
r28,28,199999951,1944.8999999993266
1967.599999999306
e82,82,1799999986,320.80000000000445
l48,48,999999951,570.4000000000611
e79,79,1799999980,883.6000000001324
l64,64,999999954,1851.099999999412
r28,28,199999992,1940.7999999993303
1967.6999999993059
e82,82,1799999994,320.00000000000426
l48,48,999999980,567.5000000000605
e79,79,1799999997,881.900000000132
l64,64,999999964,1850.0999999994128
r28,28,199999990,1940.9999999993302
1967.7999999993058
e82,82,1799999984,321.0000000000045
l48,48,999999975,568.0000000000606
e79,79,1799999967,884.9000000001326
l64,64,999999979,1848.5999999994142
r28,28,199999994,1940.5999999993305
1967.8999999993057
e82,82,1799999956,323.8000000000051
l48,48,999999986,566.9000000000603
e79,79,1799999981,883.5000000001323
l64,64,999999988,1847.699999999415
r28,28,199999989,1941.09999999933
1967.9999999993056
e82,82,1799999971,322.3000000000048
l48,48,999999978,567.7000000000605
e79,79,1799999982,883.4000000001323
l64,64,999999958,1850.6999999994123
r28,28,199999987,1941.2999999993299
1968.0999999993055
e82,82,1799999954,324.0000000000052
l48,48,999999966,568.9000000000608
e79,79,1799999962,885.4000000001328
l64,64,999999987,1847.799999999415
r28,28,199999956,1944.399999999327
1968.1999999993054
e82,82,1799999979,321.5000000000046
l48,48,999999955,570.000000000061
e79,79,1799999959,885.7000000001328
l64,64,999999978,1848.699999999414
r28,28,199999991,1940.8999999993302
1968.2999999993053
e82,82,1799999982,321.20000000000454
l48,48,999999957,569.800000000061
e79,79,1799999966,885.0000000001327
l64,64,999999956,1850.899999999412
r28,28,199999980,1941.9999999993292
1968.3999999993052
e82,82,1799999963,323.10000000000497
l48,48,999999960,569.5000000000609
e79,79,1799999956,886.0000000001329
l64,64,999999998,1846.699999999416
r28,28,199999960,1943.9999999993274
1968.4999999993051
e82,82,1799999977,321.70000000000465
l48,48,999999988,566.7000000000603
e79,79,1799999975,884.1000000001325
l64,64,999999980,1848.4999999994143
r28,28,199999976,1942.3999999993289
1968.599999999305
e82,82,1799999970,322.4000000000048
l48,48,999999983,567.2000000000604
e79,79,1799999985,883.1000000001322
l64,64,999999968,1849.6999999994132
r28,28,199999962,1943.7999999993276
1968.699999999305
e82,82,1799999951,324.30000000000524
l48,48,999999977,567.8000000000605
e79,79,1799999955,886.1000000001329
l64,64,999999982,1848.2999999994145
r28,28,199999978,1942.199999999329
1968.7999999993049
e82,82,1799999995,319.90000000000424
l48,48,999999973,568.2000000000606
e79,79,1799999973,884.3000000001325
l64,64,999999960,1850.4999999994125
r28,28,199999967,1943.299999999328
1968.8999999993048
e82,82,1799999955,323.90000000000515
l48,48,999999972,568.3000000000607
e79,79,1799999989,882.7000000001321
l64,64,999999969,1849.5999999994133
r28,28,199999995,1940.4999999993306
1968.9999999993047
