l38,38,999999990,229.69999999999123
r18,18,199999968,780.5000000001089
e74,74,1799999994,1051.8000000001389
1132.9000000000651
l38,38,999999995,229.19999999999126
r18,18,200000000,777.3000000001082
e74,74,1799999960,1055.2000000001358
1133.000000000065
l38,38,999999962,232.49999999999108
r18,18,199999973,780.0000000001088
e74,74,1799999993,1051.9000000001388
1133.100000000065
l38,38,999999961,232.59999999999107
r18,18,199999969,780.4000000001089
e74,74,1799999951,1056.100000000135
1133.2000000000648
l38,38,999999972,231.49999999999113
r18,18,199999993,778.0000000001083
e74,74,1799999961,1055.1000000001359
1133.3000000000648
l38,38,999999977,230.99999999999116
r18,18,199999982,779.1000000001086
e74,74,1799999999,1051.3000000001393
1133.4000000000647
l38,38,999999971,231.59999999999113
r18,18,199999995,777.8000000001083
e74,74,1799999983,1052.9000000001379
1133.5000000000646
l38,38,999999987,229.99999999999122
r18,18,199999981,779.2000000001086
e74,74,1799999966,1054.6000000001363
1133.6000000000645
l38,38,999999983,230.3999999999912
r18,18,199999956,781.7000000001092
e74,74,1799999969,1054.3000000001366
1133.7000000000644
l38,38,999999976,231.09999999999116
r18,18,199999970,780.3000000001089
e74,74,1799999978,1053.4000000001374
1133.8000000000643
l38,38,999999960,232.69999999999106
r18,18,199999980,779.3000000001086
e74,74,1799999976,1053.6000000001372
1133.9000000000642
l38,38,999999980,230.69999999999118
r18,18,199999971,780.2000000001088
e74,74,1799999997,1051.5000000001392
1134.0000000000641
l38,38,999999952,233.49999999999102
r18,18,199999990,778.3000000001084
e74,74,1799999970,1054.2000000001367
1134.100000000064
l38,38,999999986,230.0999999999912
r18,18,199999972,780.1000000001088
e74,74,1799999990,1052.2000000001385
1134.200000000064
l38,38,999999981,230.59999999999118
r18,18,199999957,781.6000000001092
e74,74,1799999962,1055.000000000136
1134.3000000000638
l38,38,999999964,232.2999999999911
r18,18,199999976,779.7000000001087
e74,74,1799999973,1053.900000000137
1134.4000000000638
l38,38,999999969,231.79999999999112
r18,18,199999966,780.700000000109
e74,74,1799999985,1052.700000000138
1134.5000000000637
l38,38,999999991,229.59999999999124
r18,18,199999974,779.9000000001088
e74,74,1799999963,1054.900000000136
1134.6000000000636
l38,38,999999979,230.79999999999117
r18,18,199999983,779.0000000001086
e74,74,1799999971,1054.1000000001368
1134.7000000000635
l38,38,999999975,231.19999999999115
r18,18,199999979,779.4000000001087
e74,74,1799999992,1052.0000000001387
1134.8000000000634
l38,38,999999954,233.29999999999103
r18,18,199999965,780.800000000109
e74,74,1799999959,1055.3000000001357
1134.9000000000633
l38,38,999999973,231.39999999999114
r18,18,199999989,778.4000000001084
e74,74,1799999956,1055.6000000001354
1135.0000000000632
l38,38,999999998,228.89999999999128
r18,18,199999977,779.6000000001087
e74,74,1799999987,1052.5000000001382
1135.1000000000631
l38,38,999999967,231.9999999999911
r18,18,199999998,777.5000000001082
e74,74,1799999991,1052.1000000001386
1135.200000000063
l38,38,999999997,228.99999999999127
r18,18,199999967,780.6000000001089
e74,74,1799999958,1055.4000000001356
1135.300000000063
l38,38,999999958,232.89999999999105
r18,18,199999988,778.5000000001085
e74,74,1799999989,1052.3000000001384
1135.4000000000628
l38,38,999999953,233.39999999999102
r18,18,199999994,777.9000000001083
e74,74,1799999952,1056.000000000135
1135.5000000000628
l38,38,999999989,229.79999999999123
r18,18,199999960,781.3000000001091
e74,74,1799999979,1053.3000000001375
1135.6000000000627
l38,38,999999959,232.79999999999106
r18,18,199999999,777.4000000001082
e74,74,1799999972,1054.0000000001369
1135.7000000000626
l38,38,999999965,232.1999999999911
r18,18,199999962,781.100000000109
e74,74,1799999981,1053.1000000001377
1135.8000000000625
l38,38,999999955,233.19999999999104
r18,18,199999959,781.4000000001091
e74,74,1799999954,1055.8000000001352
1135.9000000000624
l38,38,999999984,230.2999999999912
r18,18,199999964,780.900000000109
e74,74,1799999955,1055.7000000001353
1136.0000000000623
l38,38,999999968,231.8999999999911
r18,18,199999952,782.1000000001093
e74,74,1799999965,1054.7000000001362
1136.1000000000622
l38,38,999999963,232.39999999999108
r18,18,199999986,778.7000000001085
e74,74,1799999964,1054.8000000001362
1136.2000000000621
l38,38,999999956,233.09999999999104
r18,18,199999992,778.1000000001084
e74,74,1799999995,1051.700000000139
1136.300000000062
l38,38,999999992,229.49999999999125
r18,18,199999951,782.2000000001093
e74,74,1800000000,1051.2000000001394
1136.400000000062
l38,38,999999966,232.0999999999911
r18,18,199999954,781.9000000001092
e74,74,1799999975,1053.7000000001372
1136.5000000000618
l38,38,999999982,230.4999999999912
r18,18,199999961,781.2000000001091
e74,74,1799999984,1052.800000000138
1136.6000000000618
l38,38,999999974,231.29999999999114
r18,18,199999984,778.9000000001085
e74,74,1799999968,1054.4000000001365
e78,78,1799999972,1119.5000000000773
r16,16,199999964,1286.4999999999254
1456.399999999771
l38,38,999999996,229.09999999999127
r18,18,199999953,782.0000000001093
e74,74,1799999982,1053.0000000001378
e78,78,1799999997,1117.0000000000796
r16,16,199999971,1285.799999999926
1456.4999999997708
l38,38,999999999,228.7999999999913
r18,18,199999996,777.7000000001083
e74,74,1799999967,1054.5000000001364
e78,78,1800000000,1116.7000000000799
r16,16,199999982,1284.699999999927
1456.5999999997707
l38,38,999999970,231.69999999999112
r18,18,199999991,778.2000000001084
e74,74,1799999998,1051.4000000001392
e78,78,1799999998,1116.9000000000797
r16,16,199999962,1286.6999999999252
1456.6999999997706
l38,38,999999994,229.29999999999126
r18,18,199999987,778.6000000001085
e74,74,1799999996,1051.600000000139
e78,78,1799999966,1120.1000000000768
r16,16,199999976,1285.2999999999265
1456.7999999997705
l38,38,999999993,229.39999999999125
r18,18,199999985,778.8000000001085
e74,74,1799999977,1053.5000000001373
e78,78,1799999976,1119.1000000000777
r16,16,199999996,1283.2999999999283
1456.8999999997704
l38,38,999999985,230.1999999999912
r18,18,199999975,779.8000000001088
e74,74,1799999986,1052.6000000001382
e78,78,1799999960,1120.7000000000762
r16,16,199999963,1286.5999999999253
1456.9999999997704
l38,38,999999978,230.89999999999117
r18,18,199999955,781.8000000001092
e74,74,1799999980,1053.2000000001376
e78,78,1799999991,1117.600000000079
r16,16,199999969,1285.9999999999259
1457.0999999997703
l38,38,1000000000,228.6999999999913
r18,18,199999978,779.5000000001087
e74,74,1799999988,1052.4000000001383
e78,78,1799999994,1117.3000000000793
r16,16,199999957,1287.1999999999248
1457.1999999997702
l38,38,999999951,233.599999999991
r18,18,199999958,781.5000000001091
e74,74,1799999974,1053.800000000137
e78,78,1799999958,1120.900000000076
r16,16,200000000,1282.8999999999287
1457.29999999977
l38,38,999999957,232.99999999999105
r18,18,199999997,777.6000000001083
e74,74,1799999957,1055.5000000001355
e78,78,1799999984,1118.3000000000784
r16,16,199999978,1285.0999999999267
1457.39999999977
l38,38,999999988,229.89999999999122
r18,18,199999963,781.000000000109
e74,74,1799999953,1055.9000000001352
e78,78,1799999981,1118.6000000000781
r16,16,199999956,1287.2999999999247
1457.49999999977
