r30,30,999999982,60513.9999993999
r77,77,999999964,60653.39999939787
2586.799999962357
r30,30,999999951,60517.099999399856
r77,77,999999967,60653.09999939788
2584.9999999623833
r30,30,999999999,60512.299999399926
r77,77,999999965,60653.299999397874
2583.099999962411
r30,30,999999985,60513.699999399905
r77,77,999999983,60651.4999993979
2584.8999999623848
r30,30,999999998,60512.399999399924
r77,77,999999988,60650.99999939791
2583.1999999624095
r30,30,999999964,60515.799999399875
r77,77,999999963,60653.49999939787
2586.999999962354
r30,30,999999997,60512.49999939992
r77,77,999999953,60654.499999397856
2588.1999999623367
r30,30,999999952,60516.99999939986
r77,77,999999954,60654.39999939786
2586.6999999623586
r30,30,999999953,60516.89999939986
r77,77,999999971,60652.69999939788
2587.699999962344
r30,30,999999987,60513.49999939991
r77,77,999999961,60653.69999939787
2584.6999999623877
r30,30,999999963,60515.89999939987
r77,77,1000000000,60649.799999397925
2588.1999999623367
r30,30,999999989,60513.29999939991
r77,77,999999987,60651.099999397906
2584.599999962389
r30,30,999999983,60513.8999993999
r77,77,999999997,60650.09999939792
2587.7999999623426
r30,30,999999962,60515.99999939987
r77,77,999999970,60652.79999939788
2584.599999962389
r30,30,999999995,60512.69999939992
r77,77,999999969,60652.89999939788
2585.099999962382
r30,30,999999994,60512.79999939992
r77,77,999999984,60651.3999993979
2584.6999999623877
r30,30,999999974,60514.79999939989
r77,77,999999966,60653.199999397875
2586.999999962354
r30,30,999999990,60513.19999939991
r77,77,999999960,60653.79999939787
2586.6999999623586
r30,30,999999975,60514.69999939989
r77,77,999999978,60651.99999939789
2589.199999962322
r30,30,999999956,60516.59999939986
r77,77,999999959,60653.899999397865
2584.8999999623848
r30,30,999999965,60515.699999399876
r77,77,999999990,60650.79999939791
2588.6999999623295
r30,30,999999969,60515.29999939988
r77,77,999999975,60652.29999939789
2588.399999962334
r30,30,999999960,60516.19999939987
r77,77,999999968,60652.99999939788
2586.2999999623644
r30,30,999999972,60514.999999399886
r77,77,999999985,60651.2999993979
2586.4999999623615
r30,30,999999991,60513.099999399914
r77,77,999999999,60649.89999939792
2587.899999962341
r30,30,999999955,60516.69999939986
r77,77,999999989,60650.89999939791
2586.999999962354
r30,30,999999977,60514.49999939989
r77,77,999999979,60651.899999397894
2589.699999962315
r30,30,999999984,60513.799999399904
r77,77,999999977,60652.09999939789
2587.899999962341
r30,30,999999971,60515.099999399885
r77,77,999999958,60653.99999939786
2588.399999962334
r30,30,999999978,60514.399999399895
r77,77,999999962,60653.59999939787
2588.1999999623367
r30,30,999999992,60512.999999399915
r77,77,999999974,60652.39999939789
2586.59999996236
r30,30,999999961,60516.09999939987
r77,77,999999995,60650.29999939792
2587.7999999623426
r30,30,999999957,60516.499999399864
r77,77,999999972,60652.599999397884
2588.8999999623265
r30,30,999999996,60512.59999939992
r77,77,999999980,60651.799999397896
2587.699999962344
r30,30,999999980,60514.1999993999
r77,77,999999957,60654.09999939786
2590.3999999623047
r30,30,999999958,60516.399999399866
r77,77,999999956,60654.19999939786
2587.7999999623426
r30,30,999999968,60515.39999939988
r77,77,999999952,60654.599999397855
2586.6999999623586
r30,30,999999966,60515.59999939988
r77,77,999999973,60652.499999397885
2587.0999999623527
r30,30,999999954,60516.79999939986
r77,77,999999986,60651.199999397904
2586.4999999623615
r30,30,999999986,60513.59999939991
r77,77,999999991,60650.69999939791
2587.7999999623426
r30,30,999999976,60514.59999939989
r77,77,999999994,60650.399999397916
2587.9999999623396
r30,30,999999993,60512.89999939992
r77,77,999999981,60651.6999993979
2589.9999999623105
r30,30,1000000000,60512.19999939993
r77,77,999999996,60650.19999939792
2590.299999962306
r30,30,999999970,60515.19999939988
r77,77,999999982,60651.5999993979
2591.7999999622843
r30,30,999999967,60515.49999939988
r77,77,999999998,60649.99999939792
2589.499999962318
r30,30,999999988,60513.39999939991
r77,77,999999976,60652.19999939789
2591.7999999622843
r30,30,999999979,60514.2999993999
r77,77,999999951,60654.69999939785
2590.3999999623047
r30,30,999999959,60516.29999939987
r77,77,999999992,60650.59999939791
2589.499999962318
r30,30,999999981,60514.0999993999
r77,77,999999993,60650.499999397915
2591.199999962293
r30,30,999999973,60514.89999939989
r77,77,999999955,60654.29999939786
2591.0999999622945
