r34,34,999999959,61043.0999993922
r60,60,999999962,61744.399999381996
r71,71,999999962,62058.599999377424
r67,67,999999964,62415.39999937223
3503.8999999490115
r34,34,999999955,61043.499999392196
r60,60,999999957,61744.89999938199
r71,71,999999961,62058.69999937742
r67,67,999999985,62413.29999937226
3501.999999949039
r34,34,999999966,61042.39999939221
r60,60,999999999,61740.69999938205
r71,71,999999987,62056.09999937746
r67,67,999999989,62412.89999937227
3504.5999999490014
r34,34,999999968,61042.199999392215
r60,60,999999969,61743.699999382006
r71,71,999999956,62059.199999377415
r67,67,1000000000,62411.799999372284
3505.799999948984
r34,34,999999988,61040.19999939224
r60,60,999999990,61741.59999938204
r71,71,999999958,62058.99999937742
r67,67,999999974,62414.39999937225
3503.6999999490145
r34,34,999999990,61039.99999939225
r60,60,999999964,61744.199999382
r71,71,999999977,62057.099999377446
r67,67,999999971,62414.69999937224
3506.199999948978
r34,34,999999974,61041.59999939222
r60,60,999999960,61744.59999938199
r71,71,999999963,62058.499999377425
r67,67,999999983,62413.49999937226
3507.3999999489606
r34,34,999999977,61041.29999939223
r60,60,999999997,61740.89999938205
r71,71,999999966,62058.19999937743
r67,67,999999992,62412.59999937227
3505.6999999489854
r34,34,999999956,61043.3999993922
r60,60,999999980,61742.59999938202
r71,71,999999954,62059.39999937741
r67,67,999999987,62413.099999372265
3503.4999999490174
r34,34,999999980,61040.99999939223
r60,60,999999954,61745.199999381985
r71,71,999999973,62057.49999937744
r67,67,999999972,62414.59999937224
3506.2999999489766
r34,34,999999969,61042.099999392216
r60,60,999999994,61741.19999938204
r71,71,999999965,62058.29999937743
r67,67,999999997,62412.09999937228
3505.6999999489854
r34,34,999999954,61043.599999392194
r60,60,999999965,61744.099999382
r71,71,999999992,62055.59999937747
r67,67,999999976,62414.19999937225
3505.8999999489824
r34,34,999999997,61039.29999939226
r60,60,999999955,61745.099999381986
r71,71,999999969,62057.899999377434
r67,67,999999980,62413.799999372255
3507.5999999489577
r34,34,1000000000,61038.99999939226
r60,60,999999987,61741.89999938203
r71,71,999999960,62058.79999937742
r67,67,999999966,62415.199999372235
3504.7999999489984
r34,34,999999960,61042.9999993922
r60,60,999999972,61743.39999938201
r71,71,999999980,62056.79999937745
r67,67,999999998,62411.99999937228
3504.2999999490057
r34,34,999999989,61040.099999392245
r60,60,999999958,61744.79999938199
r71,71,999999955,62059.299999377414
r67,67,999999965,62415.29999937223
3506.7999999489693
r34,34,999999972,61041.79999939222
r60,60,999999966,61743.999999382
r71,71,999999998,62054.999999377476
r67,67,999999970,62414.79999937224
3503.599999949016
r34,34,999999971,61041.89999939222
r60,60,999999959,61744.69999938199
r71,71,999999967,62058.09999937743
r67,67,999999982,62413.59999937226
3506.199999948978
r34,34,999999957,61043.2999993922
r60,60,999999988,61741.799999382034
r71,71,999999953,62059.49999937741
r67,67,999999984,62413.39999937226
3507.6999999489562
r34,34,999999967,61042.29999939221
r60,60,1000000000,61740.59999938205
r71,71,999999997,62055.099999377475
r67,67,999999991,62412.69999937227
3505.099999948994
r34,34,999999993,61039.69999939225
r60,60,999999986,61741.99999938203
r71,71,999999979,62056.89999937745
r67,67,999999951,62416.69999937221
3505.6999999489854
r34,34,999999961,61042.899999392204
r60,60,999999976,61742.99999938202
r71,71,999999985,62056.29999937746
r67,67,999999975,62414.29999937225
3508.6999999489417
r34,34,999999996,61039.399999392255
r60,60,999999993,61741.29999938204
r71,71,999999951,62059.69999937741
r67,67,999999968,62414.99999937224
3507.3999999489606
r34,34,999999953,61043.69999939219
r60,60,999999975,61743.099999382015
r71,71,999999974,62057.39999937744
r67,67,999999961,62415.69999937223
3506.5999999489723
r34,34,999999986,61040.39999939224
r60,60,999999963,61744.299999382
r71,71,999999971,62057.69999937744
r67,67,999999994,62412.399999372275
3504.7999999489984
r34,34,999999973,61041.69999939222
r60,60,999999991,61741.49999938204
r71,71,999999990,62055.799999377465
r67,67,999999973,62414.499999372245
3507.3999999489606
r34,34,999999981,61040.89999939223
r60,60,999999952,61745.39999938198
r71,71,999999964,62058.39999937743
r67,67,999999978,62413.99999937225
3505.6999999489854
r34,34,999999958,61043.1999993922
r60,60,999999984,61742.19999938203
r71,71,999999976,62057.199999377444
r67,67,999999957,62416.09999937222
3508.2999999489475
r34,34,999999951,61043.89999939219
r60,60,999999953,61745.29999938198
r71,71,999999983,62056.499999377455
r67,67,999999967,62415.099999372236
3509.299999948933
r34,34,999999987,61040.29999939224
r60,60,999999995,61741.099999382044
r71,71,999999999,62054.89999937748
r67,67,999999990,62412.79999937227
3509.1999999489344
r34,34,999999964,61042.59999939221
r60,60,999999979,61742.69999938202
r71,71,999999957,62059.09999937742
r67,67,999999995,62412.29999937228
3509.699999948927
r34,34,999999994,61039.59999939225
r60,60,999999961,61744.499999381995
r71,71,999999959,62058.89999937742
r67,67,999999986,62413.199999372264
3509.299999948933
r34,34,999999998,61039.19999939226
r60,60,999999989,61741.699999382035
r71,71,999999986,62056.19999937746
r67,67,999999993,62412.499999372274
3507.1999999489635
r34,34,999999978,61041.19999939223
r60,60,999999982,61742.399999382025
r71,71,999999968,62057.99999937743
r67,67,999999960,62415.799999372226
3505.599999948987
r34,34,999999979,61041.09999939223
r60,60,999999998,61740.79999938205
r71,71,1000000000,62054.79999937748
r67,67,999999962,62415.59999937223
3506.9999999489664
r34,34,999999983,61040.699999392236
r60,60,999999978,61742.79999938202
r71,71,999999975,62057.29999937744
r67,67,999999952,62416.599999372214
3507.299999948962
r34,34,999999984,61040.59999939224
r60,60,999999973,61743.29999938201
r71,71,999999996,62055.19999937747
r67,67,999999955,62416.29999937222
3508.199999948949
r34,34,999999963,61042.69999939221
r60,60,999999970,61743.59999938201
r71,71,999999981,62056.69999937745
r67,67,999999981,62413.69999937226
3508.7999999489402
r34,34,999999991,61039.89999939225
r60,60,999999983,61742.29999938203
r71,71,999999994,62055.39999937747
r67,67,999999954,62416.39999937222
3509.5999999489286
r34,34,999999995,61039.499999392254
r60,60,999999985,61742.09999938203
r71,71,999999993,62055.49999937747
r67,67,999999958,62415.99999937222
3506.399999948975
r34,34,999999962,61042.799999392206
r60,60,999999967,61743.899999382
r71,71,999999978,62056.99999937745
r67,67,999999996,62412.19999937228
3506.7999999489693
r34,34,999999976,61041.399999392226
r60,60,999999968,61743.799999382005
r71,71,999999988,62055.99999937746
r67,67,999999979,62413.899999372254
3507.499999948959
r34,34,999999975,61041.499999392225
r60,60,999999971,61743.49999938201
r71,71,999999995,62055.29999937747
r67,67,999999953,62416.499999372216
3507.1999999489635
r34,34,999999965,61042.49999939221
r60,60,999999956,61744.99999938199
r71,71,999999952,62059.59999937741
r67,67,999999969,62414.89999937224
3506.899999948968
r34,34,999999985,61040.49999939224
r60,60,999999992,61741.39999938204
r71,71,999999984,62056.399999377456
r67,67,999999999,62411.89999937228
3510.4999999489155
r34,34,999999970,61041.99999939222
r60,60,999999977,61742.89999938202
r71,71,999999991,62055.699999377466
r67,67,999999959,62415.899999372225
3508.599999948943
r34,34,999999982,61040.799999392235
r60,60,999999981,61742.499999382024
r71,71,999999970,62057.799999377436
r67,67,999999988,62412.99999937227
3506.699999948971
r34,34,999999992,61039.79999939225
r60,60,999999996,61740.999999382046
r71,71,999999989,62055.89999937746
r67,67,999999963,62415.49999937223
3506.899999948968
r34,34,999999999,61039.09999939226
r60,60,999999974,61743.19999938201
r71,71,999999972,62057.59999937744
r67,67,999999956,62416.19999937222
3510.799999948911
r34,34,999999952,61043.79999939219
r60,60,999999951,61745.49999938198
r71,71,999999982,62056.59999937745
r67,67,999999977,62414.09999937225
3509.099999948936
