r9,9,999999988,61191.199999390046
r59,59,999999964,61318.59999938819
1752.899999974492
r9,9,999999986,61191.39999939004
r59,59,999999961,61318.89999938819
1753.7999999744789
r9,9,999999985,61191.49999939004
r59,59,999999965,61318.499999388194
1752.899999974492
r9,9,999999978,61192.19999939003
r59,59,999999994,61315.599999388236
1752.0999999745036
r9,9,999999958,61194.19999939
r59,59,999999971,61317.8999993882
1752.6999999744949
r9,9,999999982,61191.79999939004
r59,59,999999985,61316.49999938822
1753.2999999744861
r9,9,999999960,61193.999999390006
r59,59,999999978,61317.19999938821
1751.999999974505
r9,9,999999967,61193.299999390016
r59,59,999999958,61319.199999388184
1750.5999999745254
r9,9,999999970,61192.99999939002
r59,59,999999956,61319.39999938818
1752.0999999745036
r9,9,999999955,61194.49999939
r59,59,999999989,61316.09999938823
1750.699999974524
r9,9,999999996,61190.39999939006
r59,59,999999952,61319.799999388175
1750.3999999745283
r9,9,999999976,61192.39999939003
r59,59,999999977,61317.29999938821
1752.7999999744934
r9,9,999999993,61190.69999939005
r59,59,999999951,61319.89999938817
1754.4999999744687
r9,9,1000000000,61189.999999390064
r59,59,999999979,61317.099999388214
1750.899999974521
r9,9,999999991,61190.89999939005
r59,59,999999982,61316.79999938822
1752.4999999744978
r9,9,999999983,61191.69999939004
r59,59,999999983,61316.69999938822
1753.5999999744818
r9,9,999999965,61193.49999939001
r59,59,999999972,61317.799999388204
1753.099999974489
r9,9,999999979,61192.09999939003
r59,59,999999955,61319.49999938818
1752.0999999745036
r9,9,999999972,61192.79999939002
r59,59,999999973,61317.699999388205
1752.4999999744978
r9,9,999999954,61194.59999939
r59,59,999999968,61318.1999993882
1755.7999999744497
r9,9,999999964,61193.59999939001
r59,59,999999990,61315.99999938823
1755.499999974454
r9,9,999999974,61192.599999390026
r59,59,999999954,61319.59999938818
1755.09999997446
r9,9,999999957,61194.29999939
r59,59,999999996,61315.39999938824
1754.199999974473
r9,9,999999966,61193.399999390014
r59,59,999999963,61318.69999938819
1752.7999999744934
r9,9,999999992,61190.79999939005
r59,59,999999981,61316.89999938822
1752.3999999744992
r9,9,999999962,61193.79999939001
r59,59,999999986,61316.399999388224
1753.2999999744861
r9,9,999999987,61191.299999390045
r59,59,999999959,61319.099999388185
1756.599999974438
r9,9,999999969,61193.09999939002
r59,59,999999966,61318.399999388195
1752.7999999744934
r9,9,999999981,61191.899999390036
r59,59,999999998,61315.19999938824
1754.6999999744658
r9,9,999999961,61193.89999939001
r59,59,999999960,61318.99999938819
1753.8999999744774
r9,9,999999977,61192.29999939003
r59,59,999999969,61318.0999993882
1755.499999974454
r9,9,999999952,61194.799999389994
r59,59,999999974,61317.59999938821
1752.7999999744934
r9,9,999999973,61192.699999390024
r59,59,999999992,61315.79999938823
1753.3999999744847
r9,9,999999956,61194.39999939
r59,59,999999987,61316.299999388226
1754.4999999744687
r9,9,999999999,61190.09999939006
r59,59,999999967,61318.2999993882
1756.7999999744352
r9,9,999999953,61194.699999389995
r59,59,999999962,61318.79999938819
1755.09999997446
r9,9,999999975,61192.49999939003
r59,59,999999997,61315.29999938824
1756.7999999744352
r9,9,999999994,61190.599999390055
r59,59,999999957,61319.29999938818
1755.8999999744483
r9,9,999999951,61194.89999938999
r59,59,999999976,61317.39999938821
1752.9999999744905
r9,9,999999997,61190.29999939006
r59,59,999999980,61316.999999388216
1756.2999999744425
r9,9,999999968,61193.19999939002
r59,59,999999995,61315.49999938824
1756.599999974438
r9,9,999999989,61191.09999939005
r59,59,999999953,61319.69999938818
1758.1999999744148
r9,9,999999980,61191.999999390035
r59,59,999999993,61315.699999388235
1753.6999999744803
r9,9,999999984,61191.59999939004
r59,59,999999991,61315.89999938823
1754.8999999744628
r9,9,999999995,61190.49999939006
r59,59,999999984,61316.59999938822
1758.1999999744148
r9,9,999999963,61193.69999939001
r59,59,1000000000,61314.999999388245
1758.0999999744163
r9,9,999999959,61194.099999390004
r59,59,999999999,61315.09999938824
1757.699999974422
r9,9,999999971,61192.89999939002
r59,59,999999988,61316.19999938823
1754.9999999744614
r9,9,999999998,61190.19999939006
r59,59,999999970,61317.9999993882
1755.6999999744512
r9,9,999999990,61190.99999939005
r59,59,999999975,61317.49999938821
1754.199999974473
