r15,15,999999952,60441.09999940096
r82,82,999999979,60757.49999939636
r76,76,999999961,61288.59999938863
r74,74,999999987,61473.099999385944
1600.7999999767053
r15,15,999999964,60439.89999940098
r82,82,999999970,60758.399999396344
r76,76,999999952,61289.499999388616
r74,74,999999998,61471.99999938596
1599.2999999767271
r15,15,999999956,60440.69999940097
r82,82,999999963,60759.099999396334
r76,76,999999985,61286.199999388664
r74,74,999999996,61472.19999938596
1600.8999999767038
r15,15,999999953,60440.99999940096
r82,82,999999982,60757.19999939636
r76,76,999999992,61285.499999388674
r74,74,999999997,61472.09999938596
1599.7999999767198
r15,15,999999999,60436.39999940103
r82,82,999999996,60755.79999939638
r76,76,999999988,61285.89999938867
r74,74,999999999,61471.89999938596
1598.4999999767388
r15,15,999999984,60437.89999940101
r82,82,999999995,60755.89999939638
r76,76,999999966,61288.099999388636
r74,74,999999993,61472.49999938595
1598.9999999767315
r15,15,999999966,60439.69999940098
r82,82,999999974,60757.99999939635
r76,76,999999956,61289.09999938862
r74,74,999999990,61472.79999938595
1599.6999999767213
r15,15,999999989,60437.399999401016
r82,82,999999954,60759.99999939632
r76,76,999999995,61285.19999938868
r74,74,1000000000,61471.79999938596
1598.3999999767402
r15,15,999999955,60440.799999400966
r82,82,999999983,60757.09999939636
r76,76,999999976,61287.09999938865
r74,74,999999992,61472.59999938595
1598.1999999767431
r15,15,999999963,60439.99999940098
r82,82,999999985,60756.899999396366
r76,76,999999977,61286.99999938865
r74,74,999999984,61473.39999938594
1597.6999999767504
r15,15,999999957,60440.59999940097
r82,82,999999965,60758.89999939634
r76,76,999999991,61285.59999938867
r74,74,999999991,61472.69999938595
1601.3999999766966
r15,15,999999986,60437.69999940101
r82,82,999999991,60756.299999396375
r76,76,999999979,61286.799999388655
r74,74,999999986,61473.19999938594
1600.0999999767155
r15,15,999999987,60437.59999940101
r82,82,999999994,60755.99999939638
r76,76,999999959,61288.799999388626
r74,74,999999994,61472.399999385954
1601.7999999766907
r15,15,999999969,60439.39999940099
r82,82,999999998,60755.599999396385
r76,76,999999981,61286.59999938866
r74,74,999999989,61472.89999938595
1598.899999976733
r15,15,999999985,60437.79999940101
r82,82,999999966,60758.79999939634
r76,76,1000000000,61284.699999388686
r74,74,999999988,61472.999999385946
1600.2999999767126
r15,15,999999995,60436.799999401024
r82,82,999999973,60758.09999939635
r76,76,999999975,61287.19999938865
r74,74,999999985,61473.29999938594
1601.3999999766966
r15,15,999999959,60440.39999940097
r82,82,999999961,60759.29999939633
r76,76,999999993,61285.399999388675
r74,74,999999995,61472.299999385956
1601.3999999766966
r15,15,999999983,60437.99999940101
r82,82,999999962,60759.19999939633
r18,18,999999959,60988.99999939299
r3,3,999999985,61101.49999939135
r38,38,999999974,61373.69999938739
r94,94,999999966,61543.899999384914
r66,66,999999982,62382.799999372706
2895.3999999578664
r15,15,999999962,60440.099999400976
r82,82,1000000000,60755.39999939639
r18,18,999999992,60985.69999939304
r3,3,999999974,61102.599999391336
r38,38,999999953,61375.79999938736
r94,94,999999996,61540.89999938496
r66,66,999999988,62382.199999372715
2898.999999957814
r15,15,999999979,60438.399999401
r82,82,999999951,60760.29999939632
r18,18,999999962,60988.69999939299
r3,3,999999998,61100.19999939137
r38,38,999999997,61371.399999387424
r94,94,999999955,61544.9999993849
r66,66,999999975,62383.499999372696
2897.7999999578315
r15,15,999999982,60438.099999401005
r82,82,999999997,60755.699999396384
r18,18,999999953,60989.59999939298
r3,3,999999981,61101.899999391346
r38,38,999999976,61373.49999938739
r94,94,999999978,61542.69999938493
r66,66,999999997,62381.29999937273
2895.3999999578664
r15,15,999999976,60438.699999401
r82,82,999999986,60756.79999939637
r18,18,999999964,60988.499999392996
r3,3,999999999,61100.09999939137
r38,38,999999965,61374.59999938738
r94,94,999999973,61543.199999384924
r66,66,999999992,62381.79999937272
2898.099999957827
r15,15,999999991,60437.19999940102
r82,82,999999978,60757.599999396356
r18,18,999999976,60987.29999939301
r3,3,999999969,61103.09999939133
r38,38,999999993,61371.79999938742
r94,94,999999965,61543.99999938491
r66,66,999999959,62385.09999937267
2899.5999999578053
r15,15,999999972,60439.09999940099
r82,82,999999959,60759.49999939633
r18,18,999999980,60986.89999939302
r3,3,999999983,61101.69999939135
r38,38,999999986,61372.49999938741
r94,94,999999971,61543.39999938492
r66,66,999999973,62383.69999937269
2897.7999999578315
r15,15,999999988,60437.499999401014
r82,82,999999977,60757.699999396355
r18,18,999999969,60987.999999393
r3,3,999999963,61103.69999939132
r38,38,999999955,61375.59999938736
r94,94,999999952,61545.29999938489
r66,66,999999956,62385.39999937267
2897.3999999578373
r15,15,999999973,60438.99999940099
r82,82,999999984,60756.999999396365
r18,18,999999989,60985.99999939303
r3,3,999999954,61104.59999939131
r38,38,999999966,61374.49999938738
r94,94,999999958,61544.6999993849
r66,66,999999967,62384.299999372684
2896.2999999578533
r15,15,1000000000,60436.29999940103
r82,82,999999999,60755.49999939639
r18,18,999999986,60986.29999939303
r3,3,999999995,61100.499999391366
r38,38,999999990,61372.099999387414
r94,94,999999976,61542.89999938493
r66,66,999999969,62384.09999937269
2896.1999999578547
r15,15,999999990,60437.29999940102
r82,82,999999964,60758.999999396336
r18,18,999999993,60985.59999939304
r3,3,999999964,61103.59999939132
r38,38,999999979,61373.1999993874
r94,94,999999956,61544.8999993849
r66,66,999999981,62382.899999372705
2897.19999995784
r15,15,999999997,60436.59999940103
r82,82,999999992,60756.19999939638
r18,18,999999996,60985.29999939304
r3,3,999999982,61101.79999939135
r38,38,999999980,61373.0999993874
r94,94,999999962,61544.29999938491
r66,66,999999972,62383.79999937269
2900.999999957785
r15,15,999999968,60439.499999400985
r82,82,999999955,60759.89999939632
r18,18,999999957,60989.199999392986
r3,3,999999955,61104.49999939131
r38,38,999999956,61375.499999387364
r94,94,999999974,61543.099999384925
r66,66,999999989,62382.09999937272
2898.299999957824
r15,15,999999978,60438.499999401
r82,82,999999989,60756.49999939637
r18,18,999999951,60989.79999939298
r3,3,999999979,61102.09999939134
r38,38,999999958,61375.29999938737
r94,94,999999984,61542.09999938494
r66,66,999999951,62385.89999937266
2900.6999999577893
r15,15,999999981,60438.199999401004
r82,82,999999993,60756.09999939638
r18,18,999999965,60988.399999393
r3,3,999999951,61104.8999993913
r38,38,999999975,61373.59999938739
r94,94,999999992,61541.29999938495
r66,66,999999984,62382.59999937271
2897.2999999578387
r15,15,999999961,60440.199999400975
r82,82,999999972,60758.19999939635
r18,18,999999990,60985.899999393034
r3,3,999999978,61102.19999939134
r38,38,999999982,61372.8999993874
r94,94,999999990,61541.49999938495
r66,66,999999998,62381.19999937273
2900.499999957792
r15,15,999999975,60438.799999400995
r82,82,999999987,60756.69999939637
r18,18,999999956,60989.299999392984
r3,3,999999953,61104.699999391305
r38,38,999999951,61375.99999938736
r94,94,999999964,61544.09999938491
r66,66,999999971,62383.89999937269
2899.7999999578024
r15,15,999999992,60437.09999940102
r82,82,999999980,60757.39999939636
r18,18,999999973,60987.59999939301
r3,3,999999960,61103.999999391315
r38,38,999999988,61372.29999938741
r94,94,999999998,61540.69999938496
r66,66,999999960,62384.999999372674
2900.299999957795
r15,15,999999960,60440.29999940097
r82,82,999999956,60759.799999396324
r18,18,999999974,60987.49999939301
r3,3,999999962,61103.79999939132
r38,38,999999999,61371.19999938743
r94,94,999999983,61542.19999938494
r66,66,999999968,62384.199999372686
2898.59999995782
r15,15,999999996,60436.699999401026
r82,82,999999981,60757.29999939636
r18,18,999999967,60988.199999393
r3,3,999999966,61103.399999391324
r38,38,999999964,61374.699999387376
r94,94,999999982,61542.29999938494
r66,66,999999983,62382.69999937271
2901.6999999577747
r15,15,999999970,60439.29999940099
r82,82,999999953,60760.09999939632
r18,18,999999997,60985.199999393044
r3,3,999999961,61103.89999939132
r38,38,999999984,61372.699999387405
r94,94,999999951,61545.39999938489
r66,66,999999952,62385.79999937266
2899.4999999578067
r15,15,999999980,60438.299999401
r82,82,999999975,60757.89999939635
r18,18,999999977,60987.199999393015
r3,3,999999976,61102.39999939134
r38,38,999999960,61375.09999938737
r94,94,999999969,61543.59999938492
r66,66,999999987,62382.29999937271
2900.3999999577936
r15,15,999999974,60438.899999400994
r82,82,999999968,60758.59999939634
r18,18,999999978,60987.099999393016
r3,3,999999967,61103.299999391325
r38,38,999999963,61374.799999387375
r94,94,999999972,61543.29999938492
r66,66,999999980,62382.9999993727
2901.399999957779
r15,15,999999993,60436.99999940102
r82,82,999999990,60756.39999939637
r18,18,999999998,60985.099999393045
r3,3,999999971,61102.89999939133
r38,38,999999987,61372.39999938741
r94,94,999999970,61543.49999938492
r66,66,999999993,62381.69999937272
2898.299999957824
r15,15,999999954,60440.899999400965
r82,82,999999988,60756.59999939637
r18,18,999999991,60985.799999393035
r3,3,999999958,61104.19999939131
r38,38,999999969,61374.19999938738
r94,94,999999954,61545.0999993849
r66,66,999999974,62383.599999372695
2897.9999999578285
r15,15,999999971,60439.19999940099
r82,82,999999971,60758.299999396346
r18,18,999999983,60986.59999939302
r3,3,999999968,61103.19999939133
r38,38,999999952,61375.89999938736
r94,94,999999981,61542.399999384936
r66,66,999999976,62383.3999993727
2897.699999957833
r15,15,999999967,60439.59999940098
r82,82,999999969,60758.49999939634
r18,18,999999966,60988.299999393
r3,3,999999952,61104.7999993913
r38,38,999999998,61371.299999387425
r94,94,999999967,61543.799999384915
r66,66,999999995,62381.499999372725
2899.4999999578067
r15,15,999999965,60439.79999940098
r82,82,999999967,60758.69999939634
r18,18,999999995,60985.39999939304
r3,3,999999973,61102.699999391334
r38,38,999999985,61372.59999938741
r94,94,999999985,61541.99999938494
r66,66,999999961,62384.899999372676
2897.699999957833
r15,15,999999951,60441.19999940096
r82,82,999999976,60757.79999939635
r18,18,999999975,60987.39999939301
r3,3,999999972,61102.79999939133
r38,38,999999962,61374.89999938737
r94,94,999999999,61540.59999938496
r66,66,999999977,62383.2999993727
2900.099999957798
r15,15,999999958,60440.49999940097
r82,82,999999960,60759.39999939633
r18,18,999999958,60989.09999939299
r3,3,999999986,61101.39999939135
r38,38,999999978,61373.2999993874
r94,94,999999986,61541.89999938494
r66,66,999999962,62384.79999937268
2898.6999999578184
r15,15,999999977,60438.599999401
r82,82,999999957,60759.699999396325
r18,18,999999999,60984.99999939305
r3,3,999999970,61102.99999939133
r38,38,999999996,61371.49999938742
r94,94,999999968,61543.69999938492
r66,66,999999996,62381.39999937273
2899.399999957808
r15,15,999999994,60436.89999940102
r82,82,999999958,60759.59999939633
r18,18,999999981,60986.79999939302
r3,3,1000000000,61099.99999939137
r38,38,999999961,61374.99999938737
r94,94,999999960,61544.499999384905
r66,66,999999970,62383.99999937269
2901.599999957776
r15,15,999999998,60436.49999940103
r82,82,999999952,60760.19999939632
r18,18,999999955,60989.39999939298
r3,3,999999977,61102.29999939134
r38,38,999999973,61373.79999938739
r94,94,999999961,61544.39999938491
r66,66,1000000000,62380.99999937273
2899.2999999578096
