r80,80,999999973,60269.29999940346
r32,32,999999952,60446.79999940088
r49,49,999999993,60511.89999939993
r67,67,999999992,60517.099999399856
r55,55,999999974,61131.19999939092
r16,16,999999966,61361.99999938756
1581.5999999769847
r80,80,1000000000,60266.5999994035
r32,32,999999997,60442.299999400944
r49,49,999999961,60515.099999399885
r67,67,999999973,60518.99999939983
r55,55,999999998,61128.799999390954
r16,16,999999989,61359.699999387594
1585.1999999769323
r80,80,999999998,60266.7999994035
r32,32,999999981,60443.89999940092
r49,49,999999974,60513.799999399904
r67,67,999999961,60520.19999939981
r55,55,999999981,61130.49999939093
r16,16,999999951,61363.49999938754
1585.5999999769265
r80,80,999999976,60268.999999403466
r32,32,999999972,60444.79999940091
r49,49,999999998,60511.39999939994
r67,67,999999972,60519.09999939983
r55,55,999999987,61129.89999939094
r16,16,999999977,61360.89999938758
1583.1999999769614
r80,80,999999969,60269.699999403456
r32,32,999999956,60446.399999400885
r49,49,999999977,60513.49999939991
r67,67,999999976,60518.69999939983
r55,55,999999997,61128.89999939095
r16,16,999999983,61360.299999387586
1583.7999999769527
r80,80,999999994,60267.19999940349
r32,32,999999959,60446.09999940089
r49,49,999999952,60515.99999939987
r67,67,999999993,60516.99999939986
r55,55,999999956,61132.99999939089
r16,16,999999955,61363.099999387545
1583.7999999769527
r80,80,999999964,60270.19999940345
r32,32,999999968,60445.1999994009
r49,49,999999973,60513.8999993999
r67,67,999999958,60520.499999399806
r55,55,999999975,61131.09999939092
r16,16,999999965,61362.09999938756
1586.1999999769178
r80,80,999999974,60269.19999940346
r32,32,999999993,60442.69999940094
r49,49,999999992,60511.99999939993
r67,67,1000000000,60516.29999939987
r55,55,999999984,61130.199999390934
r16,16,999999986,61359.99999938759
1587.0999999769047
r80,80,999999981,60268.49999940347
r32,32,999999979,60444.09999940092
r49,49,999999960,60515.19999939988
r67,67,999999974,60518.89999939983
r55,55,999999983,61130.29999939093
r16,16,999999998,61358.79999938761
1582.6999999769687
r80,80,999999970,60269.59999940346
r32,32,999999965,60445.4999994009
r49,49,999999970,60514.1999993999
r67,67,999999968,60519.49999939982
r55,55,999999976,61130.99999939092
r16,16,999999963,61362.29999938756
1586.799999976909
r80,80,999999990,60267.59999940349
r32,32,999999976,60444.399999400914
r49,49,999999987,60512.49999939992
r67,67,999999963,60519.99999939981
r55,55,999999959,61132.6999993909
r16,16,999999952,61363.39999938754
1586.999999976906
r80,80,999999951,60271.49999940343
r32,32,999999964,60445.599999400896
r49,49,999999978,60513.39999939991
r67,67,999999966,60519.69999939982
r55,55,999999991,61129.499999390944
r16,16,999999971,61361.49999938757
1585.1999999769323
r80,80,999999984,60268.19999940348
r32,32,999999974,60444.59999940091
r49,49,999999956,60515.59999939988
r67,67,999999997,60516.59999939986
r55,55,999999953,61133.29999939089
r16,16,999999974,61361.19999938757
1586.4999999769134
r80,80,999999996,60266.999999403495
r32,32,999999951,60446.89999940088
r49,49,999999982,60512.999999399915
r67,67,999999998,60516.499999399864
r55,55,999999961,61132.4999993909
r16,16,999999976,61360.999999387575
1587.3999999769003
r80,80,999999978,60268.79999940347
r32,32,999999982,60443.79999940092
r49,49,999999971,60514.0999993999
r67,67,999999988,60517.49999939985
r55,55,999999957,61132.899999390895
r16,16,999999964,61362.19999938756
1585.9999999769207
r80,80,999999952,60271.39999940343
r32,32,999999983,60443.699999400924
r49,49,999999981,60513.099999399914
r67,67,999999967,60519.59999939982
r55,55,999999982,61130.39999939093
r16,16,999999980,61360.59999938758
1584.0999999769483
r80,80,999999967,60269.89999940345
r32,32,999999960,60445.99999940089
r49,49,999999954,60515.799999399875
r67,67,999999956,60520.6999993998
r55,55,999999962,61132.3999993909
r16,16,999999961,61362.49999938755
1583.6999999769541
r80,80,999999975,60269.099999403465
r32,32,999999992,60442.79999940094
r49,49,999999988,60512.399999399924
r67,67,999999957,60520.599999399805
r55,55,1000000000,61128.59999939096
r16,16,999999987,61359.89999938759
1585.499999976928
r80,80,999999966,60269.99999940345
r32,32,999999999,60442.09999940095
r49,49,999999999,60511.29999939994
r67,67,999999977,60518.599999399834
r55,55,999999985,61130.099999390935
r16,16,999999978,61360.79999938758
1587.9999999768916
r80,80,999999971,60269.49999940346
r32,32,999999971,60444.89999940091
r49,49,999999983,60512.89999939992
r67,67,999999994,60516.89999939986
r55,55,999999952,61133.39999939089
r16,16,1000000000,61358.59999938761
1586.1999999769178
r80,80,999999965,60270.09999940345
r32,32,999999984,60443.599999400925
r49,49,999999963,60514.89999939989
r67,67,999999989,60517.39999939985
r55,55,999999970,61131.59999939091
r16,16,999999973,61361.29999938757
1584.9999999769352
r80,80,999999963,60270.29999940345
r32,32,999999954,60446.59999940088
r49,49,999999976,60513.59999939991
r67,67,999999982,60518.09999939984
r55,55,999999986,61129.99999939094
r16,16,999999960,61362.59999938755
1587.7999999768945
r80,80,999999980,60268.59999940347
r32,32,999999973,60444.69999940091
r49,49,999999959,60515.29999939988
r67,67,999999951,60521.199999399796
r55,55,999999964,61132.199999390905
r16,16,999999953,61363.29999938754
1585.699999976925
r80,80,999999986,60267.99999940348
r32,32,999999989,60443.09999940093
r49,49,999999967,60514.49999939989
r67,67,999999971,60519.199999399825
r55,55,999999993,61129.29999939095
r16,16,999999981,61360.49999938758
1584.0999999769483
r80,80,999999962,60270.399999403446
r32,32,999999962,60445.79999940089
r49,49,999999958,60515.39999939988
r67,67,999999965,60519.79999939982
r55,55,999999966,61131.99999939091
r16,16,999999959,61362.69999938755
1585.9999999769207
r80,80,999999957,60270.89999940344
r32,32,999999957,60446.299999400886
r49,49,999999966,60514.59999939989
r67,67,999999984,60517.899999399844
r55,55,999999965,61132.099999390906
r16,16,999999970,61361.59999938757
1586.1999999769178
r80,80,999999954,60271.199999403434
r32,32,999999978,60444.19999940092
r49,49,999999962,60514.999999399886
r67,67,999999986,60517.69999939985
r55,55,999999989,61129.69999939094
r16,16,999999979,61360.69999938758
1588.8999999768785
r80,80,999999979,60268.69999940347
r32,32,999999969,60445.0999994009
r49,49,999999986,60512.59999939992
r67,67,999999960,60520.29999939981
r55,55,999999958,61132.799999390896
r16,16,999999988,61359.79999938759
1584.9999999769352
r80,80,999999993,60267.29999940349
r32,32,999999990,60442.999999400934
r49,49,999999951,60516.09999939987
r67,67,999999959,60520.39999939981
r55,55,999999978,61130.799999390925
r16,16,999999968,61361.799999387564
1587.5999999768974
r80,80,999999958,60270.79999940344
r32,32,999999986,60443.39999940093
r49,49,999999955,60515.699999399876
r67,67,999999999,60516.399999399866
r55,55,999999951,61133.499999390886
r16,16,999999985,61360.09999938759
1588.3999999768857
r80,80,999999955,60271.099999403436
r32,32,999999953,60446.69999940088
r49,49,999999991,60512.09999939993
r67,67,999999954,60520.8999993998
r55,55,999999988,61129.79999939094
r16,16,999999993,61359.2999993876
1586.1999999769178
r80,80,999999961,60270.499999403444
r32,32,999999994,60442.59999940094
r49,49,999999994,60511.79999939993
r67,67,999999995,60516.79999939986
r55,55,999999960,61132.5999993909
r16,16,999999996,61358.999999387604
1584.7999999769381
r80,80,999999991,60267.49999940349
r32,32,999999985,60443.49999940093
r49,49,999999996,60511.599999399936
r67,67,999999983,60517.99999939984
r55,55,999999980,61130.59999939093
r16,16,999999969,61361.699999387565
1588.999999976877
r80,80,999999988,60267.79999940348
r32,32,999999961,60445.89999940089
r49,49,999999984,60512.79999939992
r67,67,999999985,60517.799999399846
r55,55,999999971,61131.499999390915
r16,16,999999982,61360.399999387584
1587.9999999768916
r80,80,999999968,60269.799999403454
r32,32,999999991,60442.899999400935
r49,49,999999989,60512.299999399926
r67,67,999999962,60520.09999939981
r55,55,999999954,61133.19999939089
r16,16,999999991,61359.4999993876
1585.5999999769265
r80,80,999999956,60270.99999940344
r32,32,999999970,60444.999999400905
r49,49,999999957,60515.49999939988
r67,67,999999990,60517.29999939985
r55,55,999999999,61128.699999390956
r16,16,999999954,61363.19999938754
1584.9999999769352
r80,80,999999959,60270.69999940344
r32,32,999999975,60444.49999940091
r49,49,999999953,60515.89999939987
r67,67,999999969,60519.39999939982
r55,55,999999968,61131.79999939091
r16,16,999999992,61359.3999993876
1588.09999997689
r80,80,999999985,60268.09999940348
r32,32,999999987,60443.29999940093
r49,49,999999985,60512.69999939992
r67,67,999999970,60519.299999399824
r55,55,999999990,61129.59999939094
r16,16,999999984,61360.19999938759
1586.1999999769178
r80,80,999999960,60270.59999940344
r32,32,999999988,60443.19999940093
r49,49,999999995,60511.699999399934
r67,67,999999980,60518.29999939984
r55,55,999999963,61132.2999993909
r16,16,999999990,61359.599999387596
1588.6999999768814
r80,80,999999977,60268.89999940347
r32,32,999999998,60442.199999400946
r49,49,999999997,60511.49999939994
r67,67,999999953,60520.9999993998
r55,55,999999973,61131.29999939092
r16,16,999999962,61362.399999387555
1585.8999999769221
r80,80,999999972,60269.39999940346
r32,32,999999977,60444.299999400915
r49,49,999999968,60514.399999399895
r67,67,999999979,60518.39999939984
r55,55,999999992,61129.399999390946
r16,16,999999975,61361.099999387574
1587.899999976893
r80,80,999999992,60267.39999940349
r32,32,999999958,60446.19999940089
r49,49,1000000000,60511.19999939994
r67,67,999999996,60516.69999939986
r55,55,999999995,61129.09999939095
r16,16,999999956,61362.999999387546
1586.4999999769134
r80,80,999999989,60267.699999403485
r32,32,1000000000,60441.99999940095
r49,49,999999975,60513.699999399905
r67,67,999999955,60520.7999993998
r55,55,999999969,61131.69999939091
r16,16,999999967,61361.89999938756
1588.1999999768886
r80,80,999999983,60268.299999403476
r32,32,999999995,60442.49999940094
r49,49,999999969,60514.2999993999
r67,67,999999978,60518.499999399835
r55,55,999999994,61129.19999939095
r16,16,999999957,61362.89999938755
1587.0999999769047
r80,80,999999995,60267.099999403494
r32,32,999999980,60443.99999940092
r49,49,999999964,60514.79999939989
r67,67,999999975,60518.79999939983
r55,55,999999977,61130.899999390924
r16,16,999999997,61358.899999387606
1589.3999999768712
r80,80,999999999,60266.6999994035
r32,32,999999996,60442.39999940094
r49,49,999999965,60514.69999939989
r67,67,999999987,60517.59999939985
r55,55,999999955,61133.09999939089
r16,16,999999994,61359.1999993876
1588.6999999768814
r80,80,999999953,60271.29999940343
r32,32,999999967,60445.2999994009
r49,49,999999980,60513.19999939991
r67,67,999999964,60519.899999399815
r55,55,999999972,61131.39999939092
r16,16,999999999,61358.69999938761
1587.2999999769017
r80,80,999999997,60266.8999994035
r32,32,999999963,60445.699999400895
r49,49,999999990,60512.19999939993
r67,67,999999952,60521.0999993998
r55,55,999999996,61128.99999939095
r16,16,999999972,61361.39999938757
1587.7999999768945
r80,80,999999982,60268.399999403475
r32,32,999999966,60445.3999994009
r49,49,999999972,60513.9999993999
r67,67,999999981,60518.19999939984
r55,55,999999967,61131.89999939091
r16,16,999999995,61359.0999993876
1589.9999999768625
r80,80,999999987,60267.89999940348
r32,32,999999955,60446.49999940088
r49,49,999999979,60513.29999939991
r67,67,999999991,60517.199999399854
r55,55,999999979,61130.69999939093
r16,16,999999958,61362.79999938755
1589.2999999768726
