r63,63,999999976,60391.09999940169
1800.2999999738022
r63,63,999999963,60392.39999940167
1800.1999999738036
r63,63,999999993,60389.399999401714
1803.5999999737542
r63,63,999999970,60391.69999940168
1801.9999999737774
r63,63,999999980,60390.699999401695
1802.999999973763
r63,63,999999989,60389.79999940171
1801.6999999737818
r63,63,999999955,60393.19999940166
1802.099999973776
r63,63,999999961,60392.59999940167
1802.6999999737673
r63,63,999999985,60390.1999994017
1800.999999973792
r63,63,999999994,60389.299999401715
1803.19999997376
r63,63,999999986,60390.099999401704
1802.5999999737687
r63,63,999999951,60393.59999940165
1804.7999999737367
r63,63,999999995,60389.19999940172
1801.899999973779
r63,63,999999998,60388.89999940172
1803.9999999737483
r63,63,999999953,60393.399999401656
1800.999999973792
r63,63,999999974,60391.29999940169
1803.9999999737483
r63,63,999999984,60390.2999994017
1804.3999999737425
r63,63,999999990,60389.69999940171
1801.5999999737833
r63,63,999999981,60390.5999994017
1802.5999999737687
r63,63,999999992,60389.49999940171
1802.4999999737702
r63,63,999999962,60392.49999940167
1804.1999999737454
r63,63,999999968,60391.89999940168
1804.1999999737454
r63,63,999999991,60389.59999940171
1801.5999999737833
r63,63,999999957,60392.99999940166
1806.0999999737178
r63,63,999999954,60393.29999940166
1802.1999999737745
r63,63,999999973,60391.399999401685
1804.3999999737425
r63,63,999999987,60389.999999401705
1803.6999999737527
r63,63,999999969,60391.79999940168
1803.19999997376
r63,63,999999966,60392.099999401675
1805.1999999737309
r63,63,999999964,60392.29999940167
1806.1999999737163
r63,63,999999999,60388.79999940172
1805.9999999737192
r63,63,999999975,60391.19999940169
1807.0999999737032
r63,63,999999960,60392.699999401666
1806.3999999737134
r63,63,999999997,60388.99999940172
1803.2999999737585
r63,63,999999956,60393.09999940166
1804.299999973744
r63,63,999999967,60391.999999401676
1807.599999973696
r63,63,999999983,60390.3999994017
1806.499999973712
r63,63,999999977,60390.99999940169
1804.6999999737382
r63,63,999999978,60390.89999940169
1805.599999973725
r63,63,999999996,60389.09999940172
1805.2999999737294
r63,63,999999952,60393.499999401654
1804.3999999737425
r63,63,999999982,60390.4999994017
1807.6999999736945
r63,63,999999988,60389.89999940171
1807.6999999736945
r63,63,999999958,60392.89999940166
1805.599999973725
r63,63,999999979,60390.799999401694
1804.099999973747
r63,63,999999972,60391.49999940168
1808.69999997368
r63,63,999999965,60392.19999940167
1804.099999973747
r63,63,999999971,60391.59999940168
1808.9999999736756
r63,63,1000000000,60388.699999401724
1807.8999999736916
r63,63,999999959,60392.799999401665
1808.7999999736785
