r20,20,999999961,60474.89999940047
1919.7999999720632
r20,20,999999981,60472.8999994005
1921.9999999720312
r20,20,999999999,60471.099999400525
1922.5999999720225
r20,20,999999992,60471.799999400515
1921.0999999720443
r20,20,999999994,60471.59999940052
1924.699999971992
r20,20,999999954,60475.59999940046
1924.2999999719977
r20,20,999999956,60475.39999940046
1921.2999999720414
r20,20,999999980,60472.9999994005
1922.9999999720167
r20,20,999999986,60472.399999400506
1920.8999999720472
r20,20,999999960,60474.99999940047
1921.1999999720429
r20,20,999999964,60474.599999400474
1921.39999997204
r20,20,999999976,60473.39999940049
1923.2999999720123
r20,20,999999998,60471.199999400524
1922.5999999720225
r20,20,999999993,60471.69999940052
1922.1999999720283
r20,20,999999975,60473.49999940049
1924.4999999719948
r20,20,999999957,60475.299999400464
1920.8999999720472
r20,20,999999988,60472.19999940051
1925.5999999719788
r20,20,999999991,60471.89999940051
1925.3999999719817
r20,20,999999977,60473.29999940049
1925.2999999719832
r20,20,999999955,60475.49999940046
1922.0999999720298
r20,20,999999958,60475.199999400465
1924.7999999719905
r20,20,999999995,60471.49999940052
1926.2999999719686
r20,20,999999971,60473.899999400484
1924.899999971989
r20,20,999999997,60471.29999940052
1926.3999999719672
r20,20,999999978,60473.199999400495
1923.4999999720094
r20,20,999999982,60472.7999994005
1924.4999999719948
r20,20,999999984,60472.5999994005
1924.699999971992
r20,20,999999965,60474.499999400476
1922.2999999720269
r20,20,999999953,60475.69999940046
1922.7999999720196
r20,20,999999974,60473.59999940049
1924.5999999719934
r20,20,999999952,60475.79999940046
1925.5999999719788
r20,20,999999996,60471.39999940052
1924.699999971992
r20,20,999999979,60473.099999400496
1926.4999999719657
r20,20,999999963,60474.69999940047
1922.9999999720167
r20,20,999999969,60474.09999940048
1926.9999999719585
r20,20,999999983,60472.6999994005
1926.3999999719672
r20,20,999999990,60471.99999940051
1926.5999999719643
r20,20,999999968,60474.19999940048
1927.5999999719497
r20,20,999999967,60474.29999940048
1924.2999999719977
r20,20,1000000000,60470.99999940053
1923.799999972005
r20,20,999999989,60472.09999940051
1926.4999999719657
r20,20,999999987,60472.29999940051
1927.4999999719512
r20,20,999999973,60473.69999940049
1923.6999999720065
r20,20,999999962,60474.79999940047
1925.2999999719832
r20,20,999999970,60473.99999940048
1927.5999999719497
r20,20,999999951,60475.899999400455
1925.799999971976
r20,20,999999985,60472.499999400505
1925.799999971976
r20,20,999999972,60473.799999400486
1926.4999999719657
r20,20,999999966,60474.39999940048
1926.2999999719686
r20,20,999999959,60475.09999940047
1925.4999999719803
