r101,101,999999956,62191.799999375486
r9,9,999999970,62662.19999936864
r24,24,999999973,63245.19999936016
r75,75,999999958,63859.79999935121
r95,95,999999967,63892.599999350736
4493.399999934612
r101,101,999999953,62192.09999937548
r9,9,999999997,62659.49999936868
r24,24,999999981,63244.39999936017
r75,75,999999955,63860.09999935121
r95,95,999999977,63891.59999935075
4492.999999934618
r101,101,999999951,62192.29999937548
r9,9,999999966,62662.599999368635
r24,24,999999963,63246.19999936014
r75,75,999999989,63856.69999935126
r95,95,999999980,63891.299999350755
4494.599999934595
r101,101,999999998,62187.59999937555
r9,9,999999959,62663.299999368624
r24,24,999999972,63245.299999360155
r75,75,999999994,63856.199999351265
r95,95,999999963,63892.99999935073
4492.89999993462
r101,101,999999978,62189.59999937552
r9,9,999999974,62661.799999368646
r24,24,999999976,63244.89999936016
r75,75,999999969,63858.69999935123
r95,95,999999985,63890.79999935076
4493.399999934612
r101,101,999999986,62188.79999937553
r9,9,999999956,62663.59999936862
r24,24,999999993,63243.199999360186
r75,75,999999959,63859.699999351215
r95,95,999999995,63889.79999935078
4493.199999934615
r101,101,999999955,62191.899999375484
r9,9,999999986,62660.599999368664
r24,24,999999980,63244.49999936017
r75,75,999999975,63858.09999935124
r95,95,1000000000,63889.299999350784
4492.89999993462
r101,101,999999994,62187.99999937554
r9,9,999999995,62659.69999936868
r24,24,999999991,63243.39999936018
r75,75,999999991,63856.49999935126
r95,95,999999951,63894.19999935071
4493.199999934615
r101,101,1000000000,62187.39999937555
r9,9,999999955,62663.69999936862
r24,24,999999990,63243.49999936018
r75,75,999999990,63856.59999935126
r95,95,999999975,63891.79999935075
4495.099999934588
r101,101,999999964,62190.9999993755
r9,9,999999957,62663.49999936862
r24,24,999999968,63245.69999936015
r75,75,999999954,63860.19999935121
r95,95,999999955,63893.79999935072
4491.099999934646
r101,101,999999973,62190.09999937551
r9,9,999999972,62661.99999936864
r24,24,999999985,63243.999999360174
r75,75,999999977,63857.89999935124
r95,95,999999996,63889.69999935078
4492.999999934618
r101,101,999999980,62189.39999937552
r9,9,999999961,62663.09999936863
r24,24,999999959,63246.599999360136
r75,75,999999963,63859.29999935122
r95,95,999999952,63894.099999350714
4494.899999934591
r101,101,999999970,62190.399999375506
r9,9,999999985,62660.69999936866
r24,24,999999978,63244.699999360164
r75,75,999999984,63857.19999935125
r95,95,999999998,63889.49999935078
4491.49999993464
r101,101,999999977,62189.699999375516
r9,9,999999973,62661.899999368645
r24,24,999999996,63242.89999936019
r75,75,999999996,63855.99999935127
r95,95,999999973,63891.999999350744
4492.89999993462
r101,101,999999990,62188.399999375535
r9,9,999999967,62662.499999368636
r24,24,999999999,63242.599999360194
r75,75,999999988,63856.79999935126
r95,95,999999958,63893.49999935072
4492.399999934627
r101,101,999999988,62188.59999937553
r9,9,999999990,62660.19999936867
r24,24,999999957,63246.79999936013
r75,75,999999980,63857.599999351245
r95,95,999999979,63891.39999935075
4492.399999934627
r101,101,999999969,62190.499999375505
r9,9,999999992,62659.99999936867
r24,24,999999965,63245.999999360145
r75,75,999999967,63858.899999351226
r95,95,999999965,63892.79999935073
4495.59999993458
r101,101,999999962,62191.199999375494
r9,9,999999977,62661.49999936865
r24,24,999999969,63245.59999936015
r75,75,999999997,63855.89999935127
r95,95,999999993,63889.99999935077
4492.299999934628
r101,101,999999966,62190.7999993755
r9,9,999999976,62661.59999936865
r24,24,999999970,63245.49999936015
r75,75,999999983,63857.29999935125
r95,95,999999990,63890.29999935077
4491.899999934634
r101,101,999999995,62187.89999937554
r9,9,999999969,62662.29999936864
r24,24,999999983,63244.19999936017
r75,75,999999971,63858.49999935123
r95,95,999999960,63893.299999350726
4492.399999934627
r101,101,999999963,62191.099999375496
r9,9,999999968,62662.39999936864
r24,24,999999984,63244.09999936017
r75,75,999999970,63858.59999935123
r95,95,999999976,63891.69999935075
4493.399999934612
r101,101,999999957,62191.69999937549
r47,47,999999978,62436.59999937192
r24,24,999999951,63814.49999935187
r75,75,999999972,63858.39999935123
r95,95,999999983,63890.99999935076
4496.599999934566
r101,101,999999985,62188.89999937553
r9,9,999999954,62663.79999936862
r24,24,999999979,63244.599999360165
r75,75,999999999,63855.69999935127
r95,95,999999969,63892.39999935074
4497.099999934559
r101,101,999999967,62190.6999993755
r9,9,999999981,62661.09999936866
r24,24,999999997,63242.79999936019
r75,75,999999985,63857.09999935125
r95,95,999999987,63890.599999350765
4494.099999934602
r101,101,999999987,62188.69999937553
r9,9,999999993,62659.899999368674
r24,24,999999974,63245.09999936016
r75,75,999999956,63859.99999935121
r95,95,999999978,63891.49999935075
4494.299999934599
r101,101,999999993,62188.09999937554
r9,9,999999975,62661.69999936865
r24,24,999999971,63245.399999360154
r75,75,1000000000,63855.599999351274
r95,95,999999991,63890.19999935077
4494.199999934601
r101,101,999999996,62187.799999375544
r9,9,999999958,62663.39999936862
r24,24,999999994,63243.09999936019
r75,75,999999979,63857.69999935124
r95,95,999999974,63891.899999350746
4495.899999934576
r101,101,999999991,62188.29999937554
r9,9,999999979,62661.29999936865
r24,24,999999975,63244.99999936016
r75,75,999999953,63860.299999351206
r95,95,999999994,63889.899999350775
4493.799999934607
r101,101,999999983,62189.099999375525
r9,9,1000000000,62659.199999368684
r24,24,999999987,63243.79999936018
r75,75,999999976,63857.99999935124
r95,95,999999953,63893.999999350715
4494.999999934589
r101,101,999999972,62190.19999937551
r9,9,999999978,62661.39999936865
r24,24,999999982,63244.29999936017
r75,75,999999978,63857.79999935124
r95,95,999999961,63893.19999935073
4495.999999934575
r101,101,999999971,62190.29999937551
r9,9,999999960,62663.199999368626
r24,24,999999955,63246.99999936013
r75,75,999999973,63858.299999351235
r95,95,999999972,63892.09999935074
4496.199999934572
r101,101,999999992,62188.19999937554
r9,9,999999989,62660.29999936867
r24,24,999999988,63243.69999936018
r75,75,999999962,63859.39999935122
r95,95,999999999,63889.39999935078
4497.799999934548
r101,101,999999965,62190.8999993755
r9,9,999999965,62662.69999936863
r24,24,999999961,63246.39999936014
r75,75,999999992,63856.39999935126
r95,95,999999988,63890.499999350766
4495.999999934575
r101,101,999999984,62188.99999937553
r9,9,999999998,62659.39999936868
r24,24,999999989,63243.59999936018
r75,75,999999981,63857.49999935125
r95,95,999999954,63893.89999935072
4498.099999934544
r101,101,999999975,62189.89999937551
r9,9,999999988,62660.39999936867
r24,24,999999966,63245.89999936015
r75,75,999999960,63859.599999351216
r95,95,999999962,63893.09999935073
4497.499999934553
r101,101,999999954,62191.99999937548
r9,9,999999994,62659.799999368675
r24,24,999999960,63246.49999936014
r75,75,999999964,63859.19999935122
r95,95,999999981,63891.199999350756
4497.69999993455
r101,101,999999974,62189.99999937551
r47,47,999999993,62435.099999371945
r24,24,999999953,63814.299999351875
r75,75,999999987,63856.899999351255
r95,95,999999997,63889.59999935078
4497.499999934553
r101,101,999999968,62190.5999993755
r9,9,999999971,62662.09999936864
r24,24,999999956,63246.89999936013
r75,75,999999966,63858.999999351225
r95,95,999999957,63893.59999935072
4496.099999934573
r101,101,999999952,62192.19999937548
r9,9,999999962,62662.99999936863
r24,24,999999958,63246.699999360135
r75,75,999999986,63856.999999351254
r95,95,999999964,63892.89999935073
4498.799999934534
r101,101,999999981,62189.29999937552
r9,9,999999964,62662.79999936863
r24,24,999999954,63247.09999936013
r75,75,999999951,63860.4999993512
r95,95,999999992,63890.09999935077
4494.299999934599
r101,101,999999961,62191.29999937549
r9,9,999999987,62660.499999368665
r24,24,999999986,63243.899999360176
r75,75,999999998,63855.79999935127
r95,95,999999966,63892.699999350734
4497.499999934553
r101,101,999999958,62191.59999937549
r9,9,999999983,62660.89999936866
r24,24,999999995,63242.99999936019
r75,75,999999961,63859.49999935122
r95,95,999999968,63892.49999935074
4494.799999934592
r101,101,999999960,62191.39999937549
r47,47,999999996,62434.79999937195
r24,24,999999952,63814.399999351874
r75,75,999999993,63856.299999351264
r95,95,999999984,63890.89999935076
4497.799999934548
r101,101,999999997,62187.699999375545
r9,9,999999999,62659.29999936868
r24,24,999999998,63242.69999936019
r75,75,999999982,63857.39999935125
r95,95,999999956,63893.69999935072
4498.899999934532
r101,101,999999959,62191.49999937549
r9,9,999999963,62662.89999936863
r24,24,999999962,63246.29999936014
r75,75,999999957,63859.89999935121
r95,95,999999959,63893.399999350724
4495.59999993458
r101,101,999999976,62189.799999375515
r9,9,999999996,62659.59999936868
r24,24,1000000000,63242.499999360196
r75,75,999999968,63858.79999935123
r95,95,999999989,63890.39999935077
4495.999999934575
r101,101,999999979,62189.49999937552
r9,9,999999982,62660.99999936866
r24,24,999999967,63245.79999936015
r75,75,999999965,63859.09999935122
r95,95,999999970,63892.29999935074
4496.699999934564
r101,101,999999982,62189.19999937552
r9,9,999999991,62660.09999936867
r24,24,999999977,63244.79999936016
r75,75,999999952,63860.399999351204
r95,95,999999971,63892.19999935074
4495.499999934582
r101,101,999999989,62188.499999375534
r9,9,999999984,62660.79999936866
r24,24,999999992,63243.299999360184
r75,75,999999995,63856.09999935127
r95,95,999999982,63891.09999935076
4498.499999934538
r101,101,999999999,62187.49999937555
r9,9,999999980,62661.199999368655
r24,24,999999964,63246.09999936014
r75,75,999999974,63858.199999351236
r95,95,999999986,63890.69999935076
4496.199999934572
