r86,86,999999960,60226.19999940409
r67,67,999999989,60686.39999939739
r56,56,999999983,62035.59999937776
r98,98,999999959,62394.99999937253
3355.5999999511696
r86,86,999999992,60222.999999404135
r67,67,999999958,60689.49999939735
r56,56,999999967,62037.199999377735
r98,98,999999986,62392.29999937257
3356.399999951158
r86,86,999999997,60222.49999940414
r67,67,999999969,60688.39999939736
r56,56,999999970,62036.89999937774
r98,98,999999977,62393.199999372555
3353.5999999511987
r86,86,999999982,60223.99999940412
r67,67,999999994,60685.8999993974
r56,56,999999989,62034.99999937777
r98,98,999999996,62391.29999937258
3355.1999999511754
r86,86,999999966,60225.5999994041
r67,67,999999951,60690.19999939734
r56,56,999999978,62036.09999937775
r98,98,999999983,62392.59999937256
3356.599999951155
r86,86,999999956,60226.59999940408
r67,67,999999974,60687.89999939737
r56,56,999999974,62036.499999377746
r98,98,999999969,62393.99999937254
3355.5999999511696
r86,86,999999993,60222.89999940414
r67,67,999999982,60687.09999939738
r56,56,999999976,62036.29999937775
r98,98,999999967,62394.19999937254
3353.099999951206
r86,86,999999972,60224.999999404106
r67,67,999999964,60688.899999397356
r56,56,999999959,62037.999999377724
r98,98,999999992,62391.69999937258
3354.7999999511812
r86,86,999999963,60225.89999940409
r67,67,999999979,60687.39999939738
r56,56,999999987,62035.199999377764
r98,98,999999960,62394.89999937253
3353.4999999512
r86,86,999999958,60226.399999404086
r67,67,999999973,60687.99999939737
r56,56,999999975,62036.39999937775
r98,98,999999963,62394.599999372535
3355.499999951171
r86,86,999999975,60224.69999940411
r67,67,999999968,60688.49999939736
r56,56,999999984,62035.49999937776
r98,98,999999981,62392.79999937256
3352.899999951209
r86,86,999999988,60223.39999940413
r67,67,999999971,60688.199999397366
r56,56,999999998,62034.09999937778
r98,98,999999952,62395.69999937252
3356.999999951149
r86,86,999999994,60222.79999940414
r67,67,999999993,60685.9999993974
r56,56,999999985,62035.39999937776
r98,98,999999975,62393.39999937255
3353.4999999512
r86,86,999999971,60225.099999404105
r67,67,999999988,60686.49999939739
r56,56,999999961,62037.79999937773
r98,98,999999987,62392.19999937257
3357.7999999511376
r86,86,999999961,60226.09999940409
r67,67,999999965,60688.79999939736
r56,56,999999963,62037.59999937773
r98,98,999999951,62395.79999937252
3355.1999999511754
r86,86,999999999,60222.299999404146
r67,67,999999978,60687.499999397376
r56,56,999999969,62036.99999937774
r98,98,999999990,62391.899999372574
3355.499999951171
r86,86,999999953,60226.89999940408
r67,67,999999986,60686.69999939739
r56,56,999999986,62035.29999937776
r98,98,999999957,62395.199999372526
3356.599999951155
r86,86,999999951,60227.099999404076
r67,67,999999957,60689.599999397346
r56,56,999999962,62037.69999937773
r98,98,999999988,62392.09999937257
3354.89999995118
r86,86,999999964,60225.799999404095
r67,67,999999996,60685.6999993974
r56,56,999999995,62034.399999377776
r98,98,999999966,62394.29999937254
3357.0999999511478
r86,86,999999980,60224.19999940412
r67,67,999999967,60688.59999939736
r56,56,999999991,62034.79999937777
r98,98,999999970,62393.899999372545
3356.199999951161
r86,86,999999995,60222.69999940414
r67,67,999999995,60685.7999993974
r56,56,999999973,62036.599999377744
r98,98,999999962,62394.69999937253
3357.3999999511434
r86,86,999999998,60222.399999404144
r67,67,999999997,60685.599999397404
r56,56,999999993,62034.59999937777
r98,98,999999989,62391.99999937257
3355.9999999511638
r86,86,999999969,60225.2999994041
r67,67,1000000000,60685.29999939741
r56,56,999999992,62034.69999937777
r98,98,999999999,62390.99999937259
3357.699999951139
r86,86,999999985,60223.699999404125
r67,67,999999956,60689.699999397344
r56,56,999999964,62037.49999937773
r98,98,999999994,62391.49999937258
3358.2999999511303
r86,86,999999955,60226.69999940408
r67,67,999999983,60686.99999939738
r56,56,999999956,62038.29999937772
r98,98,999999985,62392.39999937257
3356.799999951152
r86,86,999999959,60226.29999940409
r67,67,999999987,60686.59999939739
r56,56,999999996,62034.29999937778
r98,98,999999964,62394.499999372536
3358.8999999511216
r86,86,999999977,60224.49999940411
r67,67,999999970,60688.299999397364
r56,56,999999971,62036.79999937774
r98,98,999999954,62395.49999937252
3354.599999951184
r86,86,999999983,60223.89999940412
r67,67,999999985,60686.799999397386
r56,56,999999997,62034.19999937778
r98,98,999999991,62391.799999372575
3355.699999951168
r86,86,999999978,60224.399999404115
r67,67,999999972,60688.09999939737
r56,56,999999968,62037.09999937774
r98,98,999999953,62395.59999937252
3359.499999951113
r86,86,999999962,60225.99999940409
r67,67,999999984,60686.899999397385
r56,56,999999990,62034.89999937777
r98,98,999999982,62392.69999937256
3359.69999995111
r86,86,1000000000,60222.19999940415
r67,67,999999981,60687.19999939738
r56,56,999999952,62038.69999937771
r98,98,999999980,62392.89999937256
3355.099999951177
r86,86,999999970,60225.1999994041
r67,67,999999960,60689.29999939735
r56,56,999999994,62034.499999377775
r98,98,999999997,62391.199999372584
3355.299999951174
r86,86,999999968,60225.3999994041
r67,67,999999999,60685.39999939741
r56,56,999999960,62037.899999377725
r98,98,999999971,62393.799999372546
3356.2999999511594
r86,86,999999952,60226.99999940408
r67,67,999999980,60687.29999939738
r56,56,999999972,62036.69999937774
r98,98,999999974,62393.49999937255
3356.0999999511623
r86,86,999999989,60223.29999940413
r67,67,999999976,60687.69999939737
r56,56,999999977,62036.19999937775
r98,98,999999965,62394.39999937254
3357.5999999511405
r86,86,999999986,60223.59999940413
r67,67,999999963,60688.999999397354
r56,56,999999955,62038.39999937772
r98,98,999999993,62391.59999937258
3358.6999999511245
r86,86,999999957,60226.499999404085
r67,67,999999992,60686.0999993974
r56,56,999999957,62038.19999937772
r98,98,999999973,62393.59999937255
3360.1999999511027
r86,86,999999976,60224.59999940411
r67,67,999999961,60689.19999939735
r56,56,999999981,62035.799999377756
r98,98,999999998,62391.099999372585
3359.3999999511143
r86,86,999999984,60223.799999404124
r67,67,999999952,60690.09999939734
r56,56,999999980,62035.899999377754
r98,98,999999979,62392.99999937256
3356.399999951158
r86,86,999999987,60223.49999940413
r67,67,999999955,60689.79999939734
r56,56,999999965,62037.39999937773
r98,98,999999956,62395.299999372524
3359.9999999511056
r86,86,999999967,60225.4999994041
r67,67,999999962,60689.09999939735
r56,56,999999979,62035.99999937775
r98,98,999999972,62393.69999937255
3357.299999951145
r86,86,999999954,60226.79999940408
r67,67,999999954,60689.89999939734
r56,56,999999966,62037.299999377734
r98,98,999999978,62393.099999372556
3357.5999999511405
r86,86,999999979,60224.29999940412
r67,67,999999990,60686.29999939739
r56,56,999999999,62033.99999937778
r98,98,999999955,62395.39999937252
3358.8999999511216
r86,86,999999974,60224.79999940411
r67,67,999999977,60687.599999397375
r56,56,1000000000,62033.89999937778
r98,98,999999961,62394.79999937253
3359.0999999511187
r86,86,999999981,60224.09999940412
r67,67,999999991,60686.199999397395
r56,56,999999954,62038.49999937772
r98,98,1000000000,62390.89999937259
3358.8999999511216
r86,86,999999991,60223.099999404134
r67,67,999999975,60687.79999939737
r56,56,999999951,62038.79999937771
r98,98,999999984,62392.499999372565
3358.099999951133
r86,86,999999973,60224.89999940411
r67,67,999999998,60685.499999397405
r56,56,999999988,62035.099999377766
r98,98,999999968,62394.09999937254
3356.999999951149
r86,86,999999965,60225.699999404096
r67,67,999999959,60689.39999939735
r56,56,999999982,62035.69999937776
r98,98,999999958,62395.09999937253
3357.5999999511405
r86,86,999999990,60223.19999940413
r67,67,999999966,60688.69999939736
r56,56,999999953,62038.599999377715
r98,98,999999976,62393.29999937255
3360.599999951097
r86,86,999999996,60222.59999940414
r67,67,999999953,60689.99999939734
r56,56,999999958,62038.09999937772
r98,98,999999995,62391.39999937258
3358.599999951126
