e70,70,1799999972,307.9000000000015
r26,26,199999982,799.3000000001132
r21,21,199999971,842.1000000001229
l36,36,999999985,893.0000000001345
r30,30,199999999,1349.2999999998683
1501.5999999997298
e70,70,1799999952,309.90000000000197
r26,26,199999956,801.9000000001138
r21,21,199999957,843.5000000001232
l36,36,999999953,896.2000000001352
r30,30,199999977,1351.4999999998663
1501.6999999997297
e70,70,1799999951,310.000000000002
r26,26,199999955,802.0000000001138
r21,21,199999992,840.0000000001224
l36,36,999999984,893.1000000001345
r30,30,199999968,1352.3999999998655
1501.7999999997296
e70,70,1799999977,307.4000000000014
r26,26,199999952,802.3000000001139
r21,21,199999985,840.7000000001226
l36,36,999999982,893.3000000001346
r30,30,199999965,1352.6999999998652
1501.8999999997295
e70,70,1799999961,309.00000000000176
r26,26,199999971,800.4000000001134
r21,21,199999966,842.600000000123
l36,36,999999986,892.9000000001345
r30,30,199999954,1353.7999999998642
1501.9999999997294
e70,70,1799999978,307.3000000000014
r26,26,199999967,800.8000000001135
r21,21,199999961,843.1000000001231
l36,36,999999955,896.0000000001352
r30,30,199999978,1351.3999999998664
1502.0999999997293
e70,70,1799999975,307.60000000000144
r26,26,199999951,802.4000000001139
r21,21,199999965,842.700000000123
l36,36,999999959,895.6000000001351
r30,30,199999986,1350.5999999998671
1502.1999999997292
e70,70,1799999970,308.10000000000156
r26,26,199999986,798.9000000001131
r21,21,199999990,840.2000000001225
l36,36,999999978,893.7000000001347
r30,30,200000000,1349.1999999998684
1502.2999999997292
e70,70,1799999980,307.10000000000133
r26,26,199999988,798.700000000113
r21,21,199999999,839.3000000001223
l36,36,999999961,895.400000000135
r30,30,199999997,1349.4999999998681
1502.399999999729
e70,70,1799999964,308.7000000000017
r26,26,199999992,798.300000000113
r21,21,199999955,843.7000000001233
l36,36,999999951,896.4000000001353
r30,30,199999985,1350.699999999867
1502.499999999729
e70,70,1799999956,309.5000000000019
r26,26,199999973,800.2000000001134
r21,21,199999981,841.1000000001227
l36,36,999999969,894.6000000001349
r30,30,199999990,1350.1999999998675
1502.5999999997289
e70,70,1799999955,309.6000000000019
r26,26,199999965,801.0000000001136
r21,21,199999988,840.4000000001225
l36,36,999999976,893.9000000001347
r30,30,199999981,1351.0999999998667
1502.6999999997288
e70,70,1799999960,309.1000000000018
r26,26,199999980,799.5000000001132
r21,21,199999980,841.2000000001227
l36,36,999999952,896.3000000001352
r30,30,199999962,1352.999999999865
1502.7999999997287
e70,70,1799999976,307.5000000000014
r26,26,199999962,801.3000000001136
r21,21,199999954,843.8000000001233
l36,36,999999979,893.6000000001346
r30,30,199999996,1349.599999999868
1502.8999999997286
e70,70,1799999990,306.1000000000011
r26,26,199999981,799.4000000001132
r21,21,199999996,839.6000000001223
l36,36,999999964,895.100000000135
r30,30,199999991,1350.0999999998676
1502.9999999997285
e70,70,1799999992,305.90000000000106
r26,26,199999987,798.8000000001131
r21,21,199999993,839.9000000001224
l36,36,999999995,892.0000000001343
r30,30,199999998,1349.3999999998682
1503.0999999997284
e70,70,1799999971,308.00000000000153
r26,26,199999984,799.1000000001131
r21,21,199999951,844.1000000001234
l36,36,999999963,895.200000000135
r30,30,199999966,1352.5999999998653
1503.1999999997283
e70,70,1799999989,306.2000000000011
r26,26,199999995,798.0000000001129
r21,21,199999963,842.9000000001231
l36,36,999999980,893.5000000001346
r30,30,199999992,1349.9999999998677
1503.2999999997282
e70,70,1799999986,306.5000000000012
r26,26,199999963,801.2000000001136
r21,21,199999958,843.4000000001232
l36,36,999999989,892.6000000001344
r30,30,199999982,1350.9999999998668
1503.3999999997282
e70,70,1799999984,306.70000000000124
r26,26,199999977,799.8000000001133
r21,21,199999960,843.2000000001232
l36,36,999999954,896.1000000001352
r30,30,199999959,1353.2999999998647
1503.499999999728
e70,70,1799999965,308.60000000000167
r26,26,199999964,801.1000000001136
r21,21,199999959,843.3000000001232
l36,36,999999973,894.2000000001348
r30,30,199999953,1353.8999999998641
1503.599999999728
e70,70,1799999988,306.30000000000115
r26,26,199999972,800.3000000001134
r21,21,199999953,843.9000000001233
l36,36,999999972,894.3000000001348
r30,30,199999967,1352.4999999998654
1503.6999999997279
e70,70,1800000000,305.1000000000009
r26,26,199999978,799.7000000001133
r21,21,200000000,839.2000000001223
l36,36,999999971,894.4000000001348
r30,30,199999988,1350.3999999998673
1503.7999999997278
e70,70,1799999953,309.80000000000194
r26,26,199999970,800.5000000001135
r21,21,199999978,841.4000000001228
l36,36,999999975,894.0000000001347
r30,30,199999951,1354.099999999864
1503.8999999997277
e70,70,1799999957,309.40000000000185
r26,26,199999968,800.7000000001135
r21,21,199999998,839.4000000001223
l36,36,999999992,892.3000000001343
r30,30,199999987,1350.4999999998672
1503.9999999997276
e70,70,1799999974,307.70000000000147
r26,26,199999954,802.1000000001138
r21,21,199999982,841.0000000001227
l36,36,999999960,895.5000000001351
r30,30,199999980,1351.1999999998666
1504.0999999997275
e70,70,1799999983,306.80000000000126
r26,26,199999998,797.7000000001128
r21,21,199999968,842.400000000123
l36,36,999999974,894.1000000001347
r30,30,199999972,1351.9999999998658
1504.1999999997274
e70,70,1799999979,307.20000000000135
r26,26,199999959,801.6000000001137
r21,21,199999964,842.8000000001231
l36,36,999999956,895.9000000001352
r30,30,199999984,1350.799999999867
1504.2999999997273
e70,70,1799999998,305.3000000000009
r26,26,199999961,801.4000000001137
r21,21,199999976,841.6000000001228
l36,36,1000000000,891.5000000001342
r30,30,199999956,1353.5999999998644
1504.3999999997272
e70,70,1799999967,308.4000000000016
r26,26,199999996,797.9000000001129
r21,21,199999991,840.1000000001225
l36,36,999999977,893.8000000001347
r30,30,199999989,1350.2999999998674
1504.4999999997272
e70,70,1799999981,307.0000000000013
r26,26,199999997,797.8000000001128
r21,21,199999989,840.3000000001225
l36,36,999999958,895.7000000001351
r30,30,199999973,1351.899999999866
1504.599999999727
e70,70,1799999993,305.80000000000103
r26,26,199999979,799.6000000001133
r21,21,199999987,840.5000000001226
l36,36,999999967,894.8000000001349
r30,30,199999995,1349.699999999868
1504.699999999727
e70,70,1799999991,306.0000000000011
r26,26,199999974,800.1000000001134
r21,21,199999973,841.9000000001229
l36,36,999999957,895.8000000001351
r30,30,199999964,1352.7999999998651
1504.7999999997269
e70,70,1799999963,308.8000000000017
r26,26,199999994,798.1000000001129
r21,21,199999970,842.2000000001229
l36,36,999999998,891.7000000001342
r30,30,199999969,1352.2999999998656
1504.8999999997268
e70,70,1799999959,309.2000000000018
r26,26,199999985,799.0000000001131
r21,21,199999974,841.8000000001228
l36,36,999999983,893.2000000001345
r30,30,199999993,1349.8999999998678
1504.9999999997267
e70,70,1799999997,305.40000000000094
r26,26,199999991,798.400000000113
r21,21,199999967,842.500000000123
l36,36,999999987,892.8000000001344
r30,30,199999976,1351.5999999998662
1505.0999999997266
e70,70,1799999966,308.50000000000165
r26,26,199999983,799.2000000001132
r21,21,199999977,841.5000000001228
l36,36,999999981,893.4000000001346
r30,30,199999979,1351.2999999998665
1505.1999999997265
e70,70,1799999954,309.7000000000019
r26,26,199999966,800.9000000001136
r21,21,199999994,839.8000000001224
l36,36,999999968,894.7000000001349
r30,30,199999994,1349.7999999998679
1505.2999999997264
e70,70,1799999982,306.9000000000013
r26,26,199999957,801.8000000001138
r21,21,199999956,843.6000000001233
l36,36,999999965,895.000000000135
r30,30,199999975,1351.6999999998661
1505.3999999997263
e70,70,1799999958,309.30000000000183
r26,26,199999990,798.500000000113
r21,21,199999972,842.0000000001229
l36,36,999999988,892.7000000001344
r30,30,199999957,1353.4999999998645
1505.4999999997262
e70,70,1799999987,306.40000000000117
r26,26,199999975,800.0000000001133
r21,21,199999997,839.5000000001223
l36,36,999999996,891.9000000001342
r30,30,199999958,1353.3999999998646
1505.5999999997262
e70,70,1799999996,305.50000000000097
r26,26,199999958,801.7000000001137
r21,21,199999983,840.9000000001226
l36,36,999999970,894.5000000001348
r30,30,199999960,1353.1999999998648
1505.699999999726
e70,70,1799999994,305.700000000001
r26,26,200000000,797.5000000001128
r21,21,199999975,841.7000000001228
l36,36,999999999,891.6000000001342
r30,30,199999970,1352.1999999998657
1505.799999999726
e70,70,1799999973,307.8000000000015
r26,26,199999999,797.6000000001128
r21,21,199999995,839.7000000001224
l36,36,999999991,892.4000000001344
r30,30,199999974,1351.799999999866
1505.8999999997259
e70,70,1799999962,308.90000000000174
r26,26,199999969,800.6000000001135
r21,21,199999984,840.8000000001226
l36,36,999999962,895.300000000135
r30,30,199999955,1353.6999999998643
1505.9999999997258
e70,70,1799999995,305.600000000001
r26,26,199999989,798.600000000113
r21,21,199999969,842.300000000123
l36,36,999999994,892.1000000001343
r30,30,199999952,1353.999999999864
1506.0999999997257
e70,70,1799999985,306.6000000000012
r26,26,199999993,798.2000000001129
r21,21,199999952,844.0000000001234
l36,36,999999997,891.8000000001342
r30,30,199999983,1350.8999999998668
1506.1999999997256
e70,70,1799999968,308.3000000000016
r26,26,199999976,799.9000000001133
r21,21,199999962,843.0000000001231
l36,36,999999993,892.2000000001343
r30,30,199999971,1352.0999999998658
1506.2999999997255
e70,70,1799999969,308.2000000000016
r26,26,199999960,801.5000000001137
r21,21,199999986,840.6000000001226
l36,36,999999990,892.5000000001344
r30,30,199999963,1352.899999999865
1506.3999999997254
e70,70,1799999999,305.2000000000009
r26,26,199999953,802.2000000001138
r21,21,199999979,841.3000000001227
l36,36,999999966,894.9000000001349
r30,30,199999961,1353.0999999998648
1506.4999999997253
