e88,88,1799999976,377.20000000001727
l46,46,999999965,590.2000000000656
l62,62,999999968,759.9000000001042
e92,92,1800000000,1172.4000000000292
1776.5999999994797
e88,88,1799999987,376.100000000017
l46,46,999999993,587.400000000065
l62,62,999999964,760.3000000001043
e92,92,1799999969,1175.5000000000264
1776.6999999994796
e88,88,1799999956,379.2000000000177
l46,46,999999999,586.8000000000649
l62,62,999999977,759.000000000104
e92,92,1799999982,1174.2000000000276
1776.7999999994795
e88,88,1799999963,378.50000000001756
l46,46,999999955,591.2000000000659
l62,62,999999995,757.2000000001036
e92,92,1799999998,1172.600000000029
1776.8999999994794
e88,88,1799999971,377.7000000000174
l46,46,999999971,589.6000000000655
l62,62,999999986,758.1000000001038
e92,92,1799999957,1176.7000000000253
1776.9999999994793
e80,80,1799999991,303.1000000000004
e69,69,1799999999,341.8000000000092
e88,88,1799999951,399.20000000002227
l46,46,999999952,591.5000000000659
l62,62,999999972,759.5000000001041
e92,92,1799999959,1176.5000000000255
1777.0999999994792
e88,88,1799999975,377.3000000000173
l46,46,999999987,588.0000000000651
l62,62,999999981,758.6000000001039
e92,92,1799999958,1176.6000000000254
1777.1999999994791
e88,88,1799999965,378.3000000000175
l46,46,999999994,587.300000000065
l62,62,999999961,760.6000000001044
e92,92,1799999983,1174.1000000000276
1777.299999999479
e88,88,1799999994,375.40000000001686
l46,46,999999956,591.1000000000658
l62,62,999999951,761.6000000001046
e92,92,1799999997,1172.700000000029
1777.399999999479
e88,88,1799999980,376.8000000000172
l46,46,999999977,589.0000000000654
l62,62,999999965,760.2000000001043
e92,92,1799999970,1175.4000000000265
1777.4999999994789
e88,88,1799999967,378.1000000000175
l46,46,999999986,588.1000000000652
l62,62,999999962,760.5000000001044
e92,92,1799999975,1174.900000000027
1777.5999999994788
e88,88,1799999966,378.2000000000175
l46,46,999999961,590.6000000000657
l62,62,999999955,761.2000000001045
e92,92,1799999964,1176.000000000026
1777.6999999994787
e88,88,1799999984,376.4000000000171
l46,46,999999996,587.1000000000649
l62,62,999999994,757.3000000001036
e92,92,1799999960,1176.4000000000256
1777.7999999994786
e88,88,1799999959,378.90000000001766
l46,46,999999951,591.600000000066
l62,62,999999987,758.0000000001038
e92,92,1799999984,1174.0000000000277
1777.8999999994785
e88,88,1799999962,378.6000000000176
l46,46,999999957,591.0000000000658
l62,62,999999959,760.8000000001044
e92,92,1799999976,1174.800000000027
1777.9999999994784
e88,88,1799999964,378.40000000001754
l46,46,999999973,589.4000000000655
l62,62,999999983,758.4000000001039
e92,92,1799999978,1174.6000000000272
1778.0999999994783
e88,88,1799999986,376.20000000001704
l46,46,999999975,589.2000000000654
l62,62,999999990,757.7000000001037
e92,92,1799999988,1173.600000000028
1778.1999999994782
e80,80,1799999952,307.0000000000013
e69,69,1799999986,343.1000000000095
e88,88,1799999952,399.10000000002225
l46,46,999999958,590.9000000000658
l62,62,999999958,760.9000000001045
e92,92,1799999966,1175.800000000026
1778.2999999994781
e88,88,1799999977,377.10000000001725
l46,46,1000000000,586.7000000000648
l62,62,999999966,760.1000000001043
e92,92,1799999973,1175.1000000000267
1778.399999999478
e88,88,1799999989,375.900000000017
l46,46,999999966,590.1000000000656
l62,62,999999993,757.4000000001037
e92,92,1799999962,1176.2000000000257
1778.499999999478
e88,88,1799999970,377.8000000000174
l46,46,999999995,587.200000000065
l62,62,999999991,757.6000000001037
e92,92,1799999989,1173.5000000000282
1778.5999999994779
e88,88,1799999955,379.30000000001775
l46,46,999999953,591.4000000000659
l62,62,999999989,757.8000000001038
e92,92,1799999956,1176.8000000000252
1778.6999999994778
e88,88,1799999998,375.00000000001677
l46,46,999999968,589.9000000000656
l62,62,999999975,759.2000000001041
e92,92,1799999991,1173.3000000000284
1778.7999999994777
e88,88,1799999982,376.60000000001713
l46,46,999999980,588.7000000000653
l62,62,999999971,759.6000000001042
e92,92,1799999979,1174.5000000000273
1778.8999999994776
e88,88,1799999990,375.80000000001695
l46,46,999999989,587.8000000000651
l62,62,999999984,758.3000000001039
e92,92,1799999996,1172.8000000000288
1778.9999999994775
e88,88,1799999988,376.000000000017
l46,46,999999997,587.0000000000649
l62,62,999999973,759.4000000001041
e92,92,1799999972,1175.2000000000266
1779.0999999994774
e88,88,1799999972,377.60000000001736
l46,46,999999967,590.0000000000656
l62,62,999999976,759.100000000104
e92,92,1799999999,1172.500000000029
1779.1999999994773
e88,88,1799999983,376.5000000000171
l46,46,999999978,588.9000000000653
l62,62,999999954,761.3000000001045
e92,92,1799999971,1175.3000000000266
1779.2999999994772
e88,88,1799999981,376.70000000001716
l46,46,999999979,588.8000000000653
l62,62,999999998,756.9000000001035
e92,92,1799999977,1174.700000000027
1779.3999999994771
e88,88,1799999991,375.7000000000169
l46,46,999999959,590.8000000000658
l62,62,999999978,758.900000000104
e92,92,1799999952,1177.2000000000248
1779.499999999477
e88,88,1799999968,378.00000000001745
l46,46,999999972,589.5000000000655
l62,62,999999963,760.4000000001043
e92,92,1799999981,1174.3000000000275
1779.599999999477
e88,88,1800000000,374.8000000000167
l46,46,999999998,586.9000000000649
l62,62,1000000000,756.7000000001035
e92,92,1799999994,1173.0000000000286
1779.6999999994769
e88,88,1799999957,379.1000000000177
l46,46,999999990,587.7000000000651
l62,62,999999979,758.800000000104
e92,92,1799999985,1173.9000000000278
1779.7999999994768
e88,88,1799999997,375.1000000000168
l46,46,999999969,589.8000000000656
l62,62,999999985,758.2000000001038
e92,92,1799999963,1176.1000000000258
1779.8999999994767
e88,88,1799999969,377.9000000000174
l46,46,999999964,590.3000000000657
l62,62,999999996,757.1000000001036
e92,92,1799999974,1175.0000000000268
1779.9999999994766
e88,88,1799999993,375.5000000000169
l46,46,999999981,588.6000000000653
l62,62,999999982,758.5000000001039
e92,92,1799999953,1177.100000000025
1780.0999999994765
e88,88,1799999958,379.0000000000177
l46,46,999999985,588.2000000000652
l62,62,999999988,757.9000000001038
e92,92,1799999965,1175.900000000026
1780.1999999994764
e88,88,1799999999,374.90000000001675
l46,46,999999988,587.9000000000651
l62,62,999999997,757.0000000001036
e92,92,1799999951,1177.3000000000247
1780.2999999994763
e80,80,1799999954,306.80000000000126
e69,69,1799999953,346.40000000001027
e88,88,1799999953,399.0000000000222
l46,46,999999991,587.600000000065
l62,62,999999956,761.1000000001045
e92,92,1799999990,1173.4000000000283
1780.3999999994762
e88,88,1799999995,375.30000000001684
l46,46,999999970,589.7000000000655
l62,62,999999999,756.8000000001035
e92,92,1799999968,1175.6000000000263
1780.4999999994761
e88,88,1799999961,378.7000000000176
l46,46,999999963,590.4000000000657
l62,62,999999969,759.8000000001042
e92,92,1799999986,1173.800000000028
1780.599999999476
e88,88,1799999979,376.9000000000172
l46,46,999999976,589.1000000000654
l62,62,999999967,760.0000000001043
e92,92,1799999955,1176.900000000025
1780.699999999476
e88,88,1799999973,377.50000000001734
l46,46,999999982,588.5000000000653
l62,62,999999992,757.5000000001037
e92,92,1799999992,1173.2000000000285
1780.7999999994759
e88,88,1799999974,377.4000000000173
l46,46,999999954,591.3000000000659
l62,62,999999970,759.7000000001042
e92,92,1799999967,1175.7000000000262
1780.8999999994758
e88,88,1799999960,378.80000000001763
l46,46,999999974,589.3000000000654
l62,62,999999960,760.7000000001044
e92,92,1799999980,1174.4000000000274
1780.9999999994757
e88,88,1799999996,375.2000000000168
l46,46,999999960,590.7000000000658
l62,62,999999980,758.700000000104
e92,92,1799999993,1173.1000000000286
1781.0999999994756
e88,88,1799999978,377.0000000000172
l46,46,999999962,590.5000000000657
l62,62,999999953,761.4000000001046
e92,92,1799999954,1177.000000000025
1781.1999999994755
e88,88,1799999985,376.30000000001706
l46,46,999999992,587.500000000065
l62,62,999999952,761.5000000001046
e92,92,1799999995,1172.9000000000287
1781.2999999994754
e80,80,1799999993,302.9000000000004
e69,69,1799999959,345.80000000001013
e88,88,1799999954,398.9000000000222
l46,46,999999984,588.3000000000652
l62,62,999999974,759.3000000001041
e92,92,1799999987,1173.700000000028
1781.3999999994753
e88,88,1799999992,375.6000000000169
l46,46,999999983,588.4000000000652
l62,62,999999957,761.0000000001045
e92,92,1799999961,1176.3000000000256
1781.4999999994752
