l52,52,1000000000,654.0000000000801
e78,78,1799999971,1002.2000000001593
l53,53,1000000000,1060.9000000001306
l36,36,999999970,1948.9999999993229
2089.0999999991955
l52,52,999999964,657.600000000081
e78,78,1799999988,1000.5000000001589
l53,53,999999955,1065.4000000001265
l36,36,999999984,1947.5999999993242
2089.1999999991954
l52,52,999999991,654.9000000000804
e78,78,1799999990,1000.3000000001589
l53,53,999999997,1061.2000000001303
l36,36,999999951,1950.8999999993212
2089.2999999991953
l52,52,999999997,654.3000000000802
e78,78,1799999960,1003.3000000001596
l53,53,999999958,1065.1000000001268
l36,36,999999974,1948.5999999993232
2089.399999999195
l52,52,999999968,657.2000000000809
e78,78,1799999975,1001.8000000001592
l53,53,999999962,1064.7000000001271
l36,36,999999980,1947.9999999993238
2089.499999999195
l52,52,999999980,656.0000000000806
e78,78,1799999984,1000.900000000159
l53,53,999999992,1061.7000000001299
l36,36,999999971,1948.899999999323
2089.599999999195
l52,52,999999988,655.2000000000804
e78,78,1799999980,1001.3000000001591
l53,53,999999995,1061.4000000001301
l36,36,999999989,1947.0999999993246
2089.699999999195
l52,52,999999970,657.0000000000808
e78,78,1799999996,999.7000000001588
l53,53,999999980,1062.9000000001288
l36,36,999999981,1947.8999999993239
2089.799999999195
l52,52,999999965,657.500000000081
e78,78,1799999976,1001.7000000001592
l53,53,999999999,1061.0000000001305
l36,36,999999959,1950.0999999993219
2089.8999999991947
l52,52,999999995,654.5000000000803
e78,78,1799999963,1003.0000000001595
l53,53,999999979,1063.0000000001287
l36,36,999999987,1947.2999999993244
2089.9999999991946
l52,52,999999999,654.1000000000802
e78,78,1799999979,1001.4000000001591
l53,53,999999952,1065.7000000001262
l36,36,999999995,1946.4999999993252
2090.0999999991946
l52,52,999999987,655.3000000000804
e78,78,1799999969,1002.4000000001594
l53,53,999999966,1064.3000000001275
l36,36,999999992,1946.7999999993249
2090.1999999991945
l52,52,999999975,656.5000000000807
e78,78,1800000000,999.3000000001587
l53,53,999999964,1064.5000000001273
l36,36,999999998,1946.1999999993254
2090.2999999991944
l52,52,999999962,657.800000000081
e78,78,1799999967,1002.6000000001594
l53,53,999999982,1062.700000000129
l36,36,999999985,1947.4999999993242
2090.3999999991943
l52,52,999999978,656.2000000000806
e78,78,1799999970,1002.3000000001593
l53,53,999999993,1061.60000000013
l36,36,999999964,1949.5999999993223
2090.499999999194
l52,52,999999998,654.2000000000802
e78,78,1799999961,1003.2000000001595
l53,53,999999986,1062.3000000001293
l36,36,999999999,1946.0999999993255
2090.599999999194
l52,52,999999952,658.8000000000812
e78,78,1799999995,999.8000000001588
l53,53,999999967,1064.2000000001276
l36,36,999999994,1946.599999999325
2090.699999999194
l52,52,999999956,658.4000000000811
e78,78,1799999993,1000.0000000001588
l53,53,999999974,1063.5000000001282
l36,36,999999983,1947.699999999324
2090.799999999194
l52,52,999999984,655.6000000000805
e78,78,1799999982,1001.1000000001591
l53,53,999999960,1064.900000000127
l36,36,999999966,1949.3999999993225
2090.899999999194
l52,52,999999981,655.9000000000806
e78,78,1799999951,1004.2000000001598
l53,53,999999953,1065.6000000001263
l36,36,999999982,1947.799999999324
2090.9999999991937
l52,52,999999955,658.5000000000812
e78,78,1799999973,1002.0000000001593
l53,53,999999978,1063.1000000001286
l36,36,999999996,1946.3999999993252
2091.0999999991936
l52,52,999999958,658.2000000000811
e78,78,1799999954,1003.9000000001597
l53,53,999999994,1061.50000000013
l36,36,999999973,1948.6999999993232
2091.1999999991936
l52,52,999999983,655.7000000000805
e78,78,1799999962,1003.1000000001595
l53,53,999999991,1061.8000000001298
l36,36,999999953,1950.6999999993213
2091.2999999991935
l52,52,999999990,655.0000000000804
e78,78,1799999974,1001.9000000001593
l53,53,999999983,1062.600000000129
l36,36,1000000000,1945.9999999993256
2091.3999999991934
l52,52,999999969,657.1000000000809
e78,78,1799999978,1001.5000000001592
l53,53,999999981,1062.8000000001289
l36,36,999999956,1950.3999999993216
2091.4999999991933
l52,52,999999963,657.700000000081
e78,78,1799999989,1000.4000000001589
l53,53,999999959,1065.0000000001269
l36,36,999999969,1949.0999999993228
2091.599999999193
l52,52,999999967,657.3000000000809
e78,78,1799999958,1003.5000000001596
l53,53,999999970,1063.9000000001279
l36,36,999999957,1950.2999999993217
2091.699999999193
l52,52,999999960,658.0000000000811
e78,78,1799999968,1002.5000000001594
l53,53,999999976,1063.3000000001284
l36,36,999999955,1950.4999999993215
2091.799999999193
l52,52,999999959,658.1000000000811
e78,78,1799999964,1002.9000000001595
l53,53,999999971,1063.800000000128
l36,36,999999978,1948.1999999993236
2091.899999999193
l52,52,999999977,656.3000000000807
e78,78,1799999985,1000.800000000159
l53,53,999999984,1062.5000000001291
l36,36,999999961,1949.899999999322
2091.999999999193
l52,52,999999986,655.4000000000805
e78,78,1799999998,999.5000000001587
l53,53,999999987,1062.2000000001294
l36,36,999999988,1947.1999999993245
2092.0999999991927
l52,52,999999982,655.8000000000806
e78,78,1799999965,1002.8000000001595
l53,53,999999985,1062.4000000001292
l36,36,999999962,1949.7999999993222
2092.1999999991926
l52,52,999999993,654.7000000000803
e78,78,1799999972,1002.1000000001593
l53,53,999999975,1063.4000000001283
l36,36,999999976,1948.3999999993234
2092.2999999991926
l52,52,999999961,657.900000000081
e78,78,1799999977,1001.6000000001592
l53,53,999999951,1065.8000000001261
l36,36,999999986,1947.3999999993243
2092.3999999991925
l52,52,999999985,655.5000000000805
e78,78,1799999994,999.9000000001588
l53,53,999999996,1061.3000000001302
l36,36,999999952,1950.7999999993212
2092.4999999991924
l52,52,999999976,656.4000000000807
e78,78,1799999987,1000.600000000159
l53,53,999999990,1061.9000000001297
l36,36,999999979,1948.0999999993237
2092.5999999991923
l52,52,999999979,656.1000000000806
e78,78,1799999981,1001.2000000001591
l53,53,999999954,1065.5000000001264
l36,36,999999958,1950.1999999993218
2092.699999999192
l52,52,999999992,654.8000000000803
e78,78,1799999986,1000.700000000159
l53,53,999999965,1064.4000000001274
l36,36,999999968,1949.1999999993227
2092.799999999192
l52,52,999999996,654.4000000000802
e78,78,1799999956,1003.7000000001597
l53,53,999999961,1064.800000000127
l36,36,999999990,1946.9999999993247
2092.899999999192
l52,52,999999953,658.7000000000812
e78,78,1799999955,1003.8000000001597
l53,53,999999973,1063.6000000001281
l36,36,999999967,1949.2999999993226
2092.999999999192
l52,52,999999972,656.8000000000808
e78,78,1799999959,1003.4000000001596
l53,53,999999969,1064.0000000001278
l36,36,999999965,1949.4999999993224
2093.099999999192
l52,52,999999994,654.6000000000803
e78,78,1799999999,999.4000000001587
l53,53,999999998,1061.1000000001304
l36,36,999999963,1949.6999999993222
2093.1999999991917
l52,52,999999974,656.6000000000807
e78,78,1799999966,1002.7000000001594
l53,53,999999989,1062.0000000001296
l36,36,999999997,1946.2999999993253
2093.2999999991916
l52,52,999999954,658.6000000000812
e78,78,1799999997,999.6000000001587
l53,53,999999988,1062.1000000001295
l36,36,999999954,1950.5999999993214
2093.3999999991916
l52,52,999999989,655.1000000000804
e78,78,1799999957,1003.6000000001596
l53,53,999999963,1064.6000000001272
l36,36,999999993,1946.699999999325
2093.4999999991915
l52,52,999999951,658.9000000000813
e78,78,1799999991,1000.2000000001589
l53,53,999999972,1063.700000000128
l36,36,999999991,1946.8999999993248
2093.5999999991914
l52,52,999999957,658.3000000000811
e78,78,1799999953,1004.0000000001597
l53,53,999999957,1065.2000000001267
l36,36,999999975,1948.4999999993233
2093.6999999991913
l52,52,999999973,656.7000000000808
e78,78,1799999983,1001.000000000159
l53,53,999999968,1064.1000000001277
l36,36,999999977,1948.2999999993235
2093.799999999191
l52,52,999999966,657.4000000000809
e78,78,1799999952,1004.1000000001598
l53,53,999999977,1063.2000000001285
l36,36,999999972,1948.799999999323
2093.899999999191
l52,52,999999971,656.9000000000808
e78,78,1799999992,1000.1000000001588
l53,53,999999956,1065.3000000001266
l36,36,999999960,1949.999999999322
2093.999999999191
