e83,83,1799999972,408.0000000000243
r27,27,199999968,1517.9999999997149
e78,78,1799999967,1842.5999999994197
2597.599999998733
e83,83,1799999955,409.70000000002466
r27,27,199999966,1518.1999999997147
e78,78,1799999959,1843.399999999419
2597.699999998733
e83,83,1799999965,408.70000000002443
r27,27,199999989,1515.8999999997168
e78,78,1799999974,1841.8999999994203
2597.799999998733
e83,83,1799999980,407.2000000000241
r27,27,199999958,1518.999999999714
e78,78,1799999969,1842.3999999994198
2597.8999999987327
e83,83,1799999977,407.50000000002416
r27,27,199999964,1518.3999999997145
e78,78,1799999951,1844.1999999994182
2597.9999999987326
e83,83,1799999971,408.1000000000243
r27,27,199999982,1516.5999999997161
e78,78,1799999983,1840.999999999421
2598.0999999987325
e83,83,1799999997,405.5000000000237
r27,27,199999953,1519.4999999997135
e78,78,1799999962,1843.0999999994192
2598.1999999987324
e83,83,1799999992,406.0000000000238
r27,27,200000000,1514.7999999997178
e78,78,1799999989,1840.3999999994217
2598.2999999987323
e83,83,1799999957,409.5000000000246
r27,27,199999986,1516.1999999997165
e78,78,1799999975,1841.7999999994204
2598.3999999987323
e83,83,1799999988,406.4000000000239
r27,27,199999971,1517.6999999997151
e78,78,1799999982,1841.099999999421
2598.499999998732
e83,83,1799999989,406.3000000000239
r27,27,199999970,1517.799999999715
e78,78,1799999999,1839.3999999994226
2598.599999998732
e83,83,1799999999,405.30000000002366
r27,27,199999955,1519.2999999997137
e78,78,1799999990,1840.2999999994217
2598.699999998732
e83,83,1799999963,408.9000000000245
r27,27,199999954,1519.3999999997136
e78,78,1799999993,1839.999999999422
2598.799999998732
e83,83,1799999976,407.6000000000242
r27,27,199999994,1515.3999999997172
e78,78,1799999984,1840.8999999994212
2598.899999998732
e83,83,1799999983,406.900000000024
r27,27,199999974,1517.3999999997154
e78,78,1799999970,1842.29999999942
2598.9999999987317
e83,83,1800000000,405.20000000002364
r27,27,199999963,1518.4999999997144
e78,78,1799999954,1843.8999999994185
2599.0999999987316
e83,83,1799999996,405.6000000000237
r27,27,199999980,1516.799999999716
e78,78,1800000000,1839.2999999994227
2599.1999999987315
e83,83,1799999986,406.60000000002395
r27,27,199999972,1517.5999999997152
e78,78,1799999964,1842.8999999994194
2599.2999999987314
e83,83,1799999964,408.80000000002445
r27,27,199999977,1517.0999999997157
e78,78,1799999996,1839.6999999994223
2599.3999999987313
e83,83,1799999987,406.50000000002393
r27,27,199999999,1514.8999999997177
e78,78,1799999958,1843.4999999994188
2599.4999999987313
e83,83,1799999984,406.800000000024
r27,27,199999976,1517.1999999997156
e78,78,1799999965,1842.7999999994195
2599.599999998731
e83,83,1799999991,406.10000000002384
r27,27,199999959,1518.899999999714
e78,78,1799999986,1840.6999999994214
2599.699999998731
e83,83,1799999979,407.3000000000241
r27,27,199999978,1516.9999999997158
e78,78,1799999973,1841.9999999994202
2599.799999998731
e83,83,1799999962,409.0000000000245
r27,27,199999975,1517.2999999997155
e78,78,1799999978,1841.4999999994207
2599.899999998731
e83,83,1799999959,409.30000000002457
r27,27,199999979,1516.8999999997159
e78,78,1799999997,1839.5999999994224
2599.999999998731
e83,83,1799999970,408.2000000000243
r27,27,199999983,1516.4999999997162
e78,78,1799999957,1843.5999999994187
2600.0999999987307
e83,83,1799999978,407.40000000002414
r27,27,199999987,1516.0999999997166
e78,78,1799999987,1840.5999999994215
2600.1999999987306
e83,83,1799999958,409.4000000000246
r27,27,199999965,1518.2999999997146
e78,78,1799999971,1842.19999999942
2600.2999999987305
e83,83,1799999954,409.8000000000247
r27,27,199999985,1516.2999999997164
e78,78,1799999955,1843.7999999994186
2600.3999999987304
e83,83,1799999975,407.7000000000242
r27,27,199999981,1516.699999999716
e78,78,1799999998,1839.4999999994225
2600.4999999987303
e83,83,1799999961,409.1000000000245
r27,27,199999952,1519.5999999997134
e78,78,1799999991,1840.1999999994218
2600.5999999987303
e83,83,1799999993,405.9000000000238
r27,27,199999995,1515.2999999997173
e78,78,1799999953,1843.9999999994184
2600.69999999873
e83,83,1799999966,408.6000000000244
r27,27,199999962,1518.5999999997143
e78,78,1799999961,1843.199999999419
2600.79999999873
e83,83,1799999967,408.5000000000244
r27,27,199999984,1516.3999999997163
e78,78,1799999972,1842.09999999942
2600.89999999873
e83,83,1799999952,410.0000000000247
r27,27,199999973,1517.4999999997153
e78,78,1799999976,1841.6999999994205
2600.99999999873
e83,83,1799999953,409.9000000000247
r27,27,199999961,1518.6999999997142
e78,78,1799999952,1844.0999999994183
2601.09999999873
e83,83,1799999990,406.20000000002386
r27,27,199999990,1515.7999999997169
e78,78,1799999956,1843.6999999994187
2601.1999999987297
e83,83,1799999994,405.8000000000238
r27,27,199999988,1515.9999999997167
e78,78,1799999968,1842.4999999994197
2601.2999999987296
e83,83,1799999985,406.700000000024
r27,27,199999967,1518.0999999997148
e78,78,1799999992,1840.099999999422
2601.3999999987295
e83,83,1799999973,407.90000000002425
r27,27,199999960,1518.7999999997141
e78,78,1799999966,1842.6999999994196
2601.4999999987294
e83,83,1799999998,405.4000000000237
r27,27,199999957,1519.0999999997139
e78,78,1799999995,1839.7999999994222
2601.5999999987293
e83,83,1799999951,410.10000000002475
r27,27,199999969,1517.899999999715
e78,78,1799999979,1841.3999999994207
2601.6999999987293
e83,83,1799999982,407.00000000002404
r27,27,199999998,1514.9999999997176
e78,78,1799999985,1840.7999999994213
2601.799999998729
e83,83,1799999956,409.60000000002464
r27,27,199999991,1515.699999999717
e78,78,1799999988,1840.4999999994216
2601.899999998729
e83,83,1799999969,408.30000000002434
r27,27,199999997,1515.0999999997175
e78,78,1799999977,1841.5999999994206
2601.999999998729
e83,83,1799999974,407.8000000000242
r27,27,199999993,1515.4999999997171
e78,78,1799999963,1842.9999999994193
2602.099999998729
e83,83,1799999981,407.10000000002407
r27,27,199999951,1519.6999999997133
e78,78,1799999980,1841.2999999994208
2602.199999998729
e83,83,1799999995,405.70000000002375
r27,27,199999996,1515.1999999997174
e78,78,1799999994,1839.899999999422
2602.2999999987287
e83,83,1799999960,409.20000000002454
r27,27,199999992,1515.599999999717
e78,78,1799999960,1843.299999999419
2602.3999999987286
e83,83,1799999968,408.40000000002436
r27,27,199999956,1519.1999999997138
e78,78,1799999981,1841.199999999421
2602.4999999987285
