r66,66,999999988,1.4000000000000001
r82,82,999999973,274.19999999999385
r73,73,999999985,547.2000000000559
r25,25,999999984,551.0000000000567
r8,8,999999985,599.3000000000677
r33,33,999999982,1022.1000000001638
r76,76,999999965,1152.2000000000476
1265.0999999999449
r66,66,999999955,4.699999999999999
r82,82,999999978,273.69999999999374
r73,73,999999986,547.1000000000558
r25,25,999999995,549.9000000000565
r8,8,999999986,599.2000000000677
r33,33,999999988,1021.5000000001637
r76,76,999999991,1149.60000000005
1265.1999999999448
r66,66,999999995,0.7
r82,82,999999992,272.2999999999934
r73,73,999999990,546.7000000000558
r25,25,999999982,551.2000000000568
r8,8,999999992,598.6000000000676
r33,33,999999972,1023.1000000001641
r76,76,999999962,1152.5000000000473
1265.2999999999447
r66,66,999999976,2.600000000000001
r82,82,999999995,271.99999999999335
r73,73,999999991,546.6000000000557
r25,25,999999981,551.3000000000568
r8,8,999999979,599.9000000000678
r33,33,999999978,1022.5000000001639
r76,76,999999998,1148.9000000000506
1265.3999999999446
r66,66,1000000000,0.2
r82,82,999999982,273.29999999999364
r73,73,999999970,548.7000000000562
r25,25,999999980,551.4000000000568
r8,8,999999996,598.2000000000675
r33,33,999999980,1022.3000000001639
r76,76,999999977,1151.0000000000487
1265.4999999999445
r66,66,999999953,4.899999999999999
r82,82,999999975,273.9999999999938
r73,73,999999998,545.9000000000556
r25,25,999999972,552.200000000057
r8,8,999999989,598.9000000000676
r33,33,999999973,1023.000000000164
r76,76,999999974,1151.3000000000484
1265.5999999999444
r66,66,999999987,1.5000000000000002
r101,101,999999984,129.29999999999694
r97,97,999999956,339.6000000000087
r88,88,999999962,626.4000000000739
r87,87,999999967,653.40000000008
r15,15,999999955,721.3000000000955
r86,86,999999963,914.6000000001394
r33,33,999999951,1107.5000000000882
r76,76,999999976,1151.1000000000486
1265.6999999999443
r66,66,999999967,3.5000000000000018
r101,101,999999999,127.79999999999701
r97,97,999999989,336.30000000000797
r88,88,999999956,627.000000000074
r87,87,999999965,653.6000000000801
r15,15,999999995,717.3000000000945
r86,86,999999957,915.2000000001395
r33,33,999999955,1107.1000000000886
r76,76,999999971,1151.600000000048
1265.7999999999442
r66,66,999999957,4.5
r82,82,999999998,271.6999999999933
r73,73,999999968,548.9000000000563
r25,25,999999989,550.5000000000566
r8,8,999999978,600.0000000000679
r33,33,999999970,1023.3000000001641
r76,76,999999961,1152.6000000000472
1265.8999999999442
r66,66,999999978,2.400000000000001
r82,82,999999986,272.89999999999355
r73,73,999999971,548.6000000000562
r25,25,999999990,550.4000000000566
r8,8,999999998,598.0000000000674
r33,33,999999992,1021.1000000001636
r76,76,999999993,1149.40000000005
1265.999999999944
r66,66,999999964,3.800000000000002
r101,101,999999961,131.5999999999968
r97,97,999999974,337.8000000000083
r88,88,999999958,626.800000000074
r87,87,999999957,654.4000000000802
r15,15,999999974,719.400000000095
r86,86,999999954,915.5000000001396
r33,33,999999963,1106.3000000000893
r76,76,999999968,1151.9000000000478
1266.099999999944
r66,66,999999984,1.8000000000000005
r82,82,999999971,274.3999999999939
r73,73,999999981,547.600000000056
r25,25,999999975,551.9000000000569
r8,8,999999990,598.8000000000676
r33,33,999999983,1022.0000000001638
r76,76,999999972,1151.5000000000482
1266.1999999999439
r66,66,999999975,2.700000000000001
r82,82,999999970,274.4999999999939
r73,73,999999995,546.2000000000556
r25,25,999999985,550.9000000000567
r8,8,999999997,598.1000000000674
r33,33,999999968,1023.5000000001642
r76,76,999999992,1149.50000000005
1266.2999999999438
r66,66,999999951,5.099999999999998
r101,101,999999957,131.9999999999968
r97,97,999999975,337.7000000000083
r88,88,999999954,627.200000000074
r83,83,999999969,638.2000000000766
r86,86,999999981,736.4000000000989
r33,33,999999959,1106.700000000089
r76,76,1000000000,1148.7000000000507
1266.3999999999437
r66,66,999999969,3.3000000000000016
r82,82,999999990,272.49999999999346
r73,73,999999993,546.4000000000557
r25,25,999999974,552.000000000057
r8,8,999999983,599.5000000000678
r33,33,999999990,1021.3000000001637
r76,76,999999964,1152.3000000000475
1266.4999999999436
r66,66,999999961,4.100000000000001
r101,101,999999977,129.9999999999969
r97,97,999999993,335.9000000000079
r88,88,999999966,626.0000000000738
r87,87,999999963,653.8000000000801
r15,15,1000000000,716.8000000000944
r86,86,999999956,915.3000000001396
r33,33,999999958,1106.8000000000889
r76,76,999999958,1152.900000000047
1266.5999999999435
r66,66,999999972,3.0000000000000013
r101,101,999999988,128.89999999999696
r97,97,999999967,338.50000000000847
r88,88,999999953,627.3000000000741
r83,83,999999983,636.8000000000762
r86,86,999999999,734.6000000000985
r33,33,999999960,1106.600000000089
r76,76,999999989,1149.8000000000497
1266.6999999999434
r66,66,999999991,1.0999999999999999
r101,101,999999976,130.0999999999969
r97,97,999999957,339.5000000000087
r88,88,999999955,627.100000000074
r87,87,999999955,654.6000000000803
r15,15,999999957,721.1000000000954
r86,86,999999958,915.1000000001395
r33,33,999999957,1106.9000000000888
r76,76,999999970,1151.700000000048
1266.7999999999433
r66,66,999999996,0.6
r82,82,999999983,273.1999999999936
r73,73,999999980,547.700000000056
r25,25,999999983,551.1000000000568
r8,8,999999993,598.5000000000675
r33,33,999999999,1020.4000000001635
r76,76,999999994,1149.3000000000502
1266.8999999999432
r66,66,999999973,2.9000000000000012
r101,101,999999998,127.89999999999701
r97,97,999999953,339.9000000000088
r88,88,999999965,626.1000000000738
r83,83,999999994,635.700000000076
r86,86,999999982,736.3000000000989
r33,33,999999956,1107.0000000000887
r76,76,999999999,1148.8000000000507
1266.9999999999432
r66,66,999999993,0.8999999999999999
r82,82,999999981,273.39999999999367
r73,73,999999976,548.1000000000561
r25,25,999999999,549.5000000000564
r8,8,999999980,599.8000000000678
r33,33,999999985,1021.8000000001638
r76,76,999999966,1152.1000000000477
1267.099999999943
r66,66,999999997,0.5
r101,101,1000000000,127.69999999999702
r97,97,999999999,335.30000000000774
r88,88,999999951,627.5000000000741
r83,83,999999997,635.4000000000759
r86,86,999999977,736.800000000099
r33,33,999999966,1106.0000000000896
r76,76,999999981,1150.600000000049
1267.199999999943
r66,66,999999992,0.9999999999999999
r82,82,999999996,271.8999999999933
r73,73,999999983,547.4000000000559
r25,25,999999977,551.7000000000569
r8,8,999999984,599.4000000000677
r33,33,999999981,1022.2000000001639
r76,76,999999986,1150.1000000000495
1267.2999999999429
r66,66,999999959,4.300000000000001
r82,82,1000000000,271.49999999999324
r73,73,999999978,547.900000000056
r25,25,999999970,552.400000000057
r8,8,999999971,600.700000000068
r33,33,999999989,1021.4000000001637
r76,76,999999975,1151.2000000000485
1267.3999999999428
r66,66,999999990,1.2
r82,82,999999999,271.59999999999326
r73,73,999999972,548.5000000000562
r25,25,1000000000,549.4000000000564
r8,8,999999994,598.4000000000675
r33,33,999999984,1021.9000000001638
r76,76,999999951,1153.6000000000463
1267.4999999999427
r66,66,999999980,2.2000000000000006
r82,82,999999968,274.69999999999396
r73,73,999999992,546.5000000000557
r25,25,999999986,550.8000000000567
r8,8,999999972,600.600000000068
r33,33,1000000000,1020.3000000001634
r76,76,999999982,1150.500000000049
1267.5999999999426
r66,66,999999968,3.4000000000000017
r82,82,999999976,273.8999999999938
r73,73,999999974,548.3000000000561
r25,25,999999968,552.6000000000571
r8,8,999999981,599.7000000000678
r33,33,999999974,1022.900000000164
r76,76,999999957,1153.0000000000468
1267.6999999999425
r66,66,999999954,4.799999999999999
r101,101,999999954,132.29999999999677
r97,97,999999997,335.5000000000078
r88,88,999999959,626.7000000000739
r83,83,999999990,636.1000000000761
r86,86,1000000000,734.5000000000985
r33,33,999999965,1106.1000000000895
r76,76,999999985,1150.2000000000494
1267.7999999999424
r66,66,999999994,0.7999999999999999
r82,82,999999989,272.5999999999935
r73,73,999999977,548.000000000056
r25,25,999999998,549.6000000000564
r8,8,999999968,601.0000000000681
r33,33,999999987,1021.6000000001637
r76,76,999999983,1150.4000000000492
1267.8999999999423
r66,66,999999966,3.600000000000002
r82,82,999999991,272.39999999999344
r73,73,999999975,548.2000000000561
r25,25,999999988,550.6000000000566
r8,8,999999975,600.3000000000679
r33,33,999999975,1022.800000000164
r76,76,999999956,1153.1000000000467
1267.9999999999422
r66,66,999999985,1.7000000000000004
r82,82,999999977,273.79999999999376
r73,73,999999973,548.4000000000561
r25,25,999999993,550.1000000000565
r8,8,999999999,597.9000000000674
r33,33,999999976,1022.700000000164
r76,76,999999978,1150.9000000000487
1268.0999999999422
r66,66,999999986,1.6000000000000003
r101,101,999999986,129.09999999999695
r97,97,999999961,339.1000000000086
r88,88,999999957,626.900000000074
r87,87,999999966,653.50000000008
r15,15,999999963,720.5000000000953
r86,86,999999961,914.8000000001394
r33,33,999999953,1107.3000000000884
r76,76,999999996,1149.1000000000504
1268.199999999942
r66,66,999999963,3.900000000000002
r82,82,999999993,272.1999999999934
r73,73,999999996,546.1000000000556
r25,25,999999996,549.8000000000565
r8,8,999999970,600.800000000068
r33,33,999999991,1021.2000000001636
r76,76,999999984,1150.3000000000493
1268.299999999942
r66,66,999999956,4.6
r82,82,999999974,274.0999999999938
r73,73,999999982,547.5000000000559
r25,25,999999992,550.2000000000565
r8,8,999999974,600.400000000068
r33,33,999999977,1022.600000000164
r76,76,999999990,1149.7000000000498
1268.3999999999419
r66,66,999999998,0.4
r82,82,999999985,272.9999999999936
r73,73,999999969,548.8000000000562
r25,25,999999978,551.6000000000569
r8,8,999999991,598.7000000000676
r33,33,999999986,1021.7000000001638
r76,76,999999979,1150.8000000000488
1268.4999999999418
r66,66,999999979,2.3000000000000007
r82,82,999999980,273.4999999999937
r73,73,1000000000,545.7000000000555
r25,25,999999979,551.5000000000568
r8,8,999999969,600.9000000000681
r33,33,999999995,1020.8000000001635
r76,76,999999988,1149.9000000000497
1268.5999999999417
r66,66,999999971,3.1000000000000014
r101,101,999999953,132.39999999999677
r97,97,999999991,336.1000000000079
r88,88,999999963,626.3000000000739
r87,87,999999960,654.1000000000802
r15,15,999999968,720.0000000000952
r86,86,999999951,915.8000000001397
r33,33,999999952,1107.4000000000883
r76,76,999999952,1153.5000000000464
1268.6999999999416
r66,66,999999983,1.9000000000000006
r82,82,999999988,272.6999999999935
r73,73,999999987,547.0000000000558
r25,25,999999969,552.5000000000571
r8,8,999999995,598.3000000000675
r33,33,999999969,1023.4000000001641
r76,76,999999973,1151.4000000000483
1268.7999999999415
r66,66,999999965,3.700000000000002
r82,82,999999979,273.5999999999937
r73,73,999999979,547.800000000056
r25,25,999999997,549.7000000000564
r8,8,999999988,599.0000000000676
r33,33,999999979,1022.4000000001639
r76,76,999999967,1152.0000000000477
1268.8999999999414
r66,66,999999974,2.800000000000001
r82,82,999999972,274.2999999999939
r73,73,999999989,546.8000000000558
r25,25,999999987,550.7000000000567
r8,8,1000000000,597.8000000000674
r33,33,999999971,1023.2000000001641
r76,76,999999995,1149.2000000000503
1268.9999999999413
r66,66,999999977,2.500000000000001
r101,101,999999964,131.29999999999683
r97,97,999999998,335.40000000000776
r88,88,999999960,626.6000000000739
r83,83,999999986,636.5000000000762
r86,86,999999988,735.7000000000987
r33,33,999999954,1107.2000000000885
r76,76,999999987,1150.0000000000496
1269.0999999999412
r66,66,999999982,2.0000000000000004
r101,101,999999956,132.09999999999678
r97,97,1000000000,335.2000000000077
r88,88,999999952,627.4000000000741
r83,83,999999996,635.5000000000759
r86,86,999999991,735.4000000000987
r33,33,999999967,1105.9000000000897
r76,76,999999980,1150.700000000049
1269.1999999999412
r66,66,999999958,4.4
r82,82,999999969,274.59999999999394
r73,73,999999994,546.3000000000557
r25,25,999999991,550.3000000000566
r8,8,999999973,600.500000000068
r33,33,999999994,1020.9000000001636
r76,76,999999963,1152.4000000000474
1269.299999999941
r66,66,999999962,4.000000000000002
r101,101,999999990,128.69999999999698
r97,97,999999960,339.20000000000863
r88,88,999999964,626.2000000000738
r83,83,999999977,637.4000000000764
r86,86,999999969,737.6000000000992
r33,33,999999961,1106.5000000000891
r76,76,999999953,1153.4000000000465
1269.399999999941
r66,66,999999999,0.30000000000000004
r101,101,999999995,128.199999999997
r97,97,999999995,335.70000000000783
r88,88,999999967,625.9000000000738
r83,83,1000000000,635.1000000000759
r86,86,999999996,734.9000000000985
r33,33,999999964,1106.2000000000894
r76,76,999999960,1152.700000000047
1269.4999999999409
r66,66,999999981,2.1000000000000005
r82,82,999999997,271.7999999999933
r73,73,999999988,546.9000000000558
r25,25,999999976,551.8000000000569
r8,8,999999976,600.2000000000679
r33,33,999999996,1020.7000000001635
r76,76,999999954,1153.3000000000466
1269.5999999999408
r66,66,999999952,4.999999999999998
r82,82,999999994,272.0999999999934
r73,73,999999984,547.3000000000559
r25,25,999999994,550.0000000000565
r8,8,999999987,599.1000000000677
r33,33,999999998,1020.5000000001635
r76,76,999999959,1152.800000000047
1269.6999999999407
r66,66,999999970,3.2000000000000015
r82,82,999999984,273.0999999999936
r73,73,999999999,545.8000000000555
r25,25,999999971,552.300000000057
r8,8,999999977,600.1000000000679
r33,33,999999997,1020.6000000001635
r76,76,999999955,1153.2000000000467
1269.7999999999406
r66,66,999999989,1.3
r101,101,999999978,129.8999999999969
r97,97,999999964,338.80000000000854
r88,88,999999961,626.5000000000739
r83,83,999999972,637.9000000000765
r86,86,999999989,735.6000000000987
r33,33,999999962,1106.4000000000892
r76,76,999999997,1149.0000000000505
1269.8999999999405
r66,66,999999960,4.200000000000001
r82,82,999999987,272.79999999999353
r73,73,999999997,546.0000000000556
r25,25,999999973,552.100000000057
r8,8,999999982,599.6000000000678
r33,33,999999993,1021.0000000001636
r76,76,999999969,1151.800000000048
1269.9999999999404
