r30,30,999999954,632.4000000000752
r90,90,999999969,920.6000000001408
2529.6999999987947
r30,30,999999967,631.1000000000749
r90,90,999999952,922.3000000001412
2529.7999999987946
r30,30,999999963,631.500000000075
r90,90,999999980,919.5000000001405
2529.8999999987946
r30,30,999999995,628.3000000000743
r90,90,999999958,921.700000000141
2529.9999999987945
r30,30,999999988,629.0000000000745
r90,90,999999978,919.7000000001406
2530.0999999987944
r30,30,999999964,631.400000000075
r90,90,999999974,920.1000000001407
2530.1999999987943
r30,30,999999989,628.9000000000744
r90,90,999999972,920.3000000001407
2530.299999998794
r30,30,999999959,631.9000000000751
r90,90,999999982,919.3000000001405
2530.399999998794
r30,30,999999999,627.9000000000742
r90,90,999999975,920.0000000001406
2530.499999998794
r30,30,999999966,631.200000000075
r90,90,999999959,921.600000000141
2530.599999998794
r30,30,999999983,629.5000000000746
r90,90,999999970,920.5000000001407
2530.699999998794
r30,30,999999958,632.0000000000751
r90,90,999999985,919.0000000001404
2530.7999999987937
r30,30,999999961,631.7000000000751
r90,90,999999979,919.6000000001405
2530.8999999987936
r30,30,999999993,628.5000000000744
r90,90,999999966,920.9000000001408
2530.9999999987936
r30,30,999999972,630.6000000000748
r90,90,999999988,918.7000000001403
2531.0999999987935
r30,30,999999971,630.7000000000749
r90,90,999999986,918.9000000001404
2531.1999999987934
r30,30,999999997,628.1000000000743
r90,90,999999951,922.4000000001412
2531.2999999987933
r30,30,999999975,630.3000000000748
r90,90,999999989,918.6000000001403
2531.399999998793
r30,30,999999969,630.9000000000749
r90,90,999999961,921.400000000141
2531.499999998793
r30,30,999999991,628.7000000000744
r90,90,999999992,918.3000000001402
2531.599999998793
r30,30,999999970,630.8000000000749
r90,90,999999956,921.9000000001411
2531.699999998793
r30,30,999999985,629.3000000000745
r90,90,999999993,918.2000000001402
2531.799999998793
r30,30,999999953,632.5000000000753
r90,90,999999977,919.8000000001406
2531.8999999987927
r30,30,999999986,629.2000000000745
r90,90,999999955,922.0000000001411
2531.9999999987926
r30,30,999999990,628.8000000000744
r90,90,999999976,919.9000000001406
2532.0999999987926
r30,30,999999968,631.0000000000749
r90,90,999999968,920.7000000001408
2532.1999999987925
r30,30,999999992,628.6000000000744
r90,90,999999964,921.1000000001409
2532.2999999987924
r30,30,999999955,632.3000000000752
r90,90,999999965,921.0000000001409
2532.3999999987923
r30,30,999999987,629.1000000000745
r90,90,999999971,920.4000000001407
2532.499999998792
r30,30,999999984,629.4000000000746
r90,90,999999973,920.2000000001407
2532.599999998792
r30,30,999999979,629.9000000000747
r90,90,999999960,921.500000000141
2532.699999998792
r30,30,999999956,632.2000000000752
r90,90,999999981,919.4000000001405
2532.799999998792
r30,30,999999960,631.8000000000751
r90,90,1000000000,917.5000000001401
2532.899999998792
r30,30,999999973,630.5000000000748
r90,90,999999994,918.1000000001402
2532.9999999987917
r30,30,999999994,628.4000000000743
r90,90,999999997,917.8000000001401
2533.0999999987916
r30,30,999999952,632.6000000000753
r90,90,999999996,917.9000000001402
2533.1999999987916
r30,30,999999977,630.1000000000747
r90,90,999999999,917.6000000001401
2533.2999999987915
r30,30,999999965,631.300000000075
r90,90,999999967,920.8000000001408
2533.3999999987914
r30,30,999999978,630.0000000000747
r90,90,999999991,918.4000000001403
2533.4999999987913
r30,30,999999951,632.7000000000753
r90,90,999999995,918.0000000001402
2533.599999998791
r30,30,999999998,628.0000000000742
r90,90,999999998,917.7000000001401
2533.699999998791
r30,30,999999962,631.600000000075
r90,90,999999957,921.800000000141
2533.799999998791
r30,30,999999976,630.2000000000747
r90,90,999999954,922.1000000001411
2533.899999998791
r30,30,999999957,632.1000000000752
r90,90,999999953,922.2000000001411
2533.999999998791
r30,30,1000000000,627.8000000000742
r90,90,999999963,921.2000000001409
2534.0999999987907
r30,30,999999980,629.8000000000746
r90,90,999999962,921.3000000001409
2534.1999999987906
r30,30,999999974,630.4000000000748
r90,90,999999987,918.8000000001404
2534.2999999987906
r30,30,999999981,629.7000000000746
r90,90,999999983,919.2000000001404
2534.3999999987905
r30,30,999999982,629.6000000000746
r90,90,999999990,918.5000000001403
2534.4999999987904
r30,30,999999996,628.2000000000743
r90,90,999999984,919.1000000001404
2534.5999999987903
