r72,72,999999986,120.8999999999974
r47,47,999999984,830.0000000001202
1133.9000000000642
r72,72,999999977,121.79999999999735
r47,47,999999951,833.3000000001209
1134.0000000000641
r72,72,999999969,122.59999999999731
r47,47,999999978,830.6000000001203
1134.100000000064
r72,72,999999961,123.39999999999726
r47,47,999999960,832.4000000001207
1134.200000000064
r72,72,999999995,119.99999999999746
r47,47,999999985,829.9000000001201
1134.3000000000638
r72,72,999999965,122.99999999999729
r47,47,999999991,829.30000000012
1134.4000000000638
r72,72,999999996,119.89999999999746
r47,47,999999986,829.8000000001201
1134.5000000000637
r72,72,999999967,122.7999999999973
r47,47,999999962,832.2000000001207
1134.6000000000636
r72,72,999999994,120.09999999999745
r47,47,999999974,831.0000000001204
1134.7000000000635
r72,72,999999954,124.09999999999722
r47,47,999999954,833.0000000001208
1134.8000000000634
r72,72,999999988,120.69999999999742
r47,47,999999968,831.6000000001205
1134.9000000000633
r72,72,999999982,121.29999999999738
r47,47,999999977,830.7000000001203
1135.0000000000632
r72,72,999999985,120.9999999999974
r47,47,999999995,828.9000000001199
1135.1000000000631
r72,72,1000000000,119.49999999999748
r47,47,1000000000,828.4000000001198
1135.200000000063
r72,72,999999971,122.39999999999732
r47,47,999999992,829.20000000012
1135.300000000063
r72,72,999999966,122.89999999999729
r47,47,999999982,830.2000000001202
1135.4000000000628
r72,72,999999959,123.59999999999725
r47,47,999999983,830.1000000001202
1135.5000000000628
r72,72,999999979,121.59999999999737
r47,47,999999997,828.7000000001199
1135.6000000000627
r72,72,999999955,123.99999999999723
r47,47,999999998,828.6000000001198
1135.7000000000626
r72,72,999999970,122.49999999999731
r47,47,999999976,830.8000000001203
1135.8000000000625
r72,72,999999953,124.19999999999722
r47,47,999999994,829.0000000001199
1135.9000000000624
r72,72,999999990,120.49999999999743
r47,47,999999959,832.5000000001207
1136.0000000000623
r72,72,999999987,120.79999999999741
r47,47,999999972,831.2000000001204
1136.1000000000622
r72,72,999999992,120.29999999999744
r47,47,999999957,832.7000000001208
1136.2000000000621
r72,72,999999976,121.89999999999735
r47,47,999999953,833.1000000001209
1136.300000000062
r72,72,999999963,123.19999999999727
r47,47,999999971,831.3000000001205
1136.400000000062
r72,72,999999984,121.0999999999974
r47,47,999999955,832.9000000001208
1136.5000000000618
r72,72,999999997,119.79999999999747
r47,47,999999969,831.5000000001205
1136.6000000000618
r72,72,999999960,123.49999999999726
r47,47,999999963,832.1000000001206
1136.7000000000617
r72,72,999999951,124.3999999999972
r47,47,999999989,829.50000000012
1136.8000000000616
r72,72,999999989,120.59999999999742
r47,47,999999970,831.4000000001205
1136.9000000000615
r72,72,999999968,122.6999999999973
r47,47,999999966,831.8000000001206
1137.0000000000614
r72,72,999999973,122.19999999999733
r47,47,999999981,830.3000000001202
1137.1000000000613
r72,72,999999983,121.19999999999739
r47,47,999999987,829.7000000001201
1137.2000000000612
r72,72,999999991,120.39999999999743
r47,47,999999996,828.8000000001199
1137.3000000000611
r72,72,999999964,123.09999999999728
r47,47,999999975,830.9000000001204
1137.400000000061
r72,72,999999999,119.59999999999748
r47,47,999999958,832.6000000001208
1137.500000000061
r72,72,999999952,124.29999999999721
r47,47,999999961,832.3000000001207
1137.6000000000608
r72,72,999999957,123.79999999999724
r47,47,999999973,831.1000000001204
1137.7000000000608
r72,72,999999975,121.99999999999734
r47,47,999999999,828.5000000001198
1137.8000000000607
r72,72,999999974,122.09999999999734
r47,47,999999980,830.4000000001203
1137.9000000000606
r72,72,999999978,121.69999999999736
r47,47,999999993,829.10000000012
1138.0000000000605
r72,72,999999956,123.89999999999723
r47,47,999999990,829.40000000012
1138.1000000000604
r72,72,999999980,121.49999999999737
r47,47,999999952,833.2000000001209
1138.2000000000603
r72,72,999999981,121.39999999999738
r47,47,999999964,832.0000000001206
1138.3000000000602
r72,72,999999958,123.69999999999725
r47,47,999999979,830.5000000001203
1138.4000000000601
r72,72,999999972,122.29999999999733
r47,47,999999967,831.7000000001206
1138.50000000006
r72,72,999999993,120.19999999999744
r47,47,999999956,832.8000000001208
1138.60000000006
r72,72,999999962,123.29999999999727
r47,47,999999988,829.6000000001201
1138.7000000000598
r72,72,999999998,119.69999999999747
r47,47,999999965,831.9000000001206
1138.8000000000598
