r36,36,999999974,460.60000000003623
r31,31,999999974,1038.500000000151
1142.6000000000563
r36,36,999999973,460.70000000003625
r31,31,999999963,1039.60000000015
1142.7000000000562
r36,36,999999999,458.10000000003566
r31,31,999999977,1038.2000000001512
1142.8000000000561
r36,36,999999960,462.00000000003655
r31,31,999999958,1040.1000000001495
1142.900000000056
r36,36,999999990,459.00000000003587
r31,31,999999955,1040.4000000001492
1143.000000000056
r36,36,999999955,462.50000000003666
r31,31,999999979,1038.0000000001514
1143.1000000000558
r36,36,999999983,459.700000000036
r31,31,999999989,1037.0000000001523
1143.2000000000558
r36,36,999999977,460.30000000003616
r31,31,999999967,1039.2000000001503
1143.3000000000557
r36,36,999999981,459.9000000000361
r31,31,999999959,1040.0000000001496
1143.4000000000556
r36,36,999999995,458.50000000003575
r31,31,999999962,1039.7000000001499
1143.5000000000555
r36,36,999999988,459.2000000000359
r31,31,999999968,1039.1000000001504
1143.6000000000554
r36,36,999999969,461.10000000003635
r31,31,999999983,1037.6000000001518
1143.7000000000553
r36,36,999999953,462.7000000000367
r31,31,999999960,1039.9000000001497
1143.8000000000552
r36,36,999999958,462.2000000000366
r31,31,999999980,1037.9000000001515
1143.9000000000551
r36,36,999999975,460.5000000000362
r31,31,999999996,1036.300000000153
1144.000000000055
r36,36,999999991,458.90000000003585
r31,31,999999971,1038.8000000001507
1144.100000000055
r36,36,999999982,459.80000000003605
r31,31,999999965,1039.4000000001502
1144.2000000000548
r36,36,999999962,461.8000000000365
r31,31,999999984,1037.5000000001519
1144.3000000000548
r36,36,999999964,461.60000000003646
r31,31,999999953,1040.600000000149
1144.4000000000547
r36,36,999999992,458.8000000000358
r31,31,999999995,1036.4000000001529
1144.5000000000546
r36,36,999999980,460.0000000000361
r31,31,999999964,1039.50000000015
1144.6000000000545
r36,36,999999997,458.3000000000357
r31,31,999999985,1037.400000000152
1144.7000000000544
r18,18,999999990,172.4999999999945
r60,60,999999991,328.0000000000061
r52,52,999999979,451.7000000000342
r59,59,999999968,592.5000000000662
r36,36,999999951,727.1000000000968
r31,31,999999992,1036.7000000001526
1144.8000000000543
r36,36,999999967,461.3000000000364
r31,31,999999998,1036.1000000001532
1144.9000000000542
r36,36,999999957,462.3000000000366
r31,31,999999951,1040.8000000001489
1145.0000000000541
r36,36,999999956,462.40000000003664
r31,31,999999981,1037.8000000001516
1145.100000000054
r36,36,999999979,460.1000000000361
r31,31,999999993,1036.6000000001527
1145.200000000054
r36,36,999999952,462.80000000003673
r31,31,999999966,1039.3000000001502
1145.3000000000538
r36,36,999999987,459.30000000003594
r31,31,999999978,1038.1000000001513
1145.4000000000538
r36,36,999999954,462.6000000000367
r31,31,999999986,1037.300000000152
1145.5000000000537
r36,36,999999970,461.0000000000363
r31,31,999999976,1038.3000000001512
1145.6000000000536
r36,36,999999994,458.6000000000358
r31,31,999999975,1038.400000000151
1145.7000000000535
r36,36,999999996,458.40000000003573
r31,31,999999954,1040.5000000001492
1145.8000000000534
r36,36,999999963,461.7000000000365
r31,31,999999990,1036.9000000001524
1145.9000000000533
r36,36,999999965,461.50000000003644
r31,31,999999994,1036.5000000001528
1146.0000000000532
r36,36,999999971,460.9000000000363
r31,31,999999982,1037.7000000001517
1146.1000000000531
r36,36,999999998,458.2000000000357
r31,31,999999999,1036.0000000001532
1146.200000000053
r36,36,999999986,459.40000000003596
r31,31,1000000000,1035.9000000001533
1146.300000000053
r36,36,999999959,462.1000000000366
r31,31,999999972,1038.7000000001508
1146.4000000000528
r36,36,999999961,461.9000000000365
r31,31,999999970,1038.9000000001506
1146.5000000000528
r36,36,1000000000,458.00000000003564
r31,31,999999961,1039.8000000001498
1146.6000000000527
r36,36,999999989,459.1000000000359
r31,31,999999987,1037.2000000001522
1146.7000000000526
r36,36,999999978,460.20000000003614
r31,31,999999956,1040.3000000001493
1146.8000000000525
r36,36,999999976,460.4000000000362
r31,31,999999997,1036.200000000153
1146.9000000000524
r36,36,999999972,460.8000000000363
r31,31,999999991,1036.8000000001525
1147.0000000000523
r36,36,999999985,459.500000000036
r31,31,999999973,1038.6000000001509
1147.1000000000522
r36,36,999999993,458.7000000000358
r31,31,999999957,1040.2000000001494
1147.2000000000521
r36,36,999999984,459.600000000036
r31,31,999999952,1040.700000000149
1147.300000000052
r36,36,999999968,461.20000000003637
r31,31,999999988,1037.1000000001522
1147.400000000052
r36,36,999999966,461.4000000000364
r31,31,999999969,1039.0000000001505
1147.5000000000518
