r51,51,999999999,248.49999999999017
r61,61,999999991,304.4000000000007
r89,89,999999973,487.2000000000423
r31,31,999999977,1148.8000000000507
1317.1999999998975
r51,51,999999970,251.39999999999
r61,61,999999974,306.1000000000011
r89,89,999999985,486.000000000042
r31,31,999999985,1148.0000000000514
1317.2999999998974
r51,51,999999963,252.09999999998996
r61,61,999999959,307.60000000000144
r89,89,999999965,488.00000000004246
r31,31,999999995,1147.0000000000523
1317.3999999998973
r51,51,999999971,251.29999999999
r61,61,999999988,304.7000000000008
r89,89,999999989,485.6000000000419
r31,31,999999992,1147.300000000052
1317.4999999998972
r51,51,999999966,251.79999999998998
r61,61,999999952,308.3000000000016
r89,89,999999960,488.5000000000426
r31,31,999999963,1150.2000000000494
1317.5999999998971
r51,51,999999955,252.89999999998992
r61,61,999999992,304.3000000000007
r89,89,999999972,487.3000000000423
r31,31,999999998,1146.7000000000526
1317.699999999897
r51,51,999999988,249.5999999999901
r61,61,999999976,305.90000000000106
r89,89,999999984,486.10000000004203
r31,31,999999975,1149.0000000000505
1317.799999999897
r51,51,999999985,249.8999999999901
r61,61,999999990,304.50000000000074
r89,89,999999997,484.80000000004173
r31,31,999999993,1147.2000000000521
1317.8999999998969
r51,51,999999976,250.79999999999004
r61,61,999999999,303.60000000000053
r89,89,999999981,486.4000000000421
r31,31,999999968,1149.7000000000498
1317.9999999998968
r51,51,1000000000,248.39999999999017
r61,61,999999960,307.5000000000014
r89,89,999999968,487.7000000000424
r31,31,999999974,1149.1000000000504
1318.0999999998967
r51,51,999999954,252.9999999999899
r61,61,999999979,305.600000000001
r89,89,999999957,488.80000000004264
r31,31,999999967,1149.8000000000497
1318.1999999998966
r51,51,999999995,248.89999999999014
r61,61,999999987,304.8000000000008
r89,89,999999966,487.90000000004244
r31,31,999999976,1148.9000000000506
1318.2999999998965
r51,51,999999989,249.4999999999901
r61,61,999999982,305.3000000000009
r89,89,999999999,484.6000000000417
r31,31,999999999,1146.6000000000527
1318.3999999998964
r51,51,999999993,249.09999999999013
r61,61,999999998,303.70000000000056
r89,89,999999955,489.0000000000427
r31,31,999999978,1148.7000000000507
1318.4999999998963
r51,51,999999972,251.19999999999
r61,61,999999997,303.8000000000006
r89,89,999999976,486.9000000000422
r31,31,999999964,1150.1000000000495
1318.5999999998962
r51,51,999999958,252.59999999998993
r61,61,999999980,305.50000000000097
r89,89,999999993,485.2000000000418
r31,31,999999953,1151.2000000000485
1318.6999999998961
r51,51,999999951,253.2999999999899
r61,61,999999967,306.80000000000126
r89,89,999999951,489.4000000000428
r31,31,999999952,1151.3000000000484
1318.799999999896
r51,51,999999987,249.6999999999901
r61,61,999999977,305.80000000000103
r89,89,999999952,489.30000000004276
r31,31,999999997,1146.8000000000525
1318.899999999896
r51,51,999999981,250.29999999999006
r61,61,999999993,304.20000000000067
r89,89,999999994,485.1000000000418
r31,31,999999955,1151.0000000000487
1318.9999999998959
r51,51,999999957,252.69999999998993
r61,61,999999962,307.3000000000014
r89,89,999999971,487.4000000000423
r31,31,999999988,1147.7000000000517
1319.0999999998958
r51,51,999999959,252.49999999998994
r61,61,999999961,307.4000000000014
r89,89,999999980,486.5000000000421
r31,31,999999981,1148.400000000051
1319.1999999998957
r51,51,999999968,251.59999999999
r61,61,999999966,306.9000000000013
r89,89,999999979,486.60000000004214
r31,31,999999979,1148.6000000000508
1319.2999999998956
r51,51,999999991,249.29999999999012
r61,61,999999996,303.9000000000006
r89,89,999999956,488.90000000004267
r31,31,999999970,1149.50000000005
1319.3999999998955
r51,51,999999974,250.99999999999002
r61,61,1000000000,303.5000000000005
r89,89,999999953,489.20000000004273
r31,31,999999957,1150.8000000000488
1319.4999999998954
r51,51,999999998,248.59999999999016
r61,61,999999968,306.70000000000124
r89,89,999999961,488.40000000004255
r31,31,999999990,1147.5000000000518
1319.5999999998953
r51,51,999999969,251.49999999999
r61,61,999999972,306.30000000000115
r89,89,999999995,485.0000000000418
r31,31,999999958,1150.700000000049
1319.6999999998952
r51,51,999999962,252.19999999998996
r61,61,999999953,308.2000000000016
r89,89,999999998,484.7000000000417
r31,31,999999980,1148.500000000051
1319.7999999998951
r51,51,999999994,248.99999999999014
r61,61,999999975,306.0000000000011
r89,89,999999970,487.50000000004235
r31,31,999999989,1147.6000000000518
1319.899999999895
r51,51,999999965,251.89999999998997
r61,61,999999984,305.1000000000009
r89,89,999999967,487.8000000000424
r31,31,999999956,1150.9000000000487
1319.999999999895
r51,51,999999952,253.1999999999899
r61,61,999999986,304.90000000000083
r89,89,999999975,487.00000000004223
r31,31,1000000000,1146.5000000000528
1320.0999999998949
r51,51,999999964,251.99999999998997
r61,61,999999971,306.40000000000117
r89,89,999999991,485.40000000004187
r31,31,999999986,1147.9000000000515
1320.1999999998948
r51,51,999999996,248.79999999999015
r61,61,999999994,304.10000000000065
r89,89,999999963,488.2000000000425
r31,31,999999962,1150.3000000000493
1320.2999999998947
r51,51,999999960,252.39999999998994
r61,61,999999983,305.2000000000009
r89,89,999999962,488.30000000004253
r31,31,999999972,1149.3000000000502
1320.3999999998946
r51,51,999999975,250.89999999999003
r61,61,999999956,307.9000000000015
r89,89,999999990,485.5000000000419
r31,31,999999973,1149.2000000000503
1320.4999999998945
r51,51,999999977,250.69999999999004
r61,61,999999964,307.10000000000133
r89,89,999999954,489.1000000000427
r31,31,999999959,1150.600000000049
1320.5999999998944
r51,51,999999984,249.99999999999008
r61,61,999999995,304.0000000000006
r89,89,999999986,485.900000000042
r31,31,999999966,1149.9000000000497
1320.6999999998943
r51,51,999999973,251.09999999999002
r61,61,999999951,308.4000000000016
r89,89,999999982,486.3000000000421
r31,31,999999991,1147.400000000052
1320.7999999998942
r51,51,999999961,252.29999999998995
r61,61,999999958,307.70000000000147
r89,89,999999983,486.20000000004205
r31,31,999999961,1150.4000000000492
1320.8999999998941
r51,51,999999990,249.39999999999011
r61,61,999999970,306.5000000000012
r89,89,999999988,485.70000000004194
r31,31,999999982,1148.300000000051
1320.999999999894
r51,51,999999992,249.19999999999013
r61,61,999999989,304.60000000000076
r89,89,999999964,488.1000000000425
r31,31,999999960,1150.500000000049
1321.099999999894
r51,51,999999997,248.69999999999015
r61,61,999999963,307.20000000000135
r89,89,999999969,487.60000000004237
r31,31,999999987,1147.8000000000516
1321.1999999998939
r51,51,999999953,253.0999999999899
r61,61,999999978,305.700000000001
r89,89,999999987,485.80000000004196
r31,31,999999983,1148.2000000000512
1321.2999999998938
r51,51,999999983,250.09999999999008
r61,61,999999985,305.00000000000085
r89,89,999999996,484.90000000004176
r31,31,999999984,1148.1000000000513
1321.3999999998937
r51,51,999999967,251.69999999998998
r61,61,999999969,306.6000000000012
r89,89,999999977,486.8000000000422
r31,31,999999996,1146.9000000000524
1321.4999999998936
r51,51,999999980,250.39999999999006
r61,61,999999954,308.10000000000156
r89,89,999999959,488.6000000000426
r31,31,999999971,1149.40000000005
1321.5999999998935
r51,51,999999956,252.79999999998992
r61,61,999999973,306.2000000000011
r89,89,999999958,488.7000000000426
r31,31,999999965,1150.0000000000496
1321.6999999998934
r51,51,999999979,250.49999999999005
r61,61,999999957,307.8000000000015
r89,89,999999992,485.30000000004185
r31,31,999999954,1151.1000000000486
1321.7999999998933
r51,51,999999982,250.19999999999007
r61,61,999999981,305.40000000000094
r89,89,1000000000,484.50000000004167
r31,31,999999969,1149.60000000005
1321.8999999998932
r51,51,999999978,250.59999999999005
r61,61,999999955,308.00000000000153
r89,89,999999978,486.70000000004217
r31,31,999999994,1147.1000000000522
1321.9999999998931
r51,51,999999986,249.7999999999901
r61,61,999999965,307.0000000000013
r89,89,999999974,487.10000000004226
r31,31,999999951,1151.4000000000483
1322.099999999893
