r17,17,999999993,118.49999999999754
r87,87,999999993,503.70000000004603
r3,3,999999961,663.6000000000823
898.6000000001358
r17,17,999999960,121.79999999999735
r87,87,999999975,505.50000000004644
r3,3,999999978,661.900000000082
898.7000000001358
r17,17,999999995,118.29999999999755
r87,87,999999998,503.2000000000459
r3,3,999999984,661.3000000000818
898.8000000001358
r17,17,1000000000,117.79999999999758
r87,87,999999997,503.30000000004594
r3,3,999999966,663.1000000000822
898.9000000001358
r17,17,999999975,120.29999999999744
r87,87,999999960,507.0000000000468
r3,3,999999955,664.2000000000825
899.0000000001359
r17,17,999999971,120.69999999999742
r87,87,999999992,503.80000000004605
r3,3,999999993,660.4000000000816
899.1000000001359
r17,17,999999979,119.89999999999746
r87,87,999999967,506.3000000000466
r3,3,999999972,662.5000000000821
899.2000000001359
r17,17,999999986,119.1999999999975
r87,87,999999968,506.2000000000466
r3,3,999999964,663.3000000000823
899.3000000001359
r17,17,999999982,119.59999999999748
r87,87,999999965,506.50000000004667
r3,3,999999962,663.5000000000823
899.400000000136
r17,17,999999965,121.29999999999738
r87,87,999999958,507.2000000000468
r3,3,999999987,661.0000000000817
899.500000000136
r17,17,999999976,120.19999999999744
r87,87,999999974,505.60000000004646
r3,3,999999980,661.7000000000819
899.600000000136
r17,17,999999952,122.59999999999731
r87,87,999999996,503.40000000004596
r3,3,999999986,661.1000000000818
899.700000000136
r17,17,999999959,121.89999999999735
r87,87,999999966,506.40000000004665
r3,3,999999981,661.6000000000819
899.800000000136
r17,17,999999977,120.09999999999745
r87,87,999999970,506.00000000004655
r3,3,999999959,663.8000000000824
899.9000000001361
r17,17,999999978,119.99999999999746
r87,87,1000000000,503.0000000000459
r3,3,999999996,660.1000000000815
900.0000000001361
r17,17,999999953,122.49999999999731
r87,87,999999987,504.30000000004617
r3,3,999999951,664.6000000000826
900.1000000001361
r17,17,999999996,118.19999999999756
r87,87,999999959,507.1000000000468
r3,3,999999994,660.3000000000816
900.2000000001361
r17,17,999999974,120.39999999999743
r87,87,999999971,505.90000000004653
r3,3,999999983,661.4000000000818
900.3000000001362
r17,17,999999966,121.19999999999739
r87,87,999999962,506.80000000004674
r3,3,999999970,662.7000000000821
900.4000000001362
r17,17,999999989,118.89999999999752
r87,87,999999991,503.9000000000461
r3,3,999999968,662.9000000000822
900.5000000001362
r17,17,999999992,118.59999999999754
r87,87,999999955,507.5000000000469
r3,3,999999979,661.8000000000819
900.6000000001362
r17,17,999999990,118.79999999999752
r87,87,999999980,505.0000000000463
r3,3,999999976,662.100000000082
900.7000000001362
r17,17,999999980,119.79999999999747
r87,87,999999989,504.1000000000461
r3,3,999999957,664.0000000000824
900.8000000001363
r17,17,999999968,120.9999999999974
r87,87,999999999,503.1000000000459
r3,3,999999973,662.4000000000821
900.9000000001363
r17,17,999999981,119.69999999999747
r87,87,999999961,506.90000000004676
r3,3,999999969,662.8000000000822
901.0000000001363
r17,17,999999964,121.39999999999738
r87,87,999999983,504.70000000004626
r3,3,999999977,662.000000000082
901.1000000001363
r17,17,999999983,119.49999999999748
r87,87,999999984,504.60000000004624
r3,3,999999988,660.9000000000817
901.2000000001364
r17,17,999999999,117.89999999999758
r87,87,999999956,507.4000000000469
r3,3,999999997,660.0000000000815
901.3000000001364
r17,17,999999961,121.69999999999736
r87,87,999999976,505.4000000000464
r3,3,999999953,664.4000000000825
901.4000000001364
r17,17,999999998,117.99999999999757
r87,87,999999988,504.20000000004615
r3,3,999999960,663.7000000000824
901.5000000001364
r17,17,999999954,122.39999999999732
r87,87,999999952,507.80000000004696
r3,3,999999952,664.5000000000825
901.6000000001364
r17,17,999999970,120.79999999999741
r87,87,999999982,504.8000000000463
r3,3,999999992,660.5000000000816
901.7000000001365
r17,17,999999973,120.49999999999743
r87,87,999999978,505.2000000000464
r3,3,999999975,662.200000000082
901.8000000001365
r17,17,999999969,120.8999999999974
r87,87,999999973,505.7000000000465
r3,3,999999971,662.6000000000821
901.9000000001365
r17,17,999999972,120.59999999999742
r87,87,999999981,504.9000000000463
r3,3,999999963,663.4000000000823
902.0000000001365
r17,17,999999957,122.09999999999734
r87,87,999999972,505.8000000000465
r3,3,999999990,660.7000000000817
902.1000000001366
r17,17,999999991,118.69999999999753
r87,87,999999985,504.5000000000462
r3,3,999999995,660.2000000000816
902.2000000001366
r17,17,999999987,119.09999999999751
r87,87,999999954,507.6000000000469
r3,3,999999985,661.2000000000818
902.3000000001366
r17,17,999999955,122.29999999999733
r87,87,999999977,505.3000000000464
r3,3,999999991,660.6000000000816
902.4000000001366
r17,17,999999984,119.39999999999749
r87,87,999999969,506.1000000000466
r3,3,999999965,663.2000000000822
902.5000000001367
r17,17,999999956,122.19999999999733
r87,87,999999964,506.6000000000467
r3,3,999999956,664.1000000000824
902.6000000001367
r17,17,999999997,118.09999999999756
r87,87,999999963,506.7000000000467
r3,3,999999974,662.300000000082
902.7000000001367
r17,17,999999951,122.6999999999973
r87,87,999999995,503.500000000046
r3,3,999999989,660.8000000000817
902.8000000001367
r17,17,999999985,119.2999999999975
r87,87,999999979,505.10000000004635
r3,3,999999967,663.0000000000822
902.9000000001367
r17,17,999999963,121.49999999999737
r87,87,999999994,503.600000000046
r3,3,999999998,659.9000000000815
903.0000000001368
r17,17,999999958,121.99999999999734
r87,87,999999957,507.30000000004685
r3,3,999999958,663.9000000000824
903.1000000001368
r17,17,999999962,121.59999999999737
r87,87,999999951,507.900000000047
r3,3,1000000000,659.7000000000814
903.2000000001368
r17,17,999999988,118.99999999999751
r87,87,999999986,504.4000000000462
r3,3,999999954,664.3000000000825
903.3000000001368
r17,17,999999994,118.39999999999755
r87,87,999999990,504.0000000000461
r3,3,999999982,661.5000000000819
903.4000000001369
r17,17,999999967,121.0999999999974
r87,87,999999953,507.70000000004694
r3,3,999999999,659.8000000000815
903.5000000001369
