r12,12,999999972,1376.4999999998436
r87,87,999999988,1578.6999999996597
r14,14,1000000000,1830.099999999431
r25,25,999999961,1894.1999999993727
r65,65,999999976,2014.6999999992631
r78,78,999999986,2272.8999999990283
2291.0999999990117
r12,12,999999980,1375.6999999998443
r87,87,999999957,1581.7999999996568
r14,14,999999952,1834.8999999994267
r25,25,1000000000,1890.2999999993763
r65,65,999999953,2016.999999999261
r78,78,999999965,2274.9999999990264
2291.1999999990117
r12,12,999999981,1375.5999999998444
r87,87,999999994,1578.0999999996602
r14,14,999999953,1834.7999999994267
r25,25,999999998,1890.499999999376
r65,65,999999990,2013.2999999992644
r78,78,999999987,2272.7999999990284
2291.2999999990116
r12,12,999999973,1376.3999999998437
r87,87,999999959,1581.599999999657
r14,14,999999977,1832.399999999429
r25,25,999999976,1892.699999999374
r65,65,999999975,2014.799999999263
r78,78,999999954,2276.0999999990254
2291.3999999990115
r12,12,999999984,1375.2999999998447
r87,87,999999975,1579.9999999996585
r14,14,999999989,1831.19999999943
r25,25,999999952,1895.099999999372
r65,65,999999980,2014.2999999992635
r78,78,1000000000,2271.4999999990296
2291.4999999990114
r12,12,999999966,1377.099999999843
r87,87,999999978,1579.6999999996588
r14,14,999999961,1833.9999999994275
r25,25,999999992,1891.0999999993755
r65,65,999999971,2015.1999999992627
r78,78,999999977,2273.7999999990275
2291.5999999990113
r12,12,999999953,1378.3999999998418
r87,87,999999970,1580.499999999658
r14,14,999999963,1833.7999999994277
r25,25,999999993,1890.9999999993756
r65,65,999999966,2015.6999999992622
r78,78,999999988,2272.6999999990285
2291.699999999011
r12,12,999999985,1375.1999999998447
r87,87,999999981,1579.399999999659
r14,14,999999968,1833.299999999428
r25,25,999999984,1891.8999999993748
r65,65,999999992,2013.0999999992646
r78,78,999999952,2276.299999999025
2291.799999999011
r12,12,1000000000,1373.699999999846
r87,87,999999986,1578.8999999996595
r14,14,999999956,1834.499999999427
r25,25,999999972,1893.0999999993737
r65,65,999999983,2013.9999999992638
r78,78,999999970,2274.499999999027
2291.899999999011
r12,12,999999976,1376.099999999844
r87,87,999999953,1582.1999999996565
r14,14,999999962,1833.8999999994276
r25,25,999999997,1890.599999999376
r65,65,999999952,2017.099999999261
r78,78,999999960,2275.499999999026
2291.999999999011
r12,12,999999952,1378.4999999998417
r87,87,999999973,1580.1999999996583
r14,14,999999982,1831.8999999994294
r25,25,999999978,1892.4999999993743
r65,65,999999989,2013.3999999992643
r78,78,999999985,2272.999999999028
2292.099999999011
r12,12,999999951,1378.5999999998417
r87,87,999999979,1579.5999999996588
r14,14,999999960,1834.0999999994274
r25,25,999999988,1891.4999999993752
r65,65,999999958,2016.4999999992615
r78,78,999999959,2275.599999999026
2292.1999999990107
r12,12,999999986,1375.0999999998448
r87,87,999999968,1580.6999999996578
r14,14,999999978,1832.299999999429
r25,25,999999975,1892.799999999374
r65,65,999999974,2014.899999999263
r78,78,999999962,2275.299999999026
2292.2999999990107
r12,12,999999982,1375.4999999998445
r87,87,1000000000,1577.4999999996608
r14,14,999999971,1832.9999999994284
r25,25,999999995,1890.7999999993758
r65,65,999999999,2012.3999999992652
r78,78,999999994,2272.099999999029
2292.3999999990106
r12,12,999999992,1374.4999999998454
r87,87,999999997,1577.7999999996605
r14,14,999999997,1830.3999999994307
r25,25,999999951,1895.1999999993718
r65,65,999999997,2012.599999999265
r78,78,999999978,2273.6999999990276
2292.4999999990105
r12,12,999999988,1374.899999999845
r87,87,999999991,1578.39999999966
r14,14,999999979,1832.199999999429
r25,25,999999956,1894.6999999993723
r65,65,999999991,2013.1999999992645
r78,78,999999955,2275.9999999990255
2292.5999999990104
r12,12,999999970,1376.6999999998434
r87,87,999999976,1579.8999999996586
r14,14,999999969,1833.1999999994282
r25,25,999999960,1894.2999999993726
r65,65,999999987,2013.5999999992641
r78,78,999999968,2274.6999999990267
2292.6999999990103
r12,12,999999989,1374.799999999845
r87,87,999999974,1580.0999999996584
r14,14,999999974,1832.6999999994287
r25,25,999999977,1892.5999999993742
r65,65,999999977,2014.5999999992632
r78,78,999999999,2271.5999999990295
2292.79999999901
r12,12,999999991,1374.5999999998453
r87,87,999999995,1577.9999999996603
r14,14,999999995,1830.5999999994306
r25,25,999999983,1891.9999999993747
r65,65,999999995,2012.7999999992649
r78,78,999999951,2276.399999999025
2292.89999999901
r12,12,999999971,1376.5999999998435
r87,87,999999966,1580.8999999996577
r14,14,999999954,1834.6999999994268
r25,25,999999965,1893.799999999373
r65,65,999999956,2016.6999999992613
r78,78,999999983,2273.199999999028
2292.99999999901
r12,12,999999979,1375.7999999998442
r87,87,999999984,1579.0999999996593
r14,14,999999984,1831.6999999994296
r25,25,999999979,1892.3999999993744
r65,65,999999961,2016.1999999992618
r78,78,999999995,2271.999999999029
2293.09999999901
r12,12,999999957,1377.9999999998422
r87,87,999999967,1580.7999999996578
r14,14,999999966,1833.499999999428
r25,25,999999973,1892.9999999993738
r65,65,999999988,2013.4999999992642
r78,78,999999971,2274.399999999027
2293.19999999901
r12,12,999999959,1377.7999999998424
r87,87,999999980,1579.499999999659
r14,14,999999987,1831.3999999994298
r25,25,999999971,1893.1999999993736
r65,65,999999968,2015.4999999992624
r78,78,999999967,2274.7999999990266
2293.2999999990097
r12,12,999999974,1376.2999999998437
r87,87,999999962,1581.2999999996573
r14,14,999999986,1831.4999999994297
r25,25,999999974,1892.899999999374
r65,65,999999960,2016.2999999992617
r78,78,999999990,2272.4999999990287
2293.3999999990097
r12,12,999999995,1374.1999999998457
r87,87,999999956,1581.8999999996568
r14,14,999999975,1832.5999999994287
r25,25,999999970,1893.2999999993735
r65,65,999999957,2016.5999999992614
r78,78,999999996,2271.899999999029
2293.4999999990096
r12,12,999999955,1378.199999999842
r87,87,999999992,1578.29999999966
r14,14,999999967,1833.399999999428
r25,25,999999986,1891.699999999375
r65,65,999999978,2014.4999999992633
r78,78,999999974,2274.099999999027
2293.5999999990095
r12,12,999999983,1375.3999999998446
r87,87,999999965,1580.9999999996576
r14,14,999999994,1830.6999999994305
r25,25,999999968,1893.4999999993734
r65,65,999999993,2012.9999999992647
r78,78,999999975,2273.9999999990273
2293.6999999990094
r12,12,999999958,1377.8999999998423
r87,87,999999954,1582.0999999996566
r14,14,999999951,1834.9999999994266
r25,25,999999999,1890.3999999993762
r65,65,999999981,2014.1999999992636
r78,78,999999976,2273.8999999990274
2293.7999999990093
r12,12,999999994,1374.2999999998456
r87,87,999999987,1578.7999999996596
r14,14,999999980,1832.0999999994292
r25,25,999999964,1893.899999999373
r65,65,999999994,2012.8999999992648
r78,78,999999964,2275.0999999990263
2293.899999999009
r12,12,999999965,1377.199999999843
r87,87,999999985,1578.9999999996594
r14,14,999999964,1833.6999999994277
r25,25,999999963,1893.999999999373
r65,65,999999967,2015.5999999992623
r78,78,999999993,2272.199999999029
2293.999999999009
r12,12,999999987,1374.999999999845
r87,87,999999993,1578.1999999996601
r14,14,999999972,1832.8999999994285
r25,25,999999962,1894.0999999993728
r65,65,999999962,2016.0999999992619
r78,78,999999982,2273.299999999028
2294.099999999009
r12,12,999999975,1376.1999999998438
r87,87,999999998,1577.6999999996606
r14,14,999999983,1831.7999999994295
r25,25,999999980,1892.2999999993744
r65,65,1000000000,2012.2999999992653
r78,78,999999953,2276.1999999990253
2294.199999999009
r12,12,999999993,1374.3999999998455
r87,87,999999999,1577.5999999996607
r14,14,999999957,1834.399999999427
r25,25,999999957,1894.5999999993724
r65,65,999999972,2015.0999999992628
r78,78,999999979,2273.5999999990277
2294.299999999009
r12,12,999999956,1378.099999999842
r87,87,999999955,1581.9999999996567
r14,14,999999990,1831.09999999943
r25,25,999999966,1893.6999999993732
r65,65,999999955,2016.7999999992612
r78,78,999999992,2272.299999999029
2294.3999999990087
r12,12,999999999,1373.799999999846
r87,87,999999951,1582.3999999996563
r14,14,999999991,1830.9999999994302
r25,25,999999958,1894.4999999993724
r65,65,999999970,2015.2999999992626
r78,78,999999963,2275.199999999026
2294.4999999990087
r12,12,999999968,1376.8999999998432
r87,87,999999963,1581.1999999996574
r14,14,999999996,1830.4999999994307
r25,25,999999969,1893.3999999993734
r65,65,999999982,2014.0999999992637
r78,78,999999972,2274.299999999027
2294.5999999990086
r12,12,999999969,1376.7999999998433
r87,87,999999961,1581.3999999996572
r14,14,999999958,1834.2999999994272
r25,25,999999989,1891.3999999993753
r65,65,999999954,2016.8999999992611
r78,78,999999984,2273.099999999028
2294.6999999990085
r12,12,999999996,1374.0999999998457
r87,87,999999958,1581.699999999657
r14,14,999999959,1834.1999999994273
r25,25,999999967,1893.5999999993733
r65,65,999999959,2016.3999999992616
r78,78,999999973,2274.199999999027
2294.7999999990084
r12,12,999999964,1377.2999999998428
r87,87,999999969,1580.599999999658
r14,14,999999992,1830.8999999994303
r25,25,999999987,1891.599999999375
r65,65,999999963,2015.999999999262
r78,78,999999980,2273.4999999990278
2294.8999999990083
r12,12,999999990,1374.6999999998452
r87,87,999999952,1582.2999999996564
r14,14,999999955,1834.599999999427
r25,25,999999981,1892.1999999993745
r65,65,999999986,2013.699999999264
r78,78,999999958,2275.6999999990257
2294.999999999008
r12,12,999999961,1377.5999999998426
r87,87,999999964,1581.0999999996575
r14,14,999999998,1830.2999999994308
r25,25,999999982,1892.0999999993746
r65,65,999999985,2013.799999999264
r78,78,999999991,2272.3999999990288
2295.099999999008
r12,12,999999962,1377.4999999998427
r87,87,999999990,1578.4999999996598
r14,14,999999988,1831.29999999943
r25,25,999999996,1890.699999999376
r65,65,999999984,2013.8999999992639
r78,78,999999998,2271.6999999990294
2295.199999999008
r12,12,999999967,1376.999999999843
r87,87,999999972,1580.2999999996582
r14,14,999999981,1831.9999999994293
r25,25,999999955,1894.7999999993722
r65,65,999999996,2012.699999999265
r78,78,999999966,2274.8999999990265
2295.299999999008
r12,12,999999963,1377.3999999998427
r87,87,999999982,1579.2999999996591
r14,14,999999965,1833.5999999994278
r25,25,999999990,1891.2999999993754
r65,65,999999969,2015.3999999992625
r78,78,999999989,2272.5999999990286
2295.399999999008
r12,12,999999977,1375.999999999844
r87,87,999999960,1581.4999999996571
r14,14,999999993,1830.7999999994304
r25,25,999999959,1894.3999999993725
r65,65,999999973,2014.9999999992629
r78,78,999999957,2275.7999999990257
2295.4999999990077
r12,12,999999978,1375.899999999844
r87,87,999999971,1580.3999999996581
r14,14,999999973,1832.7999999994286
r25,25,999999953,1894.999999999372
r65,65,999999951,2017.1999999992609
r78,78,999999969,2274.5999999990267
2295.5999999990077
r12,12,999999960,1377.6999999998425
r87,87,999999977,1579.7999999996587
r14,14,999999970,1833.0999999994283
r25,25,999999985,1891.799999999375
r65,65,999999998,2012.4999999992651
r78,78,999999956,2275.8999999990256
2295.6999999990076
r12,12,999999998,1373.899999999846
r87,87,999999989,1578.5999999996598
r14,14,999999976,1832.4999999994288
r25,25,999999991,1891.1999999993754
r65,65,999999964,2015.899999999262
r78,78,999999997,2271.7999999990293
2295.7999999990075
r12,12,999999954,1378.299999999842
r87,87,999999996,1577.8999999996604
r14,14,999999985,1831.5999999994297
r25,25,999999954,1894.899999999372
r65,65,999999965,2015.7999999992621
r78,78,999999961,2275.399999999026
2295.8999999990074
r12,12,999999997,1373.9999999998458
r87,87,999999983,1579.1999999996592
r14,14,999999999,1830.199999999431
r25,25,999999994,1890.8999999993757
r65,65,999999979,2014.3999999992634
r78,78,999999981,2273.399999999028
2295.9999999990073
