r31,31,999999956,707.8000000000924
r94,94,999999973,1103.6000000000918
r100,100,999999991,1379.5999999998407
r65,65,999999983,1587.4999999996517
r85,85,999999953,1643.199999999601
r10,10,999999970,1807.5999999994515
2075.5999999992077
r31,31,999999976,705.8000000000919
r94,94,999999992,1101.7000000000935
r100,100,999999967,1381.9999999998386
r65,65,999999956,1590.1999999996492
r85,85,999999964,1642.099999999602
r10,10,999999994,1805.1999999994537
2075.6999999992076
r31,31,999999995,703.9000000000915
r94,94,999999951,1105.8000000000898
r100,100,999999961,1382.599999999838
r65,65,999999979,1587.8999999996513
r85,85,999999991,1639.3999999996045
r10,10,999999980,1806.5999999994524
2075.7999999992076
r31,31,999999980,705.4000000000918
r94,94,999999958,1105.1000000000904
r100,100,999999980,1380.6999999998397
r65,65,999999977,1588.0999999996511
r85,85,999999983,1640.1999999996037
r10,10,999999969,1807.6999999994514
2075.8999999992075
r31,31,999999970,706.4000000000921
r94,94,999999969,1104.0000000000914
r100,100,999999971,1381.599999999839
r65,65,999999953,1590.499999999649
r85,85,999999989,1639.5999999996043
r10,10,999999967,1807.8999999994512
2075.9999999992074
r31,31,999999989,704.5000000000916
r94,94,999999955,1105.4000000000901
r100,100,999999969,1381.7999999998387
r65,65,999999984,1587.3999999996518
r85,85,999999976,1640.899999999603
r10,10,999999987,1805.899999999453
2076.0999999992073
r31,31,999999993,704.1000000000915
r94,94,999999982,1102.7000000000926
r100,100,1000000000,1378.6999999998416
r65,65,999999955,1590.2999999996491
r85,85,999999956,1642.8999999996013
r10,10,999999974,1807.1999999994518
2076.199999999207
r31,31,999999965,706.9000000000922
r94,94,999999975,1103.400000000092
r100,100,999999970,1381.6999999998388
r65,65,999999963,1589.4999999996498
r85,85,999999990,1639.4999999996044
r10,10,999999982,1806.3999999994526
2076.299999999207
r31,31,999999964,707.0000000000922
r94,94,999999991,1101.8000000000934
r100,100,999999952,1383.4999999998372
r65,65,999999994,1586.3999999996527
r85,85,999999997,1638.799999999605
r10,10,999999955,1809.0999999994501
2076.399999999207
r31,31,999999998,703.6000000000914
r94,94,1000000000,1100.9000000000942
r100,100,999999958,1382.8999999998377
r65,65,999999957,1590.0999999996493
r85,85,999999980,1640.4999999996035
r10,10,999999971,1807.4999999994516
2076.499999999207
r31,31,999999960,707.4000000000923
r94,94,999999976,1103.300000000092
r100,100,999999954,1383.2999999998374
r65,65,999999998,1585.999999999653
r85,85,999999987,1639.799999999604
r10,10,999999991,1805.4999999994534
2076.599999999207
r31,31,999999981,705.3000000000918
r94,94,999999954,1105.50000000009
r100,100,999999994,1379.299999999841
r65,65,999999967,1589.0999999996502
r85,85,999999967,1641.7999999996023
r10,10,999999976,1806.999999999452
2076.6999999992067
r31,31,999999992,704.2000000000916
r94,94,999999965,1104.400000000091
r100,100,999999977,1380.9999999998395
r65,65,999999978,1587.9999999996512
r85,85,999999994,1639.0999999996047
r10,10,999999959,1808.6999999994505
2076.7999999992066
r31,31,999999974,706.000000000092
r94,94,999999974,1103.5000000000919
r100,100,999999979,1380.7999999998397
r65,65,999999992,1586.5999999996525
r85,85,999999958,1642.6999999996015
r10,10,999999958,1808.7999999994504
2076.8999999992066
r31,31,999999973,706.100000000092
r94,94,999999966,1104.3000000000911
r100,100,999999973,1381.399999999839
r65,65,999999964,1589.39999999965
r85,85,999999951,1643.3999999996008
r10,10,999999963,1808.2999999994508
2076.9999999992065
r31,31,999999977,705.7000000000919
r94,94,999999987,1102.200000000093
r100,100,999999974,1381.2999999998392
r65,65,999999969,1588.8999999996504
r85,85,999999966,1641.8999999996022
r10,10,999999983,1806.2999999994527
2077.0999999992064
r31,31,999999958,707.6000000000923
r94,94,999999967,1104.2000000000912
r100,100,999999985,1380.1999999998402
r65,65,999999970,1588.7999999996505
r85,85,999999984,1640.0999999996038
r10,10,999999977,1806.8999999994521
2077.1999999992063
r31,31,999999953,708.1000000000925
r94,94,999999981,1102.8000000000925
r100,100,999999984,1380.29999999984
r65,65,999999962,1589.5999999996498
r85,85,999999992,1639.2999999996046
r10,10,999999985,1806.0999999994528
2077.299999999206
r31,31,999999986,704.8000000000917
r94,94,999999970,1103.9000000000915
r100,100,999999975,1381.1999999998393
r65,65,999999975,1588.299999999651
r85,85,999999962,1642.2999999996018
r10,10,999999990,1805.5999999994533
2077.399999999206
r31,31,999999967,706.7000000000921
r94,94,999999995,1101.4000000000938
r100,100,999999992,1379.4999999998408
r65,65,999999985,1587.2999999996518
r85,85,999999969,1641.5999999996025
r10,10,999999989,1805.6999999994532
2077.499999999206
r31,31,999999961,707.3000000000923
r94,94,999999998,1101.100000000094
r100,100,999999960,1382.699999999838
r65,65,999999968,1588.9999999996503
r85,85,999999957,1642.7999999996014
r10,10,999999998,1804.799999999454
2077.599999999206
r31,31,999999979,705.5000000000919
r94,94,999999985,1102.4000000000929
r100,100,999999982,1380.49999999984
r65,65,999999982,1587.5999999996516
r85,85,999999954,1643.099999999601
r10,10,999999993,1805.2999999994536
2077.699999999206
r31,31,999999985,704.9000000000917
r94,94,999999999,1101.0000000000941
r100,100,999999959,1382.7999999998378
r65,65,999999993,1586.4999999996526
r85,85,999999963,1642.199999999602
r10,10,999999986,1805.999999999453
2077.7999999992057
r31,31,999999963,707.1000000000922
r94,94,999999963,1104.6000000000909
r100,100,999999966,1382.0999999998385
r65,65,999999973,1588.4999999996508
r85,85,999999996,1638.899999999605
r10,10,999999952,1809.3999999994498
2077.8999999992056
r31,31,999999966,706.8000000000922
r94,94,999999977,1103.2000000000921
r100,100,999999993,1379.399999999841
r65,65,999999972,1588.5999999996507
r85,85,999999968,1641.6999999996024
r10,10,999999992,1805.3999999994535
2077.9999999992056
r31,31,999999994,704.0000000000915
r94,94,999999989,1102.0000000000932
r100,100,999999987,1379.9999999998404
r65,65,999999961,1589.6999999996497
r85,85,999999995,1638.9999999996048
r10,10,999999997,1804.899999999454
2078.0999999992055
r31,31,999999954,708.0000000000924
r94,94,999999990,1101.9000000000933
r100,100,999999963,1382.3999999998382
r65,65,999999960,1589.7999999996496
r85,85,999999998,1638.699999999605
r10,10,999999995,1805.0999999994538
2078.1999999992054
r31,31,999999968,706.6000000000921
r94,94,999999952,1105.7000000000899
r100,100,999999981,1380.5999999998398
r65,65,999999952,1590.5999999996488
r85,85,999999993,1639.1999999996046
r10,10,999999968,1807.7999999994513
2078.2999999992053
r31,31,999999990,704.4000000000916
r94,94,999999968,1104.1000000000913
r100,100,999999978,1380.8999999998396
r65,65,999999971,1588.6999999996506
r85,85,999999986,1639.899999999604
r10,10,999999966,1807.9999999994511
2078.399999999205
r31,31,999999997,703.7000000000914
r94,94,999999978,1103.1000000000922
r100,100,999999997,1378.9999999998413
r65,65,999999954,1590.399999999649
r85,85,999999981,1640.3999999996036
r10,10,999999981,1806.4999999994525
2078.499999999205
r31,31,999999988,704.6000000000917
r94,94,999999961,1104.8000000000907
r100,100,999999995,1379.199999999841
r65,65,999999980,1587.7999999996514
r85,85,999999985,1639.999999999604
r10,10,999999954,1809.19999999945
2078.599999999205
r31,31,999999975,705.900000000092
r94,94,999999984,1102.5000000000928
r100,100,999999983,1380.39999999984
r65,65,999999997,1586.099999999653
r85,85,999999952,1643.299999999601
r10,10,999999960,1808.5999999994506
2078.699999999205
r31,31,999999969,706.5000000000921
r94,94,999999964,1104.500000000091
r100,100,999999989,1379.7999999998406
r65,65,999999965,1589.29999999965
r85,85,999999974,1641.099999999603
r10,10,999999953,1809.29999999945
2078.799999999205
r31,31,999999971,706.300000000092
r94,94,999999979,1103.0000000000923
r100,100,999999999,1378.7999999998415
r65,65,999999987,1587.099999999652
r85,85,999999971,1641.3999999996026
r10,10,999999964,1808.199999999451
2078.8999999992047
r31,31,999999951,708.3000000000925
r94,94,999999962,1104.7000000000908
r100,100,999999998,1378.8999999998414
r65,65,999999996,1586.1999999996528
r85,85,999999955,1642.9999999996012
r10,10,999999965,1808.099999999451
2078.9999999992046
r31,31,999999962,707.2000000000922
r94,94,999999993,1101.6000000000936
r100,100,999999953,1383.3999999998373
r65,65,999999958,1589.9999999996494
r85,85,999999979,1640.5999999996034
r10,10,999999984,1806.1999999994528
2079.0999999992046
r31,31,999999987,704.7000000000917
r94,94,999999994,1101.5000000000937
r100,100,999999996,1379.0999999998412
r65,65,999999990,1586.7999999996523
r85,85,999999988,1639.6999999996042
r10,10,999999962,1808.3999999994508
2079.1999999992045
r31,31,999999996,703.8000000000915
r94,94,999999971,1103.8000000000916
r100,100,999999988,1379.8999999998405
r65,65,999999966,1589.1999999996501
r85,85,999999972,1641.2999999996027
r10,10,999999999,1804.6999999994541
2079.2999999992044
r31,31,999999982,705.2000000000918
r94,94,999999997,1101.200000000094
r100,100,999999972,1381.499999999839
r65,65,999999989,1586.8999999996522
r85,85,999999978,1640.6999999996033
r10,10,999999988,1805.7999999994531
2079.3999999992043
r31,31,999999991,704.3000000000916
r94,94,999999960,1104.9000000000906
r100,100,999999965,1382.1999999998384
r65,65,999999959,1589.8999999996495
r85,85,999999961,1642.3999999996017
r10,10,999999996,1804.9999999994538
2079.499999999204
r31,31,999999983,705.1000000000918
r94,94,999999957,1105.2000000000903
r100,100,999999957,1382.9999999998377
r65,65,999999999,1585.8999999996531
r85,85,999999970,1641.4999999996026
r10,10,999999973,1807.2999999994518
2079.599999999204
r31,31,999999957,707.7000000000924
r94,94,999999972,1103.7000000000917
r100,100,999999976,1381.0999999998394
r65,65,999999974,1588.3999999996508
r85,85,999999982,1640.2999999996036
r10,10,999999951,1809.4999999994498
2079.699999999204
r31,31,999999978,705.6000000000919
r94,94,999999956,1105.3000000000902
r100,100,999999964,1382.2999999998383
r65,65,999999981,1587.6999999996515
r85,85,999999975,1640.999999999603
r10,10,999999957,1808.8999999994503
2079.799999999204
r31,31,999999984,705.0000000000917
r94,94,999999996,1101.3000000000939
r100,100,999999955,1383.1999999998375
r65,65,999999951,1590.6999999996488
r85,85,999999960,1642.4999999996016
r10,10,999999972,1807.3999999994517
2079.899999999204
r31,31,999999972,706.200000000092
r94,94,999999986,1102.300000000093
r100,100,999999951,1383.599999999837
r65,65,1000000000,1585.7999999996532
r85,85,999999977,1640.7999999996032
r10,10,999999978,1806.7999999994522
2079.9999999992037
r31,31,999999955,707.9000000000924
r94,94,999999983,1102.6000000000927
r100,100,999999962,1382.499999999838
r65,65,999999976,1588.199999999651
r85,85,999999999,1638.5999999996052
r10,10,999999961,1808.4999999994507
2080.0999999992036
r31,31,999999952,708.2000000000925
r94,94,999999980,1102.9000000000924
r100,100,999999990,1379.6999999998407
r65,65,999999991,1586.6999999996524
r85,85,1000000000,1638.4999999996053
r10,10,999999975,1807.099999999452
2080.1999999992036
r31,31,999999959,707.5000000000923
r94,94,999999988,1102.1000000000931
r100,100,999999956,1383.0999999998376
r65,65,999999988,1586.9999999996521
r85,85,999999959,1642.5999999996016
r10,10,1000000000,1804.5999999994542
2080.2999999992035
r31,31,1000000000,703.4000000000914
r94,94,999999959,1105.0000000000905
r100,100,999999968,1381.8999999998387
r65,65,999999995,1586.2999999996528
r85,85,999999973,1641.1999999996028
r10,10,999999956,1808.9999999994502
2080.3999999992034
r31,31,999999999,703.5000000000914
r94,94,999999953,1105.60000000009
r100,100,999999986,1380.0999999998403
r65,65,999999986,1587.199999999652
r85,85,999999965,1641.999999999602
r10,10,999999979,1806.6999999994523
2080.4999999992033
