e89,89,1799999993,379.0
r24,24,199999997,567.0
r27,27,199999994,817.0
1172.0
e89,89,1799999999,373.0
r24,24,199999995,569.0
r27,27,199999996,815.0
1173.0
e89,89,1799999995,377.0
r24,24,199999994,570.0
r27,27,199999997,814.0
1174.0
e89,89,1799999998,374.0
r24,24,199999996,568.0
r27,27,199999998,813.0
1175.0
e89,89,1799999994,378.0
r24,24,199999999,565.0
r27,27,200000000,811.0
1176.0
e89,89,1799999996,376.0
r24,24,199999998,566.0
r27,27,199999995,816.0
1177.0
e89,89,1800000000,372.0
r24,24,200000000,564.0
r27,27,199999999,812.0
1178.0
e89,89,1799999997,375.0
r24,24,199999993,571.0
r27,27,199999993,818.0
1179.0
r29,29,199999986,450.0
l56,56,999999992,1047.0
r24,24,199999992,1366.0
r16,16,199999994,1619.0
2424.0
r29,29,200000000,436.0
l56,56,999999994,1045.0
r24,24,199999986,1372.0
r16,16,199999998,1615.0
2425.0
r29,29,199999989,447.0
l56,56,999999996,1043.0
r24,24,199999990,1368.0
r16,16,199999995,1618.0
2426.0
r29,29,199999996,440.0
l56,56,999999993,1046.0
r24,24,199999988,1370.0
r16,16,199999991,1622.0
2427.0
r29,29,199999998,438.0
l56,56,999999997,1042.0
r24,24,199999989,1369.0
r16,16,199999990,1623.0
2428.0
r29,29,199999993,443.0
e91,91,1799999999,601.0
r23,23,199999996,647.0
r19,19,199999992,1209.0
l51,51,999999994,1329.0
e87,87,1799999997,1686.0
r5,5,199999996,1702.0
2636.0
l36,36,999999985,1430.0
l68,68,999999979,1534.0
e78,78,1799999987,1868.0
r15,15,199999990,1893.0
e95,95,1799999978,2158.0
e71,71,1799999982,2523.0
r5,5,199999978,2543.0
2637.0
e97,97,1799999995,521.0
e101,101,1799999994,614.0
e99,99,1799999998,755.0
r26,26,199999999,778.0
e95,95,1799999992,1366.0
e71,71,1799999987,2518.0
r5,5,199999980,2541.0
2638.0
r29,29,199999990,446.0
e91,91,1800000000,600.0
r23,23,199999993,650.0
r19,19,199999999,1202.0
l51,51,999999998,1325.0
e87,87,1799999998,1685.0
r5,5,199999993,1705.0
2639.0
r29,29,199999991,445.0
e91,91,1799999990,610.0
r23,23,199999994,649.0
r19,19,199999994,1207.0
l51,51,999999991,1332.0
e87,87,1799999994,1689.0
r5,5,199999994,1704.0
2640.0
e97,97,1800000000,516.0
e101,101,1799999998,610.0
e99,99,1800000000,753.0
l42,42,1000000000,1553.0
e82,82,1799999990,1884.0
e95,95,1799999983,1925.0
e71,71,1799999985,2520.0
r5,5,199999981,2540.0
2641.0
e97,97,1799999993,523.0
e101,101,1799999997,611.0
e99,99,1799999992,761.0
r26,26,199999993,784.0
e95,95,1799999993,1365.0
e71,71,1799999988,2517.0
r5,5,199999982,2539.0
2642.0
r29,29,199999985,451.0
e91,91,1799999994,606.0
r23,23,199999998,645.0
r19,19,199999998,1203.0
l51,51,1000000000,1323.0
e87,87,1799999991,1692.0
r5,5,199999990,1708.0
2643.0
r29,29,199999988,448.0
e91,91,1799999993,607.0
r23,23,200000000,643.0
r19,19,199999991,1210.0
l51,51,999999995,1328.0
r5,5,199999988,1713.0
2644.0
e97,97,1799999990,526.0
e101,101,1799999999,609.0
e99,99,1799999993,760.0
r26,26,199999996,781.0
e95,95,1799999999,1359.0
e71,71,1799999981,2524.0
r5,5,199999976,2545.0
2645.0
l36,36,999999989,1426.0
l68,68,999999985,1528.0
e78,78,1799999986,1869.0
r15,15,199999991,1892.0
e95,95,1799999979,2157.0
e71,71,1799999990,2515.0
r5,5,199999983,2538.0
2646.0
e101,101,1799999991,617.0
e99,99,1799999997,756.0
r26,26,199999992,785.0
e95,95,1799999996,1362.0
e71,71,1799999980,2525.0
r5,5,199999975,2546.0
2647.0
l64,64,999999990,736.0
e101,101,1799999984,877.0
l47,47,999999981,1839.0
r7,7,199999994,2391.0
r5,5,199999984,2461.0
2648.0
e97,97,1799999989,527.0
e101,101,1799999996,612.0
e99,99,1799999991,762.0
r26,26,199999995,782.0
e95,95,1799999995,1363.0
e71,71,1799999984,2521.0
r5,5,199999979,2542.0
2649.0
r34,34,199999996,1275.0
r13,13,199999990,1325.0
e73,73,1799999989,1844.0
r19,19,199999980,1889.0
2997.0
e69,69,1799999973,2535.0
e89,89,1799999983,2608.0
3193.0
e69,69,1799999974,2534.0
e89,89,1799999984,2607.0
3194.0
r29,29,199999992,444.0
e92,92,1799999990,1883.0
e73,73,1799999977,2445.0
e89,89,1799999972,2889.0
3195.0
l35,35,999999983,1563.0
l54,54,999999984,1650.0
l39,39,999999994,1903.0
l48,48,999999991,2441.0
r7,7,199999980,2677.0
e89,89,1799999977,2831.0
3196.0
r34,34,199999998,1273.0
e73,73,1799999971,2684.0
e89,89,1799999967,2894.0
3197.0
e69,69,1799999965,2543.0
e89,89,1799999986,2605.0
3198.0
l64,64,999999999,727.0
r26,26,199999985,1386.0
e69,69,1799999983,1593.0
e89,89,1799999979,2612.0
3199.0
l37,37,999999974,2410.0
l51,51,999999969,2497.0
3712.0
r9,9,199999962,2475.0
l51,51,999999961,2534.0
3713.0
l37,37,999999987,2397.0
l51,51,999999964,2502.0
3714.0
l64,64,999999992,734.0
e101,101,1799999986,875.0
l47,47,999999982,1838.0
e83,83,1799999978,2104.0
l51,51,999999986,2261.0
3715.0
r9,9,199999968,2469.0
l51,51,999999959,2536.0
3716.0
r9,9,199999966,2471.0
l51,51,999999960,2535.0
3717.0
l64,64,999999985,741.0
e83,83,1799999999,1998.0
l51,51,999999985,2262.0
3718.0
l37,37,999999977,2407.0
l51,51,999999968,2498.0
3719.0
l43,43,999999981,2243.0
r33,33,199999957,3339.0
l51,51,999999951,3409.0
3720.0
l64,64,999999995,731.0
e101,101,1799999987,874.0
l47,47,999999979,1841.0
e83,83,1799999981,2101.0
l51,51,999999983,2264.0
3721.0
e90,90,1799999991,724.0
r8,8,199999988,1588.0
l49,49,999999995,1995.0
l51,51,999999952,3378.0
3722.0
e90,90,1799999990,725.0
e87,87,1799999990,1786.0
e83,83,1799999974,2209.0
l51,51,999999979,2268.0
3723.0
l37,37,999999988,2396.0
l51,51,999999967,2499.0
3724.0
l37,37,999999981,2403.0
l51,51,999999963,2503.0
3725.0
l64,64,1000000000,726.0
r9,9,199999995,1667.0
l51,51,999999956,2539.0
3726.0
