r18,18,199999992,181.0
r17,17,199999999,325.0
l68,68,999999998,488.0
e72,72,1800000000,535.0
1190.0
r18,18,199999991,182.0
l60,60,999999994,334.0
l52,52,999999995,456.0
l59,59,999999995,596.0
l61,61,999999997,831.0
e86,86,1799999997,893.0
e72,72,1799999994,978.0
1191.0
r18,18,199999994,179.0
r17,17,200000000,324.0
l68,68,999999997,489.0
e72,72,1799999998,537.0
1192.0
r18,18,199999997,176.0
e86,86,1799999999,439.0
e72,72,1799999993,979.0
1193.0
r18,18,200000000,173.0
l60,60,999999996,332.0
l52,52,999999999,452.0
e87,87,1800000000,516.0
r10,10,199999998,555.0
r29,29,199999999,612.0
r22,22,199999998,817.0
e72,72,1799999992,1026.0
1194.0
r18,18,199999998,175.0
l60,60,999999992,336.0
l52,52,999999991,460.0
l59,59,1000000000,591.0
l61,61,999999995,833.0
e86,86,1799999995,895.0
e72,72,1799999996,976.0
1195.0
r18,18,199999993,180.0
r17,17,199999997,327.0
l68,68,999999999,487.0
e72,72,1799999999,536.0
1196.0
r18,18,199999995,178.0
l60,60,999999995,333.0
l45,45,999999996,622.0
l47,47,999999998,918.0
1945.0
r18,18,199999996,177.0
e86,86,1800000000,438.0
l42,42,1000000000,469.0
l45,45,1000000000,556.0
l47,47,999999993,923.0
1946.0
l67,67,999999999,451.0
r21,21,199999990,1031.0
e97,97,1799999994,1198.0
l47,47,999999990,1521.0
1947.0
r18,18,199999999,174.0
l60,60,999999991,337.0
l52,52,999999994,457.0
l51,51,999999997,662.0
r34,34,200000000,846.0
r21,21,199999993,939.0
e97,97,1799999995,1197.0
l47,47,999999991,1520.0
1948.0
l67,67,999999990,460.0
e84,84,1799999996,667.0
e92,92,1799999995,1192.0
r21,21,199999987,1399.0
l54,54,999999985,1421.0
l43,43,999999987,1714.0
e98,98,1799999987,1992.0
r20,20,199999989,2159.0
2303.0
l67,67,999999994,456.0
e84,84,1799999994,669.0
e92,92,1799999993,1194.0
r21,21,199999983,1403.0
l54,54,999999990,1416.0
l43,43,999999983,1718.0
e98,98,1799999991,1988.0
r20,20,199999987,2161.0
2304.0
l67,67,999999986,464.0
e84,84,1800000000,663.0
e92,92,1799999998,1189.0
r21,21,199999985,1401.0
l54,54,999999987,1419.0
l43,43,999999986,1715.0
e98,98,1799999990,1989.0
r20,20,199999986,2162.0
2305.0
l67,67,999999988,462.0
e84,84,1799999998,665.0
e92,92,1799999994,1193.0
r21,21,199999989,1397.0
e96,96,1799999995,1808.0
r11,11,199999985,2120.0
e74,74,1799999986,2178.0
r20,20,199999984,2194.0
2306.0
l67,67,999999995,455.0
e84,84,1799999995,668.0
e92,92,1799999996,1191.0
r21,21,199999988,1398.0
l54,54,999999988,1418.0
l43,43,999999991,1710.0
e77,77,1799999989,2012.0
r20,20,199999983,2263.0
2307.0
l67,67,999999991,459.0
e84,84,1799999991,672.0
e92,92,1799999997,1190.0
r21,21,199999986,1400.0
l54,54,999999984,1422.0
l43,43,999999988,1713.0
e98,98,1799999992,1987.0
r20,20,199999990,2158.0
2308.0
l67,67,999999985,465.0
e84,84,1799999992,671.0
e92,92,1799999999,1188.0
r21,21,199999984,1402.0
l54,54,999999983,1423.0
l43,43,999999992,1709.0
e98,98,1799999989,1990.0
r20,20,199999985,2163.0
2309.0
l67,67,999999989,461.0
r13,13,199999989,1738.0
r31,31,200000000,2164.0
l49,49,999999982,2853.0
r9,9,199999983,3276.0
3450.0
e75,75,1799999971,2369.0
l35,35,999999982,2772.0
r22,22,199999980,2911.0
r3,3,199999982,3159.0
3479.0
e75,75,1799999970,2370.0
l35,35,999999986,2768.0
r22,22,199999982,2909.0
r3,3,199999979,3162.0
3480.0
e75,75,1799999979,2361.0
l35,35,999999989,2765.0
r22,22,199999978,2913.0
r3,3,199999976,3165.0
3481.0
e75,75,1799999967,2373.0
l35,35,999999983,2771.0
r22,22,199999981,2910.0
r3,3,199999981,3160.0
3482.0
e75,75,1799999976,2364.0
l35,35,999999985,2769.0
r22,22,199999976,2915.0
r3,3,199999977,3164.0
3483.0
e75,75,1799999980,2360.0
l35,35,999999987,2767.0
r22,22,199999977,2914.0
r3,3,199999980,3161.0
3484.0
e75,75,1799999964,2376.0
l35,35,999999980,2774.0
r22,22,199999979,2912.0
r3,3,199999978,3163.0
3485.0
l67,67,999999993,457.0
r13,13,199999978,2539.0
e90,90,1799999978,2785.0
e98,98,1799999971,3095.0
l61,61,999999975,3166.0
e79,79,1799999979,3217.0
r20,20,199999982,3417.0
3490.0
l37,37,999999986,2350.0
e94,94,1799999980,2362.0
l51,51,999999980,2664.0
r13,13,199999974,2731.0
e90,90,1799999974,2789.0
e98,98,1799999975,3091.0
l61,61,999999971,3170.0
e79,79,1799999981,3215.0
r20,20,199999977,3422.0
3491.0
l67,67,999999982,468.0
r27,27,199999984,2358.0
l53,53,999999989,2430.0
e90,90,1799999987,2504.0
e98,98,1799999974,3092.0
l61,61,999999979,3162.0
e79,79,1799999980,3216.0
r20,20,199999980,3419.0
3492.0
l67,67,999999997,453.0
r27,27,199999983,2359.0
l53,53,999999987,2432.0
e90,90,1799999980,2511.0
e98,98,1799999973,3093.0
l61,61,999999976,3165.0
e79,79,1799999973,3223.0
r20,20,199999976,3423.0
3493.0
l67,67,999999996,454.0
r27,27,199999987,2355.0
l53,53,999999984,2435.0
e90,90,1799999982,2509.0
e98,98,1799999972,3094.0
l61,61,999999972,3169.0
e79,79,1799999978,3218.0
r20,20,199999975,3424.0
3494.0
l67,67,999999984,466.0
r27,27,199999988,2354.0
l53,53,999999986,2433.0
e90,90,1799999981,2510.0
r12,12,199999987,2522.0
l54,54,999999978,2743.0
l47,47,999999982,3046.0
e79,79,1799999982,3047.0
r20,20,199999973,3426.0
3495.0
l37,37,999999985,2351.0
e94,94,1799999981,2361.0
l51,51,999999983,2661.0
r13,13,199999975,2730.0
e90,90,1799999976,2787.0
e98,98,1799999969,3097.0
e72,72,1799999972,3849.0
4108.0
e86,86,1799999952,3546.0
4337.0
e86,86,1799999957,3541.0
4338.0
e86,86,1799999962,3536.0
4339.0
e86,86,1799999953,3545.0
4340.0
e86,86,1799999960,3538.0
4341.0
e86,86,1799999965,3533.0
4342.0
e86,86,1799999959,3539.0
4343.0
e86,86,1799999954,3544.0
4344.0
e86,86,1799999961,3537.0
4345.0
e86,86,1799999951,3547.0
4346.0
e86,86,1799999956,3542.0
4347.0
e86,86,1799999970,3528.0
4348.0
e86,86,1799999963,3535.0
4349.0
e86,86,1799999958,3540.0
4350.0
e86,86,1799999967,3531.0
4351.0
e86,86,1799999955,3543.0
4352.0
e86,86,1799999968,3530.0
4353.0
