r9,9,199999998,383.0
l42,42,999999997,897.0
l56,56,999999996,968.0
1008.0
r9,9,200000000,381.0
l42,42,999999993,901.0
l56,56,999999997,967.0
1009.0
r9,9,199999992,389.0
l42,42,999999991,903.0
l56,56,999999993,971.0
1010.0
r9,9,199999997,384.0
l42,42,999999998,896.0
l56,56,999999992,972.0
1011.0
r9,9,199999989,392.0
l42,42,999999999,895.0
l56,56,999999998,966.0
1012.0
r9,9,199999987,394.0
l42,42,999999990,904.0
l56,56,999999990,974.0
1013.0
r9,9,199999993,388.0
l42,42,999999994,900.0
l56,56,999999991,973.0
1014.0
r9,9,199999996,385.0
l42,42,1000000000,894.0
l56,56,1000000000,964.0
1015.0
r9,9,199999986,395.0
l42,42,999999995,899.0
1098.0
r9,9,199999988,393.0
l42,42,999999996,898.0
1099.0
r9,9,199999983,398.0
l42,42,999999992,902.0
1100.0
r9,9,199999995,386.0
e74,74,1799999984,794.0
r22,22,199999999,906.0
r2,2,199999998,953.0
1462.0
r9,9,199999990,391.0
e74,74,1800000000,778.0
r22,22,199999992,913.0
r2,2,199999997,954.0
1463.0
r9,9,199999994,387.0
e74,74,1799999989,789.0
r22,22,199999998,907.0
r2,2,199999994,957.0
1464.0
r9,9,199999991,390.0
e69,69,1799999994,982.0
l41,41,999999998,1312.0
l35,35,999999993,1346.0
1577.0
r9,9,199999984,397.0
e69,69,1799999996,980.0
l41,41,999999997,1313.0
l35,35,999999998,1341.0
1578.0
r10,10,199999987,124.0
l43,43,999999998,701.0
l39,39,999999990,1350.0
e93,93,1799999993,1623.0
2393.0
r10,10,199999999,112.0
l43,43,999999993,706.0
l39,39,999999997,1343.0
e93,93,1799999994,1622.0
2394.0
r10,10,199999992,119.0
l43,43,999999987,712.0
l39,39,1000000000,1340.0
e93,93,1799999998,1618.0
2395.0
r10,10,199999990,121.0
l43,43,999999999,700.0
l39,39,999999992,1348.0
e93,93,1799999997,1619.0
2396.0
r10,10,199999986,125.0
l43,43,999999992,707.0
l39,39,999999995,1345.0
e93,93,1800000000,1616.0
2397.0
r10,10,199999996,115.0
l43,43,999999989,710.0
l39,39,999999999,1341.0
e93,93,1799999992,1624.0
2398.0
r9,9,199999985,396.0
e100,100,1799999993,702.0
r34,34,199999988,1790.0
l54,54,999999986,1828.0
l60,60,999999985,1870.0
2580.0
r10,10,199999994,117.0
e77,77,1799999998,795.0
l60,60,999999971,2372.0
2581.0
e100,100,1799999987,1044.0
r34,34,199999977,1801.0
l54,54,999999988,1826.0
l60,60,999999988,1867.0
2582.0
r19,19,199999989,798.0
l54,54,1000000000,1212.0
l60,60,999999986,1869.0
2583.0
r10,10,199999981,130.0
e77,77,1799999992,801.0
l60,60,999999978,2365.0
2584.0
r10,10,199999983,128.0
e77,77,1799999993,800.0
l60,60,999999975,2368.0
2585.0
r9,9,199999999,382.0
e100,100,1799999995,700.0
e101,101,1799999998,766.0
r30,30,199999999,1213.0
r11,11,199999996,1403.0
r27,27,199999981,1781.0
r5,5,199999981,2024.0
e77,77,1799999976,2057.0
l60,60,999999977,2366.0
2586.0
r10,10,199999993,118.0
l43,43,999999990,709.0
l52,52,999999992,915.0
r27,27,200000000,1227.0
r18,18,199999992,1536.0
l60,60,999999983,2064.0
2587.0
e100,100,1799999964,1142.0
r34,34,199999979,1799.0
l54,54,999999987,1827.0
l60,60,999999987,1868.0
2588.0
e100,100,1799999985,1046.0
e71,71,1799999994,1381.0
e92,92,1799999998,1452.0
l60,60,999999969,2460.0
2589.0
e100,100,1799999984,1047.0
e95,95,1799999958,3348.0
3764.0
e100,100,1799999960,1146.0
e95,95,1799999960,3346.0
3765.0
e100,100,1799999963,1143.0
e95,95,1799999965,3341.0
3766.0
e100,100,1799999973,1058.0
e95,95,1799999956,3350.0
3767.0
e100,100,1799999978,1053.0
e95,95,1799999962,3344.0
3768.0
e100,100,1799999953,1153.0
e95,95,1799999957,3349.0
3769.0
e83,83,1799999987,2231.0
l44,44,999999978,2289.0
l59,59,999999972,2493.0
e84,84,1799999967,2682.0
e95,95,1799999970,2811.0
3770.0
e83,83,1799999992,2226.0
l44,44,999999977,2290.0
l59,59,999999974,2491.0
e84,84,1799999969,2680.0
e95,95,1799999967,2814.0
3771.0
e100,100,1799999970,1136.0
e95,95,1799999963,3343.0
3772.0
e100,100,1799999976,1055.0
e95,95,1799999966,3340.0
3773.0
e100,100,1799999952,1154.0
e95,95,1799999959,3347.0
3774.0
e100,100,1799999975,1056.0
e95,95,1799999964,3342.0
3775.0
e100,100,1799999988,1043.0
e95,95,1799999961,3345.0
3776.0
e100,100,1799999958,1148.0
e71,71,1799999993,1382.0
l36,36,999999972,3174.0
3935.0
e83,83,1799999999,2219.0
e69,69,1799999965,3227.0
e79,79,1799999959,4345.0
4621.0
r8,8,199999967,3130.0
r25,25,199999975,3171.0
e85,85,1799999965,3309.0
e79,79,1799999964,3483.0
4622.0
r8,8,199999962,3135.0
r25,25,199999966,3180.0
e85,85,1799999966,3308.0
e79,79,1799999963,3484.0
4623.0
r10,10,199999973,2573.0
e72,72,1799999959,3572.0
l57,57,999999961,3757.0
e85,85,1799999953,4059.0
5223.0
