l67,67,999999996,704.0
e100,100,1799999995,782.0
e78,78,1800000000,844.0
l53,53,999999993,861.0
l40,40,999999991,1136.0
1669.0
l67,67,999999995,705.0
e100,100,1799999998,779.0
e78,78,1799999997,847.0
l53,53,999999999,855.0
l40,40,1000000000,1127.0
1670.0
l67,67,999999987,764.0
e100,100,1799999990,787.0
e78,78,1799999996,848.0
l53,53,999999994,860.0
l40,40,999999997,1130.0
1671.0
l67,67,999999997,703.0
e100,100,1799999997,780.0
e78,78,1799999998,846.0
l53,53,999999995,859.0
l40,40,999999994,1133.0
1672.0
l67,67,999999986,765.0
e100,100,1800000000,777.0
e78,78,1799999992,852.0
l53,53,1000000000,854.0
l40,40,999999993,1134.0
1673.0
l67,67,1000000000,700.0
e100,100,1799999994,783.0
e78,78,1799999995,849.0
l53,53,999999998,856.0
l40,40,999999995,1132.0
1674.0
l67,67,999999990,761.0
l40,40,999999982,1597.0
1675.0
e78,78,1799999988,918.0
r14,14,199999996,940.0
r28,28,199999997,1323.0
l40,40,999999986,1463.0
1676.0
l67,67,999999989,762.0
l40,40,999999983,1596.0
1677.0
e78,78,1799999981,925.0
r14,14,199999992,944.0
r28,28,199999992,1328.0
l40,40,999999987,1462.0
1678.0
l67,67,999999998,702.0
e100,100,1799999987,790.0
e78,78,1799999999,845.0
l53,53,999999991,863.0
l40,40,999999990,1137.0
1679.0
l53,53,999999990,933.0
l40,40,999999998,1129.0
1680.0
e78,78,1799999984,922.0
r14,14,199999995,941.0
r28,28,199999995,1325.0
l40,40,999999985,1464.0
1681.0
e78,78,1799999987,919.0
r14,14,199999993,943.0
r28,28,199999993,1327.0
l40,40,999999988,1461.0
1682.0
l67,67,999999993,707.0
e100,100,1799999999,778.0
e78,78,1799999994,850.0
l53,53,999999996,858.0
l40,40,999999996,1131.0
1683.0
l67,67,999999994,706.0
l40,40,999999984,1595.0
1684.0
l67,67,999999988,763.0
e80,80,1799999999,793.0
l53,53,999999989,999.0
l40,40,999999999,1128.0
1685.0
l67,67,999999991,760.0
e100,100,1799999993,784.0
e78,78,1799999993,851.0
l53,53,999999997,857.0
l40,40,999999989,1138.0
1686.0
l67,67,999999999,701.0
e100,100,1799999991,786.0
e78,78,1799999991,853.0
l53,53,999999992,862.0
l40,40,999999992,1135.0
1687.0
l49,49,999999987,28.0
l50,50,999999992,313.0
e83,83,1799999993,852.0
r5,5,199999997,1080.0
r20,20,199999997,1308.0
1706.0
l49,49,999999992,23.0
l50,50,999999996,309.0
e83,83,1799999997,848.0
r5,5,199999995,1082.0
r20,20,199999998,1307.0
1707.0
l49,49,999999985,30.0
l50,50,1000000000,305.0
e83,83,1799999992,853.0
r5,5,200000000,1077.0
r20,20,199999994,1311.0
1708.0
l49,49,999999989,26.0
l50,50,999999998,307.0
e83,83,1799999996,849.0
r5,5,199999994,1083.0
r20,20,199999999,1306.0
1709.0
l49,49,999999998,17.0
e83,83,1799999986,1701.0
1831.0
l49,49,999999984,31.0
e83,83,1799999988,1699.0
1832.0
l49,49,1000000000,15.0
l50,50,999999993,312.0
e83,83,1800000000,845.0
1833.0
l49,49,999999986,29.0
e83,83,1799999985,1702.0
1834.0
l49,49,999999988,27.0
l50,50,999999997,308.0
e83,83,1799999995,850.0
1835.0
l49,49,999999994,21.0
e83,83,1799999989,1698.0
1836.0
e78,78,1799999986,920.0
l65,65,999999982,2121.0
e85,85,1799999981,2318.0
2574.0
e78,78,1799999989,917.0
l65,65,999999974,2129.0
e85,85,1799999979,2320.0
2575.0
e78,78,1799999983,923.0
l65,65,999999983,2120.0
e85,85,1799999980,2319.0
2576.0
e78,78,1799999979,927.0
e81,81,1799999997,1278.0
l49,49,999999980,2222.0
r16,16,199999986,2286.0
r30,30,199999976,2871.0
3013.0
e78,78,1799999990,916.0
l51,51,999999989,1830.0
r15,15,199999987,1920.0
l37,37,999999986,2105.0
r30,30,199999981,2134.0
3014.0
r33,33,199999966,2068.0
r10,10,199999985,2091.0
l46,46,999999978,2712.0
r26,26,199999971,2912.0
e69,69,1799999975,3077.0
3443.0
e78,78,1799999985,921.0
e87,87,1799999983,1996.0
e95,95,1799999984,2224.0
l54,54,999999977,2423.0
e69,69,1799999965,3243.0
3444.0
r33,33,199999974,2060.0
e81,81,1799999987,2112.0
e90,90,1799999979,2622.0
r26,26,199999969,3007.0
e69,69,1799999972,3080.0
3445.0
r33,33,199999958,2076.0
r10,10,199999987,2089.0
l46,46,999999979,2711.0
r26,26,199999974,2909.0
e69,69,1799999973,3079.0
3446.0
r28,28,199999977,2043.0
l64,64,999999990,2265.0
r10,10,199999977,2480.0
l46,46,999999980,2710.0
r26,26,199999975,2908.0
e69,69,1799999967,3085.0
3447.0
e76,76,1799999984,1884.0
e86,86,1799999971,2668.0
e69,69,1799999977,2962.0
3448.0
e78,78,1799999982,924.0
l41,41,999999993,2067.0
r34,34,199999977,2377.0
e101,101,1799999979,2452.0
e96,96,1799999985,2513.0
r27,27,199999990,2659.0
l54,54,999999970,3013.0
e69,69,1799999964,3244.0
3449.0
e99,99,1799999958,2753.0
e98,98,1799999964,3068.0
3880.0
e99,99,1799999962,2749.0
e98,98,1799999962,3070.0
3881.0
e99,99,1799999967,2744.0
e98,98,1799999959,3073.0
3882.0
e78,78,1799999975,931.0
r25,25,199999992,1504.0
e95,95,1799999971,2578.0
e98,98,1799999972,2613.0
3883.0
r28,28,199999982,2038.0
l55,55,999999984,2261.0
4086.0
r28,28,199999970,2050.0
l56,56,999999976,2529.0
l55,55,999999958,3689.0
4087.0
e99,99,1799999968,2743.0
r24,24,199999956,3691.0
l55,55,999999951,3881.0
4088.0
e99,99,1799999964,2747.0
r24,24,199999953,3694.0
l55,55,999999953,3879.0
4089.0
r33,33,199999956,2078.0
e76,76,1799999971,2227.0
e78,78,1799999966,2703.0
r3,3,199999963,2929.0
l43,43,999999967,3112.0
l55,55,999999972,3366.0
4090.0
