l55,55,199999981,178.09999999999417
l40,40,199999982,435.20000000003046
r15,15,999999998,488.5000000000426
1213.8999999999915
l55,55,199999968,179.3999999999941
l40,40,199999955,437.90000000003107
r15,15,998999960,492.40000000004346
1213.9999999999914
l55,55,199999992,176.99999999999423
l40,40,199999963,437.1000000000309
r15,15,998999987,489.70000000004285
1214.0999999999913
l55,55,199999954,180.79999999999401
l40,40,199999988,434.6000000000303
r15,15,998999962,492.2000000000434
1214.1999999999912
l55,55,199999994,176.79999999999424
l40,40,199999951,438.30000000003116
r15,15,998999957,492.70000000004353
1214.299999999991
l55,55,199999971,179.0999999999941
l40,40,199999977,435.70000000003057
r15,15,998999961,492.30000000004344
1214.399999999991
l55,55,199999989,177.2999999999942
l40,40,199999960,437.40000000003096
r15,15,998999974,491.00000000004314
1214.499999999991
l55,55,199999982,177.99999999999417
l40,40,199999972,436.2000000000307
r15,15,998999966,491.8000000000433
1214.5999999999908
l55,55,199999988,177.3999999999942
l40,40,199999966,436.8000000000308
r15,15,998999965,491.90000000004335
1214.6999999999907
l55,55,199999991,177.09999999999422
l40,40,199999987,434.70000000003034
r15,15,998999984,490.0000000000429
1214.7999999999906
l55,55,199999953,180.899999999994
l40,40,199999992,434.20000000003023
r15,15,998999954,493.0000000000436
1214.8999999999905
l55,55,199999958,180.39999999999404
l40,40,199999967,436.7000000000308
r15,15,999999999,488.40000000004255
1214.9999999999905
l55,55,199999986,177.5999999999942
l40,40,200000000,433.40000000003005
r15,15,998999993,489.1000000000427
1215.0999999999904
l55,55,199999960,180.19999999999405
l40,40,199999998,433.6000000000301
r15,15,998999986,489.80000000004287
1215.1999999999903
l55,55,199999978,178.39999999999415
l40,40,199999964,437.00000000003087
r15,15,998999991,489.30000000004276
1215.2999999999902
l55,55,199999983,177.89999999999418
l40,40,199999979,435.5000000000305
r15,15,998999963,492.1000000000434
1215.39999999999
l55,55,199999997,176.49999999999426
l40,40,199999971,436.3000000000307
r15,15,998999970,491.40000000004324
1215.49999999999
l55,55,199999959,180.29999999999404
l40,40,199999975,435.9000000000306
r15,15,998999956,492.80000000004355
1215.59999999999
l55,55,199999972,178.99999999999412
l40,40,199999968,436.6000000000308
r15,15,998999958,492.6000000000435
1215.6999999999898
l55,55,199999956,180.59999999999403
l40,40,199999970,436.40000000003073
r15,15,998999980,490.400000000043
1215.7999999999897
l55,55,199999996,176.59999999999425
l40,40,199999973,436.10000000003066
r15,15,999999995,488.80000000004264
1215.8999999999896
l55,55,199999998,176.39999999999426
l40,40,199999989,434.5000000000303
r15,15,1000000000,488.30000000004253
1215.9999999999895
l55,55,199999985,177.6999999999942
l40,40,199999956,437.80000000003105
r15,15,998999964,492.00000000004337
1216.0999999999894
l55,55,199999964,179.79999999999407
l40,40,199999994,434.0000000000302
r15,15,998999972,491.2000000000432
1216.1999999999894
l55,55,199999957,180.49999999999403
l40,40,199999990,434.4000000000303
r15,15,998999968,491.6000000000433
1216.2999999999893
l55,55,199999951,181.099999999994
l40,40,199999969,436.50000000003075
r15,15,998999955,492.9000000000436
1216.3999999999892
l55,55,199999963,179.89999999999407
l40,40,199999952,438.20000000003114
r15,15,998999982,490.20000000004296
1216.499999999989
l55,55,199999995,176.69999999999425
l40,40,199999986,434.80000000003037
r15,15,998999978,490.60000000004305
1216.599999999989
l55,55,199999993,176.89999999999424
l40,40,199999976,435.8000000000306
r15,15,998999967,491.7000000000433
1216.699999999989
l55,55,200000000,176.19999999999428
l40,40,199999953,438.1000000000311
r15,15,998999959,492.5000000000435
1216.7999999999888
l55,55,199999969,179.2999999999941
l40,40,199999993,434.1000000000302
r15,15,998999990,489.4000000000428
1216.8999999999887
l55,55,199999970,179.1999999999941
l40,40,199999997,433.7000000000301
r15,15,998999971,491.3000000000432
1216.9999999999886
l55,55,199999987,177.4999999999942
l40,40,199999985,434.9000000000304
r15,15,998999976,490.8000000000431
1217.0999999999885
l55,55,199999980,178.19999999999416
l40,40,199999958,437.600000000031
r15,15,998999951,493.30000000004367
1217.1999999999884
l55,55,199999967,179.4999999999941
l40,40,199999965,436.90000000003084
r15,15,999999994,488.90000000004267
1217.2999999999884
l55,55,199999974,178.79999999999413
l40,40,199999980,435.4000000000305
r15,15,998999973,491.10000000004317
1217.3999999999883
l55,55,199999977,178.49999999999415
l40,40,199999991,434.30000000003025
r15,15,998999953,493.1000000000436
1217.4999999999882
l55,55,199999976,178.59999999999414
l40,40,199999961,437.30000000003093
r15,15,998999989,489.5000000000428
1217.599999999988
l55,55,199999975,178.69999999999413
l40,40,199999978,435.60000000003055
r15,15,998999992,489.20000000004273
1217.699999999988
l55,55,199999965,179.69999999999408
l40,40,199999995,433.90000000003016
r15,15,998999975,490.9000000000431
1217.799999999988
l55,55,199999999,176.29999999999427
l40,40,199999974,436.00000000003064
r15,15,998999952,493.20000000004364
1217.8999999999878
l55,55,199999962,179.99999999999406
l40,40,199999959,437.500000000031
r15,15,998999985,489.9000000000429
1217.9999999999877
l55,55,199999955,180.69999999999402
l40,40,199999999,433.50000000003007
r15,15,999999997,488.6000000000426
1218.0999999999876
l55,55,199999979,178.29999999999416
l40,40,199999984,435.0000000000304
r15,15,998999977,490.7000000000431
1218.1999999999875
l55,55,199999961,180.09999999999405
l40,40,199999962,437.2000000000309
r15,15,999999996,488.7000000000426
1218.2999999999874
l55,55,199999984,177.79999999999418
l40,40,199999954,438.0000000000311
r15,15,998999969,491.50000000004326
1218.3999999999874
l55,55,199999966,179.59999999999408
l40,40,199999996,433.80000000003014
r15,15,998999988,489.6000000000428
1218.4999999999873
l55,55,199999973,178.89999999999412
l40,40,199999957,437.700000000031
r15,15,998999979,490.50000000004303
1218.5999999999872
l55,55,199999990,177.19999999999422
l40,40,199999981,435.3000000000305
r15,15,998999981,490.300000000043
1218.699999999987
l55,55,199999952,180.999999999994
l40,40,199999983,435.10000000003043
r15,15,998999983,490.10000000004294
1218.799999999987
