l36,36,199999997,458.3000000000357
r31,31,998999969,1039.1000000001504
1142.6000000000563
l36,36,199999973,460.70000000003625
r31,31,999999991,1036.8000000001525
1142.7000000000562
l36,36,199999999,458.10000000003566
r31,31,999999995,1036.4000000001529
1142.8000000000561
l36,36,199999993,458.7000000000358
r31,31,998999966,1039.4000000001502
1142.900000000056
l36,36,199999990,459.00000000003587
r31,31,999999997,1036.200000000153
1143.000000000056
l36,36,199999955,462.50000000003666
r31,31,998999974,1038.6000000001509
1143.1000000000558
l36,36,199999983,459.700000000036
r31,31,997999953,1040.8000000001489
1143.2000000000558
l36,36,199999977,460.30000000003616
r31,31,998999968,1039.2000000001503
1143.3000000000557
l36,36,199999981,459.9000000000361
r31,31,997999954,1040.700000000149
1143.4000000000556
l36,36,199999984,459.600000000036
r31,31,998999961,1039.9000000001497
1143.5000000000555
l36,36,199999988,459.2000000000359
r31,31,999999999,1036.0000000001532
1143.6000000000554
l36,36,199999976,460.4000000000362
r31,31,997999951,1041.0000000001487
1143.7000000000553
l36,36,199999953,462.7000000000367
r31,31,998999965,1039.50000000015
1143.8000000000552
l36,36,199999958,462.2000000000366
r31,31,998999963,1039.7000000001499
1143.9000000000551
l36,36,199999975,460.5000000000362
r31,31,998999977,1038.3000000001512
1144.000000000055
l36,36,199999959,462.1000000000366
r31,31,998999979,1038.1000000001513
1144.100000000055
l36,36,199999978,460.20000000003614
r31,31,999999993,1036.6000000001527
1144.2000000000548
l36,36,199999962,461.8000000000365
r31,31,999999989,1037.0000000001523
1144.3000000000548
l36,36,199999964,461.60000000003646
r31,31,998999978,1038.2000000001512
1144.4000000000547
l36,36,199999992,458.8000000000358
r31,31,997999952,1040.9000000001488
1144.5000000000546
l36,36,199999980,460.0000000000361
r31,31,999999987,1037.2000000001522
1144.6000000000545
l36,36,199999974,460.60000000003623
r31,31,998999984,1037.6000000001518
1144.7000000000544
r18,18,999999990,172.4999999999945
l60,60,199999991,328.0000000000061
l52,52,199999979,451.7000000000342
l59,59,199999968,592.5000000000662
l36,36,198999951,727.3000000000968
r31,31,999999998,1036.1000000001532
1144.8000000000543
l36,36,199999967,461.3000000000364
r31,31,998999967,1039.3000000001502
1144.9000000000542
l36,36,199999957,462.3000000000366
r31,31,998999975,1038.500000000151
1145.0000000000541
l36,36,199999956,462.40000000003664
r31,31,999999992,1036.7000000001526
1145.100000000054
l36,36,199999979,460.1000000000361
r31,31,998999972,1038.8000000001507
1145.200000000054
l36,36,199999971,460.9000000000363
r31,31,998999973,1038.7000000001508
1145.3000000000538
l36,36,199999987,459.30000000003594
r31,31,999999994,1036.5000000001528
1145.4000000000538
l36,36,199999954,462.6000000000367
r31,31,1000000000,1035.9000000001533
1145.5000000000537
l36,36,199999970,461.0000000000363
r31,31,998999982,1037.8000000001516
1145.6000000000536
l36,36,199999994,458.6000000000358
r31,31,998999971,1038.9000000001506
1145.7000000000535
l36,36,199999996,458.40000000003573
r31,31,997999956,1040.5000000001492
1145.8000000000534
l36,36,199999963,461.7000000000365
r31,31,998999962,1039.8000000001498
1145.9000000000533
l36,36,199999965,461.50000000003644
r31,31,998999981,1037.9000000001515
1146.0000000000532
l36,36,199999952,462.80000000003673
r31,31,998999986,1037.400000000152
1146.1000000000531
l36,36,199999998,458.2000000000357
r31,31,997999957,1040.4000000001492
1146.200000000053
l36,36,199999986,459.40000000003596
r31,31,997999955,1040.600000000149
1146.300000000053
l36,36,199999991,458.90000000003585
r31,31,998999980,1038.0000000001514
1146.4000000000528
l36,36,199999961,461.9000000000365
r31,31,998999970,1039.0000000001505
1146.5000000000528
l36,36,200000000,458.00000000003564
r31,31,998999976,1038.400000000151
1146.6000000000527
l36,36,199999989,459.1000000000359
r31,31,998999983,1037.7000000001517
1146.7000000000526
l36,36,199999982,459.80000000003605
r31,31,999999988,1037.1000000001522
1146.8000000000525
l36,36,199999969,461.10000000003635
r31,31,999999996,1036.300000000153
1146.9000000000524
l36,36,199999966,461.4000000000364
r31,31,998999985,1037.5000000001519
1147.0000000000523
l36,36,199999985,459.500000000036
r31,31,998999959,1040.1000000001495
1147.1000000000522
l36,36,199999960,462.00000000003655
r31,31,998999958,1040.2000000001494
1147.2000000000521
l36,36,199999995,458.50000000003575
r31,31,998999960,1040.0000000001496
1147.300000000052
l36,36,199999968,461.20000000003637
r31,31,999999990,1036.9000000001524
1147.400000000052
l36,36,199999972,460.8000000000363
r31,31,998999964,1039.60000000015
1147.5000000000518
