r12,12,199999986,60141.39999940532
e76,76,1799999962,60493.99999940019
e101,101,1799999988,60549.59999939938
l45,45,999999992,60567.299999399125
1009.7999999853055
r12,12,199999992,60140.79999940533
e76,76,1799999957,60494.499999400185
e101,101,1799999981,60550.29999939937
l45,45,999999972,60569.299999399096
1010.4999999852953
r12,12,199999995,60140.499999405336
e76,76,1799999960,60494.19999940019
e101,101,1799999987,60549.69999939938
l45,45,999999966,60569.89999939909
1011.7999999852764
r12,12,199999970,60142.9999994053
e76,76,1799999959,60494.29999940019
e101,101,1799999990,60549.399999399386
l45,45,999999973,60569.1999993991
1009.5999999853084
r12,12,199999968,60143.1999994053
e76,76,1799999988,60491.39999940023
e101,101,1799999985,60549.89999939938
l45,45,999999969,60569.59999939909
1008.8999999853186
r12,12,199999969,60143.0999994053
e76,76,1799999996,60490.59999940024
e101,101,1799999954,60552.99999939933
l45,45,999999990,60567.49999939912
1011.3999999852822
r12,12,199999965,60143.49999940529
e76,76,1799999973,60492.89999940021
e101,101,1799999986,60549.79999939938
l45,45,999999959,60570.59999939908
1012.6999999852633
r12,12,200000000,60139.99999940534
e76,76,1799999968,60493.3999994002
e101,101,1799999978,60550.59999939937
l45,45,999999967,60569.79999939909
1010.2999999852982
r12,12,199999987,60141.299999405324
e76,76,1799999985,60491.699999400225
e101,101,1799999969,60551.499999399355
l45,45,999999989,60567.59999939912
1013.2999999852545
r12,12,199999976,60142.39999940531
e76,76,1799999995,60490.69999940024
e101,101,1799999953,60553.09999939933
l45,45,999999982,60568.29999939911
1010.3999999852967
r12,12,199999988,60141.199999405326
e76,76,1800000000,60490.19999940025
e101,101,1799999982,60550.199999399374
l45,45,999999995,60566.99999939913
1008.8999999853186
r12,12,199999981,60141.899999405316
e76,76,1799999979,60492.29999940022
e101,101,1799999976,60550.799999399365
l45,45,999999987,60567.79999939912
1011.0999999852866
r12,12,199999994,60140.599999405335
e76,76,1799999980,60492.19999940022
e101,101,1799999973,60551.09999939936
l45,45,999999965,60569.999999399086
1012.3999999852676
r12,12,199999971,60142.8999994053
e76,76,1799999970,60493.1999994002
e101,101,1799999999,60548.4999993994
l45,45,999999960,60570.49999939908
1011.7999999852764
r12,12,199999984,60141.59999940532
e76,76,1799999963,60493.89999940019
e101,101,1799999952,60553.19999939933
l45,45,1000000000,60566.49999939914
1011.4999999852807
r12,12,199999956,60144.39999940528
e76,76,1799999990,60491.19999940023
e101,101,1799999955,60552.899999399335
l45,45,999999996,60566.89999939913
1012.2999999852691
r12,12,199999955,60144.49999940528
e76,76,1799999984,60491.799999400224
e101,101,1799999975,60550.899999399364
l45,45,999999998,60566.699999399134
1009.7999999853055
r12,12,199999964,60143.59999940529
e76,76,1799999991,60491.099999400234
e101,101,1799999983,60550.099999399376
l45,45,999999978,60568.699999399105
1013.9999999852444
r12,12,199999977,60142.29999940531
e76,76,1799999989,60491.29999940023
e101,101,1799999994,60548.99999939939
l45,45,999999976,60568.8999993991
1011.1999999852851
r12,12,199999960,60143.999999405285
e76,76,1799999993,60490.89999940024
e101,101,1799999971,60551.29999939936
l45,45,999999997,60566.79999939913
1009.9999999853026
r12,12,199999958,60144.19999940528
e76,76,1799999975,60492.69999940021
e101,101,1799999993,60549.09999939939
l45,45,999999974,60569.0999993991
1010.3999999852967
r12,12,199999962,60143.79999940529
e76,76,1799999997,60490.49999940024
e101,101,1799999974,60550.99999939936
l45,45,999999951,60571.399999399066
1009.899999985304
r12,12,199999959,60144.09999940528
e76,76,1799999952,60494.99999940018
e101,101,1799999961,60552.29999939934
l45,45,999999954,60571.09999939907
1012.7999999852618
r12,12,199999957,60144.29999940528
e76,76,1799999961,60494.09999940019
e101,101,1799999958,60552.59999939934
l45,45,999999984,60568.09999939911
1012.9999999852589
r12,12,199999985,60141.49999940532
e76,76,1799999955,60494.69999940018
e101,101,1799999965,60551.89999939935
l45,45,999999963,60570.19999939908
1012.2999999852691
r12,12,199999952,60144.79999940527
e76,76,1799999999,60490.299999400246
e101,101,1799999970,60551.39999939936
l45,45,999999971,60569.399999399095
1013.5999999852502
r12,12,199999954,60144.599999405276
e76,76,1799999998,60490.399999400244
e101,101,1799999980,60550.39999939937
l45,45,999999953,60571.19999939907
1010.8999999852895
r12,12,199999989,60141.09999940533
e76,76,1799999951,60495.099999400176
e101,101,1799999998,60548.5999993994
l45,45,999999955,60570.99999939907
1011.5999999852793
r12,12,199999973,60142.699999405304
e76,76,1799999954,60494.79999940018
e101,101,1799999967,60551.69999939935
l45,45,999999991,60567.399999399124
1011.4999999852807
r12,12,199999982,60141.79999940532
e76,76,1799999953,60494.89999940018
e101,101,1799999997,60548.699999399396
l45,45,999999970,60569.49999939909
1014.7999999852327
r12,12,199999996,60140.39999940534
e76,76,1799999967,60493.4999994002
e101,101,1799999984,60549.99999939938
l45,45,999999999,60566.599999399135
1014.3999999852385
r12,12,199999991,60140.89999940533
e76,76,1799999971,60493.099999400205
e101,101,1799999992,60549.19999939939
l45,45,999999952,60571.29999939907
1010.7999999852909
r12,12,199999963,60143.69999940529
e76,76,1799999977,60492.499999400214
e101,101,1799999964,60551.99999939935
l45,45,999999964,60570.099999399084
1014.6999999852342
r12,12,199999993,60140.69999940533
e76,76,1799999992,60490.999999400236
e101,101,1799999957,60552.69999939934
l45,45,999999975,60568.9999993991
1013.4999999852516
r12,12,199999975,60142.49999940531
e76,76,1799999994,60490.79999940024
e101,101,1799999979,60550.49999939937
l45,45,999999993,60567.19999939913
1015.399999985224
r12,12,199999999,60140.09999940534
e76,76,1799999981,60492.09999940022
e101,101,1800000000,60548.3999993994
l45,45,999999988,60567.69999939912
1012.099999985272
r12,12,199999997,60140.29999940534
e76,76,1799999956,60494.59999940018
e101,101,1799999989,60549.499999399384
l45,45,999999979,60568.599999399106
1012.6999999852633
r12,12,199999967,60143.299999405295
e76,76,1799999978,60492.399999400215
e101,101,1799999966,60551.79999939935
l45,45,999999977,60568.7999993991
1012.6999999852633
r12,12,199999979,60142.09999940531
e76,76,1799999987,60491.49999940023
e101,101,1799999960,60552.39999939934
l45,45,999999961,60570.39999939908
1014.7999999852327
r12,12,199999983,60141.69999940532
e76,76,1799999964,60493.799999400195
e101,101,1799999972,60551.19999939936
l45,45,999999958,60570.699999399076
1012.6999999852633
r12,12,199999966,60143.399999405294
e76,76,1799999983,60491.89999940022
e101,101,1799999959,60552.49999939934
l45,45,999999957,60570.799999399074
1015.6999999852196
r12,12,199999980,60141.999999405314
e76,76,1799999969,60493.2999994002
e101,101,1799999956,60552.799999399336
l45,45,999999956,60570.89999939907
1013.7999999852473
r12,12,199999974,60142.599999405305
e76,76,1799999974,60492.79999940021
e101,101,1799999977,60550.69999939937
l45,45,999999962,60570.29999939908
1016.7999999852036
r12,12,199999990,60140.99999940533
e76,76,1799999982,60491.99999940022
e101,101,1799999995,60548.89999939939
l45,45,999999968,60569.69999939909
1016.0999999852138
r12,12,199999953,60144.699999405275
e76,76,1799999986,60491.59999940023
e101,101,1799999962,60552.199999399345
l45,45,999999981,60568.39999939911
1014.6999999852342
r12,12,199999998,60140.19999940534
e76,76,1799999972,60492.99999940021
e101,101,1799999963,60552.09999939935
l45,45,999999994,60567.09999939913
1016.8999999852022
r12,12,199999978,60142.19999940531
e76,76,1799999966,60493.5999994002
e101,101,1799999951,60553.29999939933
l45,45,999999985,60567.999999399115
1012.5999999852647
r12,12,199999951,60144.89999940527
e76,76,1799999976,60492.59999940021
e101,101,1799999996,60548.799999399394
l45,45,999999986,60567.89999939912
1016.8999999852022
r12,12,199999961,60143.89999940529
e76,76,1799999958,60494.399999400186
e101,101,1799999968,60551.599999399354
l45,45,999999983,60568.19999939911
1013.9999999852444
r12,12,199999972,60142.7999994053
e76,76,1799999965,60493.699999400196
e101,101,1799999991,60549.29999939939
l45,45,999999980,60568.49999939911
1016.1999999852123
