r17,17,199999956,60337.799999402465
e83,83,1799999969,60507.79999939999
r25,25,199999977,60867.29999939476
l62,62,999999953,61091.99999939149
r32,32,199999953,61438.99999938644
e72,72,1799999961,61527.999999385145
1710.7999999751046
r17,17,199999966,60336.79999940248
e83,83,1799999957,60508.99999939997
r25,25,199999975,60867.49999939476
l62,62,999999985,61088.79999939154
r32,32,199999968,61437.49999938646
e72,72,1799999993,61524.79999938519
1709.1999999751279
r17,17,199999977,60335.699999402495
e83,83,1799999965,60508.199999399985
r25,25,199999954,60869.599999394726
l62,62,999999965,61090.79999939151
r32,32,199999995,61434.7999993865
e72,72,1799999965,61527.59999938515
1707.2999999751555
r17,17,199999973,60336.09999940249
e83,83,1799999989,60505.79999940002
r25,25,199999989,60866.09999939478
l62,62,999999954,61091.89999939149
r32,32,199999966,61437.69999938646
e72,72,1799999958,61528.29999938514
1708.6999999751351
r17,17,199999975,60335.89999940249
e83,83,1799999984,60506.29999940001
r25,25,199999951,60869.89999939472
l62,62,999999952,61092.09999939149
r32,32,199999992,61435.0999993865
e72,72,1799999991,61524.99999938519
1711.6999999750915
r17,17,199999993,60334.09999940252
e83,83,1799999997,60504.99999940003
r25,25,199999999,60865.09999939479
l62,62,1000000000,61087.29999939156
r32,32,199999996,61434.6999993865
e72,72,1799999966,61527.49999938515
1708.499999975138
r17,17,199999953,60338.09999940246
e83,83,1799999962,60508.49999939998
r25,25,199999966,60868.399999394744
l62,62,999999982,61089.09999939153
r32,32,199999972,61437.09999938647
e72,72,1799999968,61527.299999385155
1708.7999999751337
r17,17,199999960,60337.39999940247
e83,83,1799999970,60507.69999939999
r25,25,199999992,60865.79999939478
l62,62,999999974,61089.89999939152
r32,32,199999958,61438.49999938645
e72,72,1799999972,61526.89999938516
1711.0999999751002
r17,17,199999980,60335.3999994025
e83,83,1799999959,60508.79999939998
r25,25,199999971,60867.89999939475
l62,62,999999972,61090.09999939152
r32,32,199999989,61435.39999938649
e72,72,1799999988,61525.299999385184
1710.699999975106
r17,17,199999969,60336.499999402484
e83,83,1799999960,60508.69999939998
r25,25,199999990,60865.99999939478
l62,62,999999992,61088.09999939155
r32,32,199999963,61437.999999386455
e72,72,1799999957,61528.39999938514
1712.3999999750813
r17,17,199999970,60336.399999402485
e83,83,1799999961,60508.59999939998
r25,25,199999960,60868.999999394735
l62,62,999999973,61089.99999939152
r32,32,199999962,61438.09999938645
e72,72,1799999952,61528.89999938513
1709.7999999751191
r17,17,199999987,60334.69999940251
e83,83,1799999994,60505.29999940003
r25,25,199999991,60865.89999939478
l62,62,999999971,61090.199999391516
r32,32,199999979,61436.39999938648
e72,72,1799999982,61525.899999385176
1708.299999975141
r17,17,199999965,60336.89999940248
e83,83,1799999986,60506.099999400016
r25,25,199999963,60868.69999939474
l62,62,999999976,61089.69999939152
r32,32,199999991,61435.199999386496
e72,72,1799999964,61527.69999938515
1708.499999975138
r17,17,199999995,60333.89999940252
e83,83,1799999968,60507.89999939999
r25,25,199999987,60866.299999394774
l62,62,999999983,61088.99999939153
r32,32,199999964,61437.899999386456
e72,72,1799999985,61525.59999938518
1711.599999975093
r17,17,199999979,60335.4999994025
e83,83,1799999966,60508.09999939999
r25,25,199999993,60865.69999939478
l62,62,999999994,61087.89999939155
r32,32,199999951,61439.19999938644
e72,72,1799999999,61524.1999993852
1710.7999999751046
r17,17,199999964,60336.99999940248
e83,83,1799999976,60507.0999994
r25,25,199999986,60866.39999939477
l62,62,999999956,61091.699999391494
r32,32,199999986,61435.69999938649
e72,72,1799999954,61528.699999385135
1712.0999999750857
r17,17,199999962,60337.19999940247
e83,83,1799999978,60506.899999400004
r25,25,199999972,60867.79999939475
l62,62,999999990,61088.299999391544
r32,32,199999959,61438.39999938645
e72,72,1799999989,61525.199999385186
1711.79999997509
r17,17,199999999,60333.49999940253
e83,83,1799999974,60507.2999994
r25,25,199999955,60869.49999939473
l62,62,999999958,61091.4999993915
r32,32,199999981,61436.19999938648
e72,72,1799999996,61524.499999385196
1708.6999999751351
r17,17,199999958,60337.59999940247
e83,83,1799999956,60509.09999939997
r25,25,199999968,60868.19999939475
l62,62,999999997,61087.599999391554
r32,32,199999969,61437.39999938646
e72,72,1799999978,61526.29999938517
1710.0999999751148
r17,17,199999991,60334.299999402516
e83,83,1799999996,60505.09999940003
r25,25,199999957,60869.29999939473
l62,62,999999991,61088.199999391545
r32,32,199999957,61438.599999386446
e72,72,1799999995,61524.599999385195
1708.7999999751337
r17,17,199999963,60337.099999402475
e83,83,1799999981,60506.59999940001
r25,25,199999983,60866.69999939477
l62,62,999999967,61090.59999939151
r32,32,199999965,61437.79999938646
e72,72,1799999969,61527.19999938516
1708.5999999751366
r17,17,199999959,60337.49999940247
e83,83,1799999998,60504.89999940003
r25,25,199999962,60868.79999939474
l62,62,999999993,61087.99999939155
r32,32,199999973,61436.99999938647
e72,72,1799999981,61525.999999385174
1708.8999999751322
r17,17,199999976,60335.799999402494
e83,83,1799999988,60505.89999940002
r25,25,199999967,60868.299999394745
l62,62,999999984,61088.899999391535
r32,32,199999975,61436.79999938647
e72,72,1799999967,61527.399999385154
1710.8999999751031
r17,17,199999989,60334.49999940251
e83,83,1799999985,60506.199999400014
r25,25,199999952,60869.79999939472
l62,62,999999961,61091.1999993915
r32,32,199999997,61434.599999386504
e72,72,1799999987,61525.39999938518
1712.2999999750828
r17,17,199999984,60334.999999402506
e83,83,1799999992,60505.499999400025
r25,25,199999974,60867.599999394755
l62,62,999999957,61091.599999391496
r32,32,199999955,61438.79999938644
e72,72,1799999984,61525.69999938518
1711.8999999750886
r17,17,199999986,60334.79999940251
e83,83,1799999955,60509.19999939997
r25,25,199999985,60866.49999939477
l62,62,999999980,61089.29999939153
r32,32,199999993,61434.9999993865
e72,72,1799999974,61526.699999385164
1713.8999999750595
r17,17,199999996,60333.79999940252
e83,83,1799999954,60509.29999939997
r25,25,199999980,60866.999999394764
l62,62,999999998,61087.499999391555
r32,32,199999984,61435.899999386485
e72,72,1799999956,61528.49999938514
1711.79999997509
r17,17,199999961,60337.29999940247
e83,83,1799999987,60505.99999940002
r25,25,199999953,60869.699999394725
l62,62,999999962,61091.0999993915
r32,32,199999974,61436.89999938647
e72,72,1799999953,61528.79999938513
1713.8999999750595
r17,17,200000000,60333.39999940253
e83,83,1799999972,60507.499999399995
r25,25,199999976,60867.39999939476
l62,62,999999968,61090.49999939151
r32,32,199999978,61436.49999938648
e72,72,1799999979,61526.19999938517
1709.4999999751235
r17,17,199999968,60336.59999940248
e83,83,1799999971,60507.599999399994
r25,25,199999973,60867.699999394754
l62,62,999999964,61090.899999391506
r32,32,199999956,61438.699999386445
e72,72,1799999959,61528.19999938514
1713.5999999750638
r17,17,199999972,60336.19999940249
e83,83,1799999991,60505.59999940002
r25,25,200000000,60864.99999939479
l62,62,999999986,61088.69999939154
r32,32,199999952,61439.09999938644
e72,72,1799999970,61527.09999938516
1712.699999975077
r17,17,199999994,60333.99999940252
e83,83,1799999964,60508.299999399984
r25,25,199999995,60865.499999394786
l62,62,999999989,61088.39999939154
r32,32,199999987,61435.59999938649
e72,72,1799999992,61524.89999938519
1710.499999975109
r17,17,199999957,60337.699999402466
e83,83,1799999953,60509.39999939997
r25,25,199999981,60866.899999394765
l62,62,999999955,61091.79999939149
r32,32,199999988,61435.49999938649
e72,72,1799999986,61525.49999938518
1711.2999999750973
r17,17,199999983,60335.099999402504
e83,83,1799999993,60505.399999400026
r25,25,199999965,60868.49999939474
l62,62,999999995,61087.79999939155
r32,32,199999982,61436.09999938648
e72,72,1799999980,61526.09999938517
1712.899999975074
r17,17,199999967,60336.69999940248
e83,83,1799999999,60504.799999400035
r25,25,199999998,60865.19999939479
l62,62,999999978,61089.499999391526
r32,32,199999998,61434.499999386506
e72,72,1800000000,61524.0999993852
1714.4999999750507
r17,17,199999951,60338.29999940246
e83,83,1799999967,60507.99999939999
r25,25,199999979,60867.09999939476
l62,62,999999969,61090.39999939151
r32,32,199999983,61435.999999386484
e72,72,1799999990,61525.09999938519
1711.0999999751002
r17,17,199999955,60337.89999940246
e83,83,1799999980,60506.69999940001
r25,25,199999964,60868.59999939474
l62,62,999999970,61090.299999391515
r32,32,199999977,61436.599999386475
e72,72,1799999963,61527.79999938515
1712.5999999750784
r17,17,199999985,60334.89999940251
e83,83,1799999990,60505.69999940002
r25,25,199999997,60865.29999939479
l62,62,999999979,61089.39999939153
r32,32,199999999,61434.39999938651
e72,72,1799999955,61528.59999938514
1712.5999999750784
r17,17,199999998,60333.599999402526
e83,83,1799999975,60507.1999994
r25,25,199999959,60869.09999939473
l62,62,999999966,61090.69999939151
r32,32,199999990,61435.299999386494
e72,72,1799999997,61524.3999993852
1714.2999999750537
r17,17,199999981,60335.2999994025
e83,83,1799999982,60506.49999940001
r25,25,199999982,60866.79999939477
l62,62,999999977,61089.599999391525
r32,32,199999970,61437.299999386465
e72,72,1799999975,61526.599999385166
1713.1999999750697
r17,17,199999971,60336.29999940249
e83,83,1799999973,60507.3999994
r25,25,199999978,60867.19999939476
l62,62,999999951,61092.19999939149
r32,32,200000000,61434.29999938651
e72,72,1799999983,61525.79999938518
1711.4999999750944
r17,17,199999952,60338.19999940246
e83,83,1799999995,60505.19999940003
r25,25,199999984,60866.59999939477
l62,62,999999959,61091.3999993915
r32,32,199999980,61436.29999938648
e72,72,1799999994,61524.69999938519
1714.199999975055
r17,17,199999992,60334.19999940252
e83,83,1799999979,60506.799999400006
r25,25,199999961,60868.89999939474
l62,62,999999963,61090.999999391504
r32,32,199999961,61438.19999938645
e72,72,1799999976,61526.49999938517
1713.999999975058
r17,17,199999954,60337.99999940246
e83,83,1799999983,60506.39999940001
r25,25,199999994,60865.599999394784
l62,62,999999987,61088.59999939154
r32,32,199999967,61437.59999938646
e72,72,1799999951,61528.99999938513
1711.9999999750871
r17,17,199999982,60335.1999994025
e83,83,1799999951,60509.599999399965
r25,25,199999969,60868.09999939475
l62,62,999999988,61088.49999939154
r32,32,199999985,61435.79999938649
e72,72,1799999998,61524.2999993852
1712.1999999750842
r17,17,199999997,60333.699999402525
e83,83,1799999952,60509.499999399966
r25,25,199999988,60866.199999394776
l62,62,999999999,61087.39999939156
r32,32,199999971,61437.19999938647
e72,72,1799999971,61526.99999938516
1715.4999999750362
r17,17,199999974,60335.99999940249
e83,83,1799999958,60508.899999399975
r25,25,199999970,60867.99999939475
l62,62,999999981,61089.19999939153
r32,32,199999976,61436.699999386474
e72,72,1799999960,61528.099999385144
1712.4999999750798
r17,17,199999990,60334.399999402514
e83,83,1800000000,60504.699999400036
r25,25,199999996,60865.39999939479
l62,62,999999996,61087.69999939155
r32,32,199999960,61438.29999938645
e72,72,1799999962,61527.89999938515
1713.1999999750697
r17,17,199999988,60334.59999940251
e83,83,1799999977,60506.9999994
r25,25,199999956,60869.39999939473
l62,62,999999960,61091.2999993915
r32,32,199999994,61434.8999993865
e72,72,1799999973,61526.79999938516
1715.6999999750333
r17,17,199999978,60335.5999994025
e83,83,1799999963,60508.39999939998
r25,25,199999958,60869.19999939473
l62,62,999999975,61089.79999939152
r32,32,199999954,61438.89999938644
e72,72,1799999977,61526.39999938517
1713.4999999750653
