e92,92,1799999994,60199.89999940447
l52,52,999999983,61265.59999938896
e75,75,1799999960,61686.29999938284
r17,17,199999987,61842.19999938057
r6,6,199999980,62227.499999374966
2399.399999965084
e69,69,1799999991,61245.89999938925
r4,4,199999965,61809.19999938105
e75,75,1799999954,61833.99999938069
r17,17,199999965,61844.39999938054
r6,6,199999951,62230.399999374924
2397.2999999651147
e92,92,1799999961,60203.19999940442
l52,52,999999978,61266.099999388956
e75,75,1799999971,61685.19999938286
r17,17,199999972,61843.69999938055
r6,6,199999998,62225.69999937499
2399.2999999650856
e69,69,1799999990,61245.99999938925
r4,4,199999984,61807.29999938108
e75,75,1799999952,61834.19999938069
r17,17,199999985,61842.39999938057
r6,6,199999966,62228.899999374946
2401.199999965058
e92,92,1799999969,60202.399999404435
l52,52,999999995,61264.39999938898
e75,75,1799999975,61684.79999938286
r17,17,199999969,61843.99999938055
r6,6,199999963,62229.19999937494
2401.4999999650536
e92,92,1799999966,60202.69999940443
l52,52,999999973,61266.59999938895
e75,75,1799999986,61683.69999938288
r17,17,199999967,61844.199999380544
r6,6,199999955,62229.99999937493
2399.199999965087
e92,92,1799999980,60201.29999940445
l52,52,999999987,61265.19999938897
e75,75,1799999998,61682.4999993829
r17,17,199999978,61843.09999938056
r6,6,199999982,62227.29999937497
2401.2999999650565
e92,92,1799999959,60203.39999940442
l52,52,999999992,61264.69999938898
e75,75,1799999965,61685.79999938285
r17,17,199999966,61844.29999938054
r6,6,199999984,62227.09999937497
2398.2999999651
e92,92,1799999974,60201.89999940444
l52,52,999999998,61264.099999388985
e75,75,1799999999,61682.3999993829
r17,17,199999998,61841.09999938059
r6,6,199999964,62229.09999937494
2400.3999999650696
e92,92,1799999970,60202.29999940444
l52,52,999999990,61264.899999388974
e75,75,1799999980,61684.29999938287
r17,17,199999968,61844.099999380545
r6,6,199999960,62229.49999937494
2401.399999965055
e92,92,1799999992,60200.09999940447
l52,52,999999969,61266.99999938894
e75,75,1799999966,61685.69999938285
r17,17,199999993,61841.59999938058
r6,6,199999996,62225.89999937499
2397.899999965106
e92,92,1799999991,60200.19999940447
l52,52,999999991,61264.799999388975
e75,75,1799999964,61685.89999938285
r17,17,199999982,61842.699999380566
r6,6,199999992,62226.29999937498
2401.8999999650478
e92,92,1799999973,60201.99999940444
l52,52,999999958,61268.09999938893
e75,75,1799999991,61683.19999938289
r17,17,199999990,61841.89999938058
r6,6,199999999,62225.599999374994
2399.9999999650754
e92,92,1799999990,60200.299999404466
l52,52,999999970,61266.899999388945
e75,75,1799999973,61684.99999938286
r17,17,199999994,61841.49999938058
r6,6,199999978,62227.69999937496
2401.6999999650507
e69,69,1799999960,61248.999999389205
r4,4,199999986,61807.099999381084
e75,75,1799999957,61833.6999993807
r17,17,199999951,61845.79999938052
r6,6,199999969,62228.59999937495
2401.0999999650594
e92,92,1800000000,60199.29999940448
l52,52,999999977,61266.199999388955
e75,75,1799999995,61682.79999938289
r17,17,199999974,61843.499999380554
r6,6,199999988,62226.69999937498
2397.7999999651074
e92,92,1799999993,60199.99999940447
l52,52,999999999,61263.99999938899
e75,75,1799999994,61682.89999938289
r17,17,199999973,61843.59999938055
r6,6,199999983,62227.19999937497
2398.8999999650914
e92,92,1799999972,60202.09999940444
l52,52,999999966,61267.29999938894
e75,75,1799999989,61683.399999382884
r17,17,199999971,61843.79999938055
r6,6,199999954,62230.09999937493
2401.4999999650536
e92,92,1799999960,60203.29999940442
l52,52,999999997,61264.199999388984
e75,75,1799999988,61683.49999938288
r17,17,199999959,61844.99999938053
r6,6,199999965,62228.999999374944
2400.7999999650638
e92,92,1799999958,60203.49999940442
l52,52,999999975,61266.39999938895
e75,75,1799999979,61684.39999938287
r17,17,199999952,61845.69999938052
r6,6,199999959,62229.599999374936
2402.499999965039
e92,92,1799999979,60201.39999940445
l52,52,999999967,61267.19999938894
e75,75,1799999969,61685.399999382855
r17,17,199999954,61845.499999380525
r6,6,199999987,62226.799999374976
2401.8999999650478
e92,92,1799999954,60203.89999940441
l52,52,999999960,61267.89999938893
e75,75,1799999996,61682.699999382894
r17,17,199999963,61844.59999938054
r6,6,199999957,62229.79999937493
2399.199999965087
e69,69,1799999973,61247.699999389224
r4,4,199999974,61808.299999381066
e75,75,1799999955,61833.899999380694
r17,17,199999977,61843.19999938056
r6,6,199999977,62227.79999937496
2398.99999996509
e69,69,1799999952,61249.79999938919
r4,4,199999966,61809.099999381055
e75,75,1799999953,61834.09999938069
r17,17,199999962,61844.69999938054
r6,6,199999997,62225.79999937499
2398.8999999650914
e92,92,1799999952,60204.09999940441
l52,52,999999996,61264.29999938898
e75,75,1799999981,61684.19999938287
r17,17,199999957,61845.19999938053
r6,6,199999981,62227.39999937497
2400.3999999650696
e92,92,1799999984,60200.89999940446
l52,52,999999985,61265.39999938897
e75,75,1799999977,61684.59999938287
r17,17,199999980,61842.89999938056
r6,6,199999990,62226.49999937498
2401.399999965055
e92,92,1799999965,60202.79999940443
l52,52,999999982,61265.69999938896
e75,75,1799999992,61683.09999938289
r17,17,199999979,61842.99999938056
r6,6,199999974,62228.09999937496
2401.199999965058
e92,92,1799999964,60202.89999940443
l52,52,999999965,61267.39999938894
e75,75,1799999976,61684.699999382865
r17,17,199999976,61843.29999938056
r6,6,199999971,62228.39999937495
2403.6999999650216
e92,92,1799999957,60203.59999940442
l52,52,999999976,61266.29999938895
e75,75,1799999987,61683.59999938288
r17,17,199999989,61841.999999380576
r6,6,199999985,62226.99999937497
2402.099999965045
e69,69,1799999961,61248.89999938921
r4,4,199999975,61808.19999938107
e75,75,1799999956,61833.799999380695
r17,17,199999961,61844.799999380535
r6,6,199999968,62228.69999937495
2400.7999999650638
e92,92,1799999988,60200.49999940446
l52,52,999999961,61267.79999938893
e75,75,1799999961,61686.19999938284
r17,17,199999953,61845.59999938052
r6,6,199999967,62228.79999937495
2403.0999999650303
e92,92,1799999978,60201.49999940445
l52,52,999999993,61264.59999938898
e75,75,1799999984,61683.89999938288
r17,17,199999999,61840.99999938059
r6,6,199999972,62228.299999374954
2401.2999999650565
e92,92,1799999971,60202.19999940444
l52,52,999999971,61266.799999388946
e75,75,1799999993,61682.99999938289
r17,17,199999955,61845.39999938053
r6,6,199999995,62225.99999937499
2399.6999999650798
e92,92,1799999975,60201.799999404444
l52,52,999999968,61267.09999938894
e75,75,1799999970,61685.299999382856
r17,17,199999983,61842.59999938057
r6,6,199999994,62226.09999937499
2399.6999999650798
e92,92,1799999996,60199.699999404475
l52,52,999999979,61265.99999938896
e75,75,1799999997,61682.599999382895
r17,17,199999992,61841.69999938058
r6,6,199999961,62229.39999937494
2402.5999999650376
e69,69,1799999992,61245.79999938925
r4,4,199999962,61809.49999938105
e75,75,1799999951,61834.29999938069
r17,17,199999960,61844.899999380534
r6,6,199999952,62230.299999374925
2401.599999965052
e92,92,1799999987,60200.59999940446
l52,52,1000000000,61263.89999938899
e75,75,1799999963,61685.999999382846
r17,17,199999995,61841.399999380585
r6,6,199999973,62228.199999374956
2400.5999999650667
e92,92,1799999982,60201.099999404454
l52,52,999999988,61265.09999938897
e75,75,1799999958,61686.49999938284
r17,17,199999975,61843.399999380556
r6,6,199999975,62227.99999937496
2403.199999965029
e92,92,1799999977,60201.59999940445
l52,52,999999959,61267.99999938893
e75,75,1799999978,61684.49999938287
r17,17,199999986,61842.29999938057
r6,6,199999976,62227.89999937496
2401.4999999650536
e92,92,1799999997,60199.599999404476
l52,52,999999972,61266.69999938895
e75,75,1799999990,61683.299999382885
r17,17,199999964,61844.49999938054
r6,6,199999986,62226.899999374975
2401.399999965055
e92,92,1799999976,60201.699999404445
l52,52,999999963,61267.599999388935
e75,75,1799999985,61683.79999938288
r17,17,199999988,61842.099999380574
r6,6,199999993,62226.199999374985
2400.699999965065
e92,92,1799999968,60202.499999404434
l52,52,999999980,61265.89999938896
e75,75,1799999974,61684.89999938286
r17,17,199999991,61841.79999938058
r6,6,199999970,62228.49999937495
2401.8999999650478
e92,92,1799999955,60203.799999404415
l52,52,999999981,61265.79999938896
e75,75,1799999982,61684.099999382874
r17,17,199999981,61842.799999380564
r6,6,199999991,62226.39999937498
2401.599999965052
e92,92,1799999967,60202.59999940443
l52,52,999999962,61267.69999938893
e75,75,1799999962,61686.099999382845
r17,17,199999997,61841.19999938059
r6,6,199999989,62226.59999937498
2404.5999999650085
e92,92,1799999998,60199.49999940448
l52,52,999999989,61264.99999938897
e75,75,1799999972,61685.09999938286
r17,17,200000000,61840.89999938059
r6,6,200000000,62225.499999374995
2404.3999999650114
e92,92,1799999989,60200.399999404464
l52,52,999999964,61267.499999388936
e75,75,1800000000,61682.2999993829
r17,17,199999984,61842.49999938057
r6,6,199999956,62229.89999937493
2404.699999965007
e92,92,1799999983,60200.999999404456
l52,52,999999984,61265.499999388965
e75,75,1799999959,61686.39999938284
r17,17,199999956,61845.29999938053
r6,6,199999953,62230.19999937493
2402.9999999650317
e92,92,1799999981,60201.19999940445
l52,52,999999974,61266.49999938895
e75,75,1799999983,61683.999999382875
r17,17,199999958,61845.09999938053
r6,6,199999979,62227.599999374965
2403.199999965029
e92,92,1799999999,60199.39999940448
l52,52,999999986,61265.29999938897
e75,75,1799999968,61685.49999938285
r17,17,199999970,61843.89999938055
r6,6,199999958,62229.699999374934
2403.0999999650303
e92,92,1799999951,60204.19999940441
l52,52,999999994,61264.49999938898
e75,75,1799999967,61685.59999938285
r17,17,199999996,61841.299999380586
r6,6,199999962,62229.29999937494
2406.0999999649866
