r18,18,199999999,60122.699999405595
r13,13,199999978,60170.199999404904
e82,82,1799999997,60211.399999404304
r2,2,199999961,60265.49999940352
r14,14,199999953,60801.19999939572
l36,36,999999996,60945.49999939362
2801.199999959237
r18,18,199999971,60125.499999405554
r13,13,199999967,60171.29999940489
e82,82,1799999988,60212.29999940429
r2,2,199999984,60263.19999940355
r14,14,199999986,60797.89999939577
l36,36,999999977,60947.399999393594
2801.0999999592386
r18,18,199999994,60123.19999940559
r13,13,199999998,60168.19999940493
e82,82,1800000000,60211.09999940431
r2,2,199999972,60264.39999940353
r14,14,199999970,60799.499999395746
l36,36,999999963,60948.799999393574
2801.899999959227
r18,18,199999990,60123.59999940558
r13,13,199999999,60168.099999404934
e82,82,1799999969,60214.19999940426
r2,2,199999990,60262.59999940356
r14,14,199999964,60800.09999939574
l36,36,999999954,60949.69999939356
2799.699999959259
r18,18,199999983,60124.29999940557
r13,13,199999961,60171.89999940488
e82,82,1799999967,60214.39999940426
r2,2,199999983,60263.29999940355
r14,14,199999989,60797.599999395774
l36,36,999999958,60949.29999939357
2800.99999995924
r18,18,199999996,60122.99999940559
r13,13,199999986,60169.399999404915
e82,82,1799999979,60213.19999940428
r2,2,199999998,60261.79999940357
r14,14,199999954,60801.09999939572
l36,36,999999971,60947.999999393585
2798.6999999592736
r18,18,199999985,60124.099999405575
r13,13,199999988,60169.19999940492
e82,82,1799999951,60215.99999940424
r2,2,199999997,60261.89999940357
r14,14,199999976,60798.899999395755
l36,36,999999975,60947.59999939359
2801.0999999592386
r18,18,199999965,60126.099999405546
r13,13,199999995,60168.49999940493
e82,82,1799999986,60212.49999940429
r2,2,199999988,60262.799999403556
r14,14,199999997,60796.799999395786
l36,36,999999981,60946.9999993936
2800.1999999592517
r18,18,200000000,60122.5999994056
r13,13,199999984,60169.59999940491
e82,82,1799999974,60213.69999940427
r2,2,199999960,60265.599999403516
r14,14,199999974,60799.09999939575
l36,36,999999982,60946.8999993936
2798.4999999592765
r18,18,199999973,60125.29999940556
r13,13,199999974,60170.5999994049
e82,82,1799999983,60212.799999404284
r2,2,199999994,60262.199999403565
r14,14,199999960,60800.49999939573
l36,36,999999984,60946.699999393604
2798.999999959269
r18,18,199999993,60123.299999405586
r13,13,199999971,60170.89999940489
e82,82,1799999999,60211.19999940431
r2,2,199999969,60264.69999940353
r14,14,199999977,60798.79999939576
l36,36,999999953,60949.79999939356
2803.0999999592095
r18,18,199999998,60122.79999940559
r13,13,199999987,60169.29999940492
e82,82,1799999953,60215.79999940424
r2,2,199999977,60263.89999940354
r14,14,199999972,60799.29999939575
l36,36,999999966,60948.49999939358
2798.999999959269
r18,18,199999968,60125.79999940555
r13,13,199999979,60170.099999404905
e82,82,1799999996,60211.4999994043
r2,2,199999987,60262.899999403555
r14,14,199999955,60800.999999395724
l36,36,999999983,60946.7999993936
2800.1999999592517
r18,18,199999954,60127.19999940553
r13,13,199999951,60172.899999404865
e82,82,1799999975,60213.59999940427
r2,2,199999993,60262.29999940356
r14,14,199999982,60798.299999395764
l36,36,999999987,60946.39999939361
2800.4999999592474
r18,18,199999951,60127.499999405525
r13,13,199999959,60172.099999404876
e82,82,1799999965,60214.59999940426
r2,2,199999957,60265.89999940351
r14,14,199999999,60796.59999939579
l36,36,999999964,60948.699999393575
2800.4999999592474
r18,18,199999960,60126.59999940554
r13,13,199999990,60168.99999940492
e82,82,1799999984,60212.699999404285
r2,2,199999966,60264.999999403524
r14,14,199999957,60800.79999939573
l36,36,999999995,60945.59999939362
2799.499999959262
r18,18,199999969,60125.69999940555
r13,13,199999994,60168.59999940493
e82,82,1799999964,60214.699999404256
r2,2,199999952,60266.399999403504
r14,14,199999988,60797.69999939577
l36,36,999999992,60945.899999393616
2801.7999999592284
r18,18,199999966,60125.99999940555
r13,13,199999968,60171.19999940489
e82,82,1799999971,60213.99999940427
r2,2,199999965,60265.09999940352
r14,14,199999985,60797.99999939577
l36,36,999999974,60947.69999939359
2802.999999959211
r18,18,199999979,60124.699999405566
r13,13,199999954,60172.59999940487
e82,82,1799999961,60214.99999940425
r2,2,199999959,60265.699999403514
r14,14,199999996,60796.899999395784
l36,36,999999991,60945.999999393614
2800.599999959246
r18,18,199999978,60124.799999405564
r13,13,199999981,60169.89999940491
e82,82,1799999978,60213.29999940428
r2,2,199999951,60266.4999994035
r14,14,199999958,60800.69999939573
l36,36,999999957,60949.399999393565
2803.7999999591993
r18,18,199999962,60126.39999940554
r13,13,199999993,60168.699999404926
e82,82,1799999991,60211.999999404296
r2,2,199999953,60266.299999403505
r14,14,199999951,60801.39999939572
l36,36,999999986,60946.49999939361
2802.8999999592124
r18,18,199999992,60123.399999405585
r13,13,199999980,60169.99999940491
e82,82,1799999970,60214.099999404265
r2,2,199999982,60263.39999940355
r14,14,199999987,60797.79999939577
l36,36,999999972,60947.89999939359
2802.1999999592226
r18,18,199999989,60123.69999940558
r13,13,199999972,60170.799999404895
e82,82,1799999982,60212.89999940428
r2,2,199999991,60262.49999940356
r14,14,199999961,60800.39999939573
l36,36,999999985,60946.599999393606
2799.699999959259
r18,18,199999974,60125.19999940556
r13,13,199999973,60170.6999994049
e82,82,1799999962,60214.89999940425
r2,2,199999967,60264.899999403526
r14,14,199999971,60799.39999939575
l36,36,999999970,60948.099999393584
2800.799999959243
r18,18,199999991,60123.49999940558
r13,13,199999957,60172.29999940487
e82,82,1799999972,60213.89999940427
r2,2,199999981,60263.499999403546
r14,14,199999983,60798.199999395765
l36,36,999999978,60947.299999393595
2803.199999959208
r18,18,199999952,60127.39999940553
r13,13,199999996,60168.39999940493
e82,82,1799999963,60214.799999404255
r2,2,199999964,60265.19999940352
r14,14,199999984,60798.09999939577
l36,36,999999969,60948.19999939358
2800.799999959243
r18,18,199999984,60124.19999940557
r13,13,199999952,60172.799999404866
e82,82,1799999968,60214.29999940426
r2,2,199999970,60264.59999940353
r14,14,199999975,60798.99999939575
l36,36,999999960,60949.09999939357
2801.2999999592357
r18,18,199999997,60122.89999940559
r13,13,199999975,60170.4999994049
e82,82,1799999957,60215.399999404246
r2,2,199999975,60264.09999940354
r14,14,200000000,60796.49999939579
l36,36,999999968,60948.29999939358
2802.999999959211
r18,18,199999977,60124.89999940556
r13,13,199999976,60170.3999994049
e82,82,1799999998,60211.299999404306
r2,2,199999968,60264.79999940353
r14,14,199999952,60801.29999939572
l36,36,999999962,60948.89999939357
2802.599999959217
r18,18,199999959,60126.69999940554
r13,13,199999953,60172.69999940487
e82,82,1799999995,60211.5999994043
r2,2,199999996,60261.99999940357
r14,14,199999968,60799.69999939574
l36,36,999999994,60945.69999939362
2801.7999999592284
r18,18,199999975,60125.09999940556
r13,13,199999960,60171.99999940488
e82,82,1799999952,60215.89999940424
r2,2,199999954,60266.19999940351
r14,14,199999966,60799.89999939574
l36,36,999999976,60947.49999939359
2803.699999959201
r18,18,199999957,60126.899999405534
r13,13,199999965,60171.499999404885
e82,82,1799999987,60212.39999940429
r2,2,199999955,60266.09999940351
r14,14,199999956,60800.899999395726
l36,36,999999967,60948.39999939358
2804.6999999591862
r18,18,199999988,60123.79999940558
r13,13,199999963,60171.69999940488
e82,82,1799999956,60215.499999404245
r2,2,199999978,60263.79999940354
r14,14,199999995,60796.99999939578
l36,36,999999980,60947.0999993936
2805.399999959176
r18,18,199999958,60126.799999405535
r13,13,199999966,60171.399999404886
e82,82,1799999977,60213.399999404275
r2,2,199999989,60262.69999940356
r14,14,199999990,60797.499999395775
l36,36,999999956,60949.49999939356
2803.199999959208
r18,18,199999967,60125.89999940555
r13,13,199999982,60169.79999940491
e82,82,1799999985,60212.59999940429
r2,2,199999974,60264.199999403536
r14,14,199999963,60800.199999395736
l36,36,999999965,60948.59999939358
2802.6999999592153
r18,18,199999961,60126.49999940554
r13,13,199999992,60168.799999404924
e82,82,1799999958,60215.29999940425
r2,2,199999992,60262.39999940356
r14,14,199999992,60797.29999939578
l36,36,999999993,60945.79999939362
2800.8999999592415
r18,18,199999995,60123.09999940559
r13,13,199999962,60171.79999940488
e82,82,1799999993,60211.7999994043
r2,2,199999962,60265.39999940352
r14,14,199999969,60799.599999395745
l36,36,999999999,60945.199999393626
2801.9999999592255
r18,18,199999976,60124.99999940556
r13,13,199999964,60171.59999940488
e82,82,1799999980,60213.09999940428
r2,2,199999985,60263.09999940355
r14,14,199999993,60797.19999939578
l36,36,999999988,60946.29999939361
2803.699999959201
r18,18,199999963,60126.29999940554
r13,13,199999989,60169.09999940492
e82,82,1799999973,60213.79999940427
r2,2,199999958,60265.79999940351
r14,14,199999998,60796.69999939579
l36,36,999999961,60948.99999939357
2804.1999999591935
r18,18,199999964,60126.199999405544
r13,13,199999956,60172.39999940487
e82,82,1799999954,60215.69999940424
r2,2,200000000,60261.599999403574
r14,14,199999962,60800.299999395735
l36,36,999999973,60947.79999939359
2805.6999999591717
r18,18,199999986,60123.999999405576
r13,13,199999977,60170.2999994049
e82,82,1799999981,60212.99999940428
r2,2,199999973,60264.299999403534
r14,14,199999991,60797.39999939578
l36,36,999999979,60947.1999993936
2806.299999959163
r18,18,199999980,60124.59999940557
r13,13,199999997,60168.29999940493
e82,82,1799999955,60215.59999940424
r2,2,199999995,60262.09999940357
r14,14,199999967,60799.79999939574
l36,36,999999998,60945.299999393625
2806.099999959166
r18,18,199999982,60124.39999940557
r13,13,199999991,60168.89999940492
e82,82,1799999992,60211.8999994043
r2,2,199999986,60262.99999940355
r14,14,199999973,60799.19999939575
l36,36,999999990,60946.09999939361
2805.599999959173
r18,18,199999970,60125.59999940555
r13,13,199999955,60172.49999940487
e82,82,1799999994,60211.6999994043
r2,2,199999980,60263.599999403545
r14,14,199999965,60799.99999939574
l36,36,999999951,60949.999999393556
2803.899999959198
r18,18,199999972,60125.399999405556
r13,13,199999983,60169.69999940491
e82,82,1799999960,60215.09999940425
r2,2,199999999,60261.69999940357
r14,14,199999979,60798.59999939576
l36,36,999999989,60946.19999939361
2802.1999999592226
r18,18,199999987,60123.89999940558
r13,13,199999969,60171.09999940489
e82,82,1799999990,60212.099999404294
r2,2,199999976,60263.99999940354
r14,14,199999978,60798.69999939576
l36,36,1000000000,60945.09999939363
2804.1999999591935
r18,18,199999955,60127.09999940553
r13,13,199999958,60172.199999404875
e82,82,1799999976,60213.499999404274
r2,2,199999979,60263.69999940354
r14,14,199999980,60798.49999939576
l36,36,999999952,60949.89999939356
2802.1999999592226
r18,18,199999953,60127.29999940553
r13,13,200000000,60167.999999404936
e82,82,1799999989,60212.19999940429
r2,2,199999963,60265.29999940352
r14,14,199999981,60798.39999939576
l36,36,999999955,60949.59999939356
2805.7999999591702
r18,18,199999981,60124.49999940557
r13,13,199999985,60169.499999404914
e82,82,1799999966,60214.49999940426
r2,2,199999956,60265.99999940351
r14,14,199999959,60800.59999939573
l36,36,999999959,60949.19999939357
2803.399999959205
r18,18,199999956,60126.99999940553
r13,13,199999970,60170.99999940489
e82,82,1799999959,60215.19999940425
r2,2,199999971,60264.49999940353
r14,14,199999994,60797.09999939578
l36,36,999999997,60945.39999939362
2806.3999999591615
