r13,13,199999987,60461.499999400665
l58,58,999999955,61135.29999939086
e81,81,1799999998,61256.69999938909
1533.6999999776817
r13,13,199999978,60462.39999940065
l58,58,999999986,61132.199999390905
e81,81,1799999961,61260.39999938904
1534.49999997767
r13,13,199999974,60462.799999400646
l58,58,999999966,61134.199999390876
e81,81,1799999980,61258.49999938907
1533.2999999776875
r13,13,199999969,60463.29999940064
l58,58,999999989,61131.89999939091
e81,81,1799999992,61257.299999389084
1535.7999999776512
r13,13,199999960,60464.199999400626
l58,58,999999972,61133.599999390884
e81,81,1799999983,61258.19999938907
1533.399999977686
r13,13,199999962,60463.99999940063
l58,58,999999995,61131.29999939092
e81,81,1799999996,61256.89999938909
1535.599999977654
r13,13,199999981,60462.099999400656
l58,58,999999982,61132.5999993909
e81,81,1799999981,61258.39999938907
1535.2999999776584
r13,13,199999991,60461.09999940067
l58,58,999999980,61132.799999390896
e81,81,1799999975,61258.99999938906
1535.4999999776555
r13,13,199999984,60461.79999940066
l58,58,999999975,61133.29999939089
e81,81,1799999951,61261.399999389025
1535.0999999776614
r13,13,199999994,60460.799999400675
l58,58,999999963,61134.49999939087
e81,81,1799999958,61260.699999389035
1535.399999977657
r13,13,199999995,60460.69999940068
l58,58,999999984,61132.3999993909
e81,81,1799999987,61257.79999938908
1533.5999999776832
r13,13,199999970,60463.19999940064
l58,58,1000000000,61130.799999390925
e81,81,1799999974,61259.09999938906
1536.499999977641
r13,13,199999976,60462.59999940065
l58,58,999999952,61135.599999390855
e81,81,1799999991,61257.39999938908
1535.19999997766
r13,13,199999999,60460.29999940068
l58,58,999999993,61131.499999390915
e81,81,1799999959,61260.59999938904
1537.8999999776206
r13,13,199999959,60464.299999400624
l58,58,999999983,61132.4999993909
e81,81,1799999963,61260.19999938904
1535.9999999776483
r13,13,199999973,60462.899999400644
l58,58,999999973,61133.499999390886
e81,81,1799999978,61258.699999389064
1538.1999999776162
r13,13,199999958,60464.39999940062
l58,58,999999976,61133.19999939089
e81,81,1799999971,61259.399999389054
1537.1999999776308
r13,13,199999980,60462.199999400655
l58,58,999999969,61133.89999939088
e81,81,1799999997,61256.79999938909
1536.8999999776352
r13,13,199999961,60464.09999940063
l58,58,999999970,61133.79999939088
e81,81,1799999993,61257.199999389086
1537.4999999776264
r13,13,199999977,60462.49999940065
l58,58,999999994,61131.39999939092
e81,81,1799999970,61259.49999938905
1538.7999999776075
r13,13,199999955,60464.69999940062
l58,58,999999977,61133.09999939089
e81,81,1800000000,61256.499999389096
1535.399999977657
r13,13,199999990,60461.19999940067
l58,58,999999954,61135.39999939086
e81,81,1799999972,61259.299999389055
1536.299999977644
r13,13,199999998,60460.39999940068
l58,58,999999961,61134.69999939087
e81,81,1799999984,61258.09999938907
1538.699999977609
r13,13,199999996,60460.59999940068
l58,58,999999962,61134.59999939087
e81,81,1799999967,61259.79999938905
1535.7999999776512
r21,21,199999967,60592.39999939876
l58,58,999999951,61136.19999939085
e81,81,1799999994,61257.09999938909
1536.1999999776453
r13,13,199999989,60461.29999940067
l58,58,999999991,61131.69999939091
e81,81,1799999977,61258.79999938906
1534.9999999776628
r13,13,199999988,60461.399999400666
l58,58,999999992,61131.59999939091
e81,81,1799999986,61257.899999389076
1537.4999999776264
r13,13,199999951,60465.09999940061
l58,58,999999999,61130.899999390924
e81,81,1799999995,61256.99999938909
1538.7999999776075
r13,13,199999971,60463.09999940064
l58,58,999999957,61135.09999939086
e81,81,1799999973,61259.19999938906
1536.3999999776424
r13,13,199999972,60462.99999940064
l58,58,999999960,61134.79999939087
e81,81,1799999979,61258.599999389065
1539.99999997759
r13,13,199999975,60462.69999940065
l58,58,999999987,61132.099999390906
e81,81,1799999953,61261.19999938903
1540.2999999775857
r13,13,199999956,60464.59999940062
l58,58,999999988,61131.99999939091
e81,81,1799999982,61258.29999938907
1539.2999999776002
r13,13,199999993,60460.89999940067
l58,58,999999979,61132.899999390895
e81,81,1799999952,61261.299999389026
1540.1999999775871
r13,13,199999952,60464.999999400614
l58,58,999999953,61135.49999939086
e81,81,1799999985,61257.999999389074
1536.1999999776453
r13,13,199999964,60463.79999940063
l58,58,999999967,61134.09999939088
e81,81,1799999964,61260.099999389044
1539.799999977593
r13,13,199999985,60461.69999940066
l58,58,999999974,61133.39999939089
e81,81,1799999968,61259.69999938905
1540.899999977577
r13,13,199999982,60461.99999940066
l58,58,999999956,61135.19999939086
e81,81,1799999962,61260.29999938904
1536.299999977644
r13,13,199999966,60463.599999400634
l58,58,999999964,61134.39999939087
e81,81,1799999989,61257.59999938908
1538.9999999776046
r13,13,199999953,60464.899999400615
l58,58,999999968,61133.99999939088
e81,81,1799999966,61259.89999938905
1536.9999999776337
r13,13,199999983,60461.89999940066
l58,58,999999998,61130.99999939092
e81,81,1799999990,61257.49999938908
1541.099999977574
r13,13,199999965,60463.69999940063
l58,58,999999958,61134.999999390864
e81,81,1799999960,61260.49999938904
1540.2999999775857
r13,13,199999979,60462.29999940065
l58,58,999999971,61133.69999939088
e81,81,1799999965,61259.999999389045
1539.99999997759
r13,13,199999963,60463.89999940063
l58,58,999999959,61134.899999390866
e81,81,1799999954,61261.09999938903
1536.9999999776337
r13,13,199999992,60460.99999940067
l58,58,999999978,61132.99999939089
e81,81,1799999976,61258.89999938906
1537.599999977625
r13,13,199999957,60464.49999940062
l58,58,999999985,61132.2999993909
e81,81,1799999988,61257.69999938908
1538.4999999776119
r13,13,199999997,60460.49999940068
l58,58,999999996,61131.19999939092
e81,81,1799999999,61256.599999389095
1540.4999999775828
r13,13,199999967,60463.499999400636
l58,58,999999965,61134.299999390874
e81,81,1799999957,61260.79999938903
1541.3999999775697
r13,13,200000000,60460.199999400684
l58,58,999999981,61132.6999993909
e81,81,1799999969,61259.59999938905
1538.5999999776104
r13,13,199999986,60461.59999940066
l58,58,999999997,61131.09999939092
e81,81,1799999956,61260.89999938903
1540.5999999775813
r13,13,199999954,60464.79999940062
l58,58,999999990,61131.79999939091
e81,81,1799999955,61260.99999938903
1539.8999999775915
