l47,47,999999994,60013.59999940718
r29,29,199999995,60058.99999940652
e72,72,1799999951,60326.39999940263
r21,21,199999991,60657.89999939781
e88,88,1799999966,61286.799999388655
e69,69,1799999983,61508.19999938543
l38,38,999999962,61935.69999937921
r24,24,199999967,61953.09999937896
e83,83,1799999982,62233.099999374885
2252.2999999672247
l47,47,999999951,60017.89999940712
e93,93,1799999989,61401.79999938698
e69,69,1799999951,61663.19999938318
l38,38,999999987,61933.19999937925
r24,24,199999982,61951.59999937898
e83,83,1799999989,62232.399999374895
2254.69999996719
l47,47,999999975,60015.499999407155
r29,29,199999993,60059.19999940652
e72,72,1799999994,60322.09999940269
r21,21,199999975,60659.49999939778
e88,88,1799999957,61287.69999938864
e69,69,1799999952,61511.29999938539
l38,38,999999985,61933.399999379246
r24,24,199999987,61951.09999937899
e83,83,1799999996,62231.699999374905
2253.9999999672
l47,47,1000000000,60012.99999940719
r29,29,199999967,60061.79999940648
e72,72,1799999952,60326.29999940263
r21,21,199999988,60658.1999993978
e88,88,1799999996,61283.7999993887
e69,69,1799999967,61509.79999938541
l38,38,999999951,61936.7999993792
r24,24,199999973,61952.49999937897
e83,83,1799999980,62233.29999937488
2255.099999967184
l47,47,999999987,60014.29999940717
r29,29,199999989,60059.59999940651
e72,72,1799999968,60324.699999402656
r21,21,199999994,60657.59999939781
e88,88,1799999994,61283.999999388696
e69,69,1799999965,61509.99999938541
l38,38,999999958,61936.09999937921
r24,24,199999979,61951.89999937898
e83,83,1799999954,62235.899999374844
2252.3999999672233
l47,47,999999978,60015.19999940716
r29,29,199999963,60062.199999406475
e72,72,1799999981,60323.399999402674
r21,21,199999974,60659.59999939778
e88,88,1799999978,61285.59999938867
e69,69,1799999962,61510.2999993854
l38,38,999999975,61934.39999937923
r24,24,199999988,61950.99999937899
e83,83,1799999995,62231.7999993749
2256.399999967165
l47,47,999999973,60015.69999940715
r29,29,199999990,60059.499999406515
e72,72,1799999975,60323.999999402666
r21,21,199999952,60661.79999939775
e88,88,1799999974,61285.99999938867
e69,69,1799999991,61507.399999385445
l38,38,999999970,61934.899999379224
r24,24,199999978,61951.999999378975
e83,83,1799999956,62235.69999937485
2253.099999967213
l47,47,999999955,60017.499999407126
r29,29,199999955,60062.999999406464
e72,72,1799999970,60324.49999940266
r21,21,199999966,60660.39999939777
e88,88,1799999967,61286.69999938866
e69,69,1799999976,61508.89999938542
l38,38,999999977,61934.199999379234
r24,24,199999957,61954.099999378945
e83,83,1799999978,62233.49999937488
2254.899999967187
l47,47,999999998,60013.19999940719
r29,29,199999987,60059.79999940651
e72,72,1799999958,60325.69999940264
r21,21,199999979,60659.09999939779
e88,88,1799999987,61284.699999388686
e69,69,1799999999,61506.59999938546
l38,38,999999996,61932.29999937926
r24,24,199999997,61950.099999379
e83,83,1799999974,62233.89999937487
2255.1999999671825
l47,47,999999974,60015.59999940715
r29,29,199999979,60060.5999994065
e72,72,1799999992,60322.29999940269
r21,21,199999957,60661.29999939776
e88,88,1799999973,61286.099999388665
e69,69,1799999993,61507.19999938545
l38,38,999999969,61934.99999937922
r24,24,199999999,61949.899999379006
e83,83,1799999992,62232.0999993749
2256.6999999671607
l47,47,999999989,60014.099999407175
r29,29,199999959,60062.59999940647
e72,72,1799999965,60324.99999940265
r21,21,199999978,60659.19999939779
e88,88,1799999989,61284.49999938869
e69,69,1799999969,61509.59999938541
l38,38,999999981,61933.79999937924
r24,24,199999972,61952.59999937897
e83,83,1799999953,62235.99999937484
2255.099999967184
l47,47,999999971,60015.89999940715
r29,29,199999976,60060.899999406494
e72,72,1799999999,60321.5999994027
r21,21,199999977,60659.29999939779
e88,88,1799999992,61284.19999938869
e69,69,1799999973,61509.19999938542
l38,38,999999967,61935.19999937922
r24,24,199999990,61950.79999937899
e83,83,1799999951,62236.19999937484
2252.899999967216
l47,47,999999953,60017.69999940712
r29,29,199999964,60062.09999940648
e72,72,1799999971,60324.39999940266
r21,21,199999983,60658.699999397795
e88,88,1799999951,61288.29999938863
e69,69,1799999975,61508.99999938542
l38,38,999999957,61936.199999379205
r24,24,199999969,61952.89999937896
e83,83,1799999981,62233.19999937488
2254.5999999671913
l47,47,999999982,60014.799999407165
r29,29,199999999,60058.59999940653
e72,72,1799999985,60322.99999940268
r21,21,199999973,60659.69999939778
e88,88,1799999988,61284.59999938869
e69,69,1799999997,61506.799999385454
l38,38,999999984,61933.499999379244
r24,24,199999968,61952.99999937896
e83,83,1799999983,62232.999999374886
2254.199999967197
l47,47,999999954,60017.599999407124
r29,29,199999984,60060.099999406506
e72,72,1799999995,60321.999999402695
r21,21,199999997,60657.299999397816
e88,88,1799999969,61286.49999938866
e69,69,1799999998,61506.699999385455
l38,38,999999972,61934.69999937923
r24,24,199999959,61953.89999937895
e83,83,1799999991,62232.1999993749
2256.4999999671636
l47,47,999999990,60013.99999940718
r29,29,199999969,60061.599999406484
e72,72,1799999963,60325.19999940265
r21,21,199999960,60660.99999939776
e88,88,1799999962,61287.19999938865
e69,69,1799999981,61508.39999938543
l38,38,999999991,61932.799999379255
r24,24,199999977,61952.099999378974
e83,83,1799999960,62235.29999937485
2257.1999999671534
l47,47,999999963,60016.69999940714
r29,29,199999998,60058.699999406526
e72,72,1799999966,60324.89999940265
r21,21,199999964,60660.59999939777
e88,88,1799999959,61287.499999388645
e69,69,1799999990,61507.49999938544
l38,38,999999994,61932.49999937926
r24,24,200000000,61949.79999937901
e83,83,1799999998,62231.49999937491
2256.4999999671636
l47,47,999999976,60015.39999940716
r29,29,199999953,60063.19999940646
e72,72,1799999962,60325.29999940265
r21,21,199999968,60660.19999939777
e88,88,1799999985,61284.89999938868
e69,69,1799999958,61510.6999993854
l38,38,999999968,61935.09999937922
r24,24,199999961,61953.69999937895
e83,83,1799999973,62233.99999937487
2256.899999967158
l47,47,999999959,60017.09999940713
r29,29,199999973,60061.19999940649
e72,72,1799999960,60325.499999402644
r21,21,199999998,60657.19999939782
e88,88,1799999986,61284.799999388684
e69,69,1799999957,61510.799999385395
l38,38,999999983,61933.59999937924
r24,24,199999993,61950.499999379
e83,83,1799999988,62232.49999937489
2255.6999999671752
l47,47,999999962,60016.799999407136
r29,29,199999956,60062.899999406465
e72,72,1799999986,60322.89999940268
r21,21,199999993,60657.69999939781
e88,88,1799999955,61287.89999938864
e69,69,1799999974,61509.09999938542
l38,38,999999973,61934.59999937923
r24,24,199999992,61950.599999378996
e83,83,1799999971,62234.19999937487
2258.199999967139
l47,47,999999977,60015.29999940716
r29,29,199999991,60059.399999406516
e72,72,1799999998,60321.6999994027
r21,21,199999987,60658.2999993978
e88,88,1799999963,61287.09999938865
e69,69,1799999985,61507.999999385436
l38,38,999999971,61934.799999379225
r24,24,199999989,61950.89999937899
e83,83,1799999999,62231.39999937491
2254.399999967194
l47,47,999999995,60013.499999407184
r29,29,199999960,60062.49999940647
e72,72,1799999983,60323.19999940268
r21,21,199999980,60658.99999939779
e88,88,1799999982,61285.19999938868
e69,69,1799999992,61507.29999938545
l38,38,999999979,61933.99999937924
r24,24,199999953,61954.49999937894
e83,83,1799999963,62234.99999937486
2255.299999967181
l47,47,999999965,60016.49999940714
r29,29,199999981,60060.3999994065
e72,72,1799999953,60326.199999402634
r21,21,199999985,60658.4999993978
e88,88,1800000000,61283.399999388705
e69,69,1799999964,61510.099999385406
l38,38,999999960,61935.89999937921
r24,24,199999971,61952.699999378965
e83,83,1799999987,62232.59999937489
2255.8999999671723
l47,47,999999999,60013.09999940719
r29,29,199999957,60062.79999940647
e72,72,1799999978,60323.69999940267
r21,21,199999984,60658.5999993978
e88,88,1799999990,61284.39999938869
e69,69,1799999971,61509.399999385416
l38,38,999999999,61931.999999379266
r24,24,199999952,61954.59999937894
e83,83,1799999985,62232.79999937489
2257.8999999671432
l47,47,999999996,60013.399999407186
r29,29,199999971,60061.39999940649
e72,72,1799999993,60322.19999940269
r21,21,199999969,60660.099999397775
e88,88,1799999997,61283.6999993887
e69,69,1799999979,61508.59999938543
l38,38,999999974,61934.49999937923
r24,24,199999998,61949.999999379004
e83,83,1799999957,62235.59999937485
2255.1999999671825
l47,47,999999961,60016.899999407135
r29,29,199999985,60059.99999940651
e72,72,1799999955,60325.99999940264
r21,21,199999962,60660.799999397765
e88,88,1799999965,61286.899999388654
e69,69,1799999988,61507.69999938544
l38,38,999999956,61936.299999379204
r24,24,199999991,61950.699999378994
e83,83,1799999962,62235.099999374856
2257.8999999671432
l47,47,999999986,60014.39999940717
r29,29,199999994,60059.09999940652
e72,72,1799999972,60324.29999940266
r21,21,199999992,60657.79999939781
e88,88,1799999981,61285.29999938868
e69,69,1799999972,61509.29999938542
l38,38,999999952,61936.6999993792
r24,24,199999981,61951.69999937898
e83,83,1799999955,62235.799999374845
2255.299999967181
l47,47,999999988,60014.199999407174
r29,29,199999972,60061.29999940649
e72,72,1799999977,60323.79999940267
r21,21,199999981,60658.89999939779
e88,88,1799999956,61287.79999938864
e69,69,1799999966,61509.89999938541
l38,38,999999978,61934.099999379236
r24,24,199999984,61951.399999378984
e83,83,1799999966,62234.69999937486
2254.899999967187
l47,47,999999964,60016.59999940714
r29,29,199999978,60060.6999994065
e72,72,1799999959,60325.59999940264
r21,21,199999999,60657.09999939782
e88,88,1799999975,61285.89999938867
e69,69,1799999963,61510.199999385404
l38,38,999999955,61936.3999993792
r24,24,199999955,61954.29999937894
e83,83,1799999984,62232.89999937489
2258.2999999671374
l47,47,999999970,60015.99999940715
r29,29,199999962,60062.299999406474
e72,72,1799999961,60325.399999402645
r21,21,199999951,60661.89999939775
e88,88,1799999983,61285.09999938868
e69,69,1800000000,61506.49999938546
l38,38,999999965,61935.39999937922
r24,24,199999966,61953.19999937896
e83,83,1799999952,62236.09999937484
2258.8999999671287
l47,47,999999960,60016.99999940713
r29,29,199999977,60060.799999406496
e72,72,1799999991,60322.39999940269
r21,21,200000000,60656.99999939782
e88,88,1799999954,61287.99999938864
e69,69,1799999987,61507.79999938544
l38,38,999999982,61933.69999937924
r24,24,199999970,61952.79999937896
e83,83,1799999977,62233.59999937488
2256.2999999671665
l47,47,999999997,60013.29999940719
r29,29,199999997,60058.799999406525
e72,72,1799999976,60323.89999940267
r21,21,199999970,60659.999999397776
e88,88,1799999999,61283.4999993887
e69,69,1799999955,61510.99999938539
l38,38,999999954,61936.4999993792
r24,24,199999974,61952.39999937897
e83,83,1799999964,62234.89999937486
2257.5999999671476
l47,47,999999967,60016.29999940714
r29,29,199999954,60063.09999940646
e72,72,1799999996,60321.899999402696
r21,21,199999965,60660.49999939777
e88,88,1799999998,61283.5999993887
e69,69,1799999956,61510.899999385394
l38,38,999999992,61932.699999379256
r24,24,199999995,61950.299999379
e83,83,1799999990,62232.299999374896
2257.1999999671534
l47,47,999999985,60014.49999940717
r29,29,199999982,60060.2999994065
e72,72,1799999969,60324.59999940266
r21,21,199999963,60660.699999397766
e88,88,1799999961,61287.29999938865
e69,69,1799999984,61508.099999385435
l38,38,999999989,61932.99999937925
r24,24,199999951,61954.699999378936
e83,83,1799999976,62233.699999374876
2256.2999999671665
l47,47,999999968,60016.199999407145
r29,29,199999986,60059.89999940651
e72,72,1799999988,60322.699999402685
r21,21,199999971,60659.89999939778
e88,88,1799999976,61285.79999938867
e69,69,1799999970,61509.499999385414
l38,38,999999963,61935.599999379214
r24,24,199999983,61951.49999937898
e83,83,1799999967,62234.59999937486
2256.9999999671563
l47,47,999999972,60015.79999940715
r29,29,199999958,60062.69999940647
e72,72,1799999957,60325.79999940264
r21,21,199999958,60661.19999939776
e88,88,1799999984,61284.99999938868
e69,69,1799999994,61507.09999938545
l38,38,999999988,61933.09999937925
r24,24,199999965,61953.299999378956
e83,83,1799999958,62235.49999937485
2257.7999999671447
l47,47,999999980,60014.99999940716
r29,29,199999983,60060.199999406505
e72,72,1799999967,60324.799999402654
r21,21,199999972,60659.79999939778
e88,88,1799999958,61287.59999938864
e69,69,1799999986,61507.89999938544
l38,38,999999998,61932.099999379265
r24,24,199999976,61952.19999937897
e83,83,1800000000,62231.29999937491
2255.299999967181
l47,47,999999984,60014.59999940717
r29,29,199999968,60061.69999940648
e72,72,1799999990,60322.49999940269
r21,21,199999990,60657.999999397805
e88,88,1799999971,61286.29999938866
e69,69,1799999961,61510.3999993854
l38,38,999999997,61932.19999937926
r24,24,199999963,61953.49999937895
e83,83,1799999959,62235.39999937485
2259.7999999671156
l47,47,999999981,60014.899999407164
r29,29,199999975,60060.99999940649
e72,72,1799999979,60323.59999940267
r21,21,199999959,60661.09999939776
e88,88,1799999980,61285.399999388675
e69,69,1799999960,61510.4999993854
l38,38,999999995,61932.39999937926
r24,24,199999980,61951.79999937898
e83,83,1799999961,62235.199999374854
2259.0999999671258
l47,47,999999966,60016.39999940714
r29,29,199999996,60058.89999940652
e72,72,1799999973,60324.19999940266
r21,21,199999996,60657.399999397814
e88,88,1799999979,61285.499999388674
e69,69,1799999982,61508.29999938543
l38,38,1000000000,61931.89999937927
r24,24,199999962,61953.59999937895
e83,83,1799999993,62231.9999993749
2258.8999999671287
l47,47,999999956,60017.39999940713
r29,29,199999951,60063.39999940646
e72,72,1799999984,60323.09999940268
r21,21,199999953,60661.69999939775
e88,88,1799999972,61286.199999388664
e69,69,1799999968,61509.69999938541
l38,38,999999953,61936.5999993792
r24,24,199999956,61954.19999937894
e83,83,1799999969,62234.399999374866
2256.599999967162
l47,47,999999952,60017.79999940712
r29,29,199999974,60061.09999940649
e72,72,1799999980,60323.49999940267
r21,21,199999967,60660.29999939777
e88,88,1799999977,61285.69999938867
e69,69,1799999996,61506.89999938545
l38,38,999999959,61935.99999937921
r24,24,199999964,61953.399999378955
e83,83,1799999968,62234.499999374864
2258.79999996713
l47,47,999999993,60013.69999940718
r29,29,199999966,60061.89999940648
e72,72,1799999989,60322.599999402686
r21,21,199999982,60658.799999397794
e88,88,1799999960,61287.39999938865
e69,69,1799999953,61511.19999938539
l38,38,999999993,61932.59999937926
r24,24,199999975,61952.29999937897
e83,83,1799999972,62234.09999937487
2257.699999967146
l47,47,999999991,60013.89999940718
r29,29,199999965,60061.99999940648
e72,72,1799999997,60321.7999994027
r21,21,199999954,60661.59999939775
e88,88,1799999991,61284.29999938869
e69,69,1799999959,61510.5999993854
l38,38,999999976,61934.29999937923
r24,24,199999994,61950.399999379
e83,83,1799999986,62232.69999937489
2260.4999999671054
l47,47,999999958,60017.19999940713
r29,29,199999992,60059.29999940652
e72,72,1799999954,60326.099999402635
r21,21,199999961,60660.89999939776
e88,88,1799999968,61286.59999938866
e69,69,1799999954,61511.09999938539
l38,38,999999990,61932.89999937925
r24,24,199999996,61950.199999379
e83,83,1799999979,62233.39999937488
2255.999999967171
l47,47,999999992,60013.79999940718
r29,29,199999980,60060.4999994065
e72,72,1799999982,60323.299999402676
r21,21,199999989,60658.099999397804
e88,88,1799999953,61288.099999388636
e69,69,1799999995,61506.99999938545
l38,38,999999980,61933.89999937924
r24,24,199999985,61951.299999378985
e83,83,1799999975,62233.799999374874
2260.8999999670996
l47,47,999999957,60017.29999940713
r29,29,199999961,60062.39999940647
e72,72,1799999974,60324.099999402664
r21,21,199999976,60659.399999397785
e88,88,1799999995,61283.8999993887
e69,69,1799999977,61508.799999385425
l38,38,999999961,61935.79999937921
r24,24,199999986,61951.19999937899
e83,83,1799999965,62234.79999937486
2257.699999967146
l47,47,999999969,60016.099999407146
r29,29,199999970,60061.499999406486
e72,72,1799999964,60325.09999940265
r21,21,199999995,60657.49999939781
e88,88,1799999964,61286.99999938865
e69,69,1799999978,61508.699999385426
l38,38,999999966,61935.29999937922
r24,24,199999958,61953.999999378946
e83,83,1799999997,62231.59999937491
2256.599999967162
l47,47,999999979,60015.09999940716
r29,29,200000000,60058.49999940653
e72,72,1799999987,60322.79999940268
r21,21,199999955,60661.499999397754
e88,88,1799999970,61286.39999938866
e69,69,1799999989,61507.59999938544
l38,38,999999964,61935.499999379215
r24,24,199999960,61953.79999937895
e83,83,1799999994,62231.8999993749
2256.899999967158
l47,47,999999983,60014.69999940717
r29,29,199999988,60059.69999940651
e72,72,1799999956,60325.89999940264
r21,21,199999956,60661.399999397756
e88,88,1799999993,61284.099999388694
e69,69,1799999980,61508.49999938543
l38,38,999999986,61933.29999937925
r24,24,199999954,61954.39999937894
e83,83,1799999970,62234.29999937487
2261.3999999670923
