r7,7,199999985,60160.99999940504
l57,57,999999997,61463.19999938609
2274.4999999669017
r7,7,199999961,60163.399999405
l57,57,999999996,61463.29999938609
2276.199999966877
r7,7,199999981,60161.39999940503
l57,57,999999977,61465.19999938606
2274.7999999668973
r7,7,199999958,60163.699999405
l57,57,999999973,61465.59999938605
2276.4999999668726
r7,7,199999966,60162.89999940501
l57,57,999999987,61464.19999938607
2275.499999966887
r7,7,199999962,60163.299999405004
l57,57,999999958,61467.09999938603
2277.699999966855
r7,7,199999982,60161.29999940503
l57,57,999999963,61466.59999938604
2274.399999966903
r7,7,199999973,60162.19999940502
l57,57,999999964,61466.49999938604
2273.499999966916
r7,7,199999959,60163.599999405
l57,57,999999966,61466.29999938604
2274.899999966896
r7,7,199999979,60161.59999940503
l57,57,999999976,61465.29999938606
2276.199999966877
r7,7,199999996,60159.899999405054
l57,57,999999974,61465.499999386055
2276.799999966868
r7,7,199999984,60161.099999405036
l57,57,999999999,61462.99999938609
2278.199999966848
r7,7,199999993,60160.19999940505
l57,57,999999953,61467.599999386024
2277.099999966864
r7,7,199999952,60164.29999940499
l57,57,999999965,61466.39999938604
2274.5999999669
r7,7,199999997,60159.799999405055
l57,57,999999992,61463.69999938608
2274.7999999668973
r7,7,199999971,60162.39999940502
l57,57,999999954,61467.499999386026
2277.099999966864
r7,7,199999954,60164.09999940499
l57,57,999999956,61467.29999938603
2276.399999966874
r7,7,199999956,60163.899999404995
l57,57,999999975,61465.399999386056
2277.1999999668624
r7,7,199999995,60159.99999940505
l57,57,999999955,61467.39999938603
2278.0999999668493
r7,7,199999988,60160.69999940504
l57,57,999999957,61467.19999938603
2275.7999999668828
r7,7,199999994,60160.09999940505
l57,57,999999993,61463.59999938608
2275.699999966884
r7,7,199999968,60162.69999940501
l57,57,999999961,61466.799999386036
2279.0999999668347
r7,7,199999991,60160.39999940505
l57,57,999999990,61463.89999938608
2277.5999999668566
r7,7,199999987,60160.79999940504
l57,57,999999980,61464.89999938606
2275.8999999668813
r7,7,199999957,60163.799999405
l57,57,999999995,61463.399999386085
2279.0999999668347
r7,7,199999972,60162.29999940502
l57,57,999999969,61465.99999938605
2277.1999999668624
r7,7,199999998,60159.69999940506
l57,57,999999967,61466.199999386045
2279.0999999668347
r7,7,199999969,60162.599999405014
l57,57,1000000000,61462.89999938609
2277.699999966855
r7,7,199999970,60162.499999405016
l57,57,999999988,61464.099999386075
2275.499999966887
r7,7,199999975,60161.99999940502
l57,57,999999982,61464.699999386066
2278.599999966842
r7,7,199999967,60162.79999940501
l57,57,999999952,61467.69999938602
2278.199999966848
r7,7,199999955,60163.999999404994
l57,57,999999970,61465.89999938605
2276.0999999668784
r7,7,199999977,60161.799999405026
l57,57,999999984,61464.49999938607
2279.9999999668216
r7,7,199999978,60161.69999940503
l57,57,999999968,61466.099999386046
2277.299999966861
r7,7,199999960,60163.499999405
l57,57,999999962,61466.69999938604
2276.8999999668667
r7,7,199999951,60164.39999940499
l57,57,999999981,61464.799999386065
2280.399999966816
r7,7,199999992,60160.29999940505
l57,57,999999971,61465.79999938605
2281.0999999668056
r7,7,199999964,60163.09999940501
l57,57,999999960,61466.899999386034
2278.0999999668493
r7,7,199999974,60162.09999940502
l57,57,999999989,61463.99999938608
2281.199999966804
r7,7,199999983,60161.199999405035
l57,57,999999986,61464.29999938607
2278.799999966839
r7,7,199999999,60159.59999940506
l57,57,999999985,61464.39999938607
2278.199999966848
r7,7,199999976,60161.899999405025
l57,57,999999972,61465.69999938605
2281.699999966797
r7,7,199999989,60160.59999940504
l57,57,999999998,61463.09999938609
2277.099999966864
r7,7,200000000,60159.49999940506
l57,57,999999983,61464.59999938607
2278.599999966842
r7,7,199999986,60160.89999940504
l57,57,999999979,61464.99999938606
2280.399999966816
r7,7,199999990,60160.499999405045
l57,57,999999959,61466.99999938603
2281.7999999667954
r7,7,199999963,60163.199999405006
l57,57,999999978,61465.09999938606
2277.699999966855
r7,7,199999980,60161.49999940503
l57,57,999999994,61463.499999386084
r33,33,199999987,61791.79999938131
2776.899999959591
r7,7,199999953,60164.19999940499
l57,57,999999991,61463.79999938608
r33,33,199999969,61793.59999938128
2777.1999999595864
r7,7,199999965,60162.99999940501
l57,57,999999951,61467.79999938602
r33,33,199999958,61794.699999381264
2773.8999999596344
