259999  Hetero10
19999  Hetero11
374998  Hetero12
59999  Hetero13
16119999  Hetero14
219999  Hetero15
39999  Hetero16
279999  Hetero17
16479999  Hetero18
32239999  Hetero19
39998  Hetero1
529409  Hetero20
199999  Hetero21
395347  Hetero22
31879999  Hetero23
16119999  Hetero24
58820  Hetero25
19999  Hetero2
16299999  Hetero3
119999  Hetero4
19999  Hetero5
359999  Hetero6
19999  Hetero7
16019999  Hetero8
19999  Hetero9
