e87,87,1614999987,24596.399999922567
r31,31,15999998,24930.19999991771
e69,69,1598999962,25419.699999910586
r19,19,999965,26659.399999892546
r3,3,999968,26679.299999892257
2818.4999999589854
e87,87,1614999997,24595.39999992258
r31,31,14999980,24932.099999917682
e69,69,1599999968,25418.999999910597
r19,19,999984,26656.699999892586
r3,3,999958,26680.599999892238
2816.6999999590116
e87,87,1614999993,24595.799999922576
r31,31,12999959,24934.39999991765
e69,69,1599999972,25418.599999910602
r19,19,999953,26661.09999989252
r3,3,999964,26678.49999989227
2817.1999999590043
e87,87,1611999953,24600.0
r31,31,14999987,24931.399999917692
e69,69,1597999955,25420.499999910575
r19,19,999951,26661.79999989251
r3,3,999967,26677.59999989228
2820.8999999589505
e87,87,1613999977,24597.49999992255
r31,31,12999956,24934.699999917644
e69,69,1599999971,25418.6999999106
r19,19,999973,26658.49999989256
r3,3,999966,26679.599999892253
2819.1999999589752
e87,87,1611999954,24599.999999922515
r31,31,14999988,24931.299999917694
e69,69,1599999973,25418.499999910604
r19,19,999971,26658.699999892557
r3,3,999966,26677.899999892277
2817.699999958997
e87,87,1613999979,24597.299999922554
r31,31,14999995,24930.599999917704
e69,69,1599999978,25417.99999991061
r19,19,999974,26658.39999989256
r3,3,999965,26678.199999892273
2820.2999999589592
e87,87,1614999992,24595.899999922574
r31,31,13999971,24933.099999917667
e69,69,1599999980,25417.799999910614
r19,19,999968,26659.09999989255
r3,3,999967,26679.499999892254
2821.7999999589374
e87,87,1612999966,24598.699999922534
r31,31,14999981,24931.999999917683
e69,69,1599999985,25417.29999991062
r19,19,999956,26655.6999998926
r3,3,999963,26680.099999892245
2821.2999999589447
e87,87,1612999971,24598.19999992254
r31,31,13999972,24932.99999991767
e69,69,1599999977,25418.09999991061
r19,19,999981,26656.99999989258
r3,3,999969,26679.19999989226
2819.7999999589665
e87,87,1613999980,24597.199999922555
r31,31,14999992,24930.8999999177
e69,69,1599999976,25418.19999991061
r19,19,999956,26660.49999989253
r3,3,999969,26677.399999892285
2820.2999999589592
e87,87,1612999967,24598.599999922535
r31,31,14999993,24930.7999999177
e69,69,1599999993,25416.499999910633
r19,19,999957,26655.5999998926
r3,3,999973,26676.599999892296
2818.599999958984
e87,87,1614999990,24596.09999992257
r31,31,15999996,24930.399999917707
e69,69,1599999981,25417.699999910616
r19,19,999958,26655.499999892603
r3,3,999951,26681.399999892226
2819.0999999589767
e87,87,1613999976,24597.59999992255
r31,31,14999978,24932.29999991768
e69,69,1599999991,25416.69999991063
r19,19,999969,26658.999999892552
r3,3,999976,26676.2999998923
2820.799999958952
e87,87,1612999958,24599.499999922522
r31,31,16999999,24929.999999917713
e69,69,1599999996,25416.199999910637
r19,19,999966,26659.299999892548
r3,3,999965,26677.999999892276
2818.6999999589825
e87,87,1613999984,24596.79999992256
r31,31,14999984,24931.699999917688
e69,69,1599999975,25418.299999910607
r19,19,999955,26660.59999989253
r3,3,999961,26680.299999892242
2820.6999999589534
e87,87,1614999998,24595.299999922583
r31,31,12999957,24934.599999917646
e69,69,1599999998,25415.99999991064
r19,19,999977,26657.89999989257
r3,3,999968,26677.499999892283
2821.399999958943
e87,87,1612999972,24598.099999922542
r31,31,13999973,24932.89999991767
e69,69,1599999987,25417.099999910624
r19,19,999960,26655.299999892606
r3,3,999953,26681.79999989222
2821.7999999589374
e87,87,1613999974,24597.799999922547
r31,31,14999976,24932.499999917676
e69,69,1599999984,25417.39999991062
r19,19,999980,26657.09999989258
r3,3,999961,26675.499999892312
2820.399999958958
e87,87,1614999988,24596.29999992257
r31,31,12999961,24934.19999991765
e69,69,1599999989,25416.899999910627
r19,19,999982,26656.899999892583
r3,3,999951,26682.099999892216
2822.7999998901687
e87,87,1612999964,24598.89999992253
r31,31,14999994,24930.699999917702
e69,69,1599999982,25417.599999910617
r19,19,999981,26656.099999892594
r3,3,999967,26677.79999989228
2822.799999958923
e87,87,1612999962,24599.099999922528
r31,31,13999969,24933.299999917665
e69,69,1598999958,25420.09999991058
r19,19,999983,26655.899999892597
r3,3,999957,26680.699999892237
2822.099999958933
e87,87,1614999985,24596.599999922564
r31,31,13999962,24933.999999917654
e69,69,1600000000,25415.799999910643
r19,19,999980,26657.499999892574
r3,3,999954,26681.699999892222
2822.499999958927
e87,87,1614999991,24595.999999922573
r31,31,11999953,24935.09999991764
e69,69,1598999956,25420.299999910578
r19,19,999978,26656.39999989259
r3,3,999956,26680.799999892235
2820.399999958958
e87,87,1614999996,24595.49999992258
r31,31,14999985,24931.59999991769
e69,69,1599999997,25416.09999991064
r19,19,999977,26658.099999892565
r3,3,999955,26680.999999892232
2823.399999958914
e87,87,1612999961,24599.199999922526
r31,31,14999989,24931.199999917695
e69,69,1599999988,25416.999999910626
r19,19,999979,26656.29999989259
r3,3,999962,26680.199999892244
2820.6999999589534
e87,87,1612999973,24597.999999922544
r31,31,12999955,24934.799999917643
e69,69,1599999995,25416.299999910636
r19,19,999960,26659.999999892538
r3,3,999966,26675.899999892306
2819.9999999589636
e87,87,1613999982,24596.99999992256
r31,31,13999966,24933.59999991766
e69,69,1599999992,25416.59999991063
r19,19,999964,26659.499999892545
r3,3,999977,26676.199999892302
2819.3999999589723
e87,87,1612999968,24598.499999922537
r31,31,12999954,24934.89999991764
e69,69,1598999957,25420.19999991058
r19,19,999972,26658.599999892558
r3,3,999972,26676.699999892295
2819.299999958974
e87,87,1612999970,24598.29999992254
r31,31,15999997,24930.29999991771
e69,69,1599999990,25416.79999991063
r19,19,999985,26656.599999892587
r3,3,999960,26680.39999989224
2820.6999999589534
e87,87,1612999960,24599.299999922525
r31,31,13999965,24933.69999991766
e69,69,1598999959,25419.999999910582
r19,19,999978,26657.69999989257
r3,3,999952,26681.299999892228
2822.8999999589214
e87,87,1614999989,24596.19999992257
r31,31,13999967,24933.49999991766
e69,69,1598999964,25419.49999991059
r19,19,999959,26655.399999892605
r3,3,999970,26677.09999989229
2821.7999999589374
e87,87,1614999999,24595.199999922585
r31,31,11999952,24935.199999917637
e69,69,1599999979,25417.899999910613
r19,19,999963,26659.599999892544
r3,3,999964,26679.79999989225
2822.29999995893
e87,87,1612999969,24598.399999922538
r31,31,14999990,24931.099999917697
e69,69,1597999952,25420.79999991057
r19,19,999983,26656.799999892584
r3,3,999960,26675.59999989231
2822.8999999589214
e87,87,1613999981,24597.099999922557
r31,31,14999983,24931.799999917686
e69,69,1599999986,25417.199999910623
r19,19,999970,26658.799999892555
r3,3,999975,26676.3999998923
2821.7999999589374
e87,87,1611999951,24600.19999992251
r31,31,13999964,24933.799999917657
e69,69,1599999970,25418.7999999106
r19,19,999958,26660.199999892535
r3,3,999974,26676.499999892298
2821.7999999589374
e87,87,1615000000,24595.099999922586
r31,31,14999979,24932.19999991768
e69,69,1598999961,25419.799999910585
r19,19,999959,26660.099999892536
r3,3,999953,26681.19999989223
2824.8999999588923
e87,87,1612999957,24599.59999992252
r31,31,14999986,24931.49999991769
e69,69,1599999974,25418.399999910605
r19,19,999952,26661.699999892513
r3,3,999972,26676.89999989229
2820.599999958955
e87,87,1614999995,24595.59999992258
r31,31,13999974,24932.79999991767
e69,69,1599999999,25415.89999991064
r19,19,999962,26659.699999892542
r3,3,999970,26679.09999989226
2820.8999999589505
e87,87,1611999956,24599.799999922518
r31,31,12999958,24934.499999917647
e69,69,1599999967,25419.099999910595
r19,19,999982,26655.999999892596
r3,3,999971,26676.99999989229
2825.0999999588894
e87,87,1612999959,24599.399999922523
r31,31,14999975,24932.599999917675
e69,69,1598999965,25419.39999991059
r19,19,999979,26657.599999892573
r3,3,999964,26678.29999989227
2824.3999999588996
e87,87,1613999983,24596.89999992256
r31,31,17000000,24929.899999917714
e69,69,1599999983,25417.49999991062
r19,19,999981,26657.399999892576
r3,3,999954,26681.09999989223
2823.0999999589185
e87,87,1611999955,24599.899999922516
r31,31,13999970,24933.199999917666
e69,69,1598999960,25419.899999910584
r19,19,999980,26656.199999892593
r3,3,999970,26678.899999892263
2822.1999999589316
e87,87,1614999986,24596.499999922566
r31,31,14999982,24931.899999917685
e69,69,1599999969,25418.899999910598
r19,19,999967,26659.19999989255
r3,3,999962,26678.699999892266
2823.6999999589098
e87,87,1614999994,24595.699999922577
r31,31,11999951,24935.299999917635
e69,69,1598999963,25419.599999910588
r19,19,999975,26658.299999892562
r3,3,999959,26680.49999989224
2825.0999999588894
e87,87,1612999965,24598.799999922532
r31,31,13999963,24933.899999917656
e69,69,1597999954,25420.599999910573
r19,19,999979,26657.19999989258
r3,3,999959,26675.69999989231
2824.699999958895
e87,87,1613999978,24597.399999922553
r31,31,14999977,24932.399999917678
e69,69,1597999951,25420.89999991057
r19,19,999961,26659.89999989254
r3,3,999965,26679.69999989225
2821.399999958943
e87,87,1611999952,24600.099999922513
r31,31,14999991,24930.999999917698
e69,69,1597999953,25420.699999910572
r19,19,999976,26658.199999892564
r3,3,999963,26679.899999892248
2822.29999995893
e87,87,1612999963,24598.99999992253
r31,31,13999968,24933.399999917663
e69,69,1599999994,25416.399999910635
r19,19,999957,26660.399999892532
r3,3,999952,26681.999999892218
2825.6999999588807
e87,87,1613999975,24597.699999922548
r31,31,12999960,24934.29999991765
e69,69,1598999966,25419.299999910592
r19,19,999954,26660.899999892525
r3,3,999963,26678.599999892267
2822.5999999589258
