e88,88,1621999953,24004.299999931183
e96,96,1614999953,24140.399999929203
l37,37,813999957,24567.099999922993
l63,63,803999993,25223.59999991344
1234.6999999820328
e88,88,1621999969,24002.699999931207
e96,96,1615999985,24137.09999992925
l37,37,814999988,24563.89999992304
l63,63,802999984,25224.599999913426
1236.399999982008
e88,88,1621999979,24001.69999993122
e96,96,1614999952,24140.4999999292
l37,37,814999999,24562.799999923056
l63,63,804000000,25222.89999991345
1237.499999981992
e88,88,1621999970,24002.599999931208
e96,96,1615999988,24136.799999929255
l37,37,813999966,24566.199999923007
l63,63,802999980,25224.99999991342
1236.6999999820036
e88,88,1621999960,24003.599999931193
e96,96,1615999970,24138.59999992923
l37,37,814999990,24563.699999923043
l63,63,802999972,25225.799999913408
1235.7999999820167
e88,88,1621999962,24003.399999931196
e96,96,1615999989,24136.699999929257
l37,37,814999996,24563.09999992305
l63,63,803999999,25222.99999991345
1236.0999999820124
e88,88,1621999961,24003.499999931195
e96,96,1615999978,24137.79999992924
l37,37,813999961,24566.699999923
l63,63,802999982,25224.799999913423
1236.0999999820124
e88,88,1621999998,23999.899999931247
e96,96,1615999976,24137.999999929238
l37,37,813999962,24566.599999923
l63,63,803999986,25224.29999991343
1239.7999999819585
e88,88,1621999976,24001.999999931217
e96,96,1614999963,24139.399999929217
l37,37,814999983,24564.399999923033
l63,63,802999977,25225.299999913415
1237.7999999819876
e88,88,1621999986,24000.99999993123
e96,96,1615999991,24136.49999992926
l37,37,813999973,24565.499999923017
l63,63,803999990,25223.899999913436
1238.8999999819716
e88,88,1621999958,24003.79999993119
e96,96,1615999997,24135.89999992927
l37,37,813999979,24564.899999923025
l63,63,803999992,25223.69999991344
1236.199999982011
e88,88,1621999963,24003.299999931198
e96,96,1615999977,24137.89999992924
l37,37,814999998,24562.899999923055
l63,63,803999991,25223.799999913437
1236.7999999820022
e88,88,1621999990,24000.599999931237
e96,96,1615999999,24135.69999992927
l37,37,813999968,24565.99999992301
l63,63,802999985,25224.499999913427
1239.5999999819614
e88,88,1621999982,24001.399999931225
e96,96,1615999996,24135.999999929267
l37,37,813999969,24565.89999992301
l63,63,802999973,25225.69999991341
1238.8999999819716
e88,88,1621999967,24002.899999931204
e96,96,1615999973,24138.299999929233
l37,37,814999993,24563.399999923047
l63,63,802999971,25225.899999913407
1237.499999981992
e88,88,1621999954,24004.199999931185
e96,96,1614999965,24139.19999992922
l37,37,813999951,24567.699999922985
l63,63,803999997,25223.199999913446
1236.2999999820095
e88,88,1621999951,24004.49999993118
e96,96,1614999959,24139.79999992921
l37,37,813999972,24565.599999923015
l63,63,802999981,25224.89999991342
1236.0999999820124
e88,88,1621999983,24001.299999931227
e96,96,1615999987,24136.899999929254
l37,37,813999967,24566.099999923008
l63,63,803999988,25224.099999913433
1239.3999999819644
e88,88,1621999991,24000.49999993124
e96,96,1615999971,24138.49999992923
l37,37,814999985,24564.199999923036
l63,63,802999976,25225.399999913414
1240.2999999819513
e88,88,1621999980,24001.599999931223
e96,96,1615999983,24137.299999929248
l37,37,813999959,24566.899999922996
l63,63,803999989,25223.999999913434
1239.2999999819658
e88,88,1621999989,24000.699999931236
e96,96,1615999998,24135.79999992927
l37,37,814999981,24564.59999992303
l63,63,803999987,25224.19999991343
1240.2999999819513
e88,88,1621999971,24002.49999993121
e96,96,1614999957,24139.99999992921
l37,37,813999974,24565.39999992302
l63,63,803999994,25223.49999991344
1238.599999981976
e88,88,1621999977,24001.89999993122
e96,96,1615999984,24137.19999992925
l37,37,813999978,24564.999999923024
l63,63,803999995,25223.399999913443
1239.2999999819658
e88,88,1621999999,23999.79999993125
e96,96,1614999956,24140.099999929207
l37,37,813999953,24567.499999922988
l63,63,803999998,25223.099999913447
1241.4999999819338
e88,88,1621999973,24002.299999931212
e96,96,1614999951,24140.5999999292
l37,37,813999975,24565.29999992302
l63,63,802999979,25225.09999991342
1239.0999999819687
e88,88,1621999997,23999.999999931246
e96,96,1615999975,24138.099999929236
l37,37,813999955,24567.29999992299
l63,63,803999996,25223.299999913444
1241.4999999819338
e88,88,1621999984,24001.19999993123
e96,96,1614999964,24139.29999992922
l37,37,813999977,24565.099999923023
l63,63,802999974,25225.59999991341
1240.3999999819498
e88,88,1621999992,24000.39999993124
e96,96,1615999974,24138.199999929235
l37,37,813999960,24566.799999922998
l63,63,802999970,25225.999999913405
1241.2999999819367
e88,88,1622000000,23999.69999993125
e96,96,1614999962,24139.499999929216
l37,37,814999986,24564.099999923037
l63,63,802999978,25225.199999913417
1242.099999981925
e88,88,1621999968,24002.799999931205
e96,96,1614999958,24139.89999992921
l37,37,813999964,24566.399999923004
l63,63,802999975,25225.499999913412
1239.0999999819687
e88,88,1621999956,24003.999999931188
e96,96,1615999969,24138.699999929227
l37,37,814999995,24563.19999992305
l63,63,802999983,25224.699999913424
1237.9999999819847
e88,88,1621999974,24002.199999931214
e96,96,1615999982,24137.399999929246
l37,37,813999965,24566.299999923005
l63,63,802999969,25226.099999913404
1239.899999981957
e88,88,1621999987,24000.899999931233
e96,96,1615999994,24136.199999929264
l37,37,813999963,24566.499999923002
l63,63,802999968,25226.199999913402
1241.2999999819367
e88,88,1621999988,24000.799999931234
e96,96,1615999968,24138.799999929226
l67,67,812999969,24348.89999992617
r16,16,8999986,24985.699999916902
1677.099999975595
e88,88,1621999955,24004.099999931186
e96,96,1615999967,24138.899999929225
l67,67,812999961,24349.699999926157
r16,16,8999956,24988.69999991686
1673.8999999756415
e88,88,1621999993,24000.29999993124
e96,96,1615999986,24136.999999929252
l67,67,812999971,24348.69999992617
r16,16,11000000,24984.099999916925
1677.7999999755848
e88,88,1621999994,24000.199999931243
e96,96,1615999993,24136.299999929262
l67,67,811999953,24350.599999926144
r16,16,8999963,24987.99999991687
1677.9999999755819
e88,88,1621999957,24003.89999993119
e96,96,1615999995,24136.099999929265
l67,67,812999964,24349.39999992616
r16,16,8999988,24985.499999916905
1674.3999999756343
e88,88,1621999952,24004.39999993118
e96,96,1616000000,24135.599999929273
l67,67,811999951,24350.79999992614
r16,16,9999997,24984.49999991692
1673.99999997564
e88,88,1621999972,24002.39999993121
e96,96,1615999979,24137.699999929242
l67,67,812999954,24350.399999926147
r16,16,8999969,24987.399999916877
1676.0999999756095
e88,88,1621999995,24000.099999931244
e96,96,1615999992,24136.39999992926
l67,67,812999970,24348.79999992617
r16,16,8999962,24988.099999916867
1678.4999999068204
e88,88,1621999966,24002.999999931202
e96,96,1615999972,24138.399999929232
l67,67,812999978,24347.99999992618
r16,16,8999960,24988.299999916864
1675.6999999756154
e88,88,1621999975,24002.099999931215
e96,96,1614999960,24139.699999929213
l67,67,812999984,24347.39999992619
r16,16,9999994,24984.799999916915
1676.6999999756008
e88,88,1621999996,24000.0
e96,96,1614999961,24139.599999929214
l67,67,812999988,24346.999999926196
r16,16,8999978,24986.49999991689
1678.7999999755702
e88,88,1621999985,24001.09999993123
e96,96,1615999990,24136.599999929258
l67,67,812999989,24346.899999926198
r16,16,9999995,24984.699999916917
1677.8999999755833
e88,88,1621999959,24003.699999931192
e96,96,1614999955,24140.199999929206
l67,67,812999960,24349.799999926156
r16,16,8999953,24988.999999916854
1675.3999999756197
e88,88,1621999965,24003.0999999312
e96,96,1614999954,24140.299999929204
l67,67,812999980,24347.799999926185
r16,16,9999998,24984.39999991692
1676.0999999756095
e88,88,1621999964,24003.1999999312
e96,96,1615999981,24137.499999929245
l67,67,813000000,24345.799999926214
r16,16,8999965,24987.79999991687
1676.0999999756095
e88,88,1621999978,24001.79999993122
e96,96,1615999980,24137.599999929243
l67,67,812999996,24346.199999926208
r16,16,8999957,24988.59999991686
1677.5999999755877
e88,88,1621999981,24001.499999931224
e96,96,1614999966,24139.09999992922
l67,67,812999993,24346.499999926204
r16,16,8999959,24988.399999916863
1677.9999999755819
