r6,6,12999970,24804.199999919543
e100,100,1613999995,24961.09999991726
l35,35,807999972,25003.399999916644
l40,40,811999996,25067.799999915707
e93,93,1604999962,25252.39999991302
l53,53,804999978,25410.699999910717
1710.8999999751031
r6,6,12999983,24802.899999919562
e100,100,1613999998,24960.799999917264
l35,35,807999973,25003.299999916646
l40,40,808999957,25071.999999915646
e93,93,1604999956,25252.999999913012
l53,53,810999998,25408.099999910755
1712.0999999750857
r6,6,12999968,24804.39999991954
e100,100,1613999978,24962.799999917235
l35,35,807999982,25002.39999991666
l40,40,811999990,25068.3999999157
e93,93,1605999977,25250.799999913044
l53,53,810999997,25408.199999910754
1714.199999975055
r6,6,12999961,24805.09999991953
e100,100,1612999972,24963.499999917225
l35,35,807999953,25005.299999916617
l40,40,811999999,25067.49999991571
e93,93,1606999997,25248.699999913075
l53,53,810999996,25408.299999910752
1711.2999999750973
r6,6,12999993,24801.899999919577
e100,100,1613999984,24962.199999917244
l35,35,807999966,25003.999999916636
l40,40,808999953,25072.39999991564
e93,93,1606999989,25249.499999913063
l53,53,803999960,25412.59999991069
1714.2999999750537
r6,6,12999974,24803.79999991955
e100,100,1613999979,24962.699999917237
l35,35,811000000,25000.29999991669
l40,40,808999951,25072.599999915637
e93,93,1606999981,25250.29999991305
l53,53,804999975,25410.999999910713
1715.099999975042
r6,6,12999980,24803.199999919558
e100,100,1612999952,24965.499999917196
l35,35,807999980,25002.599999916656
l40,40,811999980,25069.399999915684
e93,93,1606999987,25249.69999991306
l53,53,805999986,25409.79999991073
1712.899999975074
r6,6,12999979,24803.299999919556
e100,100,1612999971,24963.599999917224
l35,35,807999954,25005.19999991662
l40,40,811999982,25069.199999915687
e93,93,1604999953,25253.299999913008
l53,53,805999989,25409.499999910735
1714.899999975045
r6,6,12999969,24804.29999991954
e100,100,1613999994,24961.19999991726
l35,35,807999956,25004.99999991662
l40,40,810999971,25070.39999991567
e93,93,1604999963,25252.299999913022
l53,53,804999967,25411.7999999107
1712.9999999750726
r6,6,12999997,24801.499999919582
e100,100,1612999953,24965.399999917197
l35,35,807999968,25003.79999991664
l40,40,808999952,25072.49999991564
e93,93,1604999965,25252.099999913025
l53,53,802999958,25412.899999910685
1713.4999999750653
r6,6,12999981,24803.09999991956
e100,100,1612999974,24963.299999917228
l35,35,807999960,25004.599999916627
l40,40,810999969,25070.599999915667
e93,93,1608000000,25248.29999991308
l53,53,804999971,25411.399999910707
1715.5999999062806
r6,6,12999954,24805.79999991952
e100,100,1613999996,24960.99999991726
l35,35,808999999,25000.599999916685
l40,40,808999962,25071.499999915653
e93,93,1604999971,25251.499999913034
l53,53,804999968,25411.699999910703
1714.4999999750507
r6,6,12999955,24805.69999991952
e100,100,1613999982,24962.39999991724
l35,35,807999988,25001.799999916668
l40,40,811999985,25068.89999991569
e93,93,1606999996,25248.799999913073
l53,53,804999976,25410.899999910715
1714.9999999750435
r6,6,12999958,24805.399999919526
e100,100,1612999958,24964.899999917205
l35,35,807999955,25005.09999991662
l40,40,811999998,25067.59999991571
e93,93,1605999975,25250.99999991304
l53,53,806999990,25409.299999910738
1712.3999999750813
r6,6,12999973,24803.899999919548
e100,100,1613999992,24961.399999917256
l35,35,807999967,25003.899999916637
l40,40,810999965,25070.99999991566
e93,93,1606999983,25250.099999913054
l53,53,804999983,25410.199999910725
1715.7999999750318
r6,6,12999987,24802.499999919568
e100,100,1613999993,24961.299999917257
l35,35,807999961,25004.49999991663
l40,40,811999986,25068.799999915693
e93,93,1604999957,25252.899999913014
l53,53,800999953,25413.599999910675
1712.7999999750755
r6,6,12999989,24802.29999991957
e100,100,1613999983,24962.299999917243
l35,35,807999979,25002.699999916655
l40,40,808999960,25071.69999991565
e93,93,1604999959,25252.699999913017
l53,53,804999964,25412.099999910697
1716.2999999750245
r6,6,12999991,24802.099999919574
e100,100,1613999989,24961.69999991725
l35,35,807999964,25004.199999916633
l40,40,811999988,25068.599999915696
e93,93,1604999968,25251.79999991303
l53,53,804999970,25411.499999910706
1712.0999999750857
r6,6,12999990,24802.199999919572
e100,100,1613999986,24961.999999917247
l35,35,807999977,25002.89999991665
l40,40,811999979,25069.499999915683
e93,93,1606999979,25250.49999991305
l53,53,804999981,25410.39999991072
1715.299999975039
r6,6,12999960,24805.19999991953
e100,100,1613999990,24961.599999917253
l35,35,807999981,25002.499999916658
l40,40,810999966,25070.899999915662
e93,93,1606999995,25248.899999913072
l53,53,812000000,25407.79999991076
1715.1999999750406
r6,6,12999978,24803.399999919555
e100,100,1612999973,24963.399999917227
l35,35,808999997,25000.799999916682
l40,40,811999975,25069.899999915677
e93,93,1604999972,25251.399999913036
l53,53,802999957,25412.999999910684
1716.4999999750216
r6,6,12999951,24806.099999919516
e100,100,1612999960,24964.699999917208
l35,35,808999993,25001.199999916676
l40,40,811999987,25068.699999915694
e93,93,1604999961,25252.49999991302
l53,53,804999972,25411.29999991071
1714.4999999750507
r6,6,12999976,24803.599999919552
e100,100,1612999957,24964.999999917203
l35,35,807999974,25003.199999916647
l40,40,808999954,25072.299999915642
e93,93,1604999969,25251.69999991303
l53,53,809999995,25408.49999991075
1715.1999999750406
r6,6,12999996,24801.59999991958
e100,100,1612999976,24963.09999991723
l35,35,807999971,25003.499999916643
l40,40,808999958,25071.899999915648
e93,93,1606999978,25250.599999913047
l53,53,800999952,25413.699999910674
1715.3999999750376
r6,6,12999972,24803.999999919546
e100,100,1612999967,24963.999999917218
l35,35,808999991,25001.399999916674
l40,40,808999961,25071.599999915652
e93,93,1604999973,25251.299999913037
l53,53,804999980,25410.49999991072
1716.0999999750275
r6,6,12999986,24802.599999919566
e100,100,1612999968,24963.89999991722
l35,35,807999962,25004.39999991663
l40,40,811999978,25069.59999991568
e93,93,1604999970,25251.599999913033
l53,53,807999992,25408.999999910742
1713.2999999750682
r6,6,12999963,24804.899999919533
e100,100,1612999951,24965.599999917195
l35,35,807999985,25002.099999916663
l40,40,811999972,25070.199999915672
e93,93,1606999982,25250.199999913053
l53,53,803999962,25412.399999910693
1715.7999999750318
r6,6,12999998,24801.399999919584
e100,100,1613999988,24961.79999991725
l35,35,807999952,25005.399999916615
l40,40,808999959,25071.79999991565
e93,93,1606999993,25249.09999991307
l53,53,804999984,25410.099999910726
1713.3999999750667
r6,6,12999966,24804.599999919537
e100,100,1612999963,24964.399999917212
l35,35,807999989,25001.69999991667
l40,40,811999974,25069.999999915675
e93,93,1604999952,25253.399999913006
l53,53,800999954,25413.499999910677
1713.2999999750682
r6,6,12999962,24804.99999991953
e100,100,1612999962,24964.49999991721
l35,35,807999958,25004.799999916624
l40,40,811999973,25070.099999915674
e93,93,1604999951,25253.499999913005
l53,53,804999969,25411.599999910704
1714.2999999750537
r6,6,12999977,24803.499999919553
e100,100,1612999956,24965.0999999172
l35,35,807999965,25004.099999916634
l40,40,808999956,25072.099999915645
e93,93,1605999976,25250.899999913043
l53,53,803999961,25412.49999991069
1714.4999999750507
r6,6,12999982,24802.99999991956
e100,100,1613999981,24962.49999991724
l35,35,807999963,25004.29999991663
l40,40,811999976,25069.79999991568
e93,93,1606999985,25249.899999913057
l53,53,805999988,25409.599999910733
1715.7999999750318
r6,6,12999959,24805.299999919527
e100,100,1612999966,24964.099999917216
l35,35,807999978,25002.799999916653
l40,40,810999967,25070.799999915664
e93,93,1604999964,25252.199999913024
l53,53,804999965,25411.9999999107
1715.6999999750333
r6,6,12999953,24805.89999991952
e100,100,1613999999,24960.699999917266
l35,35,807999987,25001.899999916666
l40,40,811999991,25068.2999999157
e93,93,1604999967,25251.89999991303
l53,53,806999991,25409.19999991074
1715.099999975042
r6,6,12999975,24803.69999991955
e100,100,1613999980,24962.599999917238
l35,35,808999995,25000.99999991668
l40,40,811999997,25067.69999991571
e93,93,1606999998,25248.599999913076
l53,53,804999977,25410.799999910716
1718.399999974994
r6,6,12999965,24804.699999919536
e100,100,1612999954,24965.2999999172
l35,35,807999959,25004.699999916626
l40,40,808999964,25071.299999915656
e93,93,1606999984,25249.999999913056
l53,53,804999974,25411.09999991071
1715.1999999750406
r6,6,12999957,24805.499999919524
e100,100,1614000000,24960.599999917267
l35,35,807999976,25002.99999991665
l40,40,811999981,25069.299999915685
e93,93,1606999988,25249.59999991306
l53,53,804999979,25410.59999991072
1716.399999975023
r6,6,12999988,24802.39999991957
e100,100,1612999959,24964.799999917206
l35,35,807999970,25003.59999991664
l40,40,811999993,25068.099999915703
e93,93,1606999992,25249.199999913068
l53,53,803999959,25412.69999991069
1717.9999999749998
r6,6,12999999,24801.299999919585
e100,100,1612999977,24962.999999917232
l35,35,807999986,25001.999999916665
l40,40,811999989,25068.499999915697
e93,93,1606999991,25249.299999913066
l53,53,804999982,25410.299999910723
1714.3999999750522
r6,6,12999985,24802.699999919565
e100,100,1613999987,24961.89999991725
l35,35,807999983,25002.29999991666
l40,40,811999994,25067.999999915704
e93,93,1605999974,25251.09999991304
l53,53,807999993,25408.899999910744
1717.9999999749998
r6,6,12999992,24801.999999919575
e100,100,1612999970,24963.699999917222
l35,35,807999975,25003.09999991665
l40,40,811999983,25069.09999991569
e93,93,1606999986,25249.79999991306
l53,53,811999999,25407.89999991076
1715.5999999750347
r6,6,12999956,24805.599999919523
e100,100,1612999961,24964.59999991721
l35,35,808999996,25000.89999991668
l40,40,811999992,25068.1999999157
e93,93,1604999958,25252.799999913015
l53,53,809999994,25408.599999910748
1714.2999999750537
r6,6,12999964,24804.799999919534
e100,100,1612999964,24964.299999917213
l35,35,807999984,25002.199999916662
l40,40,808999963,25071.399999915655
e93,93,1604999966,25251.999999913027
l53,53,801999956,25413.19999991068
1715.3999999750376
r6,6,12999952,24805.999999919517
e100,100,1613999985,24962.099999917245
l35,35,807999957,25004.899999916623
l40,40,810999970,25070.499999915668
e93,93,1606999990,25249.399999913065
l53,53,804999985,25409.999999910728
1719.0999999749838
r6,6,12999995,24801.69999991958
e100,100,1612999969,24963.79999991722
l35,35,808999992,25001.299999916675
l40,40,811999995,25067.899999915706
e93,93,1606999980,25250.39999991305
l53,53,805999987,25409.699999910732
1714.6999999750478
r6,6,13000000,24801.199999919587
e100,100,1612999975,24963.19999991723
l35,35,807999969,25003.69999991664
l40,40,811999984,25068.99999991569
e93,93,1604999960,25252.599999913018
l53,53,804999973,25411.19999991071
1719.3999999749794
r6,6,12999994,24801.799999919578
e100,100,1613999991,24961.499999917254
l35,35,808999998,25000.699999916684
l40,40,811999977,25069.69999991568
e93,93,1606999994,25248.99999991307
l53,53,804999966,25411.8999999107
1717.499999975007
r6,6,12999967,24804.49999991954
e100,100,1613999997,24960.899999917263
l35,35,808999994,25001.099999916678
l40,40,808999955,25072.199999915643
e93,93,1604999955,25253.09999991301
l53,53,800999955,25413.399999910678
1716.7999999750173
r6,6,12999971,24804.099999919545
e100,100,1612999955,24965.1999999172
l35,35,807999951,25005.499999916614
l40,40,810999968,25070.699999915665
e93,93,1604999954,25253.19999991301
l53,53,800999951,25413.799999910672
1716.6999999750187
r6,6,12999984,24802.799999919564
e100,100,1612999965,24964.199999917215
l35,35,808999990,25001.499999916672
l40,40,812000000,25067.399999915713
e93,93,1606999999,25248.499999913078
l53,53,804999963,25412.199999910696
1718.4999999749925
