e70,70,1615999988,24647.69999992182
r31,31,10999996,24662.8999999216
l54,54,803999980,24941.09999991755
e96,96,1609999992,24945.699999917484
l40,40,803999983,25083.29999991548
e85,85,1613999980,25295.399999912395
e92,92,1602999978,25579.199999908265
r22,22,999964,26382.699999896573
2661.49999996127
e70,70,1612999967,24650.099999921786
r31,31,10999970,24665.49999992156
l54,54,804000000,24939.09999991758
e96,96,1609999989,24945.99999991748
l40,40,803999973,25084.299999915467
e85,85,1606999959,25298.199999912355
e92,92,1601999966,25580.499999908247
r22,22,999954,26389.19999989648
2660.599999961283
e70,70,1612999953,24651.499999921765
r31,31,10999988,24663.699999921588
l54,54,803999961,24942.999999917523
l53,53,801999966,25219.799999913495
r26,26,999962,25452.199999910114
e71,71,1609999982,25581.69999990823
r22,22,999974,25889.999999903743
e92,92,1600999956,26377.599999896647
r22,22,999956,26387.5999998965
2662.599999961254
e70,70,1612999963,24650.49999992178
r31,31,10999990,24663.49999992159
l54,54,803999978,24941.299999917548
e96,96,1609999994,24945.499999917487
l40,40,803999953,25086.299999915438
e85,85,1614999982,25295.0999999124
e92,92,1602999972,25579.799999908257
r22,22,999965,26385.099999896538
2659.999999961292
e70,70,1612999961,24650.699999921777
r31,31,10999975,24664.99999992157
l54,54,803999967,24942.399999917532
e96,96,1604999952,24950.19999991742
l40,40,803999988,25082.79999991549
e85,85,1615999990,25294.199999912413
e92,92,1602999980,25578.99999990827
r22,22,999963,26385.299999896535
2659.499999961299
e70,70,1616999998,24646.599999921837
r31,31,10999983,24664.19999992158
l54,54,803999960,24943.099999917522
e96,96,1609999983,24946.59999991747
l40,40,803999982,25083.39999991548
e85,85,1611999968,25296.799999912375
e92,92,1602999979,25579.099999908267
r22,22,999958,26387.399999896505
2661.49999996127
e70,70,1612999965,24650.299999921783
r31,31,10999984,24664.099999921582
l54,54,803999982,24940.899999917554
e96,96,1605999960,24949.29999991743
l40,40,803999955,25086.09999991544
e85,85,1617999998,25293.199999912427
e92,92,1602999974,25579.59999990826
r22,22,999967,26384.89999989654
2659.3999999613006
e70,70,1615999985,24647.999999921816
r31,31,10999995,24662.999999921598
l54,54,803999988,24940.299999917563
e96,96,1607999963,24948.79999991744
l40,40,803999998,25081.799999915504
e85,85,1608999963,25297.599999912363
e92,92,1601999959,25581.199999908236
r22,22,999957,26387.899999896497
2659.5999999612977
e70,70,1614999973,24649.299999921797
l36,36,814999983,24679.99999992135
r2,2,2999977,25055.29999991589
r5,5,6999968,25266.99999991281
r19,19,8999986,25295.69999991239
r24,24,3999980,25634.199999907465
r17,17,999965,26004.799999902072
r24,24,999972,26032.599999901668
r22,22,999952,26404.499999896256
2661.699999961267
e70,70,1616999997,24646.699999921835
r31,31,10999971,24665.399999921563
l54,54,803999966,24942.49999991753
e96,96,1607999972,24947.899999917452
l40,40,803999990,25082.599999915492
e85,85,1614999986,25294.699999912405
e92,92,1602999967,25580.29999990825
r22,22,999953,26389.599999896473
2661.699999961267
e70,70,1616999999,24646.499999921838
r31,31,10999986,24663.899999921585
l54,54,803999969,24942.199999917535
e96,96,1609999988,24946.09999991748
l40,40,803999969,25084.69999991546
e85,85,1604999951,25299.19999991234
e92,92,1602999969,25580.099999908252
r22,22,999962,26386.599999896516
2659.6999999612963
e70,70,1615999987,24647.79999992182
r31,31,10999962,24666.29999992155
l54,54,803999951,24943.99999991751
e96,96,1609999984,24946.499999917472
l40,40,803999997,25081.899999915502
e85,85,1611999967,25296.899999912373
e92,92,1604999990,25577.799999908286
r22,22,999964,26385.899999896526
2662.4999999612555
e70,70,1614999977,24648.899999921803
r31,31,10999959,24666.599999921546
l54,54,803999984,24940.699999917557
l53,53,802999999,25216.399999913545
r26,26,999985,25449.79999991015
e71,71,1605999959,25584.39999990819
r22,22,1999983,25888.399999903766
e92,92,1597999951,26378.399999896636
r22,22,999966,26382.09999989658
2663.299999961244
e70,70,1616999991,24647.299999921826
r31,31,10999973,24665.199999921566
l54,54,803999963,24942.799999917526
e96,96,1607999966,24948.499999917443
l40,40,803999954,25086.19999991544
e85,85,1606999961,25297.999999912357
e92,92,1602999988,25578.19999990828
r22,22,999962,26385.399999896534
2662.4999999612555
e70,70,1612999966,24650.199999921784
r31,31,10999967,24665.799999921557
l54,54,803999976,24941.499999917545
e96,96,1609999996,24945.29999991749
l40,40,803999992,25082.399999915495
e85,85,1619000000,25292.89999991243
e92,92,1600999958,25581.399999908233
r22,22,999957,26388.599999896487
2660.599999961283
e70,70,1615999978,24648.699999921806
r31,31,10999998,24662.699999921602
l54,54,803999992,24939.89999991757
l53,53,802999998,25216.499999913543
r26,26,999979,25450.49999991014
e71,71,1608999977,25582.29999990822
r22,22,999953,25893.299999903695
e92,92,1600999954,26377.799999896644
r22,22,999955,26388.899999896483
2659.499999961299
e70,70,1616999996,24646.799999921834
r31,31,10999966,24665.899999921556
l54,54,803999994,24939.69999991757
e96,96,1604999958,24949.599999917427
l40,40,803999967,25084.89999991546
e85,85,1604999953,25298.999999912343
e92,92,1605999998,25576.8999999083
r22,22,999969,26384.599999896545
2663.5999999612395
e70,70,1615999984,24648.099999921815
r31,31,10999977,24664.79999992157
l54,54,803999954,24943.699999917513
e96,96,1607999969,24948.199999917448
l40,40,804000000,25081.599999915506
e85,85,1612999975,25295.999999912387
e92,92,1605999997,25576.999999908297
r22,22,999961,26384.29999989655
2661.099999961276
e70,70,1612999954,24651.399999921767
l36,36,814999975,24680.79999992134
r2,2,2999972,25055.799999915882
r5,5,7999986,25265.099999912836
r19,19,1999960,25298.999999912343
r24,24,4999985,25633.599999907474
r17,17,999954,26006.699999902045
r24,24,999968,26030.899999901692
r22,22,999951,26404.599999896254
2663.9999998924795
e70,70,1615999986,24647.899999921818
r31,31,10999957,24666.799999921543
l54,54,803999979,24941.19999991755
e96,96,1608999973,24947.699999917455
l40,40,803999965,25085.099999915456
e85,85,1611999969,25296.699999912376
e92,92,1602999977,25579.299999908264
r22,22,999965,26382.599999896574
2664.4999999612264
e70,70,1612999952,24651.599999921764
r31,31,10999999,24662.599999921604
l54,54,803999977,24941.399999917547
e96,96,1604999956,24949.799999917424
l40,40,803999999,25081.699999915505
e85,85,1611999970,25296.599999912378
e92,92,1602999985,25578.499999908276
r22,22,999964,26383.999999896554
2661.299999961273
e70,70,1616999990,24647.399999921825
r31,31,10999994,24663.099999921596
l54,54,803999968,24942.299999917534
e96,96,1605999961,24949.199999917433
l40,40,803999970,25084.599999915463
e85,85,1604999956,25298.699999912347
e92,92,1605999992,25577.49999990829
r22,22,999963,26386.29999989652
2662.2999999612584
e70,70,1612999951,24651.699999921762
r31,31,10999965,24665.999999921554
l54,54,803999990,24940.099999917566
e96,96,1609999986,24946.299999917475
l40,40,803999981,25083.49999991548
e85,85,1609999966,25297.19999991237
e92,92,1605999991,25577.59999990829
r22,22,999962,26384.19999989655
2662.799999961251
e70,70,1612999969,24649.89999992179
r31,31,10999978,24664.699999921573
l54,54,803999975,24941.599999917544
l53,53,801999957,25220.699999913482
r26,26,999956,25453.399999910096
e71,71,1609999980,25581.899999908226
r22,22,2999994,25887.199999903783
e92,92,1600999953,26377.899999896643
r22,22,999957,26381.699999896588
2664.199999961231
e70,70,1616999995,24646.899999921832
r31,31,10999952,24667.299999921535
l54,54,803999957,24943.399999917518
e96,96,1604999953,24950.09999991742
l40,40,803999960,25085.59999991545
e85,85,1614999987,25294.599999912407
e92,92,1605999996,25577.099999908296
r22,22,999968,26384.699999896544
2662.6999999612526
e70,70,1616999992,24647.199999921828
r31,31,10999980,24664.499999921576
l54,54,803999996,24939.499999917574
l53,53,802999986,25217.699999913526
r26,26,999996,25448.699999910164
e71,71,1609999984,25581.499999908232
r22,22,999965,25891.099999903727
e92,92,1600999955,26377.699999896646
r22,22,999964,26385.199999896537
2664.999999961219
e70,70,1612999958,24650.999999921773
r31,31,10999993,24663.199999921595
l54,54,803999972,24941.89999991754
e96,96,1609999991,24945.799999917483
l40,40,803999985,25083.099999915485
e85,85,1613999979,25295.499999912394
e92,92,1601999963,25580.799999908242
r22,22,999964,26383.099999896567
2661.099999961276
e70,70,1615999982,24648.299999921812
r31,31,10999974,24665.099999921567
l54,54,803999995,24939.599999917573
e96,96,1606999962,24948.999999917436
l40,40,803999979,25083.699999915476
e85,85,1615999992,25293.999999912416
e92,92,1601999965,25580.599999908245
r22,22,999961,26386.99999989651
2661.299999961273
e70,70,1616999994,24646.99999992183
r31,31,10999969,24665.59999992156
l54,54,803999986,24940.49999991756
e96,96,1608999979,24947.099999917464
l40,40,803999975,25084.09999991547
e85,85,1614999983,25294.9999999124
e92,92,1602999981,25578.89999990827
r22,22,999968,26381.899999896585
2664.399999961228
e70,70,1612999964,24650.39999992178
r31,31,10999991,24663.399999921592
l54,54,803999956,24943.499999917516
e96,96,1610000000,24944.899999917496
l40,40,803999964,25085.199999915454
e85,85,1608999962,25297.69999991236
e92,92,1605999995,25577.199999908295
r22,22,999967,26381.999999896583
2660.6999999612817
e70,70,1612999962,24650.59999992178
r31,31,10999972,24665.299999921564
l54,54,803999952,24943.89999991751
e96,96,1607999964,24948.69999991744
l40,40,803999986,25082.999999915486
e85,85,1609999964,25297.399999912366
e92,92,1605999994,25577.299999908293
r22,22,999961,26386.699999896515
2662.799999961251
e70,70,1614999975,24649.0999999218
r31,31,10999979,24664.599999921575
l54,54,803999955,24943.599999917515
e96,96,1604999955,24949.899999917423
l40,40,803999987,25082.899999915488
e85,85,1617999999,25293.09999991243
e92,92,1602999976,25579.399999908263
r22,22,999966,26383.799999896557
2664.199999961231
e70,70,1614999972,24649.399999921796
r31,31,10999963,24666.19999992155
l54,54,803999997,24939.399999917576
e96,96,1609999985,24946.399999917474
l40,40,803999958,25085.799999915445
e85,85,1604999952,25299.09999991234
e92,92,1602999975,25579.49999990826
r22,22,999966,26382.399999896577
2661.099999961276
e70,70,1612999956,24651.19999992177
r31,31,10999989,24663.59999992159
l54,54,803999983,24940.799999917555
e96,96,1609999987,24946.199999917477
l40,40,803999957,25085.899999915444
e85,85,1612999978,25295.69999991239
e92,92,1601999962,25580.89999990824
r22,22,999961,26385.499999896532
2665.0999999612177
e70,70,1615999979,24648.599999921807
r31,31,10999981,24664.399999921578
l54,54,803999962,24942.899999917525
e96,96,1608999977,24947.29999991746
l40,40,803999977,25083.899999915473
e85,85,1615999991,25294.099999912414
e92,92,1602999984,25578.599999908274
r22,22,999959,26387.299999896506
2662.399999961257
e70,70,1613999970,24649.69999992179
r31,31,10999982,24664.29999992158
l54,54,803999974,24941.699999917542
l53,53,801999969,25219.4999999135
r26,26,999961,25452.39999991011
e71,71,1609999983,25581.59999990823
r22,22,999958,25892.099999903712
e92,92,1600999957,26377.49999989665
r22,22,999965,26385.799999896528
2663.899999961235
e70,70,1615999981,24648.39999992181
r31,31,11000000,24662.499999921605
l54,54,803999964,24942.699999917528
e96,96,1607999965,24948.599999917442
l40,40,803999995,25082.0999999155
e85,85,1615999989,25294.29999991241
e92,92,1602999971,25579.899999908255
r22,22,999965,26383.899999896556
2661.999999961263
e70,70,1615999989,24647.599999921822
r31,31,10999953,24667.199999921537
l54,54,803999970,24942.099999917536
e96,96,1604999959,24949.49999991743
l40,40,803999966,25084.999999915457
e85,85,1616999994,25293.69999991242
e92,92,1605999999,25576.7999999083
r22,22,999962,26383.299999896564
2663.699999961238
e70,70,1616999993,24647.09999992183
r31,31,10999958,24666.699999921544
l54,54,803999987,24940.39999991756
e96,96,1604999954,24949.99999991742
l40,40,803999996,25081.9999999155
e85,85,1612999976,25295.899999912388
e92,92,1601999960,25581.099999908238
r22,22,999960,26387.09999989651
2661.999999961263
e70,70,1612999959,24650.899999921774
r31,31,10999997,24662.7999999216
l54,54,803999953,24943.79999991751
e96,96,1607999968,24948.299999917446
l40,40,803999976,25083.99999991547
e85,85,1604999955,25298.799999912346
e92,92,1602999970,25579.999999908254
r22,22,999963,26383.199999896566
2663.9999999612337
e70,70,1614999974,24649.1999999218
r31,31,10999951,24667.399999921534
l54,54,803999981,24940.999999917552
e96,96,1609999995,24945.39999991749
l40,40,803999961,25085.49999991545
e85,85,1617999996,25293.399999912424
e92,92,1605999993,25577.39999990829
r22,22,999966,26384.99999989654
2666.2999999612002
e70,70,1612999955,24651.299999921768
r31,31,10999961,24666.39999992155
l54,54,803999965,24942.59999991753
e96,96,1609999990,24945.89999991748
l40,40,803999971,25084.499999915464
e85,85,1615999993,25293.899999912417
e92,92,1602999987,25578.29999990828
r22,22,999965,26382.99999989657
2662.399999961257
e70,70,1615999983,24648.199999921813
r31,31,10999968,24665.69999992156
l54,54,803999958,24943.29999991752
e96,96,1607999970,24948.09999991745
l40,40,803999978,25083.799999915474
e85,85,1611999971,25296.49999991238
e92,92,1602999986,25578.399999908277
r22,22,999958,26388.39999989649
2666.399999961199
e70,70,1617000000,24646.39999992184
r31,31,10999956,24666.89999992154
l54,54,803999993,24939.79999991757
e96,96,1609999999,24944.999999917494
l40,40,803999974,25084.19999991547
e85,85,1611999973,25296.299999912382
e92,92,1602999968,25580.19999990825
r22,22,999962,26386.099999896524
2663.899999961235
e70,70,1612999968,24649.999999921787
r31,31,10999976,24664.89999992157
l54,54,803999973,24941.79999991754
e96,96,1608999978,24947.199999917462
l40,40,803999956,25085.999999915442
e85,85,1609999965,25297.299999912368
e92,92,1601999961,25580.99999990824
r22,22,999963,26385.999999896525
2665.699999961209
e70,70,1614999976,24648.9999999218
r31,31,10999985,24663.999999921583
l54,54,803999999,24939.19999991758
e96,96,1609999997,24945.19999991749
l40,40,803999980,25083.599999915477
e85,85,1606999958,25298.299999912353
e92,92,1606000000,25576.699999908302
r22,22,999963,26384.099999896553
2665.1999999612162
e70,70,1612999957,24651.09999992177
r31,31,10999964,24666.099999921553
l54,54,803999959,24943.19999991752
e96,96,1608999976,24947.39999991746
l40,40,803999991,25082.499999915493
e85,85,1612999977,25295.79999991239
e92,92,1602999982,25578.79999990827
r22,22,999961,26383.399999896563
2664.0999999612322
e70,70,1613999971,24649.599999921793
r31,31,10999987,24663.799999921586
l54,54,803999998,24939.299999917577
e96,96,1609999993,24945.599999917486
l40,40,803999989,25082.69999991549
e85,85,1604999957,25298.59999991235
e92,92,1602999973,25579.699999908258
r22,22,999956,26388.699999896486
2662.799999961251
e70,70,1612999960,24650.799999921775
r31,31,10999955,24666.99999992154
l54,54,803999991,24939.999999917567
e96,96,1604999951,24950.299999917417
l40,40,803999994,25082.199999915498
e85,85,1614999988,25294.49999991241
e92,92,1604999989,25577.899999908284
r22,22,999966,26382.89999989657
2664.6999999612235
e70,70,1615999980,24648.49999992181
r31,31,10999992,24663.299999921594
l54,54,803999985,24940.59999991756
e96,96,1608999980,24946.999999917465
l40,40,803999962,25085.39999991545
e85,85,1614999984,25294.899999912403
e92,92,1602999983,25578.699999908273
r22,22,999957,26387.499999896503
2666.599999961196
