l42,42,819999978,24249.09999992762
e86,86,1620999978,24312.4999999267
r14,14,11999967,25774.899999905418
l56,56,802999993,26142.199999900073
2323.599999966187
l42,42,818999957,24251.29999992759
e86,86,1611999951,24316.099999926646
r14,14,6999954,25776.69999990539
l56,56,802999956,26145.89999990002
2320.099999966238
l42,42,817999953,24251.79999992758
e86,86,1620999976,24312.699999926695
r14,14,7999958,25776.1999999054
l56,56,802999958,26145.69999990002
2322.1999999662075
l42,42,817999952,24251.89999992758
e86,86,1621999992,24310.99999992672
r14,14,11999966,25774.999999905416
l56,56,802999962,26145.299999900028
2324.5999999661726
l42,42,820999997,24247.09999992765
e86,86,1621999984,24311.79999992671
r14,14,15999987,25772.499999905453
l56,56,802999964,26145.09999990003
2322.999999966196
l42,42,820999995,24247.299999927647
e86,86,1623999998,24310.199999926732
r14,14,7999956,25776.399999905396
l56,56,802999959,26145.599999900023
2322.1999999662075
l42,42,819999992,24247.69999992764
e86,86,1620999969,24313.399999926685
r14,14,12999975,25773.99999990543
l56,56,803000000,26141.499999900083
2320.6999999662294
l42,42,819999982,24248.699999927627
e86,86,1621999989,24311.299999926716
r14,14,17000000,25771.099999905473
l56,56,802999974,26144.099999900045
2322.299999966206
l42,42,818999960,24250.999999927593
e86,86,1621999986,24311.59999992671
r14,14,6999955,25776.599999905393
l56,56,802999977,26143.79999990005
2322.5999999662017
l42,42,819999993,24247.599999927643
e86,86,1611999952,24315.999999926647
r14,14,5999951,25777.099999905386
l56,56,802999985,26142.99999990006
2321.9999999662105
l42,42,819999970,24249.89999992761
e86,86,1615999959,24314.899999926663
r14,14,10999962,25775.49999990541
l56,56,802999957,26145.79999990002
2323.199999966193
l42,42,819999990,24247.89999992764
e86,86,1620999975,24312.799999926694
r14,14,15999996,25771.599999905466
l56,56,802999980,26143.499999900054
2325.799999966155
l42,42,819999988,24248.099999927636
e86,86,1621999985,24311.69999992671
r14,14,15999997,25771.499999905467
l56,56,802999970,26144.49999990004
2325.0999999661653
l42,42,819999991,24247.79999992764
e86,86,1622999997,24310.39999992673
r14,14,15999990,25772.199999905457
l56,56,802999997,26141.79999990008
2325.599999897404
l42,42,819999979,24248.999999927622
e86,86,1614999957,24315.19999992666
r14,14,11999968,25774.79999990542
l56,56,802999955,26145.999999900017
2324.1999999661784
l42,42,820999996,24247.19999992765
e86,86,1620999970,24313.299999926687
r14,14,15999995,25771.699999905464
l56,56,802999979,26143.599999900052
2324.3999999661755
l42,42,819999969,24249.999999927608
e86,86,1620999971,24313.199999926688
r14,14,15999984,25772.79999990545
l56,56,802999972,26144.299999900042
2323.0999999661944
l42,42,819999980,24248.899999927624
e86,86,1616999962,24314.49999992667
r14,14,15999991,25772.09999990546
l56,56,802999965,26144.999999900032
2325.6999999661566
l42,42,818999964,24250.5999999276
e86,86,1616999961,24314.599999926668
r14,14,16999998,25771.29999990547
l56,56,802999971,26144.39999990004
2323.199999966193
l42,42,818999956,24251.399999927587
e86,86,1621999982,24311.999999926706
r14,14,11999965,25775.099999905415
l56,56,802999988,26142.699999900065
2324.8999999661683
l42,42,819999974,24249.499999927615
e86,86,1621999983,24311.899999926707
r14,14,13999983,25773.099999905444
l56,56,802999981,26143.399999900055
2326.3999999661464
l42,42,817999951,24251.99999992758
e86,86,1620999968,24313.499999926684
r14,14,15999994,25771.799999905463
l56,56,802999954,26146.099999900016
2322.799999966199
l42,42,817999954,24251.699999927583
e86,86,1621999987,24311.499999926713
r14,14,15999989,25772.299999905455
l56,56,802999989,26142.599999900067
2325.8999999661537
l42,42,819999973,24249.599999927614
e86,86,1611999954,24315.79999992665
r14,14,10999963,25775.39999990541
l56,56,802999992,26142.29999990007
2326.499999966145
l42,42,819999986,24248.299999927633
e86,86,1619999963,24314.099999926675
r14,14,12999971,25774.399999905425
l56,56,802999966,26144.899999900033
2325.4999999661595
l42,42,818999955,24251.499999927586
e86,86,1619999965,24313.899999926678
r14,14,15999992,25771.99999990546
l56,56,802999996,26141.899999900077
2322.3999999662046
l42,42,818999962,24250.799999927596
e86,86,1621999990,24311.199999926717
r14,14,12999979,25773.599999905437
l56,56,802999952,26146.299999900013
2322.8999999661974
l42,42,818999963,24250.699999927598
e86,86,1619999966,24313.79999992668
r14,14,10999961,25775.599999905407
l56,56,802999960,26145.499999900025
2327.2999999661333
l42,42,819999976,24249.299999927618
e86,86,1624000000,24309.999999926735
r14,14,11999969,25774.69999990542
l56,56,802999994,26142.099999900074
2326.1999999661493
l42,42,818999967,24250.299999927603
e86,86,1620999974,24312.899999926693
r14,14,15999988,25772.399999905454
l56,56,802999984,26143.09999990006
2326.699999966142
l42,42,818999961,24250.899999927595
e86,86,1621999988,24311.399999926714
r14,14,8999960,25775.899999905403
l56,56,802999967,26144.799999900035
2324.1999999661784
l42,42,820999998,24246.99999992765
e86,86,1620999980,24312.2999999267
r14,14,7999957,25776.299999905397
l56,56,802999963,26145.19999990003
2323.2999999661915
l42,42,818999965,24250.4999999276
e86,86,1621999993,24310.89999992672
r14,14,12999978,25773.699999905435
l56,56,802999982,26143.299999900057
2324.499999966174
l42,42,819999981,24248.799999927625
e86,86,1615999958,24314.999999926662
r14,14,12999977,25773.799999905434
l56,56,802999978,26143.69999990005
2323.6999999661857
l42,42,819999971,24249.79999992761
e86,86,1614999956,24315.299999926658
r14,14,15999993,25771.89999990546
l56,56,802999973,26144.199999900044
2326.699999966142
l42,42,818999959,24251.099999927592
e86,86,1621999994,24310.799999926723
r14,14,12999972,25774.299999905426
l56,56,802999969,26144.599999900038
2324.499999966174
l42,42,818999958,24251.19999992759
e86,86,1619999967,24313.69999992668
r14,14,11999964,25775.199999905413
l56,56,802999999,26141.59999990008
2325.4999999661595
l42,42,819999983,24248.59999992763
e86,86,1620999977,24312.599999926697
r14,14,12999974,25774.09999990543
l56,56,802999961,26145.399999900026
2326.1999999661493
l42,42,818999966,24250.399999927602
e86,86,1615999960,24314.799999926665
r14,14,12999980,25773.499999905438
l56,56,802999976,26143.899999900048
2326.499999966145
l42,42,819999972,24249.699999927612
e86,86,1622999995,24310.599999926726
r14,14,5999953,25776.89999990539
l56,56,802999998,26141.69999990008
2324.699999966171
l42,42,819999984,24248.49999992763
e86,86,1620999981,24312.199999926703
r14,14,11999970,25774.599999905422
l56,56,802999995,26141.999999900076
2327.199999966135
l42,42,819999975,24249.399999927617
e86,86,1623999999,24310.099999926733
r14,14,5999952,25776.999999905387
l56,56,802999951,26146.39999990001
2326.499999966145
l42,42,819999977,24249.19999992762
e86,86,1620999973,24312.99999992669
r14,14,12999976,25773.899999905432
l56,56,802999987,26142.799999900064
2328.299999966119
l42,42,819999987,24248.199999927634
e86,86,1620999972,24313.09999992669
r14,14,13999981,25773.29999990544
l56,56,802999991,26142.39999990007
2325.199999966164
l42,42,820999999,24246.899999927653
e86,86,1622999996,24310.499999926727
r14,14,13999982,25773.199999905442
l56,56,802999983,26143.199999900058
2326.699999966142
l42,42,820999994,24247.399999927646
e86,86,1620999979,24312.3999999267
r14,14,16999999,25771.19999990547
l56,56,802999968,26144.699999900036
2326.5999999661435
l42,42,819999968,24250.099999927606
e86,86,1614999955,24315.399999926656
r14,14,15999985,25772.69999990545
l56,56,802999990,26142.49999990007
2325.199999966164
l42,42,819999989,24247.999999927637
e86,86,1611999953,24315.89999992665
r14,14,15999986,25772.59999990545
l56,56,802999975,26143.999999900047
2325.199999966164
l42,42,821000000,24246.799999927654
e86,86,1621999991,24311.09999992672
r14,14,8999959,25775.9999999054
l56,56,802999953,26146.199999900015
2328.299999966119
l42,42,819999985,24248.39999992763
e86,86,1619999964,24313.999999926677
r14,14,12999973,25774.199999905428
l56,56,802999986,26142.899999900063
2329.3999999661028
