e85,85,1617999956,24443.899999924786
l54,54,806999972,25236.999999913245
r13,13,15999989,25389.499999911026
r9,9,999977,25652.99999990719
e92,92,1599999975,25659.99999990709
r29,29,999964,26271.69999989819
2427.1999999646796
e85,85,1617999972,24442.29999992481
l54,54,806999962,25237.99999991323
r13,13,15999992,25389.19999991103
r9,9,999983,25652.3999999072
e92,92,1599999995,25657.99999990712
r29,29,999960,26272.099999898182
2426.899999964684
e85,85,1617999984,24441.099999924827
l54,54,806999953,25238.899999913217
r13,13,15999991,25389.29999991103
r9,9,999995,25651.199999907218
e92,92,1599999968,25660.69999990708
r29,29,999955,26272.89999989817
2425.4999999647043
e85,85,1617999976,24441.899999924815
l54,54,806999952,25238.999999913216
r13,13,14999968,25391.699999910994
r9,9,999974,25653.299999907187
e92,92,1599999970,25660.499999907082
r29,29,5999984,26269.199999898225
2426.899999964684
e85,85,1617999954,24444.099999924783
l54,54,806999968,25237.39999991324
r13,13,15999982,25390.199999911016
r9,9,999994,25651.299999907216
e92,92,1599999980,25659.499999907097
r29,29,999959,26272.19999989818
2426.49999996469
e85,85,1617999955,24443.999999924785
l54,54,806999958,25238.399999913225
r13,13,15999994,25388.999999911033
r9,9,999958,25654.899999907164
e92,92,1599999994,25658.099999907117
r29,29,5999991,26268.499999898235
2425.599999964703
e85,85,1617999983,24441.199999924826
l54,54,807999989,25235.19999991327
r13,13,13999966,25391.99999991099
r9,9,999980,25652.699999907196
e92,92,1598999956,25661.99999990706
r29,29,10000000,26267.199999898254
2426.0999999646956
e85,85,1617999986,24440.89999992483
l54,54,808999996,25234.399999913283
r13,13,14999973,25391.199999911
r9,9,999993,25651.399999907215
e92,92,1598999957,25661.899999907062
r29,29,999952,26273.799999898158
2428.199999964665
e85,85,1617999973,24442.19999992481
l54,54,806999963,25237.899999913232
r13,13,10999957,25393.199999910972
r9,9,999969,25653.79999990718
e92,92,1599999973,25660.199999907087
r29,29,5999987,26268.89999989823
2426.199999964694
e85,85,1617999991,24440.399999924837
l54,54,806999960,25238.199999913228
r13,13,15999981,25390.299999911014
r9,9,999985,25652.199999907203
e92,92,1599999978,25659.699999907094
r29,29,4999977,26269.999999898213
2428.2999999646636
e85,85,1617999974,24442.099999924812
l54,54,808999994,25234.59999991328
r13,13,15999979,25390.49999991101
r9,9,999960,25654.699999907167
e92,92,1599999967,25660.799999907078
r29,29,5999989,26268.699999898232
2427.299999964678
e85,85,1617999967,24442.799999924802
l54,54,806999956,25238.599999913222
r13,13,10999961,25392.799999910978
r9,9,999981,25652.599999907197
e92,92,1599999987,25658.799999907107
r29,29,1999969,26271.099999898197
2426.699999964687
e85,85,1617999965,24442.9999999248
l54,54,806999955,25238.69999991322
r13,13,15999976,25390.799999911007
r9,9,999954,25655.299999907158
e92,92,1599999998,25657.699999907123
r29,29,999951,26273.899999898156
2428.9999999646534
e85,85,1617999998,24439.699999924847
l54,54,806999973,25236.899999913247
r13,13,14999970,25391.499999910997
r9,9,999998,25650.899999907222
e92,92,1599999988,25658.69999990711
r29,29,4999979,26269.799999898216
2425.2999999647072
e85,85,1617999964,24443.099999924798
l54,54,806999978,25236.399999913254
r13,13,15999997,25388.699999911038
r9,9,999972,25653.499999907184
e92,92,1599999993,25658.199999907116
r29,29,1999972,26270.7999998982
2426.2999999646927
e85,85,1617999980,24441.49999992482
l54,54,807999986,25235.499999913267
r13,13,8999954,25393.699999910965
r9,9,999955,25655.19999990716
e92,92,1598999953,25662.299999907056
r29,29,5999983,26269.299999898223
2429.7999999646418
e85,85,1617999969,24442.599999924805
l54,54,806999979,25236.299999913255
r13,13,15999990,25389.399999911027
r9,9,999953,25655.399999907157
e92,92,1599999983,25659.1999999071
r29,29,1999968,26271.199999898196
2425.2999999647072
e85,85,1617999961,24443.399999924794
l54,54,806999970,25237.199999913242
r13,13,15999978,25390.59999991101
r9,9,999996,25651.09999990722
e92,92,1598999962,25661.39999990707
r29,29,999957,26272.699999898174
2425.7999999647
e85,85,1617999958,24443.69999992479
l54,54,806999977,25236.499999913252
r13,13,16000000,25388.399999911042
r9,9,999989,25651.79999990721
e92,92,1598999961,25661.499999907068
r29,29,5999982,26269.39999989822
2428.199999964665
e85,85,1617999979,24441.59999992482
l54,54,806999966,25237.599999913236
r13,13,15999999,25388.49999991104
r9,9,999971,25653.599999907183
e92,92,1599999985,25658.999999907104
r29,29,999961,26271.999999898184
2430.0999999646374
e85,85,1617999988,24440.699999924833
l54,54,806999974,25236.799999913248
r13,13,15999995,25388.899999911035
r9,9,999952,25655.499999907155
e92,92,1599999984,25659.099999907103
r29,29,4999975,26270.19999989821
2429.099999964652
e85,85,1617999975,24441.999999924814
l54,54,807999990,25235.099999913273
r13,13,15999980,25390.399999911013
r9,9,999964,25654.299999907173
e92,92,1598999965,25661.099999907074
r29,29,5999986,26268.999999898228
2427.299999964678
e85,85,1617999977,24441.799999924817
l54,54,808999995,25234.49999991328
r13,13,10999960,25392.899999910976
r9,9,999966,25654.099999907176
e92,92,1598999959,25661.699999907065
r29,29,5999994,26268.19999989824
2428.6999999646578
e85,85,1617999982,24441.299999924824
l54,54,806999951,25239.099999913215
r13,13,13999963,25392.299999910985
r9,9,999975,25653.19999990719
e92,92,1599999999,25657.599999907125
r29,29,999965,26271.59999989819
2428.0999999646665
e85,85,1617999985,24440.99999992483
l54,54,807999987,25235.39999991327
r13,13,14999969,25391.599999910995
r9,9,999957,25654.999999907162
e92,92,1599999991,25658.399999907113
r29,29,999966,26271.49999989819
2427.3999999646767
e85,85,1617999952,24444.29999992478
l54,54,806999954,25238.79999991322
r13,13,15999988,25389.599999911024
r9,9,999997,25650.99999990722
e92,92,1599999986,25658.899999907106
r29,29,4999976,26270.09999989821
2429.7999999646418
e85,85,1617999996,24439.899999924844
l54,54,806999975,25236.69999991325
r13,13,13999964,25392.199999910987
r9,9,999984,25652.2999999072
e92,92,1599999997,25657.79999990712
r29,29,999967,26271.399999898193
2430.4999999646316
e85,85,1618999999,24439.49999992485
l54,54,808999997,25234.299999913284
r13,13,15999983,25390.099999911017
r9,9,999965,25654.199999907174
e92,92,1599999990,25658.49999990711
r29,29,5999981,26269.49999989822
2428.6999999646578
e85,85,1617999978,24441.69999992482
l54,54,806999961,25238.09999991323
r13,13,15999975,25390.899999911006
r9,9,999973,25653.399999907186
e92,92,1598999952,25662.399999907055
r29,29,3999974,26270.399999898207
2430.4999999646316
e85,85,1617999990,24440.499999924836
l54,54,807999982,25235.89999991326
r13,13,14999974,25391.099999911003
r9,9,999967,25653.999999907177
e92,92,1598999960,25661.599999907066
r29,29,4999978,26269.899999898214
2426.7999999646854
e85,85,1617999953,24444.199999924782
l54,54,807999984,25235.699999913264
r13,13,8999953,25393.799999910963
r9,9,999962,25654.49999990717
e92,92,1598999955,25662.09999990706
r29,29,5999993,26268.299999898238
2427.5999999646738
e85,85,1617999995,24439.999999924843
l54,54,809000000,25233.99999991329
r13,13,15999985,25389.89999991102
r9,9,999982,25652.4999999072
e92,92,1600000000,25657.499999907126
r29,29,999954,26272.99999989817
2427.3999999646767
e85,85,1617999987,24440.79999992483
l54,54,808999991,25234.899999913276
r13,13,14999971,25391.399999911
r9,9,999976,25653.09999990719
e92,92,1598999951,25662.499999907053
r29,29,1999971,26270.8999998982
2427.999999964668
e85,85,1617999997,24439.799999924846
l54,54,808999992,25234.799999913277
r13,13,15999998,25388.59999991104
r9,9,999968,25653.89999990718
e92,92,1598999958,25661.799999907063
r29,29,999963,26271.799999898187
2431.3999999646185
e85,85,1617999966,24442.8999999248
l54,54,807999988,25235.29999991327
r13,13,7999951,25394.09999991096
r9,9,1000000,25650.699999907225
e92,92,1599999996,25657.89999990712
r29,29,5999992,26268.399999898236
2430.9999999646243
e85,85,1617999994,24440.09999992484
l54,54,806999971,25237.099999913244
r13,13,11999962,25392.59999991098
r9,9,999992,25651.499999907213
e92,92,1599999979,25659.599999907095
r29,29,999956,26272.799999898172
2429.699999964643
e85,85,1617999971,24442.399999924808
l54,54,806999969,25237.29999991324
r13,13,15999987,25389.699999911023
r9,9,999963,25654.39999990717
e92,92,1598999954,25662.199999907058
r29,29,5999985,26269.099999898226
2428.0999999646665
e85,85,1617999992,24440.29999992484
l54,54,806999980,25236.199999913257
r13,13,13999965,25392.099999910988
r9,9,999979,25652.799999907194
e92,92,1599999974,25660.09999990709
r29,29,4999980,26269.699999898217
2430.399999964633
e85,85,1617999957,24443.799999924788
l54,54,806999967,25237.499999913238
r13,13,15999986,25389.79999991102
r9,9,999990,25651.69999990721
e92,92,1599999992,25658.299999907114
r29,29,999958,26272.29999989818
2429.499999964646
e85,85,1617999989,24440.599999924834
l54,54,808999993,25234.69999991328
r13,13,10999955,25393.39999991097
r9,9,999978,25652.899999907193
e92,92,1598999964,25661.199999907072
r29,29,9999999,26267.299999898252
2428.599999964659
e85,85,1617999968,24442.699999924804
l54,54,806999959,25238.299999913226
r13,13,15999984,25389.99999991102
r9,9,999987,25651.999999907206
e92,92,1598999966,25660.999999907075
r29,29,999962,26271.899999898185
2431.9999999646097
e85,85,1617999951,24444.39999992478
l54,54,808999998,25234.199999913286
r13,13,15999996,25388.799999911036
r9,9,999961,25654.59999990717
e92,92,1599999982,25659.2999999071
r29,29,999953,26273.69999989816
2431.099999964623
e85,85,1617999960,24443.499999924792
l54,54,808999999,25234.099999913287
r13,13,13999967,25391.89999991099
r9,9,999991,25651.599999907212
e92,92,1598999963,25661.29999990707
r29,29,5999990,26268.599999898233
2431.099999964623
e85,85,1619000000,24439.39999992485
l54,54,807999985,25235.599999913265
r13,13,10999959,25392.999999910975
r9,9,999951,25655.599999907154
e92,92,1599999969,25660.59999990708
r29,29,2999973,26270.599999898204
2428.6999999646578
e85,85,1617999993,24440.19999992484
l54,54,807999983,25235.799999913263
r13,13,15999977,25390.69999991101
r9,9,999986,25652.099999907205
e92,92,1599999981,25659.3999999071
r29,29,6999996,26267.899999898244
2432.299999895851
e85,85,1617999981,24441.399999924823
l54,54,807999981,25235.99999991326
r13,13,14999972,25391.299999911
r9,9,999956,25655.09999990716
e92,92,1599999976,25659.89999990709
r29,29,5999988,26268.79999989823
2428.2999999646636
e85,85,1617999959,24443.59999992479
l54,54,806999957,25238.499999913223
r13,13,10999956,25393.29999991097
r9,9,999988,25651.899999907208
e92,92,1599999977,25659.799999907093
r29,29,9999998,26267.39999989825
2428.7999999646563
e85,85,1617999963,24443.199999924796
l54,54,806999976,25236.59999991325
r13,13,15999993,25389.09999991103
r9,9,999970,25653.69999990718
e92,92,1599999972,25660.299999907085
r29,29,6999995,26267.999999898242
2428.199999964665
e85,85,1617999962,24443.299999924795
l54,54,806999965,25237.699999913235
r13,13,8999952,25393.899999910962
r9,9,999999,25650.799999907224
e92,92,1599999989,25658.59999990711
r29,29,7999997,26267.699999898246
2428.399999964662
e85,85,1617999970,24442.499999924807
l54,54,806999964,25237.799999913233
r13,13,10999958,25393.099999910974
r9,9,999959,25654.799999907165
e92,92,1599999971,25660.399999907084
r29,29,1999970,26270.9999998982
2430.799999964627
