e94,94,1611999962,25111.899999915066
1569.5999999771593
e94,94,1612999972,25110.79999991508
1567.699999977187
e94,94,1611999959,25112.19999991506
1567.699999977187
e94,94,1612999987,25109.299999915103
1567.9999999771826
e94,94,1612999990,25108.999999915108
1569.5999999771593
e94,94,1611999966,25111.49999991507
1570.3999999771477
e94,94,1612999973,25110.699999915083
1568.5999999771739
e94,94,1612999993,25108.699999915112
1569.3999999771622
e94,94,1612999981,25109.899999915095
1568.0999999771811
e94,94,1612999988,25109.199999915105
1572.5999999771157
e94,94,1612999978,25110.19999991509
1568.8999999771695
e94,94,1612999968,25111.199999915076
1571.199999977136
e94,94,1611999955,25112.599999915055
1570.8999999771404
e94,94,1612999999,25108.09999991512
1571.8999999771258
e94,94,1613000000,25107.999999915122
1572.099999977123
e94,94,1611999958,25112.29999991506
1568.8999999771695
e94,94,1612999996,25108.399999915116
1570.099999977152
e94,94,1612999995,25108.499999915115
1568.6999999771724
e94,94,1611999963,25111.799999915067
1572.7999999771127
e94,94,1612999989,25109.099999915106
1571.6999999771288
e94,94,1612999997,25108.299999915118
1572.7999999771127
e94,94,1612999998,25108.19999991512
1573.8999999770967
e94,94,1611999960,25112.099999915063
1573.6999999770997
e94,94,1612999979,25110.09999991509
1571.7999999771273
e94,94,1612999983,25109.699999915098
1573.599999977101
e94,94,1612999977,25110.29999991509
1572.6999999771142
e94,94,1612999992,25108.79999991511
1572.8999999771113
e94,94,1612999975,25110.499999915086
1570.4999999771462
e94,94,1612999980,25109.999999915093
1569.9999999771535
e94,94,1612999971,25110.89999991508
1571.6999999771288
e94,94,1611999954,25112.699999915054
1574.3999999083353
e94,94,1612999984,25109.5999999151
1572.1999999771215
e94,94,1611999952,25112.89999991505
1572.499999977117
e94,94,1611999964,25111.69999991507
1574.699999977085
e94,94,1611999956,25112.499999915057
1571.6999999771288
e94,94,1612999974,25110.599999915084
1575.0999999770793
e94,94,1612999982,25109.799999915096
1573.9999999770953
e94,94,1612999970,25110.99999991508
1574.1999999770924
e94,94,1612999969,25111.099999915077
1572.1999999771215
e94,94,1611999961,25111.999999915064
1571.9999999771244
e94,94,1612999991,25108.89999991511
1574.8999999770822
e94,94,1612999985,25109.4999999151
1571.199999977136
e94,94,1611999951,25112.99999991505
1573.199999977107
e94,94,1611999965,25111.59999991507
1575.399999977075
e94,94,1612999976,25110.399999915087
1573.7999999770982
e94,94,1611999953,25112.799999915052
1572.6999999771142
e94,94,1612999986,25109.399999915102
1575.8999999770676
e94,94,1612999994,25108.599999915114
1574.699999977085
e94,94,1611999957,25112.39999991506
1573.399999977104
e94,94,1611999967,25111.399999915073
1573.7999999770982
