r34,34,11999958,24056.399999930425
e88,88,1604999984,25262.999999912867
e89,89,1600999954,25793.799999905143
1986.0999999710984
r34,34,16999992,24052.499999930482
e88,88,1604999991,25262.299999912877
e89,89,1606000000,25788.699999905217
1982.9999999711436
r34,34,11999976,24054.59999993045
e88,88,1604999994,25261.99999991288
e89,89,1603999978,25791.099999905182
1986.9999999710853
r34,34,14999986,24053.29999993047
e88,88,1604999961,25265.299999912833
e89,89,1601999956,25793.499999905147
1984.4999999711217
r34,34,11999965,24055.699999930435
e88,88,1604999972,25264.19999991285
e89,89,1601999967,25792.399999905163
1984.199999971126
r34,34,16999996,24052.099999930488
e88,88,1604999953,25266.09999991282
e89,89,1603999980,25790.899999905185
1983.999999971129
r34,34,16999993,24052.399999930483
e88,88,1604999958,25265.59999991283
e89,89,1603999973,25791.599999905175
1985.7999999711028
r34,34,9999951,24057.299999930412
e88,88,1604999995,25261.899999912883
e89,89,1605999985,25790.199999905195
1987.8999999710722
r34,34,16999999,24051.799999930492
e88,88,1604999970,25264.399999912846
e89,89,1601999963,25792.799999905157
1983.5999999711348
r34,34,11999969,24055.29999993044
e88,88,1604999956,25265.799999912826
e89,89,1601999966,25792.49999990516
1983.3999999711377
r34,34,11999962,24055.99999993043
e88,88,1604999985,25262.89999991287
e89,89,1605999995,25789.19999990521
1985.099999971113
r34,34,11999970,24055.199999930443
e88,88,1604999978,25263.599999912858
e89,89,1605999999,25788.799999905215
1987.499999971078
r34,34,16999991,24052.59999993048
e88,88,1604999993,25262.09999991288
e89,89,1605999998,25788.899999905214
1987.7999999710737
r34,34,11999972,24054.999999930445
e88,88,1604999996,25261.799999912884
e89,89,1605999986,25790.099999905196
1986.399999971094
r34,34,11999968,24055.39999993044
e88,88,1604999998,25261.599999912887
e89,89,1601999961,25792.999999905154
1985.6999999711043
r34,34,11999979,24054.299999930456
e88,88,1604999966,25264.79999991284
e89,89,1605999997,25788.999999905212
1986.4999999710926
r34,34,16999995,24052.199999930486
e88,88,1604999975,25263.899999912854
e89,89,1602999969,25792.099999905167
1986.4999999710926
r34,34,19000000,24051.499999930496
e88,88,1604999963,25265.099999912836
e89,89,1602999971,25791.89999990517
1987.3999999710795
r34,34,11999974,24054.79999993045
e88,88,1604999979,25263.49999991286
e89,89,1603999975,25791.399999905178
1984.199999971126
r34,34,11999957,24056.499999930424
e88,88,1604999974,25263.999999912852
e89,89,1603999981,25790.799999905186
1987.3999999710795
r34,34,16999990,24052.69999993048
e88,88,1604999964,25264.999999912838
e89,89,1605999991,25789.599999905204
1986.6999999710897
r34,34,11999975,24054.69999993045
e88,88,1605000000,25261.39999991289
e89,89,1600999953,25793.89999990514
1985.1999999711115
r34,34,11999982,24053.99999993046
e88,88,1604999992,25262.19999991288
e89,89,1603999977,25791.19999990518
1987.7999999710737
r34,34,14999985,24053.39999993047
e88,88,1604999977,25263.699999912857
e89,89,1600999951,25794.09999990514
1986.199999971097
r34,34,16999994,24052.299999930485
e88,88,1604999959,25265.49999991283
e89,89,1603999974,25791.499999905176
1989.1999999022992
r34,34,16999998,24051.89999993049
e88,88,1604999986,25262.79999991287
e89,89,1601999968,25792.299999905164
1988.9999999710562
r34,34,11999955,24056.69999993042
e88,88,1604999981,25263.299999912862
e89,89,1601999964,25792.69999990516
1985.9999999711
r34,34,11999967,24055.49999993044
e88,88,1604999969,25264.499999912845
e89,89,1601999957,25793.39999990515
1986.2999999710955
r34,34,14999989,24052.999999930475
e88,88,1604999990,25262.399999912876
e89,89,1601999965,25792.59999990516
1988.0999999710693
r34,34,14999984,24053.499999930467
e88,88,1604999999,25261.49999991289
e89,89,1602999970,25791.99999990517
1988.8999999710577
r34,34,14999987,24053.19999993047
e88,88,1604999952,25266.19999991282
e89,89,1603999982,25790.699999905188
1989.8999999710431
r34,34,11999963,24055.899999930432
e88,88,1604999989,25262.499999912874
e89,89,1605999994,25789.299999905208
1988.9999999710562
r34,34,12999983,24053.799999930463
e88,88,1604999965,25264.89999991284
e89,89,1605999993,25789.399999905207
1987.5999999710766
r34,34,11999964,24055.799999930434
e88,88,1604999960,25265.399999912832
e89,89,1605999988,25789.8999999052
1990.3999999710359
r34,34,11999973,24054.899999930447
e88,88,1604999968,25264.599999912843
e89,89,1601999958,25793.29999990515
1987.9999999710708
r34,34,16999997,24051.99999993049
e88,88,1604999983,25263.099999912865
e89,89,1605999987,25789.999999905198
1986.6999999710897
r34,34,14999988,24053.099999930473
e88,88,1604999955,25265.899999912825
e89,89,1605999992,25789.499999905205
1986.8999999710868
r34,34,11999981,24054.09999993046
e88,88,1604999982,25263.199999912864
e89,89,1605999996,25789.09999990521
1990.6999999710315
r34,34,11999966,24055.599999930437
e88,88,1604999973,25264.09999991285
e89,89,1601999960,25793.099999905153
1989.1999999710533
r34,34,11999971,24055.099999930444
e88,88,1604999997,25261.699999912886
e89,89,1605999989,25789.7999999052
1987.8999999710722
r34,34,10999952,24057.099999930415
e88,88,1604999962,25265.199999912835
e89,89,1604999984,25790.399999905192
1986.5999999710912
r34,34,11999960,24056.199999930428
e88,88,1604999971,25264.299999912848
e89,89,1603999983,25790.59999990519
1990.3999999710359
r34,34,10999953,24056.999999930416
e88,88,1604999988,25262.599999912873
e89,89,1601999962,25792.899999905156
1986.8999999710868
r34,34,11999980,24054.199999930457
e88,88,1604999987,25262.69999991287
e89,89,1601999959,25793.19999990515
1987.9999999710708
r34,34,11999954,24056.79999993042
e88,88,1604999954,25265.999999912823
e89,89,1600999952,25793.99999990514
1988.8999999710577
r34,34,11999977,24054.499999930453
e88,88,1604999980,25263.39999991286
e89,89,1603999976,25791.29999990518
1990.2999999710373
r34,34,11999961,24056.09999993043
e88,88,1604999951,25266.29999991282
e89,89,1600999955,25793.699999905144
1991.2999999710228
r34,34,11999978,24054.399999930454
e88,88,1604999957,25265.699999912827
e89,89,1603999979,25790.999999905183
1990.8999999710286
r34,34,11999956,24056.599999930422
e88,88,1604999967,25264.699999912842
e89,89,1602999972,25791.79999990517
1989.5999999710475
r34,34,11999959,24056.299999930427
e88,88,1604999976,25263.799999912855
e89,89,1605999990,25789.699999905202
1987.8999999710722
