l52,52,1000000000,61016.0
e72,72,1799999992,61703.0
e92,92,1799999995,62822.0
3683.0
l52,52,999999987,61029.0
e72,72,1799999998,61697.0
e92,92,1800000000,62817.0
3668.0
l52,52,999999996,61020.0
e72,72,1799999984,61711.0
e92,92,1799999999,62818.0
3661.0
l38,38,999999997,61533.0
e99,99,1799999994,62070.0
r24,24,199999999,62277.0
e89,89,1799999997,63196.0
e92,92,1799999987,63688.0
3676.0
l38,38,999999982,61548.0
e99,99,1800000000,62064.0
r24,24,199999998,62278.0
e89,89,1799999992,63201.0
e92,92,1799999989,63686.0
3662.0
l52,52,999999995,61021.0
e72,72,1799999985,61710.0
e92,92,1799999993,62824.0
3682.0
l52,52,999999993,61023.0
e72,72,1799999986,61709.0
e92,92,1799999996,62821.0
3686.0
l38,38,999999993,61537.0
e99,99,1799999996,62068.0
r24,24,199999997,62279.0
e89,89,1800000000,63193.0
e92,92,1799999983,63692.0
3689.0
l52,52,999999998,61018.0
e72,72,1799999988,61707.0
e92,92,1799999991,62826.0
3687.0
l38,38,1000000000,61530.0
e99,99,1799999999,62065.0
r24,24,199999992,62284.0
e89,89,1799999999,63194.0
e92,92,1799999990,63685.0
3662.0
l38,38,999999981,61549.0
e99,99,1799999993,62071.0
r24,24,199999996,62280.0
e89,89,1799999993,63200.0
e92,92,1799999985,63690.0
3702.0
l52,52,999999997,61019.0
e72,72,1799999987,61708.0
e92,92,1799999992,62825.0
3708.0
l38,38,999999984,61546.0
e99,99,1799999997,62067.0
r24,24,199999994,62282.0
e89,89,1799999998,63195.0
e92,92,1799999986,63689.0
3697.0
l38,38,999999995,61535.0
e99,99,1799999995,62069.0
r24,24,200000000,62276.0
e89,89,1799999996,63197.0
e92,92,1799999984,63691.0
3679.0
l52,52,999999991,61025.0
e72,72,1799999997,61698.0
e92,92,1799999994,62823.0
3682.0
l38,38,999999989,61541.0
e99,99,1799999992,62072.0
r24,24,199999995,62281.0
e89,89,1799999994,63199.0
e92,92,1799999988,63687.0
3684.0
l52,52,999999989,61027.0
e72,72,1799999993,61702.0
e92,92,1799999997,62820.0
3688.0
l52,52,999999988,61028.0
e72,72,1799999989,61706.0
e92,92,1799999998,62819.0
3695.0
l52,52,999999999,61017.0
l68,68,999999994,61313.0
r34,34,200000000,61860.0
r23,23,199999994,62176.0
e80,80,1799999991,62184.0
e82,82,1799999993,62185.0
r10,10,199999989,62914.0
3754.0
l52,52,999999992,61024.0
l68,68,1000000000,61307.0
r34,34,199999999,61861.0
r23,23,199999993,62177.0
e80,80,1799999993,62182.0
e82,82,1799999992,62186.0
r10,10,199999985,62918.0
3762.0
l52,52,999999984,61032.0
l68,68,999999993,61314.0
r33,33,199999997,61927.0
e82,82,1799999994,62105.0
r10,10,199999988,62915.0
3774.0
r23,23,199999976,62636.0
l56,56,999999984,63760.0
4453.0
r23,23,199999983,62629.0
l56,56,999999976,63768.0
4477.0
r23,23,199999984,62628.0
l56,56,999999977,63767.0
4479.0
r23,23,199999981,62631.0
l56,56,999999983,63761.0
4481.0
r23,23,199999980,62632.0
l56,56,999999979,63765.0
4440.0
r23,23,199999990,62622.0
l56,56,999999978,63766.0
4479.0
r23,23,199999978,62634.0
l56,56,999999981,63763.0
4469.0
r23,23,199999975,62637.0
l56,56,999999980,63764.0
4488.0
e69,69,1799999998,61179.0
e100,100,1799999992,61989.0
e72,72,1799999977,63687.0
4883.0
e69,69,1799999997,61180.0
e100,100,1800000000,61981.0
e72,72,1799999974,63690.0
4854.0
e69,69,1799999989,61188.0
e100,100,1799999994,61987.0
e72,72,1799999979,63685.0
4875.0
l38,38,999999987,61543.0
r15,15,199999981,63518.0
e72,72,1799999969,64857.0
4844.0
e69,69,1799999992,61185.0
e100,100,1799999993,61988.0
e72,72,1799999982,63682.0
4869.0
e69,69,1799999994,61183.0
e100,100,1799999990,61991.0
e72,72,1799999975,63689.0
4865.0
l38,38,999999992,61538.0
r15,15,199999977,63522.0
e72,72,1799999971,64855.0
4850.0
e69,69,1800000000,61177.0
e100,100,1799999998,61983.0
e72,72,1799999983,63681.0
4850.0
l38,38,999999998,61532.0
l47,47,999999993,62688.0
r19,19,199999979,64021.0
r26,26,199999970,64290.0
e87,87,1799999968,64509.0
4891.0
l68,68,999999981,62827.0
l53,53,999999973,63931.0
l51,51,999999964,64961.0
r28,28,199999962,65016.0
e87,87,1799999964,65047.0
e97,97,1799999976,65224.0
e88,88,1799999954,65262.0
r11,11,199999962,65433.0
r32,32,199999958,65730.0
6653.0
r2,2,199999963,64565.0
r11,11,199999952,65680.0
r32,32,199999955,65733.0
6662.0
l68,68,999999975,62833.0
r25,25,199999971,64462.0
r11,11,199999953,65446.0
r32,32,199999960,65728.0
6654.0
r2,2,199999966,64562.0
r11,11,199999951,65681.0
r32,32,199999959,65729.0
6685.0
r2,2,199999964,64564.0
r6,6,199999978,64623.0
e86,86,1799999960,64865.0
e88,88,1799999961,65170.0
r11,11,199999958,65437.0
r32,32,199999953,65735.0
6646.0
r2,2,199999965,64563.0
r32,32,199999951,66017.0
6646.0
l48,48,999999977,63978.0
e88,88,1799999973,64567.0
r11,11,199999957,65438.0
r32,32,199999957,65731.0
6657.0
l48,48,999999973,63982.0
e88,88,1799999971,64569.0
r11,11,199999954,65441.0
r32,32,199999954,65734.0
6647.0
l48,48,999999982,63973.0
e88,88,1799999974,64566.0
r11,11,199999961,65434.0
r32,32,199999961,65727.0
6686.0
r2,2,199999960,64568.0
r6,6,199999975,64626.0
e86,86,1799999961,64864.0
e88,88,1799999957,65174.0
r11,11,199999960,65435.0
r32,32,199999956,65732.0
6681.0
r23,23,199999987,62625.0
l51,51,999999993,63501.0
r32,32,199999976,64040.0
6696.0
r2,2,199999962,64566.0
r32,32,199999952,66016.0
6698.0
