e98,98,1799999992,62260.0
2713.0
e98,98,1799999983,62269.0
2677.0
e98,98,1799999987,62265.0
2691.0
e98,98,1799999994,62258.0
2687.0
e98,98,1799999991,62261.0
2728.0
e98,98,1799999995,62257.0
2695.0
e98,98,1799999989,62263.0
2715.0
e98,98,1799999996,62256.0
2724.0
e98,98,1799999999,62253.0
2687.0
e98,98,1799999986,62266.0
2721.0
e98,98,1799999988,62264.0
2728.0
e98,98,1799999998,62254.0
2693.0
e98,98,1799999997,62255.0
2706.0
l66,66,999999983,60976.0
e76,76,1799999997,62004.0
e71,71,1799999997,62802.0
l61,61,999999999,62850.0
e81,81,1799999993,62864.0
r6,6,199999992,62907.0
r14,14,199999999,63002.0
l55,55,999999993,63239.0
4178.0
l66,66,999999985,60974.0
e76,76,1799999996,62005.0
e81,81,1800000000,62725.0
r6,6,200000000,62899.0
r14,14,199999994,63007.0
l55,55,999999996,63236.0
4208.0
l66,66,999999991,60968.0
e76,76,1799999995,62006.0
e81,81,1799999999,62726.0
r6,6,199999995,62904.0
r14,14,199999997,63004.0
l55,55,999999995,63237.0
4203.0
l55,55,999999991,63471.0
4194.0
l55,55,999999979,63483.0
4217.0
r11,11,199999982,60449.0
e70,70,1800000000,61564.0
e82,82,1799999996,61670.0
r7,7,200000000,61813.0
e85,85,1799999997,62072.0
e89,89,1799999997,62283.0
e92,92,1799999997,62685.0
l49,49,999999996,63435.0
l55,55,999999974,63899.0
4197.0
r11,11,199999999,60432.0
e70,70,1799999997,61567.0
e82,82,1799999999,61667.0
r7,7,199999998,61815.0
e85,85,1799999998,62071.0
e89,89,1799999999,62281.0
e92,92,1799999999,62683.0
l49,49,999999997,63434.0
l55,55,999999977,63896.0
4190.0
l55,55,999999986,63476.0
4197.0
l55,55,999999990,63472.0
4184.0
l55,55,999999985,63477.0
4186.0
l66,66,999999989,60970.0
e76,76,1799999998,62003.0
e71,71,1799999999,62800.0
l61,61,999999996,62853.0
e81,81,1799999996,62861.0
r6,6,199999996,62903.0
r14,14,199999993,63008.0
l55,55,999999997,63235.0
4197.0
l66,66,999999992,60967.0
e76,76,1800000000,62001.0
e71,71,1800000000,62799.0
l61,61,999999997,62852.0
e81,81,1799999992,62865.0
r6,6,199999999,62900.0
r14,14,199999995,63006.0
l55,55,999999998,63234.0
4223.0
l55,55,999999980,63482.0
4191.0
r11,11,199999983,60448.0
r9,9,199999996,63449.0
l49,49,999999990,63728.0
l55,55,999999975,63898.0
4212.0
r11,11,199999992,60439.0
e70,70,1799999996,61568.0
e82,82,1799999998,61668.0
r7,7,199999999,61814.0
e85,85,1800000000,62069.0
e89,89,1799999998,62282.0
e92,92,1799999998,62684.0
l49,49,1000000000,63431.0
l55,55,999999976,63897.0
4228.0
l66,66,999999984,60975.0
e76,76,1799999988,62013.0
e81,81,1799999998,62727.0
r6,6,199999998,62901.0
r14,14,200000000,63001.0
l55,55,999999994,63238.0
4204.0
l66,66,1000000000,60959.0
e76,76,1799999984,62017.0
e71,71,1799999996,62803.0
l61,61,1000000000,62849.0
e81,81,1799999994,62863.0
r6,6,199999994,62905.0
r14,14,199999992,63009.0
l55,55,999999999,63233.0
4190.0
l55,55,999999984,63478.0
4200.0
l55,55,999999987,63475.0
4200.0
l55,55,999999982,63480.0
4225.0
e91,91,1799999996,62799.0
l53,53,999999999,63361.0
r20,20,199999993,63579.0
4240.0
l66,66,999999987,60972.0
e91,91,1799999975,62909.0
l53,53,999999996,63364.0
r20,20,199999991,63581.0
4246.0
e91,91,1799999990,62805.0
l53,53,999999994,63366.0
r20,20,199999994,63578.0
4250.0
l66,66,999999982,60977.0
e91,91,1799999978,62906.0
l53,53,999999998,63362.0
r20,20,200000000,63572.0
4234.0
l66,66,999999993,60966.0
e76,76,1799999986,62015.0
e97,97,1799999998,63119.0
e75,75,1799999990,65041.0
5567.0
l66,66,999999996,60963.0
e76,76,1799999999,62002.0
e97,97,1799999997,63120.0
e75,75,1799999983,65048.0
5526.0
l67,67,999999999,61656.0
l42,42,999999999,63268.0
e86,86,1799999973,64143.0
r8,8,199999991,64451.0
e97,97,1799999970,64617.0
e75,75,1799999977,65054.0
5529.0
e91,91,1799999997,62798.0
r22,22,199999988,63238.0
e89,89,1799999979,64013.0
l43,43,999999962,64151.0
l40,40,999999974,65086.0
5780.0
l67,67,999999994,61661.0
r24,24,199999991,62249.0
l52,52,999999998,62616.0
r21,21,199999975,63449.0
l40,40,999999990,64028.0
5763.0
l67,67,999999992,61663.0
r24,24,199999998,62242.0
l52,52,999999990,62709.0
r21,21,199999991,63433.0
l40,40,999999987,64031.0
5760.0
l43,43,999999985,63274.0
l40,40,999999971,65089.0
5739.0
e89,89,1799999968,64106.0
l43,43,999999970,64143.0
l40,40,999999975,65085.0
5736.0
l67,67,999999995,61660.0
l42,42,999999997,63270.0
l54,54,999999990,63444.0
5804.0
l43,43,999999992,63267.0
e101,101,1799999989,63304.0
l39,39,999999964,64462.0
l54,54,999999977,65026.0
5812.0
e98,98,1799999985,62267.0
l48,48,999999980,62780.0
r33,33,199999980,63480.0
l39,39,999999993,64060.0
e101,101,1799999966,64451.0
r19,19,199999967,64673.0
l54,54,999999962,65135.0
5815.0
r7,7,199999971,63690.0
l65,65,999999989,64359.0
l55,55,999999962,65508.0
5973.0
e98,98,1799999984,62268.0
l48,48,999999987,62773.0
l38,38,999999977,63362.0
l65,65,999999982,64408.0
l55,55,999999963,65507.0
5960.0
