l45,45,999999988,61128.0
l66,66,999999997,61163.0
l39,39,999999988,61823.0
e94,94,1799999985,61874.0
l60,60,999999997,61968.0
r32,32,199999998,62071.0
2069.0
l45,45,999999990,61126.0
l66,66,999999992,61168.0
l39,39,1000000000,61811.0
e94,94,1799999989,61870.0
l60,60,999999995,61970.0
r32,32,199999996,62073.0
2073.0
l45,45,999999991,61125.0
l66,66,999999998,61162.0
l39,39,999999996,61815.0
e94,94,1799999992,61867.0
l60,60,999999999,61966.0
r32,32,199999993,62076.0
2107.0
l66,66,999999991,61476.0
l39,39,999999978,61833.0
e94,94,1799999982,61877.0
l60,60,999999998,61967.0
r32,32,199999999,62070.0
2064.0
l38,38,999999995,60533.0
e90,90,1800000000,60603.0
e97,97,1800000000,60680.0
e93,93,1800000000,61328.0
r32,32,200000000,61653.0
2087.0
l66,66,999999985,61482.0
l39,39,999999979,61832.0
e94,94,1799999988,61871.0
l60,60,999999994,61971.0
r32,32,199999995,62074.0
2092.0
l66,66,999999979,61488.0
l39,39,999999976,61835.0
e94,94,1799999996,61863.0
l60,60,999999996,61969.0
r32,32,199999994,62075.0
2105.0
l66,66,999999978,61489.0
l39,39,999999994,61817.0
e94,94,1799999983,61876.0
l60,60,999999993,61972.0
r32,32,199999997,62072.0
2077.0
l45,45,999999986,61130.0
l66,66,999999993,61167.0
l39,39,999999998,61813.0
e94,94,1799999993,61866.0
l60,60,1000000000,61965.0
r32,32,199999992,62077.0
2082.0
e88,88,1799999985,61865.0
r27,27,199999981,61957.0
e72,72,1799999989,62168.0
r31,31,199999989,62300.0
r22,22,199999981,62693.0
2717.0
l45,45,999999982,61134.0
r27,27,200000000,61308.0
r22,22,199999986,62620.0
2748.0
l45,45,1000000000,61116.0
r27,27,199999997,61311.0
r22,22,199999993,62613.0
2729.0
e88,88,1799999987,61863.0
r27,27,199999982,61956.0
r22,22,199999989,62617.0
2722.0
l45,45,999999992,61124.0
l48,48,999999988,61307.0
l52,52,1000000000,61341.0
r27,27,199999990,61407.0
r22,22,199999988,62618.0
2758.0
e88,88,1799999992,61858.0
r27,27,199999980,61958.0
r22,22,199999990,62616.0
2719.0
l45,45,999999997,61119.0
l48,48,1000000000,61295.0
l52,52,999999995,61346.0
r27,27,199999991,61406.0
r22,22,199999999,62607.0
2718.0
e88,88,1799999989,61861.0
r27,27,199999983,61955.0
r22,22,199999994,62612.0
2741.0
l45,45,999999995,61121.0
l66,66,1000000000,61160.0
l49,49,999999999,61677.0
e72,72,1799999994,61752.0
r31,31,199999990,62299.0
r22,22,199999979,62695.0
2736.0
l45,45,999999998,61118.0
l48,48,999999993,61302.0
l52,52,999999993,61348.0
r7,7,199999998,61627.0
r31,31,199999995,61681.0
r22,22,199999982,62692.0
2761.0
l45,45,999999984,61132.0
r27,27,199999996,61312.0
r22,22,199999998,62608.0
2766.0
l45,45,999999996,61120.0
r27,27,199999999,61309.0
r22,22,199999997,62609.0
2749.0
l45,45,999999987,61129.0
l48,48,999999997,61298.0
l52,52,999999997,61344.0
r27,27,199999992,61405.0
r22,22,199999995,62611.0
2753.0
l45,45,999999989,61127.0
l48,48,999999995,61300.0
l52,52,999999990,61351.0
r27,27,199999994,61403.0
r22,22,199999985,62621.0
2724.0
e88,88,1799999990,61860.0
r27,27,199999984,61954.0
r22,22,199999991,62615.0
2751.0
e88,88,1799999988,61862.0
r27,27,199999986,61952.0
r22,22,199999992,62614.0
2757.0
l45,45,999999993,61123.0
r2,2,199999988,62405.0
r12,12,199999983,62788.0
3063.0
l45,45,999999994,61122.0
r2,2,199999984,62409.0
r12,12,199999991,62780.0
3055.0
l66,66,999999977,61490.0
l39,39,999999973,61838.0
r10,10,199999985,62453.0
3429.0
l66,66,999999988,61479.0
l39,39,999999986,61825.0
r10,10,199999986,62452.0
3444.0
l66,66,999999987,61480.0
l39,39,999999981,61830.0
r10,10,199999978,62460.0
3430.0
l66,66,999999981,61486.0
l39,39,999999984,61827.0
r10,10,199999971,62467.0
3460.0
l66,66,999999973,61494.0
l39,39,999999991,61820.0
r10,10,199999981,62457.0
3451.0
l66,66,999999990,61477.0
l39,39,999999982,61829.0
r10,10,199999988,62450.0
3424.0
l51,51,999999953,63554.0
l49,49,999999968,63567.0
e70,70,1799999959,64103.0
4703.0
l51,51,999999956,63551.0
l49,49,999999970,63565.0
e70,70,1799999957,64105.0
4712.0
l49,49,999999952,63584.0
e70,70,1799999955,64107.0
4710.0
l49,49,999999991,61868.0
e70,70,1799999954,64108.0
4693.0
l38,38,999999998,60530.0
r4,4,199999997,61805.0
l51,51,999999972,63214.0
e70,70,1799999972,63247.0
4711.0
l49,49,999999960,63576.0
e70,70,1799999951,64111.0
4679.0
l49,49,999999986,61873.0
e70,70,1799999956,64106.0
4704.0
l49,49,999999988,61871.0
e70,70,1799999952,64110.0
4701.0
l53,53,999999991,62908.0
r33,33,199999976,63288.0
e70,70,1799999965,63481.0
4689.0
l38,38,999999986,60542.0
r4,4,199999990,61815.0
l51,51,999999976,63210.0
l49,49,999999963,63572.0
e70,70,1799999960,64102.0
4722.0
l38,38,999999987,60541.0
r4,4,199999996,61806.0
l51,51,999999974,63212.0
e70,70,1799999971,63248.0
4693.0
l49,49,999999951,63585.0
e70,70,1799999961,64101.0
4700.0
l53,53,999999989,62910.0
r33,33,199999974,63290.0
e70,70,1799999966,63480.0
4680.0
l49,49,999999980,61879.0
e70,70,1799999958,64104.0
4686.0
l53,53,999999994,62905.0
r33,33,199999979,63285.0
e70,70,1799999964,63482.0
4715.0
l53,53,999999986,62913.0
r33,33,199999983,63281.0
e70,70,1799999962,63484.0
4719.0
l38,38,999999997,60531.0
r4,4,199999993,61812.0
l51,51,999999970,63216.0
e70,70,1799999969,63250.0
4707.0
