r23,23,199999994,60007.0
l52,52,999999995,60290.0
l50,50,999999999,60847.0
l53,53,999999995,61306.0
l36,36,999999997,61704.0
e85,85,1799999997,61740.0
e78,78,1799999999,61776.0
1850.0
r23,23,199999995,60006.0
l52,52,999999996,60289.0
l50,50,1000000000,60846.0
l53,53,1000000000,61301.0
l36,36,1000000000,61701.0
e85,85,1799999996,61741.0
e78,78,1799999998,61777.0
1852.0
r23,23,200000000,60001.0
l52,52,1000000000,60285.0
l50,50,999999996,60850.0
l53,53,999999997,61304.0
l36,36,999999995,61706.0
e85,85,1800000000,61737.0
e78,78,1799999995,61780.0
1858.0
r23,23,199999997,60004.0
l52,52,999999997,60288.0
l50,50,999999998,60848.0
l53,53,999999996,61305.0
l36,36,999999996,61705.0
e85,85,1799999995,61742.0
e78,78,1799999997,61778.0
1856.0
r23,23,199999996,60005.0
l52,52,999999994,60291.0
l50,50,999999994,60852.0
l53,53,999999999,61302.0
l36,36,999999999,61702.0
e85,85,1799999994,61743.0
e78,78,1800000000,61775.0
1856.0
r23,23,199999999,60002.0
l52,52,999999999,60286.0
l50,50,999999997,60849.0
l53,53,999999994,61307.0
l36,36,999999994,61707.0
e85,85,1799999998,61739.0
e78,78,1799999996,61779.0
1860.0
r23,23,199999998,60003.0
l52,52,999999998,60287.0
l50,50,999999995,60851.0
l53,53,999999998,61303.0
l36,36,999999998,61703.0
e85,85,1799999999,61738.0
e78,78,1799999994,61781.0
1860.0
e95,95,1799999998,60560.0
l62,62,999999988,61904.0
r19,19,199999999,61982.0
l36,36,999999993,62115.0
3130.0
e95,95,1799999996,60562.0
l62,62,999999987,61905.0
r19,19,200000000,61981.0
l36,36,999999992,62116.0
3123.0
r15,15,199999999,60422.0
e79,79,1799999998,61607.0
l62,62,999999996,61706.0
e93,93,1799999999,61794.0
l49,49,999999997,61961.0
e94,94,1799999993,62393.0
r24,24,199999991,62561.0
3382.0
r15,15,199999997,60424.0
e79,79,1799999999,61606.0
l62,62,1000000000,61702.0
e93,93,1800000000,61793.0
l49,49,999999996,61962.0
e85,85,1799999990,62034.0
r5,5,199999997,62193.0
e94,94,1800000000,62298.0
r24,24,199999993,62559.0
3386.0
r15,15,199999994,60427.0
e79,79,1799999996,61609.0
l62,62,999999998,61704.0
e93,93,1799999996,61797.0
l49,49,999999999,61959.0
e94,94,1799999989,62397.0
r24,24,199999992,62560.0
3353.0
r15,15,199999995,60426.0
e79,79,1799999997,61608.0
l62,62,999999999,61703.0
e93,93,1799999998,61795.0
l49,49,999999998,61960.0
e94,94,1799999994,62392.0
r24,24,199999990,62562.0
3361.0
r15,15,199999998,60423.0
e79,79,1800000000,61605.0
l62,62,999999997,61705.0
e93,93,1799999997,61796.0
l49,49,1000000000,61958.0
e94,94,1799999995,62391.0
r24,24,199999989,62563.0
3377.0
e95,95,1799999991,60567.0
l64,64,999999997,61600.0
r32,32,199999988,63104.0
l68,68,999999987,63572.0
e92,92,1799999969,64699.0
4797.0
e95,95,1799999984,60574.0
l62,62,999999985,61907.0
l56,56,999999985,62271.0
l49,49,999999985,62565.0
r7,7,199999988,63126.0
r13,13,199999983,63394.0
l63,63,999999991,63650.0
l68,68,999999981,64431.0
e92,92,1799999971,64697.0
4810.0
r15,15,199999993,60428.0
r3,3,199999997,61511.0
e70,70,1799999995,62771.0
r17,17,199999992,63012.0
r8,8,199999987,63687.0
e77,77,1799999971,64418.0
e92,92,1799999964,64709.0
4810.0
e98,98,1799999980,62812.0
e88,88,1799999982,63030.0
l43,43,999999980,63367.0
e92,92,1799999974,63585.0
4802.0
e95,95,1799999986,60572.0
l35,35,999999991,61157.0
r8,8,199999971,64060.0
e77,77,1799999968,64421.0
e92,92,1799999968,64705.0
4817.0
e95,95,1799999983,60575.0
e98,98,1799999990,62026.0
e88,88,1799999990,63022.0
l43,43,999999974,63373.0
e92,92,1799999985,63574.0
4816.0
e98,98,1799999973,62819.0
e88,88,1799999984,63028.0
l43,43,999999985,63362.0
e92,92,1799999991,63568.0
4829.0
e95,95,1799999990,60568.0
e98,98,1799999996,62020.0
e88,88,1799999992,63020.0
l43,43,999999975,63372.0
e92,92,1799999987,63572.0
4809.0
e98,98,1799999975,62817.0
e77,77,1799999979,63143.0
e92,92,1799999965,64708.0
4832.0
e98,98,1799999985,62807.0
e77,77,1799999975,63147.0
e92,92,1799999966,64707.0
4803.0
e95,95,1799999988,60570.0
e98,98,1799999999,62017.0
e88,88,1799999989,63023.0
l43,43,999999988,63359.0
e92,92,1799999978,63581.0
4832.0
e95,95,1799999985,60573.0
e98,98,1799999994,62022.0
e88,88,1799999981,63031.0
l43,43,999999973,63374.0
e92,92,1799999981,63578.0
4807.0
e98,98,1799999978,62814.0
e88,88,1799999985,63027.0
l43,43,999999977,63370.0
e92,92,1799999975,63584.0
4798.0
e98,98,1799999981,62811.0
e88,88,1799999979,63033.0
l43,43,999999979,63368.0
e92,92,1799999973,63586.0
4816.0
e95,95,1799999989,60569.0
e98,98,1799999992,62024.0
e88,88,1799999988,63024.0
l43,43,999999981,63366.0
e92,92,1799999983,63576.0
4804.0
e98,98,1799999987,62805.0
e88,88,1799999978,63034.0
l43,43,999999984,63363.0
e92,92,1799999979,63580.0
4835.0
e95,95,1799999999,60559.0
e98,98,1799999995,62021.0
l57,57,999999993,63157.0
l68,68,999999982,64428.0
e92,92,1799999970,64698.0
4817.0
e98,98,1799999986,62806.0
e88,88,1799999993,63019.0
l43,43,999999986,63361.0
e92,92,1799999976,63583.0
4801.0
e95,95,1799999995,60563.0
l64,64,999999996,61601.0
r32,32,199999989,63103.0
l68,68,999999990,63569.0
e92,92,1799999972,64696.0
4833.0
e98,98,1799999972,62820.0
e88,88,1799999980,63032.0
l43,43,999999982,63365.0
e92,92,1799999984,63575.0
4817.0
e95,95,1799999987,60571.0
l62,62,999999989,61903.0
l56,56,999999981,62275.0
l49,49,999999981,62569.0
r7,7,199999993,63121.0
l37,37,999999983,63402.0
4816.0
e95,95,1799999994,60564.0
l62,62,999999995,61897.0
l56,56,999999991,62265.0
l49,49,999999988,62562.0
r7,7,199999984,63130.0
r13,13,199999987,63390.0
l37,37,999999975,63412.0
4807.0
e95,95,1799999993,60565.0
e98,98,1799999998,62018.0
l57,57,999999990,63160.0
l68,68,999999984,64426.0
l37,37,999999972,64712.0
4846.0
r18,18,199999970,64626.0
5875.0
r18,18,199999966,64630.0
5867.0
r18,18,199999963,64633.0
5873.0
r18,18,199999951,64645.0
5863.0
r18,18,199999959,64637.0
5892.0
r18,18,199999952,64644.0
5864.0
r18,18,199999956,64640.0
5891.0
l50,50,999999987,62542.0
l55,55,999999985,62766.0
e99,99,1799999983,63330.0
l44,44,999999982,63350.0
e76,76,1799999987,64025.0
r18,18,199999974,64369.0
5890.0
r18,18,199999964,64632.0
5884.0
r18,18,199999955,64641.0
5867.0
r18,18,199999962,64634.0
5872.0
r15,15,199999969,62971.0
e76,76,1799999977,64063.0
r18,18,199999977,64366.0
5864.0
r18,18,199999957,64639.0
5889.0
