r8,8,199999954,2966.4999999983975
r22,22,199999978,3666.5999999977607
l42,42,999999997,3906.2999999975427
4616.299999999263
r8,8,199999985,2963.3999999984003
r22,22,199999999,3664.4999999977626
l42,42,999999961,3909.8999999975395
4616.399999999263
r8,8,199999959,2965.999999998398
r22,22,199999974,3666.9999999977604
l42,42,999999951,3910.8999999975385
4616.499999999263
r8,8,199999967,2965.1999999983987
r22,22,199999995,3664.8999999977623
l42,42,999999971,3908.8999999975404
4616.599999999264
r8,8,199999963,2965.5999999983983
r22,22,199999967,3667.6999999977597
l42,42,999999995,3906.4999999975425
4616.699999999264
r8,8,199999982,2963.6999999984
r22,22,199999982,3666.199999997761
l42,42,999999981,3907.8999999975413
4616.799999999264
r8,8,199999955,2966.3999999983976
r22,22,199999969,3667.49999999776
l42,42,999999989,3907.099999997542
4616.899999999265
r8,8,199999984,2963.4999999984
r22,22,199999991,3665.299999997762
l42,42,999999964,3909.5999999975397
4616.999999999265
r8,8,199999973,2964.599999998399
r22,22,199999970,3667.39999999776
l42,42,999999958,3910.199999997539
4617.0999999992655
r8,8,199999977,2964.1999999983996
r22,22,199999980,3666.399999997761
l42,42,999999962,3909.7999999975395
4617.199999999266
r8,8,199999983,2963.5999999984
r22,22,199999951,3669.2999999977583
l42,42,999999967,3909.29999999754
4617.299999999266
r8,8,200000000,2961.8999999984017
r22,22,199999956,3668.7999999977587
l42,42,999999991,3906.899999997542
4617.399999999267
r8,8,199999981,2963.7999999984
r22,22,199999961,3668.299999997759
l42,42,999999996,3906.3999999975426
4617.499999999267
r8,8,199999995,2962.399999998401
r22,22,199999988,3665.5999999977616
l42,42,999999956,3910.399999997539
4617.599999999267
r8,8,199999999,2961.9999999984016
r22,22,200000000,3664.3999999977627
l42,42,999999985,3907.4999999975416
4617.699999999268
r8,8,199999975,2964.3999999983994
r22,22,199999985,3665.8999999977614
l42,42,999999999,3906.099999997543
4617.799999999268
r8,8,199999992,2962.699999998401
r22,22,199999998,3664.5999999977626
l42,42,999999966,3909.39999999754
4617.899999999268
r8,8,199999960,2965.899999998398
r22,22,199999955,3668.8999999977586
l42,42,999999998,3906.199999997543
4617.999999999269
r8,8,199999966,2965.2999999983986
r22,22,199999952,3669.1999999977584
l42,42,999999988,3907.199999997542
4618.099999999269
r8,8,199999988,2963.0999999984006
r22,22,199999954,3668.9999999977586
l42,42,999999983,3907.6999999975415
4618.1999999992695
r8,8,199999956,2966.2999999983977
r22,22,199999957,3668.699999997759
l42,42,999999957,3910.299999997539
4618.29999999927
r8,8,199999987,2963.1999999984005
r22,22,199999993,3665.099999997762
l42,42,999999978,3908.199999997541
4618.39999999927
r8,8,199999986,2963.2999999984004
r22,22,199999996,3664.7999999977624
l42,42,999999953,3910.6999999975387
4618.499999999271
r8,8,199999980,2963.8999999984
r22,22,199999968,3667.59999999776
l42,42,999999972,3908.7999999975405
4618.599999999271
r8,8,199999964,2965.4999999983984
r22,22,199999981,3666.299999997761
l42,42,999999976,3908.399999997541
4618.699999999271
r8,8,199999971,2964.799999998399
r22,22,199999977,3666.6999999977606
l42,42,999999987,3907.299999997542
4618.799999999272
r8,8,199999972,2964.699999998399
r22,22,199999984,3665.9999999977613
l42,42,999999993,3906.6999999975424
4618.899999999272
r8,8,199999990,2962.8999999984007
r22,22,199999983,3666.099999997761
l42,42,999999952,3910.7999999975386
4618.999999999272
r8,8,199999969,2964.999999998399
r22,22,199999962,3668.1999999977593
l42,42,999999979,3908.099999997541
4619.099999999273
r8,8,199999970,2964.899999998399
r22,22,199999979,3666.499999997761
l42,42,999999984,3907.5999999975415
4619.199999999273
r8,8,199999993,2962.599999998401
r22,22,199999964,3667.9999999977595
l42,42,999999986,3907.3999999975417
4619.2999999992735
r8,8,199999965,2965.3999999983985
r22,22,199999972,3667.19999999776
l42,42,999999992,3906.7999999975423
4619.399999999274
r8,8,199999951,2966.799999998397
r22,22,199999958,3668.599999997759
l42,42,1000000000,3905.999999997543
4619.499999999274
r8,8,199999958,2966.099999998398
r22,22,199999976,3666.7999999977606
l42,42,999999973,3908.6999999975405
4619.599999999275
r8,8,199999996,2962.2999999984013
r22,22,199999963,3668.0999999977594
l42,42,999999959,3910.0999999975393
4619.699999999275
r8,8,199999979,2963.9999999983997
r22,22,199999966,3667.7999999977596
l42,42,999999954,3910.599999997539
4619.799999999275
r8,8,199999961,2965.799999998398
r22,22,199999965,3667.8999999977596
l42,42,999999955,3910.499999997539
4619.899999999276
r8,8,199999968,2965.0999999983987
r22,22,199999973,3667.0999999977603
l42,42,999999968,3909.19999999754
4619.999999999276
r8,8,199999997,2962.1999999984014
r22,22,199999971,3667.29999999776
l42,42,999999975,3908.4999999975407
4620.099999999276
r8,8,199999976,2964.2999999983995
r22,22,199999987,3665.6999999977616
l42,42,999999969,3909.09999999754
4620.199999999277
r8,8,199999994,2962.499999998401
r22,22,199999959,3668.499999997759
l42,42,999999982,3907.7999999975414
4620.299999999277
r8,8,199999978,2964.0999999983997
r22,22,199999986,3665.7999999977615
l42,42,999999994,3906.5999999975425
4620.3999999992775
r8,8,199999989,2962.9999999984007
r22,22,199999994,3664.999999997762
l42,42,999999977,3908.299999997541
4620.499999999278
r8,8,199999974,2964.4999999983993
r22,22,199999992,3665.199999997762
l42,42,999999990,3906.999999997542
4620.599999999278
r8,8,199999962,2965.699999998398
r22,22,199999990,3665.399999997762
l42,42,999999980,3907.999999997541
4620.699999999279
r8,8,199999953,2966.5999999983974
r22,22,199999997,3664.6999999977625
l42,42,999999965,3909.49999999754
4620.799999999279
r8,8,199999957,2966.1999999983977
r22,22,199999975,3666.8999999977605
l42,42,999999974,3908.5999999975406
4620.899999999279
r8,8,199999998,2962.0999999984015
r22,22,199999960,3668.399999997759
l42,42,999999960,3909.9999999975394
4620.99999999928
r8,8,199999991,2962.799999998401
r22,22,199999953,3669.0999999977585
l42,42,999999963,3909.6999999975396
4621.09999999928
r8,8,199999952,2966.6999999983973
r22,22,199999989,3665.4999999977617
l42,42,999999970,3908.9999999975403
4621.19999999928
