e70,70,1799999958,2432.9999999988827
l36,36,999999994,2470.2999999988488
2966.1999999983977
e70,70,1799999953,2433.4999999988822
l36,36,999999985,2471.199999998848
2966.2999999983977
e70,70,1799999980,2430.7999999988847
l36,36,999999974,2472.299999998847
2966.3999999983976
e70,70,1799999955,2433.2999999988824
l36,36,999999993,2470.3999999988487
2966.4999999983975
e70,70,1799999996,2429.199999998886
l36,36,999999989,2470.7999999988483
2966.5999999983974
e70,70,1799999971,2431.699999998884
l36,36,999999991,2470.5999999988485
2966.6999999983973
e70,70,1799999984,2430.399999998885
l36,36,999999964,2473.299999998846
2966.799999998397
e70,70,1799999978,2430.9999999988845
l36,36,999999971,2472.5999999988467
2966.899999998397
e70,70,1799999968,2431.9999999988836
l36,36,999999978,2471.8999999988473
2966.999999998397
e70,70,1799999962,2432.599999998883
l36,36,999999988,2470.899999998848
2967.099999998397
e70,70,1799999951,2433.699999998882
l36,36,999999968,2472.8999999988464
2967.199999998397
e70,70,1799999990,2429.7999999988856
l36,36,999999983,2471.3999999988478
2967.2999999983967
e70,70,1799999974,2431.399999998884
l36,36,999999969,2472.7999999988465
2967.3999999983967
e70,70,1799999960,2432.799999998883
l36,36,999999966,2473.099999998846
2967.4999999983966
e70,70,1799999969,2431.8999999988837
l36,36,999999972,2472.4999999988468
2967.5999999983965
e70,70,1799999966,2432.1999999988834
l36,36,999999973,2472.399999998847
2967.6999999983964
e70,70,1799999954,2433.3999999988823
l36,36,999999965,2473.199999998846
2967.7999999983963
e70,70,1799999957,2433.0999999988826
l36,36,999999992,2470.4999999988486
2967.899999998396
e70,70,1799999970,2431.799999998884
l36,36,999999999,2469.799999998849
2967.999999998396
e70,70,1799999997,2429.0999999988862
l36,36,999999981,2471.5999999988476
2968.099999998396
e70,70,1799999986,2430.1999999988852
l36,36,999999998,2469.899999998849
2968.199999998396
e70,70,1799999964,2432.3999999988832
l36,36,999999963,2473.399999998846
2968.299999998396
e70,70,1799999979,2430.8999999988846
l36,36,999999980,2471.6999999988475
2968.3999999983957
e70,70,1799999977,2431.0999999988844
l36,36,999999996,2470.099999998849
2968.4999999983957
e70,70,1799999988,2429.9999999988854
l36,36,999999990,2470.6999999988484
2968.5999999983956
e70,70,1799999965,2432.2999999988833
l36,36,999999967,2472.9999999988463
2968.6999999983955
e70,70,1799999985,2430.299999998885
l36,36,999999997,2469.999999998849
2968.7999999983954
e70,70,1799999994,2429.399999998886
l36,36,999999987,2470.999999998848
2968.8999999983953
e70,70,1799999998,2428.9999999988863
l36,36,999999975,2472.199999998847
2968.999999998395
e70,70,1799999972,2431.599999998884
l36,36,1000000000,2469.6999999988493
2969.099999998395
e70,70,1799999952,2433.599999998882
l36,36,999999979,2471.7999999988474
2969.199999998395
e70,70,1799999987,2430.0999999988853
l36,36,999999986,2471.099999998848
2969.299999998395
e70,70,1799999959,2432.899999998883
l36,36,999999976,2472.099999998847
2969.399999998395
e70,70,1799999976,2431.1999999988843
l36,36,999999962,2473.499999998846
2969.4999999983947
e70,70,1799999991,2429.6999999988857
l36,36,999999995,2470.199999998849
2969.5999999983947
e70,70,1799999956,2433.1999999988825
l36,36,999999970,2472.6999999988466
2969.6999999983946
e70,70,1799999983,2430.499999998885
l36,36,999999982,2471.4999999988477
2969.7999999983945
e70,70,1799999981,2430.699999998885
l36,36,999999977,2471.999999998847
2969.8999999983944
e70,70,1800000000,2428.7999999988865
l36,36,999999984,2471.299999998848
2969.9999999983943
e70,70,1799999963,2432.499999998883
r34,34,199999981,2512.99999999881
l66,66,999999957,3146.7999999982335
l54,54,999999996,3574.899999997844
e84,84,1799999982,3708.5999999977225
e74,74,1799999952,3854.7999999975896
r7,7,199999961,3897.5999999975506
3931.29999999752
e70,70,1799999992,2429.599999998886
r34,34,199999969,2514.199999998809
l66,66,999999958,3146.6999999982336
l54,54,999999982,3576.299999997843
e84,84,1799999959,3710.8999999977204
e74,74,1799999960,3853.9999999975903
r7,7,199999966,3897.099999997551
3931.39999999752
e70,70,1799999967,2432.0999999988835
r34,34,199999986,2512.4999999988104
l66,66,999999951,3147.399999998233
l54,54,999999959,3578.5999999978408
e84,84,1799999998,3706.999999997724
e74,74,1799999961,3853.8999999975904
r7,7,199999954,3898.29999999755
3931.49999999752
e70,70,1799999973,2431.499999998884
r34,34,199999979,2513.1999999988097
l66,66,999999959,3146.5999999982337
l54,54,999999993,3575.199999997844
e84,84,1799999983,3708.4999999977226
e74,74,1799999955,3854.49999999759
r7,7,199999965,3897.199999997551
3931.5999999975197
e70,70,1799999989,2429.8999999988855
r34,34,199999957,2515.3999999988077
l66,66,999999955,3146.9999999982333
l54,54,999999964,3578.099999997841
e84,84,1799999958,3710.9999999977204
e74,74,1799999958,3854.19999999759
r7,7,199999968,3896.8999999975513
3931.6999999975196
e70,70,1799999982,2430.599999998885
r34,34,199999983,2512.79999999881
l66,66,999999953,3147.199999998233
l54,54,999999955,3578.9999999978404
e84,84,1799999956,3711.19999999772
e74,74,1799999957,3854.29999999759
r7,7,199999951,3898.5999999975497
3931.7999999975195
e70,70,1799999999,2428.8999999988864
r34,34,199999961,2514.999999998808
l66,66,999999960,3146.4999999982338
l54,54,999999975,3576.999999997842
e84,84,1799999977,3709.099999997722
e74,74,1799999959,3854.09999999759
r7,7,199999952,3898.49999999755
3931.8999999975194
e70,70,1799999975,2431.2999999988842
r34,34,199999971,2513.999999998809
l66,66,999999961,3146.399999998234
l54,54,999999977,3576.7999999978424
e84,84,1800000000,3706.799999997724
e74,74,1799999951,3854.8999999975895
r7,7,199999964,3897.299999997551
3931.9999999975194
e70,70,1799999993,2429.499999998886
r34,34,199999963,2514.7999999988083
l66,66,999999956,3146.8999999982334
l54,54,999999992,3575.2999999978438
e84,84,1799999973,3709.4999999977217
e74,74,1799999954,3854.5999999975897
r7,7,199999955,3898.19999999755
3932.0999999975193
e70,70,1799999961,2432.699999998883
r34,34,199999968,2514.2999999988087
l66,66,999999952,3147.299999998233
l54,54,1000000000,3574.4999999978445
e84,84,1799999963,3710.499999997721
e74,74,1799999953,3854.6999999975897
r7,7,199999956,3898.09999999755
3932.199999997519
e70,70,1799999995,2429.299999998886
r34,34,199999996,2511.4999999988113
l66,66,999999954,3147.099999998233
l54,54,999999973,3577.199999997842
e84,84,1799999996,3707.199999997724
e74,74,1799999956,3854.39999999759
r7,7,199999953,3898.39999999755
3932.299999997519
