l58,58,999999953,3030.899999998339
e95,95,1799999988,3240.799999998148
e78,78,1799999969,3450.599999997957
l54,54,999999992,3637.3999999977873
l63,63,999999959,3774.4999999976626
e74,74,1799999972,3961.2999999974927
4645.6999999993695
l58,58,999999968,3029.3999999983403
e95,95,1799999987,3240.899999998148
e78,78,1799999974,3450.0999999979576
l54,54,999999986,3637.9999999977867
l63,63,999999988,3771.5999999976652
e74,74,1799999967,3961.7999999974923
4645.79999999937
l58,58,999999970,3029.1999999983404
e95,95,1799999956,3243.999999998145
e78,78,1799999985,3448.9999999979586
l54,54,999999996,3636.9999999977877
l63,63,999999999,3770.4999999976662
e74,74,1799999993,3959.1999999974946
4645.89999999937
l58,58,999999987,3027.499999998342
e95,95,1799999959,3243.6999999981454
e78,78,1800000000,3447.49999999796
l54,54,999999971,3639.4999999977854
l63,63,999999968,3773.5999999976634
e74,74,1799999987,3959.799999997494
4645.999999999371
l58,58,999999976,3028.599999998341
l61,61,999999994,3523.0999999978912
l64,64,999999998,3839.5999999976034
r25,25,199999980,4004.099999997454
e74,74,1799999952,4386.699999998427
4646.099999999371
l58,58,999999985,3027.699999998342
e95,95,1799999965,3243.099999998146
e78,78,1799999984,3449.0999999979585
l54,54,999999960,3640.5999999977844
l63,63,999999965,3773.899999997663
e74,74,1799999992,3959.2999999974945
4646.199999999371
l58,58,999999984,3027.7999999983417
l61,61,999999963,3526.1999999978884
l64,64,999999993,3840.099999997603
r25,25,199999973,4004.799999997453
e74,74,1799999953,4386.599999998427
4646.299999999372
l58,58,999999993,3026.8999999983425
l61,61,999999962,3526.2999999978883
l64,64,999999969,3842.4999999976008
r25,25,199999975,4004.5999999974533
e74,74,1799999956,4386.299999998426
4646.399999999372
l58,58,999999997,3026.499999998343
e95,95,1799999993,3240.2999999981485
e78,78,1799999982,3449.2999999979584
l54,54,999999969,3639.699999997785
l63,63,999999961,3774.299999997663
e74,74,1799999978,3960.6999999974933
4646.499999999372
l58,58,999999986,3027.599999998342
e95,95,1799999979,3241.699999998147
e78,78,1799999978,3449.699999997958
l54,54,999999997,3636.8999999977877
l63,63,999999964,3773.999999997663
e74,74,1799999970,3961.4999999974925
4646.599999999373
l58,58,999999959,3030.2999999983394
l61,61,999999958,3526.699999997888
l64,64,999999959,3843.4999999976
r25,25,199999963,4005.7999999974522
e74,74,1799999951,4386.799999998428
4646.699999999373
l58,58,999999999,3026.299999998343
e95,95,1799999958,3243.7999999981453
e78,78,1799999991,3448.399999997959
l54,54,999999972,3639.3999999977855
l63,63,999999973,3773.099999997664
e74,74,1799999979,3960.5999999974933
4646.7999999993735
l58,58,999999974,3028.799999998341
e95,95,1799999951,3244.4999999981446
e78,78,1799999997,3447.7999999979597
l54,54,999999961,3640.4999999977845
l63,63,999999971,3773.2999999976637
e74,74,1799999973,3961.199999997493
4646.899999999374
l58,58,999999972,3028.9999999983406
e95,95,1799999998,3239.799999998149
e78,78,1799999977,3449.799999997958
l54,54,999999977,3638.899999997786
l63,63,999999981,3772.2999999976646
e74,74,1799999996,3958.899999997495
4646.999999999374
l58,58,999999955,3030.699999998339
e95,95,1799999992,3240.3999999981484
e78,78,1799999960,3451.4999999979564
l54,54,999999968,3639.799999997785
l63,63,999999966,3773.7999999976632
e74,74,1799999990,3959.4999999974943
4647.099999999375
l58,58,999999962,3029.9999999983397
e95,95,1799999971,3242.4999999981464
e78,78,1799999967,3450.799999997957
l54,54,999999990,3637.599999997787
l63,63,999999987,3771.699999997665
e74,74,1799999981,3960.3999999974935
4647.199999999375
l58,58,999999975,3028.699999998341
e95,95,1799999985,3241.0999999981477
e78,78,1799999971,3450.3999999979574
l54,54,999999959,3640.6999999977843
l63,63,999999972,3773.199999997664
e74,74,1799999985,3959.999999997494
4647.299999999375
l58,58,1000000000,3026.199999998343
l61,61,999999996,3522.8999999978914
l64,64,999999983,3841.099999997602
r25,25,199999974,4004.6999999974532
e74,74,1799999957,4386.1999999984255
4647.399999999376
l58,58,999999954,3030.799999998339
l61,61,999999978,3524.69999999789
l64,64,999999957,3843.6999999975997
r25,25,199999958,4006.299999997452
e74,74,1799999954,4386.499999998427
4647.499999999376
l58,58,999999966,3029.59999999834
e95,95,1799999972,3242.3999999981465
e78,78,1799999989,3448.599999997959
l54,54,999999991,3637.499999997787
l63,63,999999982,3772.1999999976647
e74,74,1799999963,3962.199999997492
4647.599999999376
l58,58,999999989,3027.299999998342
e95,95,1799999999,3239.699999998149
e78,78,1799999993,3448.1999999979594
l54,54,999999982,3638.3999999977864
l63,63,999999991,3771.2999999976655
e74,74,1799999999,3958.599999997495
4647.699999999377
l58,58,999999964,3029.79999999834
e95,95,1799999995,3240.0999999981486
e78,78,1799999964,3451.0999999979567
l54,54,999999981,3638.4999999977863
l63,63,999999962,3774.199999997663
e74,74,1799999959,3962.5999999974915
4647.799999999377
l58,58,999999998,3026.399999998343
e95,95,1799999955,3244.099999998145
e78,78,1799999980,3449.499999997958
l54,54,999999980,3638.599999997786
l63,63,999999993,3771.0999999976657
e74,74,1799999966,3961.899999997492
4647.8999999993775
l58,58,999999978,3028.399999998341
e95,95,1799999970,3242.5999999981464
e78,78,1799999963,3451.1999999979566
l54,54,999999984,3638.1999999977866
l63,63,999999995,3770.899999997666
e74,74,1799999989,3959.5999999974943
4647.999999999378
l58,58,999999991,3027.0999999983424
e95,95,1799999986,3240.999999998148
e78,78,1799999983,3449.1999999979585
l54,54,999999988,3637.799999997787
l63,63,999999963,3774.099999997663
e74,74,1799999988,3959.699999997494
4648.099999999378
l58,58,999999983,3027.8999999983416
e95,95,1799999952,3244.3999999981447
e78,78,1799999976,3449.899999997958
l54,54,999999995,3637.0999999977876
l63,63,999999992,3771.1999999976656
e74,74,1799999962,3962.299999997492
4648.199999999379
l58,58,999999961,3030.0999999983396
e95,95,1799999989,3240.699999998148
e78,78,1799999965,3450.999999997957
l54,54,999999985,3638.0999999977867
l63,63,1000000000,3770.3999999976663
e74,74,1799999961,3962.3999999974917
4648.299999999379
l58,58,999999951,3031.0999999983387
e95,95,1799999994,3240.1999999981485
e78,78,1799999994,3448.0999999979595
l54,54,999999994,3637.1999999977875
l63,63,999999994,3770.999999997666
e74,74,1799999980,3960.4999999974934
4648.399999999379
l58,58,999999965,3029.69999999834
e95,95,1799999978,3241.799999998147
e78,78,1799999988,3448.699999997959
l54,54,999999979,3638.699999997786
l63,63,999999969,3773.4999999976635
e74,74,1799999960,3962.4999999974916
4648.49999999938
l58,58,999999992,3026.9999999983424
e95,95,1799999975,3242.099999998147
e78,78,1799999987,3448.799999997959
l54,54,999999967,3639.899999997785
l63,63,999999998,3770.599999997666
e74,74,1799999975,3960.999999997493
4648.59999999938
l58,58,999999973,3028.8999999983407
e95,95,1799999973,3242.2999999981466
e78,78,1799999996,3447.8999999979596
l54,54,999999973,3639.2999999977856
l63,63,999999967,3773.6999999976633
e74,74,1799999971,3961.3999999974926
4648.69999999938
l58,58,999999988,3027.399999998342
e95,95,1799999966,3242.999999998146
e78,78,1799999979,3449.599999997958
l54,54,999999998,3636.799999997788
l63,63,999999976,3772.799999997664
e74,74,1799999984,3960.099999997494
4648.799999999381
l58,58,999999956,3030.599999998339
e95,95,1799999982,3241.3999999981475
e78,78,1799999986,3448.8999999979587
l54,54,999999974,3639.1999999977857
l63,63,999999975,3772.899999997664
e74,74,1799999977,3960.799999997493
4648.899999999381
l58,58,999999967,3029.49999999834
e95,95,1799999983,3241.2999999981475
e78,78,1799999959,3451.5999999979563
l54,54,999999989,3637.699999997787
l63,63,999999977,3772.6999999976642
e74,74,1799999976,3960.899999997493
4648.9999999993815
l58,58,999999995,3026.6999999983427
e95,95,1799999957,3243.899999998145
e78,78,1799999972,3450.2999999979575
l54,54,999999993,3637.2999999977874
l63,63,999999996,3770.799999997666
e74,74,1799999974,3961.099999997493
4649.099999999382
l58,58,999999980,3028.1999999983414
e95,95,1799999977,3241.899999998147
e78,78,1799999999,3447.59999999796
l54,54,999999964,3640.1999999977847
l63,63,999999970,3773.3999999976636
e74,74,1799999964,3962.099999997492
4649.199999999382
l58,58,999999957,3030.4999999983393
e95,95,1799999968,3242.799999998146
e78,78,1799999961,3451.3999999979565
l54,54,999999999,3636.699999997788
l63,63,999999978,3772.5999999976643
e74,74,1799999969,3961.5999999974924
4649.299999999383
l58,58,999999969,3029.2999999983404
e95,95,1800000000,3239.599999998149
e78,78,1799999992,3448.2999999979593
l54,54,999999963,3640.2999999977847
l63,63,999999986,3771.799999997665
e74,74,1799999994,3959.0999999974947
4649.399999999383
l58,58,999999990,3027.1999999983423
l61,61,999999983,3524.1999999978902
l64,64,999999965,3842.8999999976004
r25,25,199999979,4004.1999999974537
e74,74,1799999958,4386.099999998425
4649.499999999383
l58,58,999999958,3030.3999999983394
e95,95,1799999990,3240.599999998148
e78,78,1799999966,3450.899999997957
l54,54,999999966,3639.999999997785
l63,63,999999989,3771.4999999976653
e74,74,1800000000,3958.4999999974953
4649.599999999384
l58,58,999999996,3026.599999998343
e95,95,1799999996,3239.9999999981487
e78,78,1799999981,3449.3999999979583
l54,54,999999965,3640.099999997785
l63,63,999999984,3771.999999997665
e74,74,1799999965,3961.999999997492
4649.699999999384
l58,58,999999952,3030.999999998339
e95,95,1799999974,3242.1999999981467
e78,78,1799999995,3447.9999999979595
l54,54,999999976,3638.999999997786
l63,63,999999979,3772.4999999976644
e74,74,1799999983,3960.1999999974937
4649.799999999384
l58,58,999999981,3028.0999999983414
e95,95,1799999963,3243.2999999981457
e78,78,1799999998,3447.69999999796
l54,54,1000000000,3636.599999997788
l63,63,999999985,3771.899999997665
e74,74,1799999998,3958.699999997495
4649.899999999385
l58,58,999999994,3026.7999999983426
e95,95,1799999967,3242.899999998146
e78,78,1799999962,3451.2999999979565
l54,54,999999975,3639.0999999977857
l63,63,999999990,3771.3999999976654
e74,74,1799999986,3959.899999997494
4649.999999999385
l58,58,999999982,3027.9999999983415
e95,95,1799999961,3243.4999999981455
e78,78,1799999970,3450.4999999979573
l54,54,999999983,3638.2999999977865
l63,63,999999960,3774.3999999976627
e74,74,1799999982,3960.2999999974936
4650.099999999386
l58,58,999999977,3028.499999998341
e95,95,1799999962,3243.3999999981456
e78,78,1799999968,3450.699999997957
l54,54,999999987,3637.899999997787
l63,63,999999974,3772.999999997664
e74,74,1799999995,3958.999999997495
4650.199999999386
l58,58,999999960,3030.1999999983395
l61,61,999999999,3522.5999999978917
l64,64,999999985,3840.899999997602
r25,25,199999970,4005.099999997453
e74,74,1799999955,4386.399999998426
4650.299999999386
l58,58,999999979,3028.2999999983413
e95,95,1799999960,3243.5999999981454
e78,78,1799999973,3450.1999999979575
l54,54,999999970,3639.5999999977853
l63,63,999999980,3772.3999999976645
e74,74,1799999991,3959.3999999974944
4650.399999999387
l58,58,999999963,3029.89999999834
e95,95,1799999991,3240.4999999981483
e78,78,1799999975,3449.9999999979577
l54,54,999999978,3638.799999997786
l63,63,999999997,3770.699999997666
e74,74,1799999997,3958.799999997495
4650.499999999387
l58,58,999999971,3029.0999999983405
e95,95,1799999984,3241.1999999981476
e78,78,1799999990,3448.499999997959
l54,54,999999962,3640.3999999977846
l63,63,999999983,3772.099999997665
e74,74,1799999968,3961.6999999974923
4650.599999999387
