e100,100,1799999977,2467.899999998851
r31,31,199999958,2571.399999998757
r16,16,199999997,2791.5999999985565
e78,78,1799999981,2906.8999999984517
l49,49,999999973,3332.299999998065
r6,6,199999977,3671.699999997756
l40,40,999999954,3684.799999997744
3936.899999997515
e100,100,1799999970,2468.5999999988503
r31,31,199999953,2571.8999999987564
r16,16,199999982,2793.099999998555
e78,78,1799999976,2907.399999998451
l49,49,999999976,3331.999999998065
r6,6,199999966,3672.799999997755
l40,40,999999997,3680.499999997748
3936.999999997515
e100,100,1799999983,2467.2999999988515
r31,31,199999964,2570.7999999987574
r16,16,199999980,2793.299999998555
e78,78,1799999998,2905.199999998453
l49,49,999999952,3334.399999998063
r6,6,200000000,3669.399999997758
l40,40,999999998,3680.399999997748
3937.0999999975147
e100,100,1799999952,2470.3999999988487
r31,31,199999966,2570.5999999987575
r16,16,199999991,2792.199999998556
e78,78,1799999974,2907.599999998451
l49,49,1000000000,3329.5999999980672
r6,6,199999963,3673.099999997755
l40,40,999999962,3683.999999997745
3937.1999999975146
e100,100,1799999955,2470.099999998849
r31,31,199999977,2569.4999999987585
r16,16,200000000,2791.299999998557
e78,78,1799999985,2906.499999998452
l49,49,999999994,3330.1999999980667
r6,6,199999986,3670.799999997757
l40,40,999999991,3681.0999999977475
3937.2999999975145
e100,100,1799999996,2465.9999999988527
r31,31,199999971,2570.099999998758
r16,16,199999983,2792.9999999985553
e78,78,1799999953,2909.699999998449
l49,49,999999981,3331.4999999980655
r6,6,199999953,3674.099999997754
l40,40,999999972,3682.999999997746
3937.3999999975144
e100,100,1799999968,2468.79999999885
r31,31,199999954,2571.7999999987564
r16,16,199999999,2791.3999999985567
e78,78,1799999959,2909.0999999984497
l49,49,999999995,3330.099999998067
r6,6,199999984,3670.9999999977567
l40,40,999999992,3680.9999999977476
3937.4999999975144
e100,100,1799999982,2467.3999999988514
r31,31,199999983,2568.899999998759
r16,16,199999951,2796.1999999985524
e78,78,1799999978,2907.1999999984514
l49,49,999999968,3332.7999999980643
r6,6,199999955,3673.899999997754
l40,40,999999951,3685.099999997744
3937.5999999975143
e100,100,1799999969,2468.69999999885
r31,31,199999989,2568.2999999987596
r16,16,199999992,2792.099999998556
e78,78,1799999954,2909.599999998449
l49,49,999999990,3330.5999999980663
r6,6,199999962,3673.1999999977547
l40,40,999999977,3682.4999999977463
3937.699999997514
e100,100,1799999994,2466.1999999988525
r31,31,199999968,2570.3999999987577
r16,16,199999956,2795.699999998553
e78,78,1799999997,2905.299999998453
l49,49,999999971,3332.4999999980646
r6,6,199999951,3674.2999999977537
l40,40,999999980,3682.1999999977465
3937.799999997514
e100,100,1799999998,2465.799999998853
r31,31,199999969,2570.299999998758
r16,16,199999972,2794.0999999985543
e78,78,1799999992,2905.7999999984527
l49,49,999999987,3330.899999998066
r6,6,199999985,3670.899999997757
l40,40,999999967,3683.4999999977454
3937.899999997514
e100,100,1799999973,2468.2999999988506
r31,31,199999976,2569.5999999987584
r16,16,199999953,2795.9999999985525
e78,78,1800000000,2904.9999999984534
l49,49,999999977,3331.899999998065
r6,6,199999969,3672.4999999977554
l40,40,999999966,3683.5999999977453
3937.999999997514
e100,100,1799999971,2468.4999999988504
r31,31,199999988,2568.3999999987595
r16,16,199999987,2792.5999999985556
e78,78,1799999999,2905.0999999984533
l49,49,999999953,3334.299999998063
r6,6,199999965,3672.899999997755
l40,40,999999982,3681.9999999977467
3938.099999997514
e100,100,1799999988,2466.799999998852
r31,31,199999972,2569.999999998758
r16,16,199999976,2793.6999999985546
e78,78,1799999979,2907.0999999984515
l49,49,999999974,3332.199999998065
r6,6,199999979,3671.4999999977563
l40,40,999999958,3684.3999999977445
3938.1999999975137
e100,100,1799999961,2469.4999999988495
r31,31,199999995,2567.69999999876
r16,16,199999995,2791.7999999985564
e78,78,1799999972,2907.799999998451
l49,49,999999961,3333.4999999980637
r6,6,199999990,3670.3999999977573
l40,40,999999973,3682.899999997746
3938.2999999975136
e100,100,1799999966,2468.99999999885
r31,31,199999955,2571.6999999987565
r16,16,199999974,2793.8999999985544
e78,78,1799999964,2908.59999999845
l49,49,999999985,3331.099999998066
r6,6,199999983,3671.0999999977566
l40,40,999999968,3683.3999999977455
3938.3999999975135
e100,100,1800000000,2465.599999998853
r31,31,199999993,2567.89999999876
r16,16,199999962,2795.0999999985534
e78,78,1799999994,2905.599999998453
l49,49,999999979,3331.6999999980653
r6,6,199999972,3672.1999999977556
l40,40,999999987,3681.499999997747
3938.4999999975134
e100,100,1799999972,2468.3999999988505
r31,31,199999957,2571.4999999987567
r16,16,199999952,2796.0999999985524
e78,78,1799999969,2908.0999999984506
l49,49,999999975,3332.099999998065
r6,6,199999989,3670.499999997757
l40,40,999999963,3683.899999997745
3938.5999999975134
e100,100,1799999953,2470.2999999988488
r31,31,199999981,2569.099999998759
r16,16,199999996,2791.6999999985565
e78,78,1799999960,2908.9999999984498
l49,49,999999966,3332.999999998064
r6,6,199999973,3672.0999999977557
l40,40,999999956,3684.5999999977444
3938.6999999975133
e100,100,1799999963,2469.2999999988497
r31,31,199999960,2571.199999998757
r16,16,199999971,2794.199999998554
e78,78,1799999975,2907.499999998451
l49,49,999999989,3330.6999999980662
r6,6,199999995,3669.8999999977577
l40,40,999999995,3680.699999997748
3938.799999997513
e100,100,1799999974,2468.1999999988507
r31,31,199999967,2570.4999999987576
r16,16,199999961,2795.1999999985533
e78,78,1799999965,2908.49999999845
l49,49,999999996,3329.999999998067
r6,6,199999958,3673.5999999977544
l40,40,999999979,3682.2999999977465
3938.899999997513
e100,100,1799999978,2467.799999998851
r31,31,199999986,2568.5999999987594
r16,16,199999985,2792.7999999985554
e78,78,1799999980,2906.9999999984516
l49,49,999999958,3333.7999999980634
r6,6,199999956,3673.799999997754
l40,40,999999994,3680.799999997748
3938.999999997513
e100,100,1799999964,2469.1999999988498
r31,31,199999999,2567.2999999987605
r16,16,199999986,2792.6999999985555
e78,78,1799999995,2905.499999998453
l49,49,999999988,3330.799999998066
r6,6,199999954,3673.999999997754
l40,40,999999953,3684.899999997744
3939.099999997513
e100,100,1799999991,2466.499999998852
r31,31,199999963,2570.8999999987573
r16,16,199999958,2795.499999998553
e78,78,1799999961,2908.89999999845
l49,49,999999959,3333.6999999980635
r6,6,199999975,3671.899999997756
l40,40,999999990,3681.1999999977475
3939.199999997513
e100,100,1799999956,2469.999999998849
r31,31,199999990,2568.1999999987597
r16,16,199999975,2793.7999999985545
e78,78,1799999991,2905.8999999984526
l49,49,999999970,3332.5999999980645
r6,6,199999993,3670.0999999977575
l40,40,999999970,3683.1999999977456
3939.2999999975127
e100,100,1799999999,2465.699999998853
r31,31,199999956,2571.5999999987566
r16,16,199999981,2793.199999998555
e78,78,1799999986,2906.399999998452
l49,49,999999951,3334.499999998063
r6,6,199999976,3671.799999997756
l40,40,999999976,3682.599999997746
3939.3999999975126
e100,100,1799999957,2469.899999998849
r31,31,199999980,2569.199999998759
r16,16,199999993,2791.999999998556
e78,78,1799999957,2909.2999999984495
l49,49,999999992,3330.3999999980665
r6,6,199999998,3669.599999997758
l40,40,999999975,3682.699999997746
3939.4999999975125
e100,100,1799999985,2467.0999999988517
r31,31,199999987,2568.4999999987594
r16,16,199999966,2794.6999999985537
e78,78,1799999962,2908.79999999845
l49,49,999999954,3334.199999998063
r6,6,199999974,3671.999999997756
l40,40,999999981,3682.0999999977466
3939.5999999975124
e100,100,1799999976,2467.999999998851
r31,31,199999952,2571.9999999987563
r16,16,199999977,2793.5999999985547
e78,78,1799999982,2906.7999999984518
l49,49,999999962,3333.399999998064
r6,6,199999980,3671.3999999977564
l40,40,999999985,3681.699999997747
3939.6999999975124
e100,100,1799999986,2466.9999999988518
r31,31,199999974,2569.7999999987583
r16,16,199999978,2793.499999998555
e78,78,1799999956,2909.3999999984494
l49,49,999999967,3332.8999999980642
r6,6,199999987,3670.699999997757
l40,40,999999959,3684.2999999977446
3939.7999999975123
e100,100,1799999967,2468.89999999885
r31,31,199999951,2572.099999998756
r16,16,199999965,2794.7999999985536
e78,78,1799999951,2909.899999998449
l49,49,999999957,3333.8999999980633
r6,6,199999961,3673.2999999977546
l40,40,999999983,3681.899999997747
3939.899999997512
e100,100,1799999962,2469.3999999988496
r31,31,200000000,2567.1999999987606
r16,16,199999988,2792.4999999985557
e78,78,1799999952,2909.799999998449
l49,49,999999984,3331.199999998066
r6,6,199999997,3669.699999997758
l40,40,999999971,3683.0999999977457
3939.999999997512
e100,100,1799999981,2467.4999999988513
r31,31,199999982,2568.999999998759
r16,16,199999957,2795.599999998553
e78,78,1799999987,2906.299999998452
l49,49,999999993,3330.2999999980666
r6,6,199999957,3673.6999999977543
l40,40,999999969,3683.2999999977455
3940.099999997512
e100,100,1799999995,2466.0999999988526
r31,31,199999992,2567.99999999876
r16,16,199999955,2795.7999999985527
e78,78,1799999958,2909.1999999984496
l49,49,999999999,3329.699999998067
r6,6,199999992,3670.1999999977575
l40,40,1000000000,3680.1999999977484
3940.199999997512
e100,100,1799999987,2466.899999998852
r31,31,199999985,2568.6999999987593
r16,16,199999960,2795.299999998553
e78,78,1799999963,2908.69999999845
l49,49,999999960,3333.5999999980636
r6,6,199999968,3672.5999999977553
l40,40,999999993,3680.8999999977477
3940.299999997512
e100,100,1799999997,2465.8999999988528
r31,31,199999998,2567.3999999987604
r16,16,199999968,2794.499999998554
e78,78,1799999968,2908.1999999984505
l49,49,999999964,3333.199999998064
r6,6,199999970,3672.3999999977555
l40,40,999999996,3680.599999997748
3940.3999999975117
e100,100,1799999959,2469.6999999988493
r31,31,199999970,2570.199999998758
r16,16,199999954,2795.8999999985526
e78,78,1799999955,2909.4999999984493
l49,49,999999980,3331.5999999980654
r6,6,199999959,3673.4999999977545
l40,40,999999978,3682.3999999977464
3940.4999999975116
e100,100,1799999954,2470.199999998849
r31,31,199999996,2567.5999999987603
r16,16,199999979,2793.399999998555
e78,78,1799999988,2906.1999999984523
l49,49,999999956,3333.9999999980632
r6,6,199999994,3669.9999999977576
l40,40,999999957,3684.4999999977445
3940.5999999975115
e100,100,1799999958,2469.799999998849
r31,31,199999994,2567.79999999876
r16,16,199999984,2792.8999999985554
e78,78,1799999973,2907.699999998451
l49,49,999999972,3332.3999999980647
r6,6,199999988,3670.599999997757
l40,40,999999986,3681.599999997747
3940.6999999975114
e100,100,1799999965,2469.09999999885
r31,31,199999997,2567.4999999987604
r16,16,199999973,2793.9999999985544
e78,78,1799999989,2906.0999999984524
l49,49,999999997,3329.899999998067
r6,6,199999952,3674.199999997754
l40,40,999999984,3681.799999997747
3940.7999999975113
e100,100,1799999975,2468.0999999988508
r31,31,199999984,2568.799999998759
r16,16,199999994,2791.8999999985563
e78,78,1799999984,2906.599999998452
l49,49,999999982,3331.3999999980656
r6,6,199999971,3672.2999999977555
l40,40,999999974,3682.799999997746
3940.8999999975113
e100,100,1799999984,2467.1999999988516
r31,31,199999961,2571.099999998757
r16,16,199999989,2792.399999998556
e78,78,1799999971,2907.8999999984508
l49,49,999999978,3331.7999999980652
r6,6,199999991,3670.2999999977574
l40,40,999999952,3684.999999997744
3940.999999997511
e100,100,1799999992,2466.3999999988523
r31,31,199999959,2571.299999998757
r16,16,199999967,2794.599999998554
e78,78,1799999966,2908.3999999984503
l49,49,999999963,3333.299999998064
r6,6,199999999,3669.499999997758
l40,40,999999999,3680.2999999977483
3941.099999997511
e100,100,1799999993,2466.2999999988524
r31,31,199999965,2570.6999999987574
r16,16,199999970,2794.299999998554
e78,78,1799999990,2905.9999999984525
l49,49,999999983,3331.2999999980657
r6,6,199999960,3673.3999999977545
l40,40,999999960,3684.1999999977447
3941.199999997511
e100,100,1799999960,2469.5999999988494
r31,31,199999978,2569.3999999987586
r16,16,199999959,2795.399999998553
e78,78,1799999977,2907.2999999984513
l49,49,999999986,3330.999999998066
r6,6,199999981,3671.2999999977565
l40,40,999999988,3681.3999999977473
3941.299999997511
e100,100,1799999979,2467.699999998851
r31,31,199999962,2570.999999998757
r16,16,199999963,2794.9999999985534
e78,78,1799999970,2907.9999999984507
l49,49,999999991,3330.4999999980664
r6,6,199999964,3672.999999997755
l40,40,999999964,3683.799999997745
3941.399999997511
e100,100,1799999990,2466.599999998852
r31,31,199999973,2569.899999998758
r16,16,199999969,2794.399999998554
e78,78,1799999996,2905.399999998453
l49,49,999999965,3333.099999998064
r6,6,199999967,3672.699999997755
l40,40,999999961,3684.099999997745
3941.4999999975107
e100,100,1799999980,2467.599999998851
r31,31,199999979,2569.2999999987587
r16,16,199999964,2794.8999999985535
e78,78,1799999993,2905.6999999984528
l49,49,999999998,3329.799999998067
r6,6,199999982,3671.1999999977565
l40,40,999999955,3684.6999999977443
3941.5999999975106
e100,100,1799999989,2466.699999998852
r31,31,199999991,2568.09999999876
r16,16,199999998,2791.4999999985566
e78,78,1799999967,2908.2999999984504
l49,49,999999955,3334.099999998063
r6,6,199999978,3671.599999997756
l40,40,999999965,3683.699999997745
3941.6999999975105
e100,100,1799999951,2470.4999999988486
r31,31,199999975,2569.6999999987584
r16,16,199999990,2792.299999998556
e78,78,1799999983,2906.699999998452
l49,49,999999969,3332.6999999980644
r6,6,199999996,3669.799999997758
l40,40,999999989,3681.2999999977474
3941.7999999975104
