l46,46,999999981,2977.6999999983873
l64,64,999999970,3103.299999998273
l67,67,999999999,3320.2999999980757
r19,19,199999974,3421.199999997984
e85,85,1799999993,3670.599999997757
4625.499999999296
l46,46,999999954,2980.399999998385
l64,64,999999959,3104.399999998272
l67,67,999999981,3322.099999998074
r19,19,199999970,3421.5999999979836
e85,85,1799999970,3672.899999997755
4625.599999999296
l46,46,999999996,2976.1999999983886
l64,64,999999994,3100.8999999982752
l67,67,999999957,3324.499999998072
r19,19,199999960,3422.5999999979826
e85,85,1799999997,3670.1999999977575
4625.699999999297
l46,46,999999994,2976.3999999983885
l64,64,999999962,3104.0999999982723
l67,67,999999985,3321.6999999980744
r19,19,199999978,3420.7999999979843
e85,85,1799999988,3671.0999999977566
4625.799999999297
l46,46,999999952,2980.5999999983846
l64,64,999999981,3102.199999998274
l67,67,999999976,3322.5999999980736
r19,19,199999987,3419.899999997985
e85,85,1799999980,3671.899999997756
4625.8999999992975
l46,46,999999993,2976.4999999983884
l64,64,999999965,3103.7999999982726
l67,67,999999956,3324.599999998072
r19,19,199999963,3422.299999997983
e85,85,1799999992,3670.699999997757
4625.999999999298
l46,46,999999986,2977.1999999983877
l64,64,999999991,3101.199999998275
l67,67,999999995,3320.6999999980753
r19,19,199999977,3420.899999997984
e85,85,1799999968,3673.099999997755
4626.099999999298
l46,46,999999959,2979.8999999983853
l64,64,999999999,3100.3999999982757
l67,67,999999975,3322.6999999980735
r19,19,199999993,3419.2999999979857
e85,85,1799999984,3671.4999999977563
4626.199999999299
l46,46,999999967,2979.099999998386
l64,64,999999963,3103.9999999982724
l67,67,999999978,3322.399999998074
r19,19,199999959,3422.6999999979826
e85,85,1799999973,3672.5999999977553
4626.299999999299
l46,46,999999983,2977.4999999983875
l64,64,999999978,3102.499999998274
l67,67,999999979,3322.299999998074
r19,19,199999958,3422.7999999979825
e85,85,1799999974,3672.4999999977554
4626.399999999299
l46,46,999999992,2976.5999999983883
l64,64,999999966,3103.6999999982727
l67,67,999999974,3322.7999999980734
r19,19,199999952,3423.399999997982
e85,85,1799999983,3671.599999997756
4626.4999999993
l46,46,999999970,2978.7999999983863
l64,64,999999961,3104.1999999982722
l67,67,999999991,3321.099999998075
r19,19,199999994,3419.1999999979857
e85,85,1799999991,3670.799999997757
4626.5999999993
r21,21,199999984,3701.8999999977286
l41,41,999999970,3905.1999999975437
r27,27,199999968,4078.499999997386
r23,23,200000000,4174.899999997657
r6,6,199999987,4481.499999998772
e85,85,1799999951,4503.899999998854
4626.6999999993
l46,46,999999984,2977.3999999983876
l64,64,999999956,3104.699999998272
l67,67,999999982,3321.999999998074
r19,19,199999984,3420.199999997985
e85,85,1799999962,3673.6999999977543
4626.799999999301
l46,46,999999998,2975.999999998389
l64,64,999999984,3101.8999999982743
l67,67,999999983,3321.8999999980742
r19,19,199999991,3419.4999999979855
e85,85,1799999963,3673.5999999977544
4626.899999999301
l46,46,999999955,2980.299999998385
l64,64,999999995,3100.7999999982753
l67,67,999999992,3320.999999998075
r19,19,199999989,3419.6999999979853
e85,85,1799999966,3673.2999999977546
4626.9999999993015
l46,46,999999969,2978.899999998386
l64,64,999999992,3101.099999998275
l67,67,999999970,3323.199999998073
r19,19,199999973,3421.299999997984
e85,85,1799999969,3672.999999997755
4627.099999999302
l46,46,999999973,2978.4999999983866
l64,64,999999987,3101.5999999982746
l67,67,999999962,3323.9999999980723
r19,19,199999988,3419.799999997985
e85,85,1799999989,3670.9999999977567
4627.199999999302
l46,46,999999957,2980.099999998385
l64,64,999999967,3103.599999998273
l67,67,999999952,3324.9999999980714
r19,19,199999975,3421.099999997984
e85,85,1799999958,3674.099999997754
4627.299999999303
l46,46,999999956,2980.199999998385
l64,64,999999989,3101.399999998275
l67,67,999999964,3323.7999999980725
r19,19,199999997,3418.899999997986
e85,85,1799999975,3672.3999999977555
4627.399999999303
l46,46,999999953,2980.4999999983847
l64,64,999999973,3102.9999999982733
l67,67,999999997,3320.4999999980755
r19,19,199999965,3422.099999997983
e85,85,1799999985,3671.3999999977564
4627.499999999303
l46,46,999999966,2979.199999998386
l64,64,999999958,3104.499999998272
l67,67,999999960,3324.199999998072
r19,19,199999962,3422.399999997983
e85,85,1799999979,3671.999999997756
4627.599999999304
l46,46,999999975,2978.2999999983867
l64,64,999999951,3105.1999999982713
l67,67,999999996,3320.5999999980754
r19,19,199999999,3418.699999997986
e85,85,1799999967,3673.1999999977547
4627.699999999304
l46,46,999999951,2980.6999999983846
l64,64,999999952,3105.0999999982714
l67,67,999999986,3321.5999999980745
r19,19,199999966,3421.999999997983
e85,85,1799999996,3670.2999999977574
4627.799999999304
l46,46,999999963,2979.4999999983856
l64,64,999999954,3104.8999999982716
l67,67,999999984,3321.7999999980743
r19,19,199999957,3422.8999999979824
e85,85,1799999955,3674.3999999977536
4627.899999999305
l46,46,999999982,2977.5999999983874
l64,64,999999953,3104.9999999982715
l67,67,999999977,3322.4999999980737
r19,19,199999953,3423.299999997982
e85,85,1799999986,3671.2999999977565
4627.999999999305
l46,46,999999997,2976.0999999983887
l64,64,999999968,3103.499999998273
l67,67,999999988,3321.3999999980747
r19,19,199999992,3419.3999999979856
e85,85,1799999954,3674.4999999977535
4628.0999999993055
l46,46,999999961,2979.6999999983855
l64,64,999999960,3104.299999998272
l67,67,999999955,3324.6999999980717
r19,19,199999964,3422.199999997983
e85,85,1799999961,3673.799999997754
4628.199999999306
l46,46,999999978,2977.999999998387
l64,64,999999980,3102.299999998274
l67,67,999999990,3321.199999998075
r19,19,199999956,3422.9999999979823
e85,85,1800000000,3669.8999999977577
4628.299999999306
l46,46,999999958,2979.999999998385
l64,64,999999988,3101.4999999982747
l67,67,999999966,3323.5999999980727
r19,19,199999971,3421.4999999979837
e85,85,1799999959,3673.999999997754
4628.399999999307
l46,46,999999980,2977.799999998387
l64,64,999999998,3100.4999999982756
l67,67,999999968,3323.399999998073
r19,19,199999961,3422.4999999979827
e85,85,1799999972,3672.699999997755
4628.499999999307
l46,46,999999979,2977.899999998387
l64,64,999999985,3101.7999999982744
l67,67,999999994,3320.7999999980752
r19,19,199999954,3423.199999997982
e85,85,1799999978,3672.0999999977557
4628.599999999307
l46,46,999999991,2976.699999998388
l64,64,999999974,3102.8999999982734
l67,67,999999987,3321.4999999980746
r19,19,200000000,3418.5999999979863
e85,85,1799999956,3674.2999999977537
4628.699999999308
l46,46,999999964,2979.3999999983857
l64,64,999999972,3103.0999999982732
l67,67,999999973,3322.8999999980733
r19,19,199999998,3418.799999997986
e85,85,1799999957,3674.199999997754
4628.799999999308
l46,46,999999985,2977.2999999983876
l64,64,999999983,3101.9999999982742
l67,67,999999961,3324.0999999980722
r19,19,199999967,3421.8999999979833
e85,85,1799999952,3674.6999999977534
4628.899999999308
l46,46,999999972,2978.5999999983865
l64,64,999999997,3100.5999999982755
l67,67,999999954,3324.7999999980716
r19,19,199999990,3419.5999999979854
e85,85,1799999965,3673.3999999977545
4628.999999999309
l46,46,999999999,2975.899999998389
l64,64,999999971,3103.199999998273
l67,67,999999963,3323.8999999980724
r19,19,199999985,3420.099999997985
e85,85,1799999995,3670.3999999977573
4629.099999999309
l46,46,1000000000,2975.799999998389
l64,64,999999976,3102.6999999982736
l67,67,999999971,3323.099999998073
r19,19,199999972,3421.3999999979837
e85,85,1799999987,3671.1999999977565
4629.1999999993095
l46,46,999999987,2977.099999998388
l64,64,999999979,3102.399999998274
l67,67,999999967,3323.499999998073
r19,19,199999969,3421.6999999979835
e85,85,1799999971,3672.799999997755
4629.29999999931
l46,46,999999962,2979.5999999983856
l64,64,999999964,3103.8999999982725
l67,67,999999965,3323.6999999980726
r19,19,199999955,3423.099999997982
e85,85,1799999976,3672.2999999977555
4629.39999999931
l46,46,999999990,2976.799999998388
l64,64,999999990,3101.299999998275
l67,67,999999989,3321.299999998075
r19,19,199999979,3420.6999999979844
e85,85,1799999977,3672.1999999977556
4629.499999999311
l46,46,999999989,2976.899999998388
l64,64,999999969,3103.399999998273
l67,67,999999958,3324.399999998072
r19,19,199999995,3419.099999997986
e85,85,1799999981,3671.799999997756
4629.599999999311
l46,46,999999976,2978.199999998387
l64,64,999999982,3102.099999998274
l67,67,999999972,3322.9999999980732
r19,19,199999983,3420.2999999979847
e85,85,1799999964,3673.4999999977545
4629.699999999311
l46,46,999999971,2978.6999999983864
l64,64,999999986,3101.6999999982745
l67,67,999999993,3320.899999998075
r19,19,199999986,3419.999999997985
e85,85,1799999960,3673.899999997754
4629.799999999312
l46,46,999999968,2978.999999998386
l64,64,999999977,3102.5999999982737
l67,67,999999998,3320.3999999980756
r19,19,199999968,3421.7999999979834
e85,85,1799999953,3674.5999999977535
4629.899999999312
l46,46,999999977,2978.099999998387
l64,64,999999993,3100.999999998275
l67,67,1000000000,3320.199999998076
r19,19,199999981,3420.4999999979846
e85,85,1799999999,3669.9999999977576
4629.999999999312
l46,46,999999974,2978.3999999983866
l64,64,1000000000,3100.299999998276
l67,67,999999969,3323.299999998073
r19,19,199999980,3420.5999999979845
e85,85,1799999990,3670.899999997757
4630.099999999313
l46,46,999999960,2979.7999999983854
l64,64,999999996,3100.6999999982754
l67,67,999999959,3324.299999998072
r19,19,199999982,3420.3999999979847
e85,85,1799999982,3671.699999997756
4630.199999999313
l46,46,999999995,2976.2999999983886
l64,64,999999955,3104.7999999982717
l67,67,999999953,3324.8999999980715
r19,19,199999996,3418.999999997986
e85,85,1799999998,3670.0999999977575
4630.2999999993135
l46,46,999999965,2979.299999998386
l64,64,999999957,3104.599999998272
l67,67,999999980,3322.199999998074
r19,19,199999976,3420.999999997984
e85,85,1799999994,3670.499999997757
4630.399999999314
