e73,73,1799999988,2477.1999999988425
e83,83,1799999951,2734.999999998608
r25,25,199999962,2795.7999999985527
l41,41,999999998,2839.9999999985125
e70,70,1799999964,3055.7999999983163
r2,2,199999979,3187.5999999981964
4112.399999997429
e73,73,1799999978,2478.1999999988416
e83,83,1799999991,2730.9999999986117
r25,25,199999967,2795.299999998553
l41,41,999999975,2842.2999999985104
e70,70,1799999963,3055.899999998316
r2,2,199999964,3189.099999998195
4112.49999999743
e73,73,1799999960,2479.99999999884
e83,83,1799999965,2733.5999999986093
r25,25,199999951,2796.8999999985517
l41,41,999999967,2843.0999999985097
e70,70,1799999957,3056.4999999983156
r2,2,199999966,3188.899999998195
4112.59999999743
e73,73,1799999954,2480.5999999988394
e83,83,1799999969,2733.1999999986097
r25,25,199999990,2792.9999999985553
l41,41,1000000000,2839.7999999985127
e70,70,1799999975,3054.6999999983173
r2,2,199999978,3187.6999999981963
4112.6999999974305
e73,73,1799999996,2476.399999998843
e83,83,1799999961,2733.999999998609
r25,25,199999995,2792.4999999985557
l41,41,999999999,2839.8999999985126
e70,70,1799999958,3056.3999999983157
r2,2,199999957,3189.7999999981944
4112.799999997431
e73,73,1799999958,2480.1999999988398
e83,83,1799999958,2734.2999999986087
r25,25,199999980,2793.9999999985544
l41,41,999999978,2841.9999999985107
e70,70,1799999962,3055.999999998316
r2,2,200000000,3185.4999999981983
4112.899999997431
e73,73,1799999975,2478.4999999988413
e83,83,1799999964,2733.699999998609
r25,25,199999954,2796.599999998552
l41,41,999999957,2844.099999998509
e70,70,1799999970,3055.199999998317
r2,2,199999971,3188.3999999981957
4112.999999997432
e73,73,1799999952,2480.799999998839
e83,83,1799999963,2733.799999998609
r25,25,199999963,2795.699999998553
l41,41,999999991,2840.699999998512
e70,70,1799999953,3056.8999999983153
r2,2,199999962,3189.299999998195
4113.099999997432
e73,73,1799999995,2476.499999998843
e83,83,1799999989,2731.1999999986115
r25,25,199999982,2793.7999999985545
l41,41,999999980,2841.799999998511
e70,70,1799999994,3052.799999998319
r2,2,199999969,3188.5999999981955
4113.199999997432
e73,73,1799999956,2480.3999999988396
e83,83,1799999994,2730.699999998612
r25,25,199999996,2792.399999998556
l41,41,999999976,2842.1999999985105
e70,70,1799999982,3053.999999998318
r2,2,199999996,3185.899999998198
4113.299999997433
e73,73,1799999959,2480.09999999884
e83,83,1799999998,2730.2999999986123
r25,25,199999989,2793.099999998555
l41,41,999999995,2840.2999999985122
e70,70,1799999986,3053.5999999983183
r2,2,199999953,3190.199999998194
4113.399999997433
e73,73,1799999968,2479.1999999988407
e83,83,1799999960,2734.099999998609
r25,25,199999973,2794.6999999985537
l41,41,999999955,2844.2999999985086
e70,70,1799999988,3053.3999999983184
r2,2,199999976,3187.899999998196
4113.499999997433
e73,73,1799999966,2479.3999999988405
e83,83,1799999952,2734.899999998608
r25,25,199999956,2796.399999998552
l41,41,999999997,2840.0999999985124
e70,70,1799999951,3057.099999998315
r2,2,199999984,3187.099999998197
4113.599999997434
e73,73,1799999997,2476.2999999988433
e83,83,1799999992,2730.8999999986117
r25,25,199999978,2794.199999998554
l41,41,999999986,2841.1999999985114
e70,70,1799999977,3054.4999999983174
r2,2,199999997,3185.799999998198
4113.699999997434
e73,73,1799999998,2476.1999999988434
e83,83,1799999971,2732.99999999861
r25,25,199999981,2793.8999999985544
l41,41,999999970,2842.79999999851
e70,70,1799999961,3056.099999998316
r2,2,199999954,3190.099999998194
4113.7999999974345
e73,73,1799999983,2477.699999998842
e83,83,1799999953,2734.799999998608
r25,25,199999983,2793.6999999985546
l41,41,999999963,2843.4999999985093
e70,70,1799999987,3053.4999999983183
r2,2,199999960,3189.4999999981947
4113.899999997435
e73,73,1799999993,2476.699999998843
e83,83,1799999966,2733.4999999986094
r25,25,199999955,2796.499999998552
l41,41,999999988,2840.9999999985116
e70,70,1799999997,3052.4999999983193
r2,2,199999989,3186.5999999981973
4113.999999997435
e73,73,1799999985,2477.499999998842
e83,83,1799999987,2731.3999999986113
r25,25,199999961,2795.8999999985526
l41,41,999999961,2843.699999998509
e70,70,1799999959,3056.299999998316
r2,2,199999967,3188.7999999981953
4114.099999997436
e73,73,1799999979,2478.0999999988417
e83,83,1799999972,2732.89999999861
r25,25,199999966,2795.399999998553
l41,41,999999962,2843.5999999985092
e70,70,1799999955,3056.6999999983154
r2,2,199999987,3186.799999998197
4114.199999997436
e73,73,1799999990,2476.9999999988427
e83,83,1799999996,2730.499999998612
r25,25,199999952,2796.799999998552
l41,41,999999971,2842.69999999851
e70,70,1799999965,3055.6999999983163
r2,2,199999963,3189.199999998195
4114.299999997436
e73,73,1799999957,2480.2999999988397
e83,83,1799999985,2731.599999998611
r25,25,199999960,2795.9999999985525
l41,41,999999959,2843.899999998509
e70,70,1799999980,3054.1999999983177
r2,2,199999965,3188.999999998195
4114.399999997437
e73,73,1799999953,2480.6999999988393
e83,83,1799999993,2730.799999998612
r25,25,199999984,2793.5999999985547
l41,41,999999964,2843.3999999985094
e70,70,1799999973,3054.899999998317
r2,2,199999982,3187.2999999981967
4114.499999997437
e73,73,1799999971,2478.899999998841
e83,83,1799999967,2733.3999999986095
r25,25,199999987,2793.299999998555
l41,41,999999982,2841.599999998511
e70,70,1799999956,3056.5999999983155
r2,2,199999955,3189.999999998194
4114.599999997437
e73,73,1799999963,2479.69999999884
e83,83,1799999962,2733.899999998609
r25,25,199999976,2794.399999998554
l41,41,999999996,2840.1999999985123
e70,70,1799999996,3052.599999998319
r2,2,199999994,3186.0999999981977
4114.699999997438
e73,73,1799999969,2479.0999999988408
e83,83,1799999980,2732.0999999986107
r25,25,199999969,2795.0999999985534
l41,41,999999958,2843.999999998509
e70,70,1799999985,3053.699999998318
r2,2,199999988,3186.699999998197
4114.799999997438
e73,73,1799999999,2476.0999999988435
e83,83,1799999984,2731.699999998611
r25,25,199999964,2795.599999998553
l41,41,999999972,2842.59999999851
e70,70,1799999990,3053.1999999983186
r2,2,199999995,3185.999999998198
4114.8999999974385
e73,73,1799999977,2478.2999999988415
e83,83,1799999982,2731.899999998611
r25,25,199999972,2794.7999999985536
l41,41,999999992,2840.599999998512
e70,70,1799999978,3054.3999999983175
r2,2,199999980,3187.4999999981965
4114.999999997439
e73,73,1799999962,2479.79999999884
e83,83,1799999975,2732.59999999861
r25,25,199999992,2792.7999999985554
l41,41,999999985,2841.2999999985113
e70,70,1799999991,3053.0999999983187
r2,2,199999992,3186.2999999981976
4115.099999997439
e73,73,1799999972,2478.799999998841
e83,83,1799999986,2731.499999998611
r25,25,199999953,2796.699999998552
l41,41,999999952,2844.5999999985083
e70,70,1799999999,3052.2999999983194
r2,2,199999961,3189.3999999981947
4115.19999999744
e73,73,1799999984,2477.599999998842
e83,83,1799999977,2732.3999999986104
r25,25,199999979,2794.0999999985543
l41,41,999999956,2844.1999999985087
e70,70,1799999968,3055.3999999983166
r2,2,199999973,3188.199999998196
4115.29999999744
e73,73,1799999967,2479.2999999988406
e83,83,1799999997,2730.399999998612
r25,25,199999997,2792.299999998556
l41,41,999999960,2843.799999998509
e70,70,1799999954,3056.7999999983153
r2,2,199999983,3187.1999999981967
4115.39999999744
e73,73,1799999981,2477.899999998842
e83,83,1800000000,2730.0999999986125
r25,25,199999975,2794.499999998554
l41,41,999999953,2844.4999999985084
e70,70,1799999960,3056.199999998316
r2,2,199999968,3188.6999999981954
4115.499999997441
e73,73,1799999991,2476.8999999988428
e83,83,1799999957,2734.3999999986086
r25,25,199999965,2795.499999998553
l41,41,999999966,2843.1999999985096
e70,70,1799999989,3053.2999999983185
r2,2,199999985,3186.999999998197
4115.599999997441
e73,73,1799999970,2478.999999998841
e83,83,1799999955,2734.5999999986084
r25,25,199999994,2792.5999999985556
l41,41,999999977,2842.0999999985106
e70,70,1799999984,3053.799999998318
r2,2,199999990,3186.4999999981974
4115.699999997441
e73,73,1799999994,2476.599999998843
e83,83,1799999988,2731.2999999986114
r25,25,200000000,2791.999999998556
l41,41,999999968,2842.99999999851
e70,70,1799999983,3053.899999998318
r2,2,199999970,3188.4999999981956
4115.799999997442
e73,73,1799999986,2477.3999999988423
e83,83,1799999995,2730.599999998612
r25,25,199999986,2793.399999998555
l41,41,999999974,2842.3999999985103
e70,70,1799999976,3054.5999999983173
r2,2,199999986,3186.899999998197
4115.899999997442
e73,73,1799999992,2476.799999998843
e83,83,1799999973,2732.79999999861
r25,25,199999985,2793.499999998555
l41,41,999999973,2842.4999999985102
e70,70,1799999971,3055.099999998317
r2,2,199999951,3190.399999998194
4115.9999999974425
e73,73,1799999980,2477.9999999988418
e83,83,1799999999,2730.1999999986124
r25,25,199999998,2792.199999998556
l41,41,999999994,2840.399999998512
e70,70,1799999995,3052.699999998319
r2,2,199999959,3189.5999999981946
4116.099999997443
e73,73,1799999961,2479.89999999884
e83,83,1799999981,2731.9999999986107
r25,25,199999993,2792.6999999985555
l41,41,999999990,2840.799999998512
e70,70,1799999993,3052.899999998319
r2,2,199999952,3190.299999998194
4116.199999997443
e73,73,1799999989,2477.0999999988426
e83,83,1799999983,2731.799999998611
r25,25,199999999,2792.099999998556
l41,41,999999981,2841.699999998511
e70,70,1799999974,3054.799999998317
r2,2,199999999,3185.599999998198
4116.299999997444
e73,73,1799999976,2478.3999999988414
e83,83,1799999954,2734.6999999986083
r25,25,199999977,2794.299999998554
l41,41,999999969,2842.89999999851
e70,70,1800000000,3052.1999999983195
r2,2,199999981,3187.3999999981966
4116.399999997444
e73,73,1799999951,2480.899999998839
e83,83,1799999978,2732.2999999986105
r25,25,199999959,2796.0999999985524
l41,41,999999993,2840.499999998512
e70,70,1799999967,3055.4999999983165
r2,2,199999977,3187.799999998196
4116.499999997444
e73,73,1799999973,2478.699999998841
e83,83,1799999990,2731.0999999986116
r25,25,199999958,2796.1999999985524
l41,41,999999965,2843.2999999985095
e70,70,1799999952,3056.999999998315
r2,2,199999993,3186.1999999981977
4116.599999997445
e73,73,1799999965,2479.4999999988404
e83,83,1799999979,2732.1999999986106
r25,25,199999970,2794.9999999985534
l41,41,999999951,2844.6999999985082
e70,70,1799999969,3055.2999999983167
r2,2,199999998,3185.699999998198
4116.699999997445
e73,73,1800000000,2475.9999999988436
e83,83,1799999959,2734.1999999986087
r25,25,199999957,2796.2999999985523
l41,41,999999987,2841.0999999985115
e70,70,1799999979,3054.2999999983176
r2,2,199999975,3187.999999998196
4116.799999997445
e73,73,1799999987,2477.2999999988424
e83,83,1799999968,2733.2999999986096
r25,25,199999991,2792.8999999985554
l41,41,999999983,2841.499999998511
e70,70,1799999966,3055.5999999983164
r2,2,199999991,3186.3999999981975
4116.899999997446
e73,73,1799999982,2477.799999998842
e83,83,1799999970,2733.0999999986097
r25,25,199999988,2793.199999998555
l41,41,999999984,2841.3999999985112
e70,70,1799999998,3052.3999999983193
r2,2,199999972,3188.2999999981957
4116.999999997446
e73,73,1799999964,2479.5999999988403
e83,83,1799999974,2732.69999999861
r25,25,199999971,2794.8999999985535
l41,41,999999979,2841.899999998511
e70,70,1799999981,3054.099999998318
r2,2,199999974,3188.099999998196
4117.0999999974465
e73,73,1799999974,2478.599999998841
e83,83,1799999976,2732.4999999986103
r25,25,199999968,2795.1999999985533
l41,41,999999989,2840.8999999985117
e70,70,1799999992,3052.999999998319
r2,2,199999956,3189.8999999981943
4117.199999997447
e73,73,1799999955,2480.4999999988395
e83,83,1799999956,2734.4999999986085
r25,25,199999974,2794.599999998554
l41,41,999999954,2844.3999999985085
e70,70,1799999972,3054.999999998317
r2,2,199999958,3189.6999999981945
4117.299999997447
