l68,68,999999993,2593.299999998737
r16,16,199999997,2800.099999998549
3878.7999999975677
l68,68,999999963,2596.299999998734
r16,16,199999970,2802.7999999985464
3878.8999999975676
l68,68,999999959,2596.699999998734
r16,16,199999955,2804.299999998545
3878.9999999975676
l68,68,999999980,2594.5999999987357
r16,16,199999988,2800.999999998548
3879.0999999975675
l68,68,999999975,2595.0999999987353
r16,16,199999963,2803.4999999985457
3879.1999999975674
l68,68,999999982,2594.399999998736
r16,16,199999998,2799.999999998549
3879.2999999975673
l68,68,999999989,2593.6999999987365
r16,16,199999994,2800.3999999985485
3879.399999997567
l68,68,999999955,2597.0999999987334
r16,16,199999973,2802.4999999985466
3879.499999997567
l68,68,999999979,2594.6999999987356
r16,16,199999961,2803.6999999985455
3879.599999997567
l68,68,999999971,2595.499999998735
r16,16,199999982,2801.5999999985474
3879.699999997567
l68,68,999999994,2593.199999998737
r16,16,199999984,2801.3999999985476
3879.799999997567
l68,68,999999958,2596.7999999987337
r16,16,199999978,2801.999999998547
3879.8999999975667
l68,68,999999984,2594.199999998736
r16,16,199999981,2801.6999999985474
3879.9999999975666
l68,68,999999990,2593.5999999987366
r16,16,199999974,2802.3999999985467
3880.0999999975666
l68,68,999999992,2593.399999998737
r16,16,199999967,2803.099999998546
3880.1999999975665
l68,68,999999964,2596.1999999987343
r16,16,199999975,2802.299999998547
3880.2999999975664
l68,68,999999988,2593.7999999987364
r16,16,199999964,2803.399999998546
3880.3999999975663
l68,68,999999961,2596.499999998734
r16,16,199999995,2800.2999999985486
3880.499999997566
l68,68,999999957,2596.8999999987336
r16,16,199999956,2804.199999998545
3880.599999997566
l68,68,999999968,2595.7999999987346
r16,16,199999959,2803.8999999985454
3880.699999997566
l68,68,999999969,2595.6999999987347
r16,16,199999960,2803.7999999985454
3880.799999997566
l68,68,999999970,2595.599999998735
r16,16,199999972,2802.5999999985465
3880.899999997566
l68,68,999999996,2592.999999998737
r16,16,199999996,2800.1999999985487
3880.9999999975657
l68,68,999999977,2594.8999999987354
r16,16,199999951,2804.6999999985446
3881.0999999975656
l68,68,999999986,2593.9999999987363
r16,16,200000000,2799.799999998549
3881.1999999975656
l68,68,999999997,2592.8999999987373
r16,16,199999958,2803.9999999985453
3881.2999999975655
l68,68,999999965,2596.0999999987343
r16,16,199999993,2800.4999999985484
3881.3999999975654
l68,68,999999981,2594.499999998736
r16,16,199999986,2801.199999998548
3881.4999999975653
l68,68,999999954,2597.1999999987333
r16,16,199999990,2800.799999998548
3881.599999997565
l68,68,999999960,2596.599999998734
r16,16,199999953,2804.499999998545
3881.699999997565
l68,68,999999974,2595.199999998735
r16,16,199999985,2801.2999999985477
3881.799999997565
l68,68,999999952,2597.399999998733
r16,16,199999965,2803.299999998546
3881.899999997565
l68,68,999999966,2595.9999999987344
r16,16,199999971,2802.6999999985464
3881.999999997565
l68,68,1000000000,2592.5999999987375
r16,16,199999992,2800.5999999985484
3882.0999999975647
l68,68,999999962,2596.399999998734
r16,16,199999983,2801.4999999985475
3882.1999999975646
l68,68,999999995,2593.099999998737
r16,16,199999999,2799.899999998549
3882.2999999975646
l68,68,999999967,2595.8999999987345
r16,16,199999979,2801.899999998547
3882.3999999975645
l68,68,999999987,2593.8999999987363
r16,16,199999969,2802.8999999985463
3882.4999999975644
l68,68,999999951,2597.499999998733
r16,16,199999980,2801.7999999985473
3882.5999999975643
l68,68,999999983,2594.299999998736
r16,16,199999957,2804.099999998545
3882.699999997564
l68,68,999999953,2597.2999999987333
r16,16,199999977,2802.099999998547
3882.799999997564
l68,68,999999973,2595.299999998735
r16,16,199999968,2802.999999998546
3882.899999997564
l68,68,999999999,2592.6999999987374
r16,16,199999952,2804.5999999985447
3882.999999997564
l68,68,999999991,2593.4999999987367
r16,16,199999962,2803.5999999985456
3883.099999997564
l68,68,999999972,2595.399999998735
r16,16,199999987,2801.099999998548
3883.1999999975637
l68,68,999999985,2594.099999998736
r16,16,199999976,2802.199999998547
3883.2999999975636
l68,68,999999978,2594.7999999987355
r16,16,199999966,2803.199999998546
3883.3999999975636
l68,68,999999976,2594.9999999987353
r16,16,199999954,2804.399999998545
3883.4999999975635
l68,68,999999956,2596.9999999987335
r16,16,199999991,2800.6999999985483
3883.5999999975634
l68,68,999999998,2592.7999999987373
r16,16,199999989,2800.899999998548
3883.6999999975633
