e79,79,1799999993,2846.299999998507
e78,78,1799999999,3557.49999999786
l40,40,999999967,3738.0999999976957
l60,60,999999956,4561.899999999065
e88,88,1799999972,4784.399999999874
5789.000000003529
e79,79,1799999964,2849.199999998504
e78,78,1799999994,3557.9999999978595
l40,40,999999963,3738.4999999976953
l60,60,999999970,4560.49999999906
e88,88,1799999997,4781.899999999865
5789.100000003529
e79,79,1799999962,2849.399999998504
e78,78,1799999980,3559.3999999978582
l40,40,999999953,3739.4999999976944
l60,60,999999973,4560.1999999990585
e88,88,1799999952,4786.399999999881
5789.20000000353
e79,79,1799999960,2849.599999998504
e78,78,1799999977,3559.699999997858
l40,40,999999985,3736.2999999976973
l60,60,999999994,4558.099999999051
e88,88,1799999976,4783.999999999873
5789.30000000353
e79,79,1799999983,2847.299999998506
e78,78,1799999975,3559.899999997858
l40,40,999999978,3736.9999999976967
l60,60,999999987,4558.799999999053
e88,88,1799999999,4781.699999999864
5789.40000000353
e79,79,1799999954,2850.1999999985032
e78,78,1799999992,3558.1999999978593
l40,40,999999990,3735.799999997698
l60,60,999999969,4560.59999999906
e88,88,1799999961,4785.499999999878
5789.500000003531
e79,79,1799999997,2845.899999998507
e78,78,1799999957,3561.699999997856
l40,40,999999961,3738.699999997695
l60,60,999999977,4559.799999999057
e88,88,1799999994,4782.199999999866
5789.600000003531
e79,79,1799999968,2848.7999999985045
e78,78,1799999985,3558.8999999978587
l40,40,999999954,3739.3999999976945
l60,60,999999979,4559.599999999056
e88,88,1799999990,4782.599999999868
5789.700000003531
e79,79,1799999963,2849.299999998504
e78,78,1799999974,3559.9999999978577
l40,40,999999972,3737.599999997696
l60,60,999999992,4558.299999999052
e88,88,1799999971,4784.4999999998745
5789.800000003532
e79,79,1799999979,2847.6999999985055
e78,78,1799999955,3561.899999997856
l40,40,999999979,3736.899999997697
l60,60,999999962,4561.2999999990625
e88,88,1799999978,4783.799999999872
5789.900000003532
e79,79,1799999961,2849.499999998504
e78,78,1799999984,3558.9999999978586
l40,40,999999996,3735.1999999976983
l60,60,999999996,4557.89999999905
e88,88,1799999965,4785.099999999877
5790.0000000035325
e79,79,1799999980,2847.5999999985056
e78,78,1799999967,3560.699999997857
l40,40,999999973,3737.4999999976962
l60,60,999999952,4562.299999999066
e88,88,1799999988,4782.799999999868
5790.100000003533
e79,79,1799999996,2845.999999998507
e78,78,1799999954,3561.999999997856
l40,40,999999977,3737.0999999976966
l60,60,999999998,4557.699999999049
e88,88,1799999991,4782.499999999867
5790.200000003533
e79,79,1799999987,2846.8999999985062
e78,78,1799999991,3558.2999999978592
l40,40,999999991,3735.699999997698
l60,60,999999974,4560.099999999058
e88,88,1799999992,4782.399999999867
5790.300000003534
e79,79,1799999985,2847.099999998506
e78,78,1799999982,3559.1999999978584
l40,40,999999974,3737.3999999976963
l60,60,999999966,4560.899999999061
e88,88,1799999969,4784.699999999875
5790.400000003534
e79,79,1799999969,2848.6999999985046
e78,78,1799999951,3562.2999999978556
l40,40,1000000000,3734.7999999976987
l60,60,999999958,4561.699999999064
e88,88,1799999958,4785.799999999879
5790.500000003534
e79,79,1799999973,2848.299999998505
e78,78,1799999958,3561.5999999978562
l40,40,999999992,3735.599999997698
l60,60,999999959,4561.599999999064
e88,88,1799999996,4781.999999999865
5790.600000003535
e79,79,1799999994,2846.199999998507
e78,78,1799999964,3560.999999997857
l40,40,999999959,3738.899999997695
l60,60,999999978,4559.699999999057
e88,88,1799999975,4784.099999999873
5790.700000003535
e79,79,1799999967,2848.8999999985044
e78,78,1799999998,3557.59999999786
l40,40,999999955,3739.2999999976946
l60,60,999999981,4559.399999999056
e88,88,1799999979,4783.699999999872
5790.800000003535
e79,79,1799999970,2848.5999999985047
e78,78,1799999995,3557.8999999978596
l40,40,999999983,3736.499999997697
l60,60,999999971,4560.399999999059
e88,88,1799999973,4784.299999999874
5790.900000003536
e79,79,1799999990,2846.5999999985065
e78,78,1799999956,3561.799999997856
l40,40,999999984,3736.3999999976973
l60,60,999999965,4560.999999999061
e88,88,1799999970,4784.599999999875
5791.000000003536
e79,79,1799999972,2848.399999998505
e78,78,1799999986,3558.799999997859
l40,40,999999999,3734.8999999976986
l60,60,999999983,4559.199999999055
e88,88,1799999960,4785.5999999998785
5791.1000000035365
e79,79,1799999952,2850.399999998503
e78,78,1799999969,3560.4999999978572
l40,40,999999998,3734.9999999976985
l60,60,999999961,4561.399999999063
e88,88,1799999993,4782.2999999998665
5791.200000003537
e79,79,1799999982,2847.399999998506
e78,78,1799999966,3560.799999997857
l40,40,999999952,3739.5999999976943
l60,60,999999975,4559.999999999058
e88,88,1799999987,4782.899999999869
5791.300000003537
e79,79,1799999953,2850.299999998503
e78,78,1799999960,3561.3999999978564
l40,40,999999989,3735.8999999976977
l60,60,999999964,4561.099999999062
e88,88,1800000000,4781.599999999864
5791.400000003538
e79,79,1799999991,2846.4999999985066
e78,78,1799999961,3561.2999999978565
l40,40,999999970,3737.799999997696
l60,60,999999980,4559.499999999056
e88,88,1799999968,4784.799999999876
5791.500000003538
e79,79,1799999974,2848.199999998505
e78,78,1799999996,3557.7999999978597
l40,40,999999969,3737.899999997696
l60,60,999999955,4561.999999999065
e88,88,1799999989,4782.699999999868
5791.600000003538
e79,79,1799999992,2846.3999999985067
e78,78,1799999979,3559.499999997858
l40,40,999999994,3735.399999997698
l60,60,999999997,4557.79999999905
e88,88,1799999974,4784.199999999873
5791.700000003539
e79,79,1799999956,2849.9999999985034
e78,78,1799999988,3558.599999997859
l40,40,999999956,3739.1999999976947
l60,60,999999963,4561.199999999062
e88,88,1799999984,4783.19999999987
5791.800000003539
e79,79,1799999951,2850.499999998503
e78,78,1799999987,3558.699999997859
l40,40,999999993,3735.499999997698
l60,60,999999957,4561.799999999064
e88,88,1799999982,4783.3999999998705
5791.900000003539
e79,79,1799999966,2848.9999999985043
e78,78,1799999971,3560.2999999978574
l40,40,999999971,3737.699999997696
l60,60,999999972,4560.299999999059
e88,88,1799999981,4783.499999999871
5792.00000000354
e79,79,1799999998,2845.7999999985072
e78,78,1799999972,3560.1999999978575
l40,40,999999965,3738.2999999976955
l60,60,999999976,4559.899999999057
e88,88,1799999980,4783.599999999871
5792.10000000354
e79,79,1799999986,2846.999999998506
e78,78,1799999989,3558.499999997859
l40,40,999999962,3738.5999999976952
l60,60,999999960,4561.499999999063
e88,88,1799999998,4781.799999999865
5792.2000000035405
e79,79,1799999959,2849.6999999985037
e78,78,1799999973,3560.0999999978576
l40,40,999999997,3735.0999999976984
l60,60,999999982,4559.299999999055
e88,88,1799999964,4785.199999999877
5792.300000003541
e79,79,1800000000,2845.5999999985074
e78,78,1799999997,3557.69999999786
l40,40,999999964,3738.3999999976954
l60,60,999999995,4557.9999999990505
e88,88,1799999951,4786.499999999882
5792.400000003541
e79,79,1799999984,2847.199999998506
e78,78,1799999983,3559.0999999978585
l40,40,999999988,3735.9999999976976
l60,60,999999989,4558.599999999053
e88,88,1799999954,4786.199999999881
5792.500000003542
e79,79,1799999958,2849.7999999985036
e78,78,1799999978,3559.599999997858
l40,40,999999981,3736.699999997697
l60,60,999999967,4560.799999999061
e88,88,1799999985,4783.099999999869
5792.600000003542
e79,79,1799999955,2850.0999999985033
e78,78,1799999981,3559.2999999978583
l40,40,999999951,3739.6999999976942
l60,60,999999951,4562.3999999990665
e88,88,1799999963,4785.299999999877
5792.700000003542
e79,79,1799999957,2849.8999999985035
e78,78,1799999976,3559.799999997858
l40,40,999999960,3738.799999997695
l60,60,999999986,4558.899999999054
e88,88,1799999986,4782.999999999869
5792.800000003543
e79,79,1799999995,2846.099999998507
e78,78,1799999990,3558.399999997859
l40,40,999999966,3738.1999999976956
l60,60,999999984,4559.0999999990545
e88,88,1799999977,4783.899999999872
5792.900000003543
e79,79,1799999989,2846.6999999985064
e78,78,1799999970,3560.3999999978573
l40,40,999999975,3737.2999999976964
l60,60,999999988,4558.699999999053
e88,88,1799999957,4785.89999999988
5793.000000003543
e79,79,1799999977,2847.8999999985053
e78,78,1799999962,3561.1999999978566
l40,40,999999987,3736.0999999976975
l60,60,999999968,4560.69999999906
e88,88,1799999962,4785.399999999878
5793.100000003544
e79,79,1799999975,2848.099999998505
e78,78,1799999965,3560.899999997857
l40,40,999999995,3735.2999999976983
l60,60,1000000000,4557.499999999049
e88,88,1799999966,4784.999999999876
5793.200000003544
e79,79,1799999988,2846.7999999985063
e78,78,1799999959,3561.4999999978563
l40,40,999999958,3738.999999997695
l60,60,999999985,4558.999999999054
e88,88,1799999967,4784.899999999876
5793.3000000035445
e79,79,1799999965,2849.0999999985042
e78,78,1799999963,3561.0999999978567
l40,40,999999968,3737.999999997696
l60,60,999999991,4558.399999999052
e88,88,1799999956,4785.99999999988
5793.400000003545
e79,79,1799999971,2848.499999998505
e78,78,1799999952,3562.1999999978557
l40,40,999999976,3737.1999999976965
l60,60,999999999,4557.599999999049
e88,88,1799999953,4786.299999999881
5793.500000003545
e79,79,1799999981,2847.4999999985057
e78,78,1799999953,3562.099999997856
l40,40,999999986,3736.1999999976974
l60,60,999999954,4562.099999999065
e88,88,1799999959,4785.699999999879
5793.600000003546
e79,79,1799999999,2845.6999999985073
e78,78,1799999993,3558.0999999978594
l40,40,999999957,3739.099999997695
l60,60,999999953,4562.199999999066
e88,88,1799999995,4782.099999999866
5793.700000003546
e79,79,1799999976,2847.9999999985052
e78,78,1800000000,3557.39999999786
l40,40,999999982,3736.599999997697
l60,60,999999993,4558.199999999051
e88,88,1799999955,4786.09999999988
5793.800000003546
e79,79,1799999978,2847.7999999985054
e78,78,1799999968,3560.599999997857
l40,40,999999980,3736.799999997697
l60,60,999999990,4558.499999999052
e88,88,1799999983,4783.29999999987
5793.900000003547
