e95,95,1799999991,1107.0
l45,45,999999995,1350.0
l54,54,999999999,1365.0
1596.0
l57,57,999999993,844.0
r15,15,199999998,934.0
l39,39,1000000000,937.0
l52,52,999999997,973.0
e95,95,1799999997,1008.0
l45,45,999999998,1347.0
l54,54,999999990,1374.0
1597.0
e95,95,1799999994,1104.0
l45,45,999999997,1348.0
l54,54,999999994,1370.0
1598.0
l57,57,999999998,839.0
r15,15,199999999,933.0
l39,39,999999996,941.0
l52,52,1000000000,970.0
e95,95,1800000000,1005.0
l45,45,999999994,1351.0
l54,54,999999995,1369.0
1599.0
e95,95,1799999990,1108.0
l45,45,999999999,1346.0
l54,54,1000000000,1364.0
1600.0
l57,57,999999999,838.0
r15,15,199999997,935.0
l39,39,999999998,939.0
l52,52,999999998,972.0
e95,95,1799999999,1006.0
l45,45,999999992,1353.0
l54,54,999999996,1368.0
1601.0
l57,57,999999988,849.0
r15,15,199999996,936.0
l39,39,999999997,940.0
l52,52,999999996,974.0
e95,95,1799999996,1009.0
l45,45,1000000000,1345.0
l54,54,999999991,1373.0
1602.0
e95,95,1799999993,1105.0
l45,45,999999991,1354.0
l54,54,999999997,1367.0
1603.0
e95,95,1799999992,1106.0
l45,45,999999990,1355.0
l54,54,999999998,1366.0
1604.0
l57,57,999999983,854.0
r15,15,200000000,932.0
l39,39,999999999,938.0
l52,52,999999999,971.0
e95,95,1799999998,1007.0
l45,45,999999993,1352.0
l54,54,999999993,1371.0
1605.0
e95,95,1799999995,1103.0
l45,45,999999996,1349.0
l54,54,999999992,1372.0
1606.0
r14,14,199999995,1222.0
r30,30,199999987,2157.0
e89,89,1799999986,2239.0
2700.0
r14,14,199999992,1225.0
r30,30,199999983,2161.0
e89,89,1799999987,2238.0
2701.0
r14,14,199999998,1219.0
r30,30,199999986,2158.0
e89,89,1799999988,2237.0
2702.0
r14,14,199999986,1231.0
r30,30,199999984,2160.0
e89,89,1799999994,2231.0
2703.0
r14,14,199999984,1233.0
r30,30,199999985,2159.0
e89,89,1799999992,2233.0
2704.0
r14,14,199999987,1230.0
r30,30,199999988,2156.0
e89,89,1799999991,2234.0
2705.0
e78,78,1799999991,1775.0
e96,96,1799999995,2112.0
e74,74,1799999993,2647.0
r18,18,199999990,2747.0
3264.0
l57,57,1000000000,837.0
l43,43,999999978,2216.0
l63,63,999999989,2369.0
r32,32,199999985,2436.0
r18,18,199999983,3167.0
3265.0
e78,78,1799999999,1767.0
e96,96,1799999990,2117.0
e74,74,1799999994,2646.0
r18,18,199999986,2751.0
3266.0
e78,78,1799999993,1773.0
e97,97,1799999998,1882.0
l47,47,999999987,2187.0
r17,17,199999986,2208.0
r6,6,199999991,2353.0
r8,8,199999988,2641.0
r18,18,199999979,3179.0
3267.0
l57,57,999999996,841.0
l43,43,999999977,2217.0
l63,63,999999986,2372.0
r32,32,199999988,2433.0
r18,18,199999982,3168.0
3268.0
e78,78,1799999984,1782.0
e96,96,1799999992,2115.0
e74,74,1799999992,2648.0
r18,18,199999989,2748.0
3269.0
r14,14,199999981,1236.0
r31,31,200000000,2335.0
e94,94,1799999984,2404.0
e82,82,1799999988,2508.0
l36,36,999999992,2595.0
r8,8,199999985,2802.0
r18,18,199999978,3180.0
3270.0
l57,57,999999990,847.0
l43,43,999999979,2215.0
l63,63,999999988,2370.0
r32,32,199999989,2432.0
r18,18,199999980,3170.0
3271.0
e78,78,1799999994,1772.0
e96,96,1799999991,2116.0
e74,74,1799999995,2645.0
r18,18,199999987,2750.0
3272.0
l57,57,999999992,845.0
l43,43,999999984,2210.0
l63,63,999999984,2374.0
r32,32,199999984,2437.0
r18,18,199999981,3169.0
3273.0
e78,78,1799999995,1771.0
e97,97,1800000000,1880.0
l47,47,999999988,2186.0
r17,17,199999987,2207.0
r6,6,199999986,2358.0
r8,8,199999986,2643.0
r18,18,199999977,3181.0
3274.0
l57,57,999999984,853.0
l43,43,999999991,2203.0
l63,63,999999985,2373.0
r32,32,199999986,2435.0
r18,18,199999984,3166.0
3275.0
r14,14,199999996,1221.0
l48,48,999999986,1998.0
l61,61,999999990,2400.0
e84,84,1799999978,3245.0
3736.0
r14,14,200000000,1217.0
l48,48,999999985,1999.0
l61,61,999999985,2405.0
e84,84,1799999974,3249.0
3737.0
r14,14,199999988,1229.0
l48,48,999999988,1996.0
l61,61,999999991,2399.0
e84,84,1799999980,3243.0
3738.0
r14,14,199999997,1220.0
l48,48,999999989,1995.0
l61,61,999999988,2402.0
e84,84,1799999981,3242.0
3739.0
r14,14,199999993,1224.0
r23,23,199999984,2490.0
r16,16,199999981,2749.0
l61,61,999999979,3063.0
e84,84,1799999973,3250.0
3740.0
r14,14,199999989,1228.0
r23,23,199999981,2493.0
r16,16,199999979,2751.0
l61,61,999999983,3059.0
e84,84,1799999975,3248.0
3741.0
l51,51,999999986,2577.0
e69,69,1799999986,2800.0
l67,67,999999989,2994.0
l62,62,999999972,3239.0
l35,35,999999977,3555.0
r14,14,199999957,3831.0
e91,91,1799999961,3876.0
e72,72,1799999968,4011.0
r15,15,199999961,4027.0
4093.0
l57,57,999999982,855.0
l43,43,999999990,2204.0
l64,64,999999993,2347.0
r33,33,199999982,2706.0
r29,29,199999972,3097.0
l62,62,999999976,3231.0
r13,13,199999981,3340.0
r15,15,199999971,3436.0
4094.0
e78,78,1799999990,1776.0
e99,99,1799999975,3361.0
e72,72,1799999979,3685.0
r15,15,199999960,4028.0
4095.0
e78,78,1799999996,1770.0
e97,97,1799999984,2381.0
r14,14,199999961,2560.0
e91,91,1799999962,3875.0
e72,72,1799999960,4019.0
r15,15,199999962,4026.0
4096.0
l57,57,999999995,842.0
l43,43,999999988,2206.0
l64,64,999999984,2356.0
r33,33,199999986,2702.0
r29,29,199999977,3092.0
l62,62,999999975,3232.0
r13,13,199999976,3345.0
r15,15,199999972,3435.0
4097.0
r25,25,199999985,2562.0
e99,99,1799999965,3420.0
e72,72,1799999981,3683.0
r15,15,199999959,4029.0
4098.0
e78,78,1799999985,1781.0
l62,62,999999994,2070.0
r13,13,199999975,3346.0
r15,15,199999969,3438.0
4099.0
r25,25,199999983,2564.0
l67,67,999999974,3073.0
r27,27,199999969,3159.0
r12,12,199999975,3531.0
4524.0
e85,85,1799999965,3257.0
l38,38,999999969,3492.0
r7,7,199999955,4825.0
5232.0
l43,43,999999955,4049.0
r7,7,199999951,5081.0
5233.0
e85,85,1799999968,3254.0
l49,49,999999983,3369.0
l59,59,999999967,3642.0
r7,7,199999956,4337.0
5234.0
l43,43,999999954,4050.0
r7,7,199999953,5079.0
5235.0
e78,78,1799999988,1778.0
e97,97,1799999980,2385.0
e88,88,1799999971,3211.0
e87,87,1799999974,3283.0
e93,93,1799999961,3864.0
r7,7,199999968,3997.0
5236.0
e85,85,1799999971,3251.0
l38,38,999999966,3495.0
r7,7,199999954,4826.0
5237.0
l43,43,999999958,4046.0
r7,7,199999952,5080.0
5238.0
