e72,72,1799999995,126.0
l50,50,999999990,508.0
r21,21,199999993,519.0
e99,99,1799999997,601.0
e85,85,1799999998,842.0
l44,44,999999999,985.0
1942.0
e72,72,1800000000,121.0
l63,63,1000000000,861.0
e88,88,1799999990,1071.0
l44,44,999999989,1129.0
1943.0
e72,72,1799999998,123.0
l50,50,999999993,505.0
r21,21,199999991,521.0
e99,99,1799999998,600.0
e85,85,1799999994,846.0
l44,44,999999998,986.0
1944.0
e72,72,1799999997,124.0
l63,63,999999995,866.0
e88,88,1799999996,1065.0
l44,44,999999990,1128.0
1945.0
e72,72,1799999988,133.0
l50,50,999999987,511.0
r21,21,199999995,517.0
e99,99,1799999996,602.0
e85,85,1799999997,843.0
l44,44,1000000000,984.0
1946.0
e72,72,1799999990,131.0
l63,63,999999991,870.0
e88,88,1800000000,1061.0
l44,44,999999991,1127.0
1947.0
e72,72,1799999993,128.0
l63,63,999999992,869.0
e88,88,1799999997,1064.0
l44,44,999999992,1126.0
1948.0
e72,72,1799999994,127.0
l50,50,999999996,502.0
r21,21,199999996,516.0
e99,99,1800000000,598.0
e85,85,1799999996,844.0
l44,44,999999995,989.0
1949.0
e72,72,1799999999,122.0
l50,50,999999999,499.0
r21,21,199999992,520.0
e99,99,1799999999,599.0
e85,85,1800000000,840.0
l44,44,999999997,987.0
1950.0
e72,72,1799999989,132.0
l63,63,999999989,872.0
e88,88,1799999999,1062.0
l44,44,999999993,1125.0
1951.0
e72,72,1799999996,125.0
l50,50,999999988,510.0
r21,21,199999994,518.0
e99,99,1799999995,603.0
e85,85,1799999995,845.0
l44,44,999999996,988.0
1952.0
e72,72,1799999987,134.0
l50,50,999999994,504.0
r21,21,199999997,515.0
e99,99,1799999994,604.0
e85,85,1799999999,841.0
l44,44,999999994,990.0
1953.0
e84,84,1799999984,935.0
r6,6,199999992,1080.0
r16,16,199999984,1671.0
2046.0
e72,72,1799999991,130.0
l50,50,999999989,509.0
e83,83,1799999988,1039.0
r7,7,199999996,1342.0
r16,16,199999999,1526.0
2047.0
r21,21,199999985,1443.0
e101,101,1799999982,1485.0
l52,52,1000000000,1561.0
r16,16,199999991,1619.0
2048.0
e72,72,1799999992,129.0
l50,50,999999992,506.0
e83,83,1799999995,1032.0
r7,7,199999997,1341.0
r16,16,199999996,1529.0
2049.0
r30,30,199999990,516.0
r22,22,199999988,603.0
l48,48,999999979,1305.0
r34,34,199999999,1391.0
r26,26,199999993,1427.0
r6,6,199999986,1457.0
r16,16,199999985,1670.0
2050.0
r21,21,199999975,1453.0
e101,101,1799999987,1480.0
l52,52,999999990,1571.0
r16,16,199999989,1621.0
2051.0
e84,84,1799999993,926.0
r6,6,199999994,1078.0
r16,16,199999987,1668.0
2052.0
r24,24,199999995,877.0
e80,80,1799999997,900.0
e93,93,1799999993,1014.0
e86,86,1799999992,1349.0
l55,55,999999983,2063.0
2072.0
r30,30,200000000,506.0
r22,22,199999992,599.0
l64,64,999999991,1110.0
e86,86,1799999995,1238.0
l55,55,999999984,2062.0
2073.0
r21,21,199999984,1444.0
e101,101,1799999984,1483.0
l55,55,999999994,1929.0
2074.0
r30,30,199999995,511.0
r22,22,200000000,591.0
l64,64,1000000000,1101.0
e86,86,1799999998,1235.0
l55,55,999999982,2064.0
2075.0
r24,24,199999988,884.0
e86,86,1799999978,1685.0
l55,55,999999985,2061.0
2076.0
r30,30,199999988,518.0
r22,22,199999993,598.0
r23,23,199999993,1839.0
2469.0
r23,23,199999981,1924.0
2470.0
r23,23,199999990,1915.0
2471.0
r24,24,199999985,887.0
l36,36,999999997,1107.0
e96,96,1799999990,1146.0
e78,78,1799999997,1444.0
l40,40,999999992,1579.0
r23,23,199999976,2240.0
2472.0
e84,84,1799999995,924.0
e94,94,1800000000,1125.0
l46,46,999999984,1651.0
r23,23,199999969,2432.0
2473.0
r23,23,199999989,1916.0
2474.0
r23,23,199999987,1918.0
2475.0
r24,24,199999984,888.0
l36,36,999999995,1109.0
e96,96,1799999986,1150.0
e78,78,1799999992,1449.0
l40,40,999999997,1574.0
r23,23,199999974,2242.0
2476.0
r23,23,199999988,1917.0
2477.0
r23,23,199999982,1923.0
2478.0
e84,84,1799999997,922.0
r6,6,199999993,1079.0
e77,77,1799999996,1294.0
l54,54,999999998,1427.0
r11,11,199999981,1718.0
l46,46,999999977,2218.0
r23,23,199999968,2433.0
2479.0
r23,23,199999986,1919.0
2480.0
r30,30,199999992,514.0
r22,22,199999999,592.0
r23,23,199999994,1838.0
2481.0
r23,23,199999977,1928.0
2482.0
r23,23,199999991,1914.0
2483.0
l39,39,999999982,1785.0
2972.0
l39,39,999999989,1778.0
2973.0
l39,39,999999978,1789.0
2974.0
l39,39,999999984,1783.0
2975.0
l39,39,999999973,1794.0
2976.0
l39,39,999999983,1784.0
2977.0
l39,39,999999985,1782.0
2978.0
e84,84,1799999996,923.0
r13,13,199999994,1770.0
r15,15,199999987,2333.0
l48,48,999999973,2377.0
3255.0
e84,84,1799999999,920.0
r13,13,199999995,1769.0
r15,15,199999990,2330.0
l48,48,999999977,2373.0
3256.0
e84,84,1799999982,937.0
l68,68,999999979,1242.0
r14,14,200000000,1647.0
e79,79,1799999986,2039.0
e69,69,1799999977,2112.0
r33,33,199999973,2472.0
l48,48,999999971,2624.0
3257.0
e75,75,1799999982,1304.0
l47,47,999999974,2835.0
r24,24,199999952,3163.0
r14,14,199999970,3606.0
3790.0
