l59,59,1000000000,563.0
e82,82,1799999997,949.0
l37,37,999999996,1203.0
e86,86,1800000000,1309.0
e69,69,1799999997,1350.0
1907.0
l59,59,999999997,566.0
e82,82,1799999996,950.0
l37,37,1000000000,1199.0
e86,86,1799999995,1314.0
e69,69,1799999993,1354.0
1908.0
l59,59,999999984,579.0
e82,82,1799999986,960.0
l37,37,999999991,1208.0
e86,86,1799999993,1316.0
e69,69,1799999996,1351.0
1909.0
l59,59,999999982,581.0
e82,82,1799999999,947.0
l37,37,999999990,1209.0
e86,86,1799999998,1311.0
e69,69,1799999998,1349.0
1910.0
l59,59,999999986,577.0
e82,82,1799999998,948.0
l37,37,999999999,1200.0
e86,86,1799999996,1313.0
e69,69,1799999994,1353.0
1911.0
l59,59,999999989,574.0
e82,82,1799999989,957.0
l37,37,999999995,1204.0
e86,86,1799999994,1315.0
e69,69,1799999999,1348.0
1912.0
l59,59,999999987,576.0
e82,82,1799999988,958.0
l37,37,999999994,1205.0
2174.0
l59,59,999999991,572.0
e82,82,1799999992,954.0
l37,37,999999993,1206.0
2175.0
l59,59,999999985,578.0
e82,82,1799999994,952.0
l37,37,999999998,1201.0
2176.0
l59,59,999999998,565.0
e82,82,1799999991,955.0
l37,37,999999989,1210.0
2177.0
l59,59,999999994,569.0
e82,82,1799999990,956.0
l37,37,999999992,1207.0
2178.0
l59,59,999999983,580.0
e82,82,1800000000,946.0
l37,37,999999997,1202.0
2179.0
l58,58,999999981,855.0
r4,4,199999999,1456.0
e95,95,1799999993,1894.0
r21,21,199999998,1987.0
2370.0
l58,58,999999984,852.0
r4,4,200000000,1455.0
e95,95,1799999992,1895.0
r21,21,199999996,1989.0
2371.0
l52,52,999999987,2444.0
3758.0
l52,52,999999981,2450.0
3759.0
l52,52,999999982,2449.0
3760.0
l52,52,999999986,2445.0
3761.0
l58,58,999999993,843.0
l57,57,999999993,1095.0
l52,52,999999963,2603.0
3762.0
l59,59,999999990,573.0
r6,6,199999997,2195.0
l52,52,999999970,2594.0
3763.0
l52,52,999999985,2446.0
3764.0
l52,52,999999973,2458.0
3765.0
r29,29,199999991,1846.0
r30,30,199999985,2136.0
l57,57,999999974,2232.0
r6,6,199999979,2590.0
l52,52,999999967,2597.0
3766.0
l52,52,999999988,2443.0
3767.0
l52,52,999999972,2459.0
3768.0
l52,52,999999979,2452.0
r24,24,199999990,3037.0
r20,20,199999972,3155.0
4009.0
r20,20,199999994,2342.0
4010.0
r20,20,199999986,2350.0
4011.0
l58,58,999999989,847.0
e98,98,1799999996,1408.0
l55,55,999999982,2587.0
e74,74,1799999978,3528.0
r20,20,199999969,3768.0
4012.0
r20,20,199999991,2345.0
4013.0
l58,58,999999992,844.0
l57,57,999999997,1091.0
l52,52,999999964,2602.0
r24,24,199999993,3034.0
r20,20,199999974,3153.0
4014.0
r20,20,199999987,2349.0
4015.0
r20,20,199999996,2340.0
4016.0
l36,36,1000000000,1817.0
r28,28,199999994,2159.0
e86,86,1799999963,3665.0
4415.0
l58,58,999999997,839.0
e98,98,1799999991,1413.0
l55,55,999999998,2077.0
r25,25,199999987,2082.0
e73,73,1799999999,2397.0
e77,77,1799999983,2553.0
e86,86,1799999981,2853.0
4416.0
l58,58,999999998,838.0
e98,98,1799999998,1406.0
l55,55,1000000000,2075.0
r25,25,199999986,2083.0
e73,73,1799999987,2409.0
e77,77,1799999985,2551.0
e86,86,1799999982,2852.0
4417.0
l44,44,999999967,3418.0
l56,56,999999974,3550.0
e86,86,1799999970,3574.0
4418.0
l59,59,999999995,568.0
e82,82,1799999993,953.0
l68,68,999999990,1166.0
r15,15,199999997,2179.0
e90,90,1799999996,2346.0
e86,86,1799999985,2550.0
4419.0
l58,58,999999982,854.0
l56,56,999999996,2084.0
e86,86,1799999973,3571.0
4420.0
l52,52,999999976,2455.0
r24,24,199999992,3035.0
r20,20,199999975,3152.0
l35,35,999999996,3756.0
e74,74,1799999975,3764.0
e86,86,1799999958,3813.0
4421.0
l44,44,999999962,3423.0
l56,56,999999970,3554.0
e86,86,1799999976,3568.0
4422.0
l59,59,999999999,564.0
r25,25,199999997,1352.0
e92,92,1799999996,1660.0
e86,86,1799999986,1802.0
4423.0
l36,36,999999984,1833.0
r28,28,199999995,2158.0
e86,86,1799999965,3663.0
4424.0
l44,44,999999964,3421.0
l56,56,999999973,3551.0
e86,86,1799999978,3566.0
4425.0
l58,58,999999996,840.0
e98,98,1799999997,1407.0
r10,10,199999999,2479.0
r33,33,199999989,2487.0
e77,77,1799999981,2781.0
e86,86,1799999983,2851.0
4426.0
l58,58,999999985,851.0
l57,57,999999999,1089.0
r6,6,199999981,2588.0
l44,44,999999976,3398.0
l56,56,999999972,3552.0
e86,86,1799999972,3572.0
4427.0
r29,29,199999982,1855.0
r30,30,199999986,2135.0
l57,57,999999986,2220.0
r13,13,199999983,2349.0
e84,84,1799999959,3559.0
l45,45,999999982,3828.0
r34,34,199999958,4283.0
4475.0
r29,29,199999990,1847.0
r30,30,199999984,2137.0
l57,57,999999975,2231.0
r34,34,199999967,3526.0
4476.0
r20,20,199999989,2347.0
e84,84,1799999989,2930.0
l45,45,999999976,3834.0
r34,34,199999957,4284.0
4477.0
r6,6,199999956,3381.0
l46,46,999999953,4144.0
r34,34,199999951,4655.0
5198.0
