e94,94,1799999996,6.0
e99,99,1799999997,17.0
r19,19,199999998,722.0
r15,15,199999995,1056.0
1567.0
e94,94,1799999998,4.0
e99,99,1800000000,14.0
r19,19,199999999,721.0
r15,15,199999997,1054.0
1568.0
l42,42,999999987,332.0
r11,11,199999994,568.0
e93,93,1799999993,708.0
r33,33,199999996,995.0
e70,70,1799999998,1092.0
r15,15,199999992,1271.0
1569.0
l42,42,999999994,325.0
r11,11,199999993,569.0
e93,93,1799999991,710.0
e70,70,1799999990,1242.0
r15,15,199999991,1272.0
1570.0
e94,94,1799999999,3.0
e99,99,1799999996,18.0
r19,19,199999996,724.0
r15,15,200000000,1051.0
1571.0
l42,42,999999985,334.0
r11,11,199999998,564.0
e93,93,1799999995,706.0
e70,70,1799999991,1241.0
r15,15,199999989,1274.0
1572.0
l42,42,999999988,331.0
r11,11,199999999,563.0
e93,93,1799999996,705.0
e70,70,1799999994,1238.0
r15,15,199999988,1275.0
1573.0
l42,42,999999998,321.0
r11,11,199999992,570.0
e93,93,1799999994,707.0
e70,70,1799999993,1239.0
r15,15,199999993,1270.0
1574.0
e94,94,1800000000,2.0
e99,99,1799999998,16.0
r19,19,199999995,725.0
r15,15,199999999,1052.0
l59,59,999999999,1509.0
1730.0
l42,42,999999992,327.0
r11,11,199999991,571.0
e93,93,1799999999,702.0
r33,33,199999995,996.0
e70,70,1799999996,1094.0
r15,15,199999994,1269.0
l59,59,999999998,1510.0
1731.0
l42,42,999999996,323.0
r11,11,200000000,562.0
r30,30,199999992,971.0
1821.0
e94,94,1799999995,7.0
e99,99,1799999995,19.0
r19,19,199999997,723.0
r30,30,199999986,1551.0
1822.0
l42,42,999999989,330.0
r11,11,199999995,567.0
e93,93,1799999992,709.0
r33,33,199999994,997.0
r27,27,200000000,1055.0
r30,30,199999987,1227.0
1823.0
l42,42,999999997,322.0
r28,28,199999992,525.0
r11,11,199999990,730.0
r30,30,199999998,965.0
1824.0
e94,94,1799999997,5.0
e99,99,1799999999,15.0
r19,19,200000000,720.0
r30,30,199999985,1552.0
1825.0
l42,42,999999991,328.0
r28,28,200000000,517.0
r27,27,199999987,1216.0
r30,30,199999990,1224.0
1826.0
l42,42,1000000000,319.0
r28,28,199999996,521.0
r27,27,199999989,1214.0
r30,30,199999989,1225.0
1827.0
l42,42,999999999,320.0
l45,45,1000000000,676.0
l49,49,999999994,1084.0
2131.0
l42,42,999999986,333.0
l50,50,999999992,1054.0
r17,17,199999994,1473.0
e80,80,1799999999,1558.0
l61,61,999999983,2011.0
2482.0
r8,8,199999996,637.0
r19,19,199999968,2042.0
e69,69,1799999974,2422.0
r11,11,199999978,2832.0
3074.0
r8,8,199999993,640.0
r19,19,199999969,2041.0
e69,69,1799999972,2424.0
r11,11,199999970,2840.0
3075.0
e101,101,1799999997,1467.0
r17,17,199999978,1775.0
r32,32,199999980,1908.0
e83,83,1799999981,2044.0
e69,69,1799999983,2317.0
r11,11,199999968,2842.0
3076.0
r8,8,199999982,651.0
r19,19,199999965,2045.0
e69,69,1799999971,2425.0
r11,11,199999969,2841.0
3077.0
e101,101,1799999984,1480.0
r19,19,199999975,1717.0
e69,69,1799999969,2427.0
r11,11,199999983,2827.0
3078.0
e101,101,1799999985,1479.0
r19,19,199999979,1713.0
e69,69,1799999968,2428.0
r11,11,199999972,2838.0
3079.0
e101,101,1799999992,1472.0
r19,19,199999974,1718.0
e69,69,1799999976,2420.0
r11,11,199999973,2837.0
3080.0
e101,101,1799999983,1481.0
l39,39,999999973,1990.0
e69,69,1799999966,2554.0
r11,11,199999981,2829.0
3081.0
e101,101,1799999991,1473.0
r19,19,199999977,1715.0
e69,69,1799999967,2429.0
r11,11,199999980,2830.0
3082.0
e101,101,1799999982,1482.0
r9,9,199999990,1551.0
r2,2,199999992,1867.0
e69,69,1799999995,2055.0
r11,11,199999977,2833.0
3083.0
r8,8,199999998,635.0
r19,19,199999966,2044.0
e69,69,1799999973,2423.0
r11,11,199999974,2836.0
3084.0
e101,101,1799999990,1474.0
r19,19,199999971,1721.0
e69,69,1799999970,2426.0
r11,11,199999965,2845.0
3085.0
e101,101,1799999999,1465.0
r17,17,199999975,1778.0
r32,32,199999985,1903.0
e83,83,1799999977,2048.0
e69,69,1799999980,2320.0
r11,11,199999967,2843.0
3086.0
e101,101,1799999988,1476.0
r17,17,199999976,1777.0
r32,32,199999987,1901.0
e83,83,1799999982,2043.0
e69,69,1799999979,2321.0
r11,11,199999979,2831.0
3087.0
e101,101,1799999994,1470.0
r19,19,199999972,1720.0
e69,69,1799999975,2421.0
r11,11,199999982,2828.0
3088.0
e101,101,1799999993,1471.0
r17,17,199999974,1779.0
r32,32,199999986,1902.0
e83,83,1799999979,2046.0
e69,69,1799999981,2319.0
r11,11,199999975,2835.0
3089.0
e101,101,1799999996,1468.0
r17,17,199999980,1773.0
r32,32,199999989,1899.0
e83,83,1799999978,2047.0
e69,69,1799999984,2316.0
r11,11,199999966,2844.0
3090.0
e92,92,1799999983,1392.0
e82,82,1799999975,2488.0
3427.0
e92,92,1799999994,1381.0
e82,82,1799999973,2490.0
3428.0
r21,21,199999979,1875.0
r28,28,199999972,2928.0
e82,82,1799999958,3228.0
3429.0
e92,92,1799999993,1382.0
e82,82,1799999974,2489.0
3430.0
e92,92,1799999987,1388.0
e82,82,1799999980,2483.0
3431.0
e92,92,1799999991,1384.0
e82,82,1799999979,2484.0
3432.0
r21,21,199999970,1884.0
r28,28,199999976,2924.0
e82,82,1799999960,3226.0
3433.0
e75,75,1799999984,1518.0
e82,82,1799999965,2565.0
3434.0
e76,76,1799999988,1833.0
r9,9,199999985,2072.0
r15,15,199999984,2443.0
3660.0
e76,76,1799999992,1829.0
r9,9,199999983,2074.0
r15,15,199999976,2451.0
3661.0
e76,76,1799999997,1824.0
r9,9,199999989,2068.0
r15,15,199999981,2446.0
3662.0
e76,76,1799999994,1827.0
r3,3,199999961,3559.0
e69,69,1799999957,3795.0
4077.0
r8,8,199999984,649.0
l48,48,999999980,2642.0
r25,25,199999974,3025.0
e76,76,1799999968,3412.0
r3,3,199999963,3557.0
e69,69,1799999956,3796.0
4078.0
r21,21,199999971,1883.0
l39,39,999999958,2978.0
4140.0
