l55,55,999999999,179.0
r2,2,199999996,470.0
e83,83,1799999995,575.0
965.0
l55,55,1000000000,178.0
r2,2,199999999,467.0
e83,83,1799999996,574.0
966.0
l55,55,999999997,181.0
r2,2,199999997,469.0
e83,83,1799999997,573.0
967.0
l55,55,999999995,183.0
r2,2,199999995,471.0
e83,83,1799999999,571.0
968.0
l55,55,999999996,182.0
r2,2,199999998,468.0
e83,83,1800000000,570.0
969.0
l55,55,999999998,180.0
r2,2,200000000,466.0
e83,83,1799999998,572.0
970.0
r9,9,199999986,1598.0
e101,101,1799999979,1693.0
l44,44,999999976,1910.0
2551.0
r16,16,199999997,64.0
e91,91,1799999995,695.0
l61,61,999999990,718.0
r7,7,199999995,901.0
e101,101,1799999989,949.0
l44,44,999999982,1904.0
2552.0
r16,16,199999994,67.0
r24,24,199999994,1409.0
l44,44,999999988,1817.0
2553.0
r16,16,199999993,68.0
r24,24,199999993,1410.0
l44,44,999999994,1811.0
2554.0
r9,9,199999983,1601.0
e101,101,1799999978,1694.0
l44,44,999999983,1903.0
2555.0
r9,9,199999987,1597.0
e101,101,1799999984,1688.0
l44,44,999999980,1906.0
2556.0
r16,16,199999995,66.0
e91,91,1799999999,691.0
l57,57,999999993,871.0
r11,11,199999993,1585.0
e101,101,1799999976,1860.0
l44,44,999999977,1909.0
2557.0
r9,9,199999982,1602.0
e101,101,1799999980,1692.0
l44,44,999999979,1907.0
2558.0
r16,16,199999999,62.0
r24,24,199999991,1412.0
l44,44,999999997,1808.0
2559.0
r16,16,199999988,73.0
r24,24,199999992,1411.0
l44,44,999999992,1813.0
2560.0
r9,9,199999984,1600.0
e101,101,1799999983,1689.0
l44,44,999999985,1901.0
2561.0
r16,16,199999992,69.0
e91,91,1800000000,690.0
r32,32,199999990,1008.0
l42,42,999999987,1217.0
r31,31,199999996,1310.0
l54,54,999999994,1443.0
e101,101,1799999985,1676.0
r24,24,199999988,1800.0
l44,44,999999991,1814.0
2562.0
r16,16,199999989,72.0
r24,24,199999990,1413.0
l44,44,999999995,1810.0
2563.0
r16,16,200000000,61.0
e91,91,1799999997,693.0
r32,32,199999983,1015.0
e101,101,1799999987,1579.0
r24,24,199999989,1799.0
l44,44,999999993,1812.0
2564.0
r16,16,199999991,70.0
e91,91,1799999993,697.0
l61,61,999999991,717.0
r7,7,199999996,900.0
e101,101,1799999988,950.0
l44,44,999999987,1899.0
2565.0
r9,9,199999989,1595.0
e101,101,1799999982,1690.0
l44,44,999999978,1908.0
2566.0
r16,16,199999990,71.0
e96,96,1799999998,707.0
e101,101,1799999992,805.0
l44,44,999999986,1900.0
2567.0
r16,16,199999987,74.0
e91,91,1799999987,703.0
r32,32,199999986,1012.0
r13,13,200000000,1103.0
l42,42,999999997,1197.0
e101,101,1799999977,1695.0
l44,44,999999984,1902.0
2568.0
r9,9,199999985,1599.0
e101,101,1799999981,1691.0
l44,44,999999981,1905.0
2569.0
l50,50,999999988,833.0
r7,7,199999981,980.0
e88,88,1799999990,1538.0
3284.0
l50,50,999999979,842.0
r7,7,199999984,977.0
e88,88,1799999984,1544.0
3285.0
l50,50,999999991,830.0
r7,7,199999983,978.0
e88,88,1799999986,1542.0
3286.0
l50,50,999999984,837.0
r7,7,199999985,976.0
e88,88,1799999992,1536.0
3287.0
l50,50,999999978,843.0
r7,7,199999986,975.0
e88,88,1799999994,1534.0
3288.0
e80,80,1799999968,3598.0
l65,65,999999968,3708.0
4074.0
e80,80,1799999956,3610.0
l65,65,999999969,3707.0
4075.0
e80,80,1799999967,3599.0
l65,65,999999964,3712.0
4076.0
e80,80,1799999959,3607.0
l65,65,999999957,3719.0
4077.0
e80,80,1799999961,3605.0
l65,65,999999973,3703.0
4078.0
e80,80,1799999957,3609.0
l65,65,999999962,3714.0
4079.0
e80,80,1799999969,3597.0
l65,65,999999960,3716.0
4080.0
e80,80,1799999970,3596.0
l65,65,999999967,3709.0
4081.0
e80,80,1799999966,3600.0
l65,65,999999959,3717.0
4082.0
e80,80,1799999962,3604.0
l65,65,999999971,3705.0
4083.0
e80,80,1799999965,3601.0
l65,65,999999972,3704.0
4084.0
e80,80,1799999960,3606.0
l65,65,999999956,3720.0
4085.0
e80,80,1799999964,3602.0
l65,65,999999961,3715.0
4086.0
e80,80,1799999963,3603.0
l65,65,999999963,3713.0
4087.0
l50,50,999999980,841.0
r33,33,199999969,3650.0
l65,65,999999954,3854.0
4088.0
l38,38,999999965,2788.0
l45,45,999999963,3331.0
r27,27,199999963,3486.0
r10,10,199999968,3562.0
l53,53,999999967,3999.0
l65,65,999999953,4045.0
4089.0
l50,50,999999983,838.0
r33,33,199999964,3655.0
l65,65,999999955,3853.0
4090.0
e80,80,1799999958,3608.0
l65,65,999999974,3702.0
4091.0
e101,101,1799999959,2494.0
r12,12,199999971,2950.0
r4,4,199999965,3755.0
r9,9,199999961,3766.0
l45,45,999999953,4264.0
4438.0
l57,57,999999973,2168.0
l66,66,999999976,2917.0
e84,84,1799999964,3071.0
l45,45,999999968,3244.0
4439.0
