l52,52,520999995,60873.0
l37,37,520999994,62229.0
3339.0
l52,52,520999991,60877.0
l37,37,522999998,62223.0
3334.0
l52,52,520999990,60878.0
l37,37,520999995,62228.0
3321.0
l52,52,515999987,61505.0
l37,37,520999996,62227.0
3327.0
l52,52,515999986,61506.0
l37,37,523000000,62221.0
3326.0
l52,52,515999988,61504.0
l37,37,518999993,62232.0
3339.0
l52,52,520999997,60871.0
l37,37,520999997,62226.0
3346.0
l52,52,515999983,61509.0
l37,37,522999999,62222.0
3336.0
e96,96,1328999996,61614.0
l57,57,515999999,62570.0
l51,51,509999996,62663.0
r16,16,1000000,63404.0
4209.0
e93,93,1335000000,60583.0
l65,65,511999998,62117.0
e69,69,1309000000,62489.0
r28,28,1000000,63706.0
r16,16,999999,63757.0
4207.0
l52,52,520999998,60870.0
e74,74,1312999996,61279.0
l66,66,513999998,61978.0
e91,91,1305999998,62383.0
4312.0
l52,52,520999996,60872.0
e74,74,1313000000,61275.0
l66,66,513999999,61977.0
e91,91,1306999999,62381.0
4305.0
l52,52,515999985,61507.0
l53,53,501999999,62506.0
e95,95,1303999996,62878.0
e91,91,1303999994,63029.0
4307.0
e96,96,1328999998,61612.0
e74,74,1311999987,61661.0
l66,66,514000000,61976.0
e91,91,1317000000,62370.0
4289.0
l52,52,520999992,60876.0
l53,53,501999990,62515.0
e91,91,1304999996,62589.0
4294.0
l52,52,515999984,61508.0
l53,53,501999991,62514.0
e91,91,1304999997,62588.0
4332.0
e72,72,1301999993,62592.0
e86,86,1301999996,62769.0
l49,49,505999997,62794.0
l45,45,503999993,63205.0
l46,46,489999988,64523.0
4984.0
e72,72,1301999992,62593.0
e86,86,1302999999,62765.0
e94,94,1292999993,63664.0
l46,46,498999997,64448.0
4973.0
e93,93,1334999998,60585.0
e92,92,1318999996,61788.0
l43,43,505999997,63079.0
l47,47,494999989,63448.0
l68,68,498999986,63614.0
e94,94,1294999998,63635.0
l46,46,491999991,64461.0
4968.0
e72,72,1301999995,62590.0
e86,86,1300999995,62771.0
e94,94,1292999992,63665.0
l46,46,491999992,64460.0
5007.0
e72,72,1301999989,62596.0
e85,85,1307999994,63061.0
e101,101,1300999985,63613.0
l42,42,500999993,64218.0
l45,45,500999989,64328.0
l46,46,485999983,64532.0
4967.0
e72,72,1301999990,62595.0
e85,85,1307999992,63063.0
e101,101,1300999984,63614.0
l42,42,500999995,64216.0
l45,45,497999988,64332.0
l46,46,485999984,64531.0
5003.0
e96,96,1327999990,61621.0
e74,74,1311999985,61663.0
l68,68,507999990,62715.0
l49,49,501999989,62903.0
l45,45,503999995,63203.0
l46,46,489999989,64522.0
5005.0
e93,93,1334999996,60587.0
e92,92,1318999997,61787.0
l59,59,508999999,62779.0
e79,79,1300999997,63414.0
l44,44,501999999,63577.0
e94,94,1296999999,63624.0
l46,46,492999993,64458.0
4986.0
e96,96,1327999993,61618.0
l42,42,512999999,63159.0
l45,45,503999990,64324.0
l46,46,491999990,64519.0
5004.0
l52,52,520999994,60874.0
l63,63,508999988,62360.0
l47,47,501999993,62730.0
l68,68,501999987,63610.0
e94,94,1293999995,63639.0
l46,46,495999995,64453.0
4982.0
e96,96,1329000000,61610.0
e98,98,1308999999,62486.0
r21,21,1000000,63837.0
5036.0
l56,56,491999983,64430.0
5346.0
l56,56,491999978,64435.0
5340.0
l56,56,491999977,64436.0
5376.0
l56,56,491999975,64438.0
5348.0
l56,56,491999980,64433.0
5342.0
e96,96,1327999988,61623.0
l57,57,507999992,62585.0
l56,56,492999991,63549.0
5372.0
l56,56,491999985,64428.0
5363.0
l56,56,491999976,64437.0
5356.0
l56,56,491999986,64427.0
5376.0
l56,56,491999979,64434.0
5352.0
l56,56,491999981,64432.0
5360.0
l55,55,496999971,63667.0
l68,68,490999974,64707.0
5687.0
l55,55,495999962,63781.0
l68,68,490999978,64703.0
5656.0
l55,55,496999970,63668.0
l68,68,490999980,64701.0
5675.0
l55,55,497999981,63656.0
l68,68,490999971,64710.0
5679.0
l35,35,501999992,63611.0
e80,80,1306999988,63641.0
e89,89,1300999993,63833.0
e78,78,1294999979,65434.0
7654.0
l67,67,518999996,62520.0
e78,78,1306999994,62567.0
7675.0
l55,55,496999974,63664.0
l48,48,494999987,64776.0
l64,64,488999980,65671.0
l57,57,488999973,65915.0
l35,35,482999966,65924.0
e78,78,1282999963,66767.0
7654.0
l67,67,518999992,62524.0
e78,78,1306999995,62566.0
7698.0
l55,55,495999961,63782.0
l53,53,487999967,64879.0
l37,37,478999967,66520.0
7847.0
l55,55,496999968,63774.0
l53,53,487999968,64878.0
e88,88,1293999976,65231.0
l47,47,484999969,66484.0
8075.0
l67,67,518999989,62527.0
l65,65,493999992,64249.0
e86,86,1265999955,67792.0
l56,56,465999953,68253.0
l61,61,463999953,68809.0
9909.0
e93,93,1275999961,67869.0
l44,44,462999953,68509.0
l62,62,443999951,70373.0
10805.0
