r32,32,999999,60067.0
2314.0
r32,32,1000000,60063.0
2325.0
e81,81,1318000000,61626.0
l50,50,513999993,61914.0
l44,44,522999996,62163.0
l52,52,515999999,62214.0
l37,37,505999999,62339.0
e73,73,1307000000,62587.0
2772.0
l62,62,530999992,60475.0
e89,89,1309999995,62214.0
l49,49,524999999,62606.0
3178.0
l62,62,530999996,60471.0
e89,89,1309999992,62217.0
l49,49,523999997,62609.0
3166.0
l62,62,530999997,60470.0
e89,89,1313999998,62207.0
l49,49,527000000,62603.0
3182.0
r34,34,999994,63372.0
3887.0
r34,34,999992,63383.0
3912.0
r34,34,999988,63417.0
3880.0
r34,34,1000000,63358.0
3920.0
r34,34,999991,63392.0
3907.0
r34,34,999998,63362.0
3897.0
r34,34,999996,63368.0
3891.0
r34,34,999990,63397.0
3887.0
r34,34,999987,63445.0
3915.0
r34,34,999993,63381.0
3922.0
r34,34,999999,63360.0
3887.0
r34,34,999985,63451.0
3895.0
r34,34,999989,63398.0
3910.0
r34,34,999986,63450.0
3919.0
r34,34,999995,63370.0
3897.0
r34,34,999984,63454.0
3885.0
r34,34,999997,63363.0
3932.0
l62,62,530999995,60472.0
l41,41,527999995,61093.0
e85,85,1317000000,61623.0
e94,94,1305999994,62100.0
r25,25,999999,64171.0
4365.0
l62,62,529999989,60479.0
l63,63,523000000,61432.0
e82,82,1321999994,61548.0
e87,87,1304999995,63944.0
l40,40,512999994,64066.0
4929.0
l62,62,530999994,60473.0
e89,89,1309999994,62215.0
e77,77,1305999996,62365.0
l46,46,510999994,62539.0
l40,40,506999989,64284.0
4938.0
l42,42,507999998,61552.0
e85,85,1315999990,61808.0
l40,40,517999997,63935.0
4915.0
l39,39,518999992,61310.0
l53,53,515000000,61688.0
l38,38,508000000,61893.0
e87,87,1309999999,62249.0
l40,40,508999991,64073.0
4917.0
l62,62,530999993,60474.0
l41,41,527999997,61091.0
l57,57,516999999,61446.0
e88,88,1325000000,61694.0
r16,16,1000000,62310.0
e87,87,1306999998,63210.0
l40,40,511999993,64068.0
4935.0
l42,42,507999999,61551.0
e85,85,1315999986,61812.0
l40,40,518000000,63932.0
4947.0
r9,9,999998,63161.0
5114.0
l62,62,530999990,60477.0
l41,41,526999993,61096.0
e85,85,1316999994,61629.0
e94,94,1305999995,62099.0
l58,58,515000000,62164.0
l66,66,512999999,62415.0
r4,4,1000000,63619.0
5469.0
e96,96,1306999986,62751.0
l54,54,497999984,64200.0
l65,65,489999978,64411.0
e88,88,1290999975,65323.0
5575.0
l62,62,530999991,60476.0
e88,88,1311999994,61826.0
5599.0
l42,42,507999985,61565.0
e85,85,1315999989,61809.0
e94,94,1307000000,62093.0
l58,58,514999996,62168.0
l65,65,497999981,64041.0
e88,88,1286999973,65329.0
5591.0
l64,64,515999993,61188.0
e77,77,1292999979,64265.0
l65,65,487999974,64766.0
e88,88,1292999978,65318.0
5616.0
e96,96,1307999995,62741.0
l54,54,498999985,64198.0
l65,65,497999980,64401.0
e88,88,1294999980,65314.0
5574.0
e99,99,1306999998,62235.0
e96,96,1311999998,62668.0
l54,54,497999983,64201.0
l65,65,488999977,64413.0
e88,88,1286999972,65330.0
5597.0
l62,62,529999988,60480.0
e88,88,1299999988,63545.0
5610.0
l64,64,515999994,61187.0
l35,35,526000000,62146.0
r21,21,999999,62638.0
e83,83,1302999993,62796.0
e89,89,1298999988,64062.0
e81,81,1308999980,64073.0
l38,38,492999979,64600.0
l61,61,503999993,64708.0
5950.0
e99,99,1306999990,62243.0
l66,66,501999979,64248.0
l45,45,499999979,64556.0
6056.0
e99,99,1306999993,62240.0
l66,66,500999978,64250.0
l45,45,497999976,64561.0
6063.0
l64,64,514999985,61197.0
e98,98,1295999982,64108.0
l66,66,497999973,64492.0
l45,45,500999981,64553.0
6049.0
l42,42,507999995,61555.0
e85,85,1315999991,61807.0
l45,45,506999996,63486.0
6036.0
l67,67,500999989,64937.0
l44,44,498999978,65076.0
e77,77,1286999969,65144.0
l47,47,481999965,65835.0
6078.0
e77,77,1286999964,65242.0
l47,47,483999970,65828.0
6112.0
l55,55,499999961,64713.0
e91,91,1291999966,65095.0
r18,18,999996,65206.0
l52,52,498999979,65242.0
e80,80,1290999960,66521.0
6652.0
e80,80,1299999974,65322.0
6657.0
e96,96,1307999994,62742.0
l41,41,517999984,62944.0
l57,57,506999987,63640.0
8196.0
l36,36,503999986,64738.0
e95,95,1292999975,65601.0
l57,57,496999980,65645.0
8206.0
