l67,67,526999990,60412.0
l46,46,526999995,60489.0
l40,40,527999994,60706.0
1378.0
l67,67,526999989,60413.0
l46,46,526999994,60490.0
l40,40,529999998,60700.0
1342.0
e76,76,1333999998,60257.0
l40,40,527999991,61134.0
1377.0
l67,67,526999998,60404.0
l46,46,528000000,60483.0
l40,40,529999997,60701.0
1348.0
e76,76,1332999989,60267.0
l40,40,527999988,61137.0
1368.0
e76,76,1333999992,60263.0
l40,40,527999989,61136.0
1362.0
e76,76,1333999999,60256.0
l40,40,527999993,61132.0
1359.0
l67,67,527000000,60402.0
l46,46,526999998,60486.0
l40,40,529999995,60703.0
1362.0
e76,76,1332999988,60268.0
l40,40,527999992,61133.0
1381.0
l67,67,526999992,60410.0
l46,46,527999999,60484.0
l40,40,530000000,60698.0
1356.0
l67,67,526999988,60414.0
l46,46,526999997,60487.0
l40,40,529999999,60699.0
1379.0
e76,76,1333999996,60259.0
l40,40,527999990,61135.0
1388.0
l67,67,526999991,60411.0
l46,46,526999996,60488.0
l40,40,529999996,60702.0
1378.0
l67,67,526999996,60406.0
2240.0
l67,67,526999993,60409.0
2235.0
l67,67,526999999,60403.0
2249.0
l67,67,526999997,60405.0
2245.0
l67,67,526999994,60408.0
2219.0
l67,67,526999995,60407.0
2232.0
e81,81,1306999951,63401.0
e101,101,1306999984,63482.0
3907.0
e81,81,1306999960,63392.0
e101,101,1306999983,63483.0
3895.0
e81,81,1306999965,63387.0
e101,101,1306999993,63473.0
3902.0
e81,81,1306999954,63398.0
e101,101,1306999988,63478.0
3902.0
e81,81,1306999975,63377.0
e101,101,1305999982,63485.0
3910.0
e81,81,1306999952,63400.0
e101,101,1306999985,63481.0
3943.0
e81,81,1306999968,63384.0
e101,101,1306999990,63476.0
3939.0
r32,32,999998,61452.0
e95,95,1315999993,61607.0
l64,64,501999987,63707.0
4486.0
e80,80,1316999993,61603.0
l42,42,509999997,61697.0
l65,65,514999995,63864.0
l64,64,497999982,64119.0
4501.0
r32,32,1000000,60998.0
e95,95,1316999995,61604.0
l64,64,500999985,63710.0
4479.0
e76,76,1333999994,60261.0
e70,70,1316999995,61732.0
e69,69,1305999990,62405.0
l44,44,500999982,64222.0
6280.0
l39,39,504999981,63509.0
r18,18,999996,64141.0
l44,44,491999974,65684.0
6271.0
l57,57,535999991,61593.0
l62,62,512999989,62145.0
l35,35,504999992,63867.0
l49,49,499999983,64071.0
l44,44,484999970,65880.0
6262.0
e76,76,1333999991,60264.0
e70,70,1317000000,61727.0
e69,69,1305999986,62409.0
l44,44,500999983,64221.0
6297.0
l55,55,501999991,63724.0
l44,44,506999988,63981.0
6262.0
l55,55,501999993,63722.0
l44,44,506999989,63980.0
6296.0
l57,57,542000000,61578.0
l44,44,513999997,63738.0
6298.0
l57,57,540999997,61582.0
l44,44,511999994,63743.0
6273.0
l47,47,503999986,63755.0
e91,91,1310999997,64220.0
e83,83,1306999984,64258.0
e92,92,1295999978,65682.0
6440.0
e81,81,1306999963,63389.0
l63,63,506999989,65946.0
r29,29,999996,66135.0
e92,92,1294999974,66254.0
6440.0
l57,57,537999995,61587.0
l62,62,512999994,62140.0
e91,91,1292999981,65729.0
6542.0
e80,80,1316999996,61600.0
l46,46,499999981,64593.0
e74,74,1285999969,65198.0
e91,91,1301999989,65590.0
6544.0
l47,47,503999987,63754.0
e91,91,1310999996,64221.0
6531.0
l47,47,497999981,63766.0
e91,91,1307999993,64227.0
6525.0
e81,81,1306999958,63394.0
l63,63,505999983,65953.0
l65,65,493999975,66428.0
7743.0
l65,65,490999968,66444.0
7767.0
l65,65,488999965,66449.0
7740.0
l56,56,502999985,64186.0
e96,96,1301999979,65420.0
l63,63,504999980,66111.0
l65,65,493999977,66426.0
7747.0
l65,65,490999971,66441.0
7730.0
r2,2,999999,66041.0
7829.0
e70,70,1287999952,63957.0
8628.0
