e70,70,1322999998,60081.0
e72,72,1319000000,60097.0
e92,92,1320999996,60116.0
e78,78,1322000000,60166.0
e88,88,1308000000,61324.0
1497.0
e70,70,1322999997,60082.0
e92,92,1324999999,60109.0
e78,78,1320999999,60168.0
e88,88,1307999999,61325.0
1489.0
r3,3,999998,60535.0
1793.0
r3,3,1000000,60526.0
1814.0
r3,3,999999,60528.0
1813.0
e70,70,1322999999,60080.0
l49,49,525999999,60120.0
e69,69,1312999996,61145.0
2265.0
e70,70,1323000000,60079.0
e72,72,1318999997,60100.0
l49,49,513999996,60137.0
e69,69,1312999997,61144.0
2296.0
r12,12,1000000,61577.0
3390.0
l39,39,520999995,60979.0
e88,88,1305999998,62544.0
4458.0
e82,82,1329999998,60152.0
e89,89,1325000000,60823.0
l42,42,520999997,61067.0
e77,77,1311999996,61161.0
e88,88,1297999987,64362.0
4469.0
e82,82,1329999991,60159.0
e89,89,1324999999,60824.0
l42,42,524000000,61061.0
e77,77,1311999994,61163.0
e88,88,1297999984,64365.0
4490.0
l39,39,520999985,60989.0
e88,88,1304999994,62549.0
4497.0
e82,82,1329999994,60156.0
l52,52,533999995,61927.0
r34,34,1000000,61950.0
e101,101,1309999996,62588.0
e77,77,1299999991,62993.0
e88,88,1297999983,64366.0
4485.0
l39,39,520999992,60982.0
e79,79,1309999986,61843.0
e92,92,1311999994,62986.0
e88,88,1297999989,63156.0
4478.0
l39,39,520999984,60990.0
e88,88,1304999996,62547.0
4493.0
e82,82,1329999993,60157.0
e89,89,1323999998,60826.0
l42,42,520999998,61066.0
e77,77,1311999995,61162.0
e88,88,1297999985,64364.0
4481.0
l39,39,520999982,60992.0
e79,79,1309999987,61842.0
e92,92,1313999995,62983.0
e88,88,1299999990,63153.0
4468.0
e82,82,1329999992,60158.0
e89,89,1322999996,60829.0
l42,42,521999999,61064.0
e77,77,1311999997,61160.0
e88,88,1297999988,64361.0
4472.0
l59,59,511999984,63296.0
l47,47,495999984,63671.0
e101,101,1293999979,63757.0
5101.0
l59,59,511999995,63285.0
l47,47,496999987,63667.0
e101,101,1293999983,63753.0
5103.0
l59,59,511999990,63290.0
l47,47,497999989,63664.0
e101,101,1294999985,63750.0
5114.0
e82,82,1329999989,60161.0
e91,91,1320999997,61538.0
l49,49,492999992,63337.0
e101,101,1295999989,63644.0
5152.0
l59,59,511999992,63288.0
l47,47,495999985,63670.0
e101,101,1294999986,63749.0
5139.0
l59,59,511999988,63292.0
l47,47,494999981,63675.0
e101,101,1293999981,63755.0
5125.0
e82,82,1329999995,60155.0
e91,91,1320999994,61541.0
l49,49,492999989,63340.0
e101,101,1295999988,63645.0
5112.0
l59,59,511999987,63293.0
l47,47,494999982,63674.0
e101,101,1293999982,63754.0
5140.0
l59,59,511999991,63289.0
l47,47,495999986,63669.0
e101,101,1293999980,63756.0
5155.0
l40,40,504999984,63382.0
e74,74,1295999978,64445.0
5230.0
l40,40,504999985,63381.0
e74,74,1295999979,64444.0
5213.0
l39,39,520999986,60988.0
e79,79,1309999991,61838.0
e74,74,1307999994,62806.0
5221.0
e82,82,1329999996,60154.0
e74,74,1303999982,63955.0
5243.0
l40,40,504999982,63384.0
l36,36,500999989,63537.0
e73,73,1291999983,64552.0
6153.0
e83,83,1316999984,61443.0
e73,73,1297999989,64360.0
6147.0
e83,83,1316999992,61435.0
l66,66,489999976,64416.0
e98,98,1312999994,65078.0
e73,73,1278999967,66047.0
6136.0
l40,40,504999976,63390.0
l36,36,499999983,63544.0
e73,73,1295999987,64544.0
6153.0
l39,39,520999994,60980.0
r2,2,1000000,62481.0
l36,36,513000000,63002.0
e73,73,1297999988,64541.0
6164.0
l40,40,504999978,63388.0
l36,36,500999988,63538.0
e73,73,1291999985,64550.0
6175.0
r29,29,999991,64158.0
e69,69,1301999984,64588.0
e94,94,1288999979,66113.0
7073.0
r29,29,999994,64147.0
e69,69,1301999988,64584.0
e94,94,1290999980,66110.0
7111.0
l37,37,507999987,64636.0
l39,39,491999964,65487.0
e91,91,1290999968,65754.0
l50,50,483999965,66525.0
e94,94,1286999975,66990.0
7106.0
r29,29,999997,64142.0
e69,69,1301999986,64586.0
e94,94,1290999984,66106.0
7094.0
e88,88,1284999968,66112.0
7866.0
l39,39,520999990,60984.0
e79,79,1309999994,61835.0
l45,45,491999971,67038.0
l68,68,477999956,67345.0
e88,88,1272999957,67404.0
7857.0
l37,37,507999988,64635.0
r9,9,999998,65293.0
l64,64,491999975,66555.0
e88,88,1264999954,67442.0
7836.0
l57,57,512999983,63715.0
r34,34,999996,64261.0
e80,80,1287999973,65673.0
e88,88,1279999960,67126.0
7840.0
e83,83,1316999983,61444.0
l62,62,483999969,67024.0
l68,68,484999959,67167.0
e88,88,1272999955,67406.0
7836.0
e88,88,1284999965,66115.0
7857.0
l39,39,520999981,60993.0
l68,68,513999994,62773.0
l40,40,494999969,64538.0
e88,88,1290999979,65372.0
7833.0
e100,100,1279999956,66276.0
l50,50,470999954,67951.0
8251.0
l42,42,463999954,68099.0
e98,98,1268999960,69206.0
e99,99,1250999951,70170.0
l54,54,461999957,70593.0
11377.0
