l49,49,528000000,60058.0
l39,39,531000000,60261.0
l52,52,529000000,60665.0
770.0
l49,49,527999999,60059.0
l39,39,529999999,60263.0
l52,52,523999999,60671.0
779.0
r33,33,1000000,60688.0
l47,47,523000000,61182.0
e87,87,1313999999,61253.0
1350.0
r33,33,999998,60690.0
l47,47,521999999,61184.0
e87,87,1314000000,61252.0
1345.0
r33,33,999999,60689.0
l47,47,521999998,61185.0
e87,87,1313999998,61254.0
1313.0
l68,68,536999991,60049.0
e70,70,1319999997,61419.0
l66,66,533999997,61778.0
e71,71,1314999999,62105.0
e74,74,1311999995,62654.0
2690.0
l68,68,536999997,60043.0
l65,65,529999990,60535.0
e99,99,1321999998,61445.0
e74,74,1312999996,61595.0
2686.0
l68,68,537000000,60040.0
r7,7,1000000,60084.0
e74,74,1325000000,60179.0
2719.0
l68,68,536999986,60054.0
e70,70,1319999992,61424.0
l60,60,512999996,61686.0
l66,66,527999991,61935.0
e71,71,1315000000,62104.0
e74,74,1309999994,62657.0
2700.0
l68,68,536999995,60045.0
l65,65,528999987,60539.0
e99,99,1320999995,61449.0
e74,74,1313999999,61591.0
2722.0
l68,68,535999985,60056.0
l65,65,529999991,60534.0
e99,99,1324000000,61441.0
e74,74,1313999997,61593.0
2717.0
l68,68,536999987,60053.0
l65,65,532999998,60524.0
e99,99,1320999994,61450.0
l38,38,518999998,61642.0
e97,97,1302999993,62227.0
3088.0
l68,68,536999998,60042.0
l65,65,532999997,60525.0
e89,89,1327999999,60975.0
e97,97,1309999998,61913.0
3096.0
l68,68,536999994,60046.0
l65,65,529999992,60533.0
e89,89,1324999995,60982.0
e97,97,1305999996,61919.0
3105.0
l68,68,536999999,60041.0
e70,70,1319999991,61425.0
e86,86,1323999999,61500.0
e100,100,1318999999,61820.0
e92,92,1311999991,63150.0
3192.0
l64,64,525999996,61458.0
r13,13,1000000,62581.0
e92,92,1314999993,62789.0
3181.0
l68,68,536999988,60052.0
l65,65,530999994,60530.0
e85,85,1325999990,61009.0
r23,23,999996,63013.0
e100,100,1316999992,63059.0
e92,92,1308999987,63157.0
3198.0
l64,64,525999997,61457.0
r23,23,1000000,62935.0
e100,100,1316999990,63061.0
e92,92,1308999988,63156.0
3181.0
l64,64,525999999,61455.0
r23,23,999999,62937.0
e100,100,1316999991,63060.0
e92,92,1309999990,63153.0
3155.0
l68,68,536999992,60048.0
l65,65,534000000,60521.0
e85,85,1327999994,61003.0
e79,79,1317999990,61141.0
e75,75,1315999999,61432.0
3344.0
l68,68,536999996,60044.0
e70,70,1319999998,61418.0
l41,41,526999997,61672.0
e98,98,1306999986,62557.0
3632.0
e91,91,1327999989,61039.0
r29,29,1000000,61543.0
l39,39,523999997,61787.0
l53,53,511999995,62349.0
e98,98,1317999995,62520.0
3613.0
e91,91,1327999992,61036.0
r29,29,999999,61550.0
l39,39,523999998,61786.0
l53,53,511999997,62347.0
e98,98,1317999993,62522.0
3639.0
l68,68,536999990,60050.0
l65,65,530999996,60528.0
e93,93,1324000000,60717.0
l58,58,506999985,63190.0
e100,100,1304999979,63304.0
e97,97,1294999978,63436.0
e98,98,1289999978,63783.0
4903.0
l68,68,536999989,60051.0
l43,43,515999996,62988.0
e97,97,1294999976,63498.0
e98,98,1289999979,63782.0
4891.0
e93,93,1313999981,62668.0
l58,58,507999992,63182.0
e100,100,1307999983,63297.0
e97,97,1296999989,63423.0
e98,98,1290999983,63777.0
4928.0
e93,93,1313999984,62665.0
l58,58,506999986,63189.0
e100,100,1304999980,63303.0
e97,97,1296999990,63422.0
e98,98,1289999981,63780.0
4915.0
r24,24,999999,62628.0
e79,79,1305999987,62861.0
l61,61,500999986,63316.0
5659.0
e101,101,1303999966,63596.0
l59,59,512999988,64197.0
6067.0
e101,101,1303999970,63592.0
l59,59,512999990,64195.0
6032.0
e91,91,1327999997,61031.0
l59,59,506999968,64798.0
6021.0
e91,91,1326999987,61042.0
l59,59,501999965,64806.0
6044.0
e99,99,1310999984,62439.0
e70,70,1317999980,62550.0
l62,62,508999991,62667.0
l47,47,507999990,62979.0
l59,59,508999973,64574.0
6030.0
l64,64,523999986,61470.0
e95,95,1315000000,61755.0
r28,28,999998,62124.0
l59,59,498999963,65157.0
6068.0
e99,99,1310999986,62437.0
e70,70,1314999978,62555.0
l62,62,508999992,62666.0
l47,47,506999987,62983.0
l59,59,507999970,64578.0
6064.0
e101,101,1303999964,63598.0
l59,59,512999985,64200.0
6058.0
e91,91,1327999996,61032.0
l59,59,501999964,64807.0
6030.0
e91,91,1327999995,61033.0
l59,59,504999966,64802.0
6045.0
e91,91,1326999988,61041.0
l49,49,505999978,62879.0
l47,47,507999992,62919.0
l59,59,511999982,64562.0
6063.0
e101,101,1303999971,63591.0
l59,59,512999987,64198.0
6046.0
e91,91,1327999990,61038.0
l49,49,505999982,62875.0
l47,47,507999991,62920.0
l59,59,510999978,64567.0
6078.0
l41,41,516999977,62595.0
l46,46,518999980,62826.0
e101,101,1303999987,63220.0
l68,68,505999967,63789.0
e86,86,1298999986,64289.0
e88,88,1304999986,64642.0
l35,35,493999977,64727.0
6294.0
e101,101,1303999972,63590.0
l68,68,505999971,63785.0
e86,86,1301999990,64282.0
e88,88,1304999987,64641.0
l35,35,493999975,64729.0
6293.0
e93,93,1312999969,62681.0
l58,58,506999989,63186.0
l53,53,493999983,63730.0
l40,40,504999985,64879.0
l35,35,485999967,66032.0
6304.0
e101,101,1303999979,63583.0
l68,68,505999968,63788.0
e94,94,1282999966,66047.0
l35,35,479999962,66141.0
6322.0
e101,101,1303999975,63587.0
l68,68,503999959,63799.0
e86,86,1301999989,64283.0
e88,88,1301999980,64651.0
l35,35,493999974,64730.0
6332.0
e93,93,1313999983,62666.0
e76,76,1293999962,65049.0
l66,66,486999963,65887.0
e73,73,1276999956,66188.0
e97,97,1285999970,66556.0
e96,96,1280999963,66677.0
6876.0
e99,99,1309999975,62449.0
e101,101,1300999961,65016.0
l50,50,494999975,65218.0
7098.0
e93,93,1313999978,62671.0
e74,74,1304999993,63226.0
l53,53,479999966,66552.0
e100,100,1282999956,66909.0
l36,36,476999955,67266.0
7719.0
e81,81,1293999978,66992.0
e97,97,1271999955,67404.0
l41,41,493999962,67521.0
e82,82,1275999957,67615.0
8244.0
