l38,38,518000000,63550.0
e92,92,1296999984,64073.0
5012.0
e99,99,1316999999,60958.0
l61,61,505999996,62240.0
e88,88,1299999994,63205.0
l42,42,502999998,63237.0
e92,92,1309999998,63294.0
4975.0
l38,38,516999998,63553.0
e92,92,1296999990,64067.0
4997.0
e99,99,1317000000,60957.0
l61,61,505999992,62244.0
e88,88,1299999993,63206.0
l42,42,499999994,63244.0
e92,92,1309999996,63296.0
5021.0
l38,38,516999996,63555.0
e92,92,1296999989,64068.0
5025.0
e99,99,1316999998,60959.0
l61,61,505999997,62239.0
e88,88,1302000000,63197.0
l42,42,500999996,63241.0
e92,92,1305999992,63304.0
4978.0
e99,99,1316999995,60962.0
l61,61,505999993,62243.0
e88,88,1301999997,63200.0
e78,78,1303999991,63385.0
e92,92,1302999991,63894.0
5002.0
l38,38,516999990,63561.0
e92,92,1296999985,64072.0
4989.0
l38,38,516999991,63560.0
e92,92,1296999988,64069.0
4983.0
e99,99,1316999983,60974.0
l61,61,505999995,62241.0
e88,88,1299999991,63208.0
l42,42,504000000,63234.0
e92,92,1309999995,63297.0
5015.0
l38,38,516999999,63552.0
e92,92,1296999987,64070.0
5029.0
e99,99,1316999992,60965.0
l45,45,515999994,62134.0
e98,98,1312999998,62330.0
e82,82,1306999997,62442.0
l41,41,506999996,62671.0
l61,61,501999991,62716.0
e88,88,1301999999,63198.0
l42,42,499999993,63245.0
e92,92,1306999993,63302.0
5011.0
l38,38,516999992,63559.0
e92,92,1296999986,64071.0
4990.0
e99,99,1316999993,60964.0
l61,61,505999999,62237.0
e88,88,1301999998,63199.0
l42,42,499999992,63246.0
e92,92,1309999999,63293.0
5016.0
e99,99,1316999990,60967.0
l61,61,505999998,62238.0
e88,88,1301999996,63201.0
l42,42,502999999,63236.0
e92,92,1306999994,63301.0
5005.0
e99,99,1316999987,60970.0
l61,61,505999994,62242.0
e88,88,1301999995,63202.0
l42,42,500999995,63242.0
e92,92,1309999997,63295.0
5014.0
e99,99,1316999984,60973.0
l61,61,506000000,62236.0
e88,88,1299999992,63207.0
l42,42,500999997,63240.0
e92,92,1310000000,63292.0
5014.0
e99,99,1316999994,60963.0
l38,38,496999981,64805.0
e97,97,1285999977,65670.0
5773.0
e97,97,1291999986,65345.0
5777.0
e97,97,1292999987,65343.0
5803.0
e99,99,1316999997,60960.0
l38,38,496999982,64804.0
e97,97,1284999973,65675.0
5799.0
r21,21,999998,60845.0
e97,97,1317999997,62942.0
5783.0
e97,97,1291999984,65347.0
5786.0
e97,97,1288999980,65354.0
5809.0
e97,97,1289999981,65352.0
5784.0
e97,97,1291999985,65346.0
5780.0
e97,97,1291999982,65349.0
5779.0
e99,99,1316999991,60966.0
l45,45,516000000,62128.0
e98,98,1306999993,62341.0
e82,82,1305999996,62444.0
e79,79,1304999992,63573.0
e78,78,1296999989,64063.0
l49,49,490999992,64630.0
l51,51,502999994,64921.0
e97,97,1293999991,65264.0
5790.0
r21,21,999990,60919.0
e97,97,1317999996,62943.0
5775.0
r21,21,999994,60893.0
r29,29,999998,63313.0
l38,38,499999984,64374.0
e97,97,1284999976,65672.0
5812.0
e97,97,1292999990,65340.0
5805.0
e89,89,1326999998,62190.0
l45,45,503999987,64956.0
e95,95,1281999988,65908.0
6126.0
e89,89,1327000000,62188.0
l45,45,503999990,64953.0
e95,95,1278999984,65915.0
6161.0
e99,99,1316999982,60975.0
e86,86,1289999990,63820.0
e95,95,1287999989,65738.0
6151.0
r21,21,999988,60924.0
l55,55,521999999,61313.0
e100,100,1322000000,62995.0
l35,35,492999997,65213.0
l49,49,476999984,65565.0
l43,43,487999987,66176.0
6831.0
r21,21,999995,60880.0
l55,55,521999995,61317.0
e100,100,1320999999,62997.0
l35,35,494999998,65210.0
l49,49,477999985,65563.0
l43,43,484999984,66182.0
6791.0
l40,40,489999973,65678.0
r15,15,999999,66331.0
l60,60,475999974,66671.0
e90,90,1271999973,66785.0
l62,62,472999974,67061.0
7602.0
l67,67,496999991,64889.0
e85,85,1283999985,66191.0
l39,39,483999981,66532.0
l36,36,470999964,67246.0
l55,55,470999968,67432.0
l62,62,466999969,67540.0
7590.0
l59,59,500999988,65884.0
l36,36,477999977,67090.0
l55,55,471999972,67427.0
7645.0
r7,7,999999,66200.0
e83,83,1280999978,66376.0
l61,61,469999979,67288.0
8665.0
l59,59,500999987,65885.0
e72,72,1270999979,65901.0
e83,83,1276999973,66997.0
l61,61,469999981,67286.0
8689.0
e69,69,1274999974,66885.0
e78,78,1273999970,67199.0
l61,61,468999968,68477.0
8687.0
e96,96,1293999983,66081.0
8701.0
l57,57,482999980,67354.0
e88,88,1271999974,67438.0
e96,96,1282999969,67773.0
8708.0
l40,40,490999978,65672.0
l50,50,468999980,68257.0
8823.0
e69,69,1274999977,66882.0
9478.0
e69,69,1274999978,66881.0
9440.0
e73,73,1268999972,66804.0
l39,39,461999961,68337.0
e69,69,1256999957,69451.0
9467.0
l64,64,468999964,67216.0
10669.0
l52,52,459999953,69485.0
l41,41,456999957,69938.0
e95,95,1247999956,70565.0
11315.0
