l47,47,517999994,61946.0
r28,28,1000000,62016.0
2980.0
l56,56,521999999,61089.0
e72,72,1314999993,61901.0
3370.0
e92,92,1329999996,60117.0
e91,91,1319999999,61285.0
e72,72,1310999987,62816.0
3370.0
l56,56,522000000,61088.0
e72,72,1314999998,61896.0
3378.0
e92,92,1329999994,60119.0
e91,91,1314999997,62265.0
e72,72,1310999988,62815.0
3391.0
r8,8,1000000,60014.0
e92,92,1330000000,60099.0
e91,91,1313999992,62271.0
e72,72,1313999989,62811.0
3396.0
l56,56,519999990,61100.0
e72,72,1314999995,61899.0
3363.0
l56,56,519999987,61103.0
e72,72,1314999990,61904.0
3387.0
l56,56,521999996,61092.0
e72,72,1314999997,61897.0
3398.0
l56,56,519999991,61099.0
e72,72,1315000000,61894.0
3379.0
l56,56,521999997,61091.0
e72,72,1314999996,61898.0
3377.0
e92,92,1329999995,60118.0
e91,91,1314999996,62266.0
e72,72,1309999985,62819.0
3400.0
l56,56,521999993,61095.0
e72,72,1314999999,61895.0
3358.0
l56,56,519999992,61098.0
e72,72,1314999994,61900.0
3364.0
e92,92,1329999992,60121.0
e91,91,1313999993,62270.0
e72,72,1310999986,62817.0
3395.0
l56,56,521999998,61090.0
e72,72,1314999992,61902.0
3392.0
l56,56,519999989,61101.0
e72,72,1314999991,61903.0
3398.0
r2,2,999999,60849.0
l41,41,533000000,61800.0
e82,82,1312000000,62645.0
3505.0
l64,64,520999977,60412.0
l49,49,512999995,61895.0
l42,42,510999993,62710.0
l61,61,503999995,62972.0
e72,72,1306999983,63535.0
l35,35,504999996,64014.0
4507.0
l64,64,520999970,60419.0
l49,49,512999990,61900.0
l42,42,510999990,62713.0
l61,61,504999997,62969.0
e72,72,1298999978,63548.0
l35,35,503999993,64018.0
4520.0
l64,64,523999994,60392.0
r34,34,1000000,62114.0
e83,83,1320999999,62914.0
l60,60,511999997,63187.0
e72,72,1297999975,63552.0
l35,35,504999994,64016.0
4486.0
l64,64,523999998,60388.0
l49,49,512999997,61893.0
l42,42,511999994,62708.0
l61,61,503999996,62971.0
r34,34,999995,64558.0
4827.0
l64,64,523999985,60401.0
r34,34,999999,62117.0
4820.0
e77,77,1324999994,61310.0
e101,101,1314999995,61899.0
e70,70,1294999968,64092.0
r34,34,999994,64814.0
4826.0
l64,64,520999978,60411.0
l49,49,512999993,61897.0
e70,70,1300999974,63398.0
r34,34,999993,64823.0
4834.0
l64,64,520999979,60410.0
l49,49,512999996,61894.0
r34,34,999998,64504.0
4802.0
e77,77,1326000000,61303.0
e101,101,1317000000,61892.0
l48,48,502999998,63413.0
5017.0
e75,75,1315999993,62117.0
r30,30,999998,62830.0
e96,96,1304999982,64407.0
l60,60,506999988,64834.0
5788.0
e100,100,1317999997,62343.0
e96,96,1307999998,63102.0
l60,60,508999993,64827.0
5818.0
e100,100,1316999989,62352.0
e96,96,1305999985,63117.0
l60,60,506999989,64833.0
5817.0
e100,100,1316999990,62351.0
e96,96,1305999987,63115.0
l60,60,509999995,64824.0
5785.0
e100,100,1316999993,62348.0
e96,96,1307999995,63105.0
l60,60,508999992,64828.0
5791.0
l64,64,520999959,60430.0
l66,66,515000000,62363.0
e93,93,1316999999,63765.0
6595.0
l64,64,522999983,60404.0
r30,30,1000000,62598.0
e99,99,1313999995,63812.0
e93,93,1302999985,64213.0
6625.0
e75,75,1315999991,62119.0
e93,93,1285999960,66280.0
6638.0
e75,75,1315999990,62120.0
l36,36,508999991,63712.0
e93,93,1292999969,65214.0
6615.0
e75,75,1315999988,62122.0
l36,36,509999993,63709.0
e93,93,1291999968,65216.0
6615.0
l64,64,520999956,60433.0
l49,49,512999994,61896.0
l42,42,510999991,62712.0
e99,99,1318000000,63110.0
e93,93,1302999987,64211.0
6639.0
e100,100,1316999992,62349.0
e99,99,1313999996,63222.0
e93,93,1302999986,64212.0
6600.0
l64,64,520999953,60436.0
l66,66,512999996,62369.0
e70,70,1305999991,62858.0
l61,61,503999989,63256.0
e83,83,1307999991,63399.0
e97,97,1293999977,65149.0
l40,40,494999969,65251.0
l42,42,493999975,65749.0
r13,13,999997,65764.0
6793.0
l65,65,507999993,63295.0
l48,48,489999986,65172.0
l39,39,487999967,66373.0
6961.0
l64,64,523999996,60390.0
l66,66,511999994,62372.0
e70,70,1305999990,62859.0
l61,61,501999982,63265.0
e83,83,1307999994,63396.0
l39,39,499999984,66242.0
6944.0
l64,64,520999962,60427.0
l49,49,512999991,61899.0
e87,87,1311999992,62992.0
l57,57,507999997,63743.0
7189.0
l44,44,483999955,65740.0
l57,57,498999983,66340.0
7194.0
l65,65,507999990,63298.0
l48,48,489999984,65174.0
7339.0
l64,64,523999989,60397.0
r31,31,999998,65220.0
7581.0
l68,68,506999985,63445.0
l66,66,503999982,64633.0
e80,80,1300999972,64820.0
l61,61,485999959,65995.0
7743.0
l64,64,523999986,60400.0
e89,89,1281999955,66235.0
l61,61,484999955,66498.0
7766.0
l44,44,481999953,65744.0
r28,28,999994,66075.0
l53,53,491999972,66092.0
e89,89,1285999962,66204.0
l61,61,480999952,66505.0
7747.0
e77,77,1324999997,61307.0
l51,51,512999993,62578.0
l41,41,506999981,63915.0
r26,26,999986,67177.0
e92,92,1288999957,67191.0
l61,61,462999951,68873.0
e86,86,1259999953,69101.0
10070.0
