e77,77,1323999971,60030.0
l65,65,514999991,61514.0
2647.0
e77,77,1323999969,60032.0
l65,65,514999995,61510.0
2646.0
e77,77,1323999997,60004.0
l65,65,514999997,61508.0
2677.0
e77,77,1323999999,60002.0
l65,65,513999990,61516.0
2679.0
e77,77,1323999987,60014.0
l65,65,514999998,61507.0
2668.0
e77,77,1323999970,60031.0
l65,65,513999989,61517.0
2651.0
e77,77,1324000000,60001.0
l65,65,513999985,61521.0
2682.0
e77,77,1323999978,60023.0
l65,65,513999987,61519.0
2661.0
e77,77,1323999972,60029.0
l65,65,514999994,61511.0
2659.0
e77,77,1323999992,60009.0
l65,65,513999988,61518.0
2679.0
e77,77,1323999990,60011.0
l65,65,514999993,61512.0
2678.0
e77,77,1323999986,60015.0
l65,65,513999986,61520.0
2673.0
e77,77,1323999989,60012.0
l65,65,514999999,61506.0
2677.0
e76,76,1329999998,60606.0
l68,68,521999995,60652.0
r22,22,1000000,61155.0
l41,41,520000000,61658.0
l65,65,512999984,61710.0
2672.0
e77,77,1323999981,60020.0
l65,65,514999992,61513.0
2671.0
e77,77,1323999985,60016.0
l65,65,515000000,61505.0
2676.0
e77,77,1323999973,60028.0
l65,65,514999996,61509.0
2665.0
e77,77,1323999968,60033.0
r33,33,999999,60578.0
e79,79,1311000000,61521.0
l45,45,515999999,62293.0
3102.0
e77,77,1323999956,60045.0
e97,97,1302999998,62554.0
l45,45,504999990,62765.0
3087.0
e76,76,1327999994,60612.0
l68,68,523999999,60646.0
l47,47,518000000,60662.0
e84,84,1308999997,61572.0
e79,79,1310999998,61675.0
l45,45,516000000,62292.0
3122.0
e76,76,1327999995,60611.0
l68,68,522999998,60648.0
l47,47,517999999,60663.0
e84,84,1308999998,61571.0
e79,79,1309999997,61677.0
l45,45,511999995,62301.0
3109.0
e76,76,1327999996,60610.0
l68,68,521999997,60650.0
l54,54,519999998,61702.0
e74,74,1313999997,61818.0
l58,58,507999998,62394.0
e88,88,1300999995,62585.0
l45,45,510999994,62638.0
3098.0
e77,77,1323999979,60022.0
e97,97,1302999997,62555.0
l45,45,504999992,62763.0
3114.0
e77,77,1323999958,60043.0
e75,75,1322999999,61002.0
l60,60,498999985,63507.0
e100,100,1301999993,63770.0
3776.0
e77,77,1323999974,60027.0
l67,67,511999995,63059.0
e75,75,1309999984,63464.0
l60,60,498999994,63498.0
e100,100,1298999987,63779.0
3793.0
e77,77,1323999961,60040.0
l67,67,512999999,63054.0
e75,75,1310999988,63459.0
l60,60,498999983,63509.0
e100,100,1298999985,63781.0
3781.0
e76,76,1331000000,60603.0
l68,68,524000000,60645.0
l42,42,508000000,62004.0
e86,86,1308999993,62806.0
l66,66,503999991,62904.0
l63,63,511999991,62941.0
l48,48,501999995,63033.0
3898.0
e77,77,1323999965,60036.0
l59,59,529000000,62036.0
l39,39,519999999,62463.0
l48,48,508999999,62519.0
3900.0
e77,77,1323999977,60024.0
l48,48,493999975,63409.0
3917.0
e77,77,1323999980,60021.0
l48,48,493999974,63410.0
3916.0
l68,68,515999992,61941.0
l42,42,507999991,62013.0
l63,63,515999994,62278.0
l66,66,503999987,62936.0
l48,48,501999994,63297.0
3899.0
l68,68,515999989,61944.0
l42,42,507999999,62005.0
l63,63,518999996,62273.0
l48,48,506999998,63025.0
3934.0
l68,68,515999988,61945.0
l42,42,507999997,62007.0
e86,86,1309999997,62801.0
l66,66,503999992,62903.0
l40,40,507000000,63210.0
4195.0
e77,77,1323999976,60025.0
r33,33,999991,62251.0
l40,40,499999988,63913.0
4210.0
l68,68,515999982,61951.0
l42,42,507999996,62008.0
e86,86,1309999994,62804.0
l66,66,504999993,62901.0
l40,40,503999995,63218.0
4189.0
e77,77,1323999984,60017.0
r33,33,999990,62261.0
l40,40,499999985,63916.0
4222.0
e77,77,1323999982,60019.0
r33,33,999984,62302.0
l40,40,499999987,63914.0
4220.0
e77,77,1323999995,60006.0
l43,43,509999999,62540.0
e75,75,1320999994,63350.0
l60,60,498999988,63504.0
l40,40,493999975,64054.0
4232.0
e77,77,1323999966,60035.0
l67,67,511999993,63061.0
e75,75,1312999989,63456.0
4340.0
e77,77,1323999993,60008.0
l67,67,511999994,63060.0
e75,75,1310999987,63460.0
4366.0
e91,91,1312999989,62098.0
e90,90,1305999991,62775.0
e85,85,1303999986,63417.0
l44,44,494999974,64282.0
l68,68,496999973,64739.0
5098.0
e91,91,1312999988,62099.0
e90,90,1306999993,62772.0
e85,85,1305999993,63408.0
l44,44,495999975,64280.0
l68,68,496999972,64740.0
5138.0
e77,77,1323999959,60042.0
l43,43,509999995,62544.0
l44,44,500999985,63629.0
l68,68,496999976,64736.0
5107.0
l68,68,515999981,61952.0
5146.0
l68,68,515999986,61947.0
5148.0
e77,77,1323999967,60034.0
r8,8,999998,63470.0
l37,37,493999979,63709.0
e86,86,1291999975,63789.0
l47,47,487999972,64571.0
5469.0
l57,57,499999989,64595.0
l67,67,496999983,65202.0
l45,45,491999956,65517.0
6614.0
l55,55,488999964,66809.0
e99,99,1278999953,67105.0
7866.0
l55,55,485999962,66814.0
e99,99,1282999962,67092.0
7863.0
l55,55,482999956,66823.0
e99,99,1281999960,67095.0
7865.0
