r26,26,1000000,60322.0
l35,35,525999998,60343.0
e93,93,1320999998,60476.0
e69,69,1334000000,60908.0
1131.0
r26,26,999997,60337.0
l35,35,526000000,60341.0
e93,93,1320999997,60477.0
e69,69,1326999999,60916.0
1085.0
r26,26,999998,60336.0
l35,35,525999999,60342.0
e93,93,1321999999,60474.0
e69,69,1326999998,60917.0
1116.0
r26,26,999996,60338.0
l35,35,525999997,60344.0
e93,93,1323000000,60472.0
e69,69,1320999997,60924.0
1105.0
e77,77,1330999996,60234.0
l50,50,531999999,60314.0
r26,26,999995,60457.0
l63,63,523999999,60482.0
e94,94,1331999997,60621.0
l37,37,525000000,60805.0
l38,38,515999999,60953.0
e70,70,1316000000,61107.0
1561.0
e77,77,1330999984,60246.0
r2,2,999999,61165.0
e71,71,1302999993,62470.0
e75,75,1304999993,62643.0
3039.0
r26,26,999999,60324.0
l63,63,523999997,60484.0
e75,75,1321999998,61415.0
3025.0
e77,77,1330999987,60243.0
r16,16,1000000,61585.0
l44,44,523999995,62699.0
e75,75,1304999992,62776.0
3039.0
e77,77,1330999998,60232.0
l50,50,528999987,60329.0
l53,53,518000000,61299.0
l36,36,529000000,61343.0
l67,67,528999999,61596.0
l51,51,511999997,61811.0
e75,75,1307999994,62115.0
3049.0
e77,77,1330999985,60245.0
e74,74,1329999995,60399.0
e91,91,1318999997,60902.0
e94,94,1312999995,62883.0
e75,75,1302999989,62957.0
3015.0
e77,77,1330999997,60233.0
l50,50,529999989,60326.0
r5,5,1000000,60609.0
l56,56,515000000,61466.0
e97,97,1314000000,61663.0
r16,16,999997,61751.0
l44,44,523999996,62698.0
e75,75,1303999991,62778.0
3041.0
e77,77,1330999988,60242.0
l50,50,532000000,60313.0
e85,85,1333999999,60804.0
l39,39,516999996,62445.0
e91,91,1306999993,62665.0
e94,94,1311999994,62885.0
e75,75,1302999990,62956.0
3024.0
e77,77,1330999986,60244.0
l50,50,530999995,60319.0
e85,85,1333999996,60807.0
l39,39,512999995,62450.0
e91,91,1304999992,62668.0
e94,94,1311999993,62886.0
e75,75,1302999988,62958.0
3048.0
e77,77,1331000000,60230.0
l50,50,529999991,60324.0
l58,58,516999990,61639.0
e99,99,1314999992,62425.0
e79,79,1306999986,62966.0
e73,73,1299999978,63387.0
3462.0
e74,74,1312999965,61163.0
l61,61,518999994,61293.0
l58,58,516999988,61744.0
e99,99,1315999996,62420.0
e79,79,1307999993,62958.0
e73,73,1299999976,63389.0
3431.0
e77,77,1330999999,60231.0
e73,73,1334999999,61072.0
3427.0
e100,100,1314999988,61654.0
e96,96,1318999998,62353.0
e95,95,1307999986,62655.0
e73,73,1318999989,62812.0
3468.0
e98,98,1327999997,61115.0
r12,12,999998,62089.0
e99,99,1312999985,62624.0
e79,79,1306999987,62965.0
e73,73,1299999975,63390.0
3428.0
e98,98,1326999989,61124.0
e93,93,1314999994,61623.0
e73,73,1324999994,62426.0
3457.0
e100,100,1314999984,61658.0
e96,96,1315999992,62362.0
e95,95,1307999989,62652.0
e73,73,1318999992,62809.0
3442.0
e77,77,1330999993,60237.0
e73,73,1333999998,61074.0
3458.0
e98,98,1326999991,61122.0
r12,12,999999,62086.0
e99,99,1313999986,62622.0
e79,79,1307999989,62962.0
e73,73,1299999974,63391.0
3452.0
e77,77,1330999994,60236.0
e73,73,1335000000,61071.0
3458.0
e74,74,1311999955,61174.0
l61,61,518999995,61292.0
l58,58,516999987,61745.0
e99,99,1314999991,62426.0
e79,79,1308999995,62955.0
e73,73,1303999981,63380.0
3431.0
e77,77,1330999990,60240.0
l50,50,529999990,60325.0
e86,86,1333999998,60820.0
e101,101,1315000000,61641.0
l66,66,506999992,61803.0
e79,79,1315999998,61931.0
e73,73,1299999973,63392.0
3479.0
e77,77,1330999995,60235.0
e73,73,1333999996,61076.0
3460.0
e98,98,1328000000,61112.0
e93,93,1315999996,61620.0
e73,73,1322999993,62429.0
3445.0
e100,100,1316999996,61644.0
e96,96,1319000000,62351.0
e95,95,1307999990,62651.0
e73,73,1318999990,62811.0
3436.0
e100,100,1316999995,61645.0
e96,96,1318999997,62354.0
e95,95,1307999988,62653.0
e73,73,1315999986,62818.0
3456.0
e100,100,1315999991,61650.0
e96,96,1312999989,62368.0
e95,95,1309999993,62646.0
e73,73,1316999988,62815.0
3461.0
e74,74,1313999968,61159.0
l61,61,518999992,61295.0
l58,58,516999986,61746.0
e99,99,1314999993,62424.0
e81,81,1308999992,62563.0
l59,59,512999994,63180.0
3600.0
e77,77,1330999983,60247.0
l50,50,531999997,60316.0
l58,58,518999995,61632.0
e99,99,1313999987,62431.0
e81,81,1308999991,62564.0
l59,59,515999996,63175.0
3592.0
e74,74,1312999966,61162.0
3753.0
e74,74,1315999989,61136.0
3764.0
e74,74,1315999992,61133.0
3761.0
e74,74,1311999959,61170.0
3741.0
e74,74,1311999952,61177.0
3732.0
e74,74,1311999963,61166.0
3747.0
e74,74,1313999974,61153.0
3747.0
e74,74,1314999981,61145.0
3759.0
e74,74,1315999983,61142.0
3742.0
e74,74,1315999984,61141.0
3764.0
e74,74,1315999990,61135.0
3735.0
e74,74,1315999986,61139.0
3757.0
e74,74,1314999982,61144.0
3768.0
e74,74,1315999994,61131.0
3739.0
e74,74,1312999964,61164.0
3744.0
e74,74,1311999951,61178.0
3748.0
e74,74,1313999978,61149.0
3781.0
e74,74,1311999962,61167.0
3771.0
