l59,59,526999992,61068.0
e81,81,1322999990,61257.0
l60,60,521999997,61543.0
3744.0
e99,99,1316999994,60878.0
e81,81,1328999997,61070.0
l60,60,521999995,61545.0
3713.0
l68,68,528999999,61929.0
l35,35,512999990,62229.0
e76,76,1307999990,62381.0
e89,89,1314999993,62704.0
l60,60,513999989,62833.0
3708.0
l59,59,522999985,61079.0
e81,81,1322999991,61256.0
l60,60,523000000,61539.0
3740.0
l59,59,525999988,61073.0
e89,89,1327999996,61155.0
l60,60,514999990,62831.0
3743.0
e99,99,1316999998,60874.0
e81,81,1328999996,61071.0
l60,60,521999994,61546.0
3737.0
l59,59,526999990,61070.0
e89,89,1325999995,61158.0
l60,60,511999985,62839.0
3747.0
l59,59,525999989,61072.0
e81,81,1322999992,61255.0
l60,60,521999999,61541.0
3718.0
r13,13,1000000,61098.0
l60,60,518999991,62631.0
3711.0
l59,59,526999996,61064.0
e89,89,1322999994,61162.0
l60,60,511999986,62838.0
3716.0
r13,13,999999,61104.0
l60,60,518999992,62630.0
3710.0
l59,59,526999998,61062.0
e81,81,1322999993,61254.0
l60,60,520999993,61548.0
3729.0
l59,59,526999999,61061.0
e89,89,1330999999,61149.0
l60,60,512999988,62835.0
3731.0
e99,99,1316999990,60882.0
e81,81,1329999999,61067.0
l60,60,521999998,61542.0
3723.0
e99,99,1316999993,60879.0
e81,81,1325999995,61075.0
l60,60,521999996,61544.0
3739.0
l68,68,527999992,61937.0
l35,35,512999992,62227.0
e76,76,1307999993,62378.0
e89,89,1314999992,62705.0
l60,60,511999987,62837.0
3720.0
l68,68,527999991,61938.0
l35,35,514999996,62221.0
e76,76,1307999991,62380.0
l56,56,503999994,63423.0
e78,78,1305999993,63649.0
4204.0
r21,21,1000000,62038.0
e83,83,1309000000,62559.0
e76,76,1299999974,63180.0
l56,56,503999993,63424.0
e78,78,1306999994,63647.0
4186.0
l68,68,527999995,61934.0
e86,86,1306999998,62060.0
e76,76,1301999978,62983.0
l63,63,500999988,63219.0
e78,78,1309999997,63537.0
4230.0
l56,56,517999999,60493.0
l45,45,539999999,60670.0
l41,41,524999999,61401.0
l62,62,523999999,61429.0
e78,78,1311999999,62666.0
4233.0
l68,68,527999997,61932.0
l35,35,513999995,62223.0
e76,76,1307999992,62379.0
l56,56,503999995,63422.0
e78,78,1305999991,63651.0
4196.0
r11,11,999999,61778.0
e87,87,1312999995,62128.0
e98,98,1311999999,62371.0
l57,57,521000000,62464.0
l42,42,500999985,64433.0
e93,93,1303999995,64589.0
4770.0
l52,52,515999992,62617.0
l57,57,506999991,63835.0
l42,42,502999989,64427.0
e93,93,1304999997,64586.0
4759.0
r11,11,999998,61793.0
e94,94,1303999998,63091.0
l65,65,509999997,63668.0
l38,38,497999994,64460.0
l46,46,506999990,64595.0
4765.0
l68,68,529000000,61928.0
l43,43,513999994,62656.0
r10,10,999999,64752.0
5251.0
l59,59,526999995,61065.0
r4,4,999998,64624.0
e97,97,1295999982,64717.0
5308.0
e84,84,1312999994,62167.0
e86,86,1305999995,62543.0
l59,59,515999979,63452.0
r4,4,999997,64626.0
e97,97,1295999983,64716.0
5334.0
l68,68,528999998,61930.0
l35,35,514999997,62220.0
e76,76,1310000000,62369.0
r7,7,999998,62741.0
l57,57,514999997,63001.0
r25,25,1000000,65024.0
6288.0
l68,68,527999996,61933.0
e86,86,1307000000,62058.0
e89,89,1295999966,63558.0
l55,55,504999980,63803.0
6565.0
r21,21,999999,62043.0
e83,83,1308999999,62560.0
l53,53,501999996,63264.0
l55,55,500999976,64423.0
6571.0
e81,81,1304999972,64649.0
l55,55,497999971,65149.0
6601.0
e81,81,1304999970,64651.0
l55,55,497999969,65151.0
6587.0
e84,84,1314000000,62160.0
e86,86,1304999990,62549.0
e89,89,1295999965,63559.0
l55,55,505999987,63795.0
6581.0
e84,84,1312999997,62164.0
e86,86,1304999989,62550.0
e89,89,1295999968,63556.0
l55,55,503999978,63806.0
6588.0
e85,85,1307999981,65200.0
l39,39,493999976,65988.0
l55,55,484999959,66462.0
6602.0
e84,84,1313999999,62161.0
e86,86,1305999993,62545.0
e83,83,1308999998,63167.0
l53,53,501999995,63265.0
l55,55,500999974,64425.0
6578.0
r30,30,1000000,62871.0
r15,15,1000000,63894.0
l55,55,503999977,63936.0
6586.0
e84,84,1312999998,62163.0
e86,86,1305999994,62544.0
e89,89,1295999967,63557.0
l55,55,504999982,63801.0
6602.0
e81,81,1304999971,64650.0
l55,55,497999970,65150.0
6622.0
l52,52,515999979,62630.0
e89,89,1299999973,63532.0
l55,55,505999985,63797.0
6579.0
l52,52,515999986,62623.0
e89,89,1301999979,63524.0
l55,55,505999989,63793.0
6615.0
l52,52,515999982,62627.0
e89,89,1300999974,63530.0
l55,55,505999984,63798.0
6618.0
l68,68,527999990,61939.0
l43,43,515999997,62651.0
l65,65,493999982,66188.0
e98,98,1284999964,66721.0
7474.0
e72,72,1293999960,64220.0
e77,77,1297999984,65170.0
e85,85,1285999953,66556.0
l46,46,491999978,66895.0
e98,98,1273999955,67249.0
7483.0
e81,81,1304999975,64646.0
l40,40,491999965,65289.0
e98,98,1289999973,66601.0
7494.0
e99,99,1317000000,60872.0
e79,79,1305999988,64542.0
l65,65,483999970,66397.0
e98,98,1288999969,66712.0
7508.0
l59,59,527000000,61060.0
r21,21,999998,63102.0
l46,46,488999970,66964.0
e98,98,1273999956,67248.0
7503.0
e81,81,1289999951,65260.0
l40,40,495999974,65276.0
e98,98,1289999972,66602.0
7488.0
e72,72,1293999966,64214.0
e77,77,1297999982,65172.0
e85,85,1288999962,66544.0
l59,59,483999952,67153.0
e84,84,1277999958,68522.0
8636.0
e81,81,1291999958,65251.0
e77,77,1292999966,65571.0
8854.0
