r33,33,1000000,61495.0
e91,91,1314000000,61983.0
l66,66,508000000,62034.0
2833.0
r33,33,999999,61500.0
e91,91,1313999999,61984.0
l66,66,507999998,62036.0
2848.0
r33,33,999998,61503.0
e91,91,1313999998,61985.0
l66,66,507999999,62035.0
2810.0
l47,47,518999994,61538.0
l57,57,517000000,61711.0
l46,46,510999996,61804.0
e98,98,1315000000,62557.0
e101,101,1305000000,62981.0
3665.0
l47,47,517999989,61544.0
l57,57,516999998,61713.0
l46,46,511000000,61800.0
e98,98,1312999999,62560.0
e101,101,1304999999,62982.0
3683.0
r11,11,999995,60455.0
r32,32,999999,60775.0
e74,74,1300999989,63871.0
4236.0
l54,54,528999989,60631.0
e88,88,1313999990,61458.0
l56,56,504999995,62456.0
e74,74,1298999985,64053.0
4212.0
l54,54,530999993,60625.0
e100,100,1324000000,61463.0
e92,92,1319999998,61802.0
e81,81,1316999998,62497.0
e83,83,1321000000,62522.0
e74,74,1306999991,62808.0
4210.0
l54,54,530999991,60627.0
e100,100,1322999997,61467.0
e92,92,1319999999,61801.0
e81,81,1317999999,62495.0
e83,83,1313999998,62531.0
e74,74,1308999993,62804.0
4199.0
l54,54,532999997,60619.0
e88,88,1313999996,61452.0
e97,97,1320999999,61848.0
e75,75,1326999999,62061.0
l48,48,511999999,62301.0
e85,85,1309999995,62543.0
l63,63,507999994,62663.0
e74,74,1311999994,62755.0
4218.0
l54,54,533000000,60616.0
e88,88,1314000000,61448.0
l56,56,502999987,62466.0
e85,85,1308999991,62575.0
l63,63,508999995,62661.0
e74,74,1314000000,62747.0
4226.0
l54,54,528999988,60632.0
e88,88,1313999993,61455.0
e97,97,1317999998,61852.0
e75,75,1321999995,62070.0
l48,48,511999998,62302.0
e85,85,1309999998,62540.0
l63,63,508999997,62659.0
e74,74,1312999999,62749.0
4226.0
l54,54,530999992,60626.0
e88,88,1313999997,61451.0
e97,97,1312999995,61860.0
e75,75,1324999997,62065.0
e85,85,1310000000,62430.0
l63,63,510000000,62655.0
e74,74,1312999998,62750.0
4245.0
l54,54,529999990,60629.0
e88,88,1313999992,61456.0
l56,56,502999989,62464.0
e74,74,1298999986,64052.0
4246.0
l44,44,505999988,62349.0
e95,95,1300999982,63076.0
l39,39,506999984,63368.0
4284.0
l47,47,518999995,61537.0
l39,39,511000000,62037.0
4294.0
l47,47,518999999,61533.0
l39,39,509999995,62043.0
4279.0
l44,44,506999993,62343.0
e95,95,1300999990,63068.0
l39,39,506999986,63366.0
4300.0
l44,44,506999991,62345.0
e95,95,1300999989,63069.0
l39,39,503999983,63372.0
4307.0
l47,47,520000000,61531.0
l39,39,509999993,62045.0
4268.0
l47,47,517999990,61543.0
l39,39,508999990,62049.0
4272.0
l44,44,505999981,62356.0
e95,95,1300999983,63075.0
l39,39,501999979,63378.0
4297.0
l44,44,506999990,62346.0
e95,95,1300999991,63067.0
l39,39,502999982,63374.0
4288.0
l44,44,505999986,62351.0
e95,95,1300999994,63064.0
l39,39,501999980,63377.0
4280.0
l47,47,518999993,61539.0
l39,39,509999998,62040.0
4308.0
l44,44,505999985,62352.0
e95,95,1300999984,63074.0
l39,39,500999978,63380.0
4305.0
l47,47,517999992,61541.0
l39,39,509999994,62044.0
4297.0
l47,47,518999998,61534.0
l39,39,509999997,62041.0
4313.0
l47,47,518999997,61535.0
l39,39,508999988,62051.0
4273.0
l44,44,505999982,62355.0
e95,95,1299999981,63078.0
l39,39,501999981,63376.0
4293.0
l54,54,532999998,60618.0
e100,100,1323999999,61464.0
e92,92,1320000000,61800.0
l52,52,511999999,63107.0
e91,91,1305999993,63295.0
l44,44,501999974,63800.0
l39,39,498999974,64072.0
4283.0
l47,47,518999996,61536.0
l39,39,508999991,62048.0
4286.0
l44,44,505999983,62354.0
e95,95,1299999980,63079.0
l39,39,506999987,63365.0
4286.0
e89,89,1315999993,61429.0
l40,40,517999998,61493.0
l46,46,510999992,62712.0
4441.0
r11,11,999997,60451.0
6344.0
r11,11,999998,60446.0
6321.0
e77,77,1308999987,61911.0
e79,79,1308999999,63240.0
e78,78,1305999986,63865.0
e81,81,1300999983,63875.0
6832.0
e77,77,1308999995,61903.0
e87,87,1293999977,66652.0
e81,81,1288999967,66682.0
6832.0
r2,2,999998,62819.0
l36,36,511000000,62868.0
e80,80,1305999996,63338.0
e81,81,1293999971,66313.0
6843.0
e77,77,1309000000,61898.0
e79,79,1309000000,63239.0
e78,78,1305999990,63861.0
e81,81,1300999984,63874.0
6856.0
r31,31,999990,66222.0
e82,82,1286999961,66399.0
l52,52,484999956,67137.0
e70,70,1285999965,67302.0
7423.0
e77,77,1308999996,61902.0
e70,70,1298999982,65576.0
7437.0
e89,89,1315999995,61427.0
e70,70,1300999987,64364.0
7444.0
l57,57,503999987,64253.0
e94,94,1297999971,64582.0
e100,100,1301999972,64911.0
e70,70,1296999977,65985.0
7410.0
e89,89,1315999987,61435.0
e94,94,1289999961,65611.0
l52,52,487999961,66967.0
e82,82,1275999955,67133.0
7503.0
e77,77,1308999989,61909.0
l49,49,501999993,64000.0
e82,82,1290999965,64881.0
7488.0
e89,89,1316000000,61422.0
e97,97,1311999992,62958.0
e94,94,1297999970,64889.0
l52,52,487999960,66968.0
e82,82,1276999956,67131.0
7484.0
r22,22,999986,68669.0
9647.0
l61,61,486999955,65355.0
e92,92,1298999973,65458.0
e76,76,1282999970,69207.0
l67,67,470999955,69339.0
r22,22,999983,69568.0
9689.0
l46,46,488999967,67457.0
l56,56,483999964,67515.0
e89,89,1277999954,67677.0
l57,57,478999957,67901.0
l37,37,480999968,68149.0
l42,42,467999954,68389.0
e91,91,1275999957,68550.0
10147.0
