3999999
3999999
3999999
3999999
3999999
3999999
3999999
3999999
3999999
19999999
3999999
3999999
3999999
3999999
3999999
3999999
3999999
4761903
3999999
4999999
3999999
3999999
3999999
3999999
6666665
