e94,94,1799999993,32.40000000000019
r25,25,199999972,954.0000000001484
e90,90,1799999976,1712.399999999538
1781.0999999994756
e94,94,1799999969,34.800000000000225
r25,25,199999982,953.0000000001481
e90,90,1799999955,1714.4999999995362
1781.1999999994755
e94,94,1799999987,33.0000000000002
r25,25,199999957,955.5000000001487
e90,90,1799999989,1711.0999999995392
1781.2999999994754
e94,94,1799999978,33.90000000000021
r25,25,199999961,955.1000000001486
e90,90,1799999986,1711.399999999539
1781.3999999994753
e94,94,1799999960,35.70000000000024
r25,25,199999955,955.7000000001487
e90,90,1799999994,1710.5999999995397
1781.4999999994752
e94,94,1799999967,35.00000000000023
r25,25,199999954,955.8000000001488
e90,90,1799999981,1711.8999999995385
1781.5999999994751
e94,94,1799999957,36.00000000000024
r25,25,199999979,953.3000000001482
e90,90,1799999993,1710.6999999995396
1781.699999999475
e94,94,1799999953,36.40000000000025
r25,25,199999958,955.4000000001487
e90,90,1799999978,1712.1999999995382
1781.799999999475
e94,94,1799999961,35.600000000000236
r25,25,199999964,954.8000000001485
e90,90,1799999974,1712.5999999995379
1781.8999999994749
e94,94,1799999971,34.60000000000022
r25,25,199999968,954.4000000001485
e90,90,1800000000,1709.9999999995403
1781.9999999994748
e94,94,1799999997,32.000000000000185
r25,25,199999960,955.2000000001486
e90,90,1799999952,1714.7999999995359
1782.0999999994747
e94,94,1799999995,32.20000000000019
r25,25,199999962,955.0000000001486
e90,90,1799999982,1711.7999999995386
1782.1999999994746
e94,94,1799999956,36.10000000000024
r25,25,199999987,952.500000000148
e90,90,1799999968,1713.1999999995373
1782.2999999994745
e94,94,1799999988,32.9000000000002
r25,25,199999995,951.7000000001478
e90,90,1799999988,1711.1999999995392
1782.3999999994744
e94,94,1799999972,34.50000000000022
r25,25,199999965,954.7000000001485
e90,90,1799999977,1712.2999999995382
1782.4999999994743
e94,94,1799999963,35.40000000000023
r25,25,199999980,953.2000000001482
e90,90,1799999973,1712.6999999995378
1782.5999999994742
e94,94,1799999986,33.1000000000002
r25,25,199999985,952.7000000001481
e90,90,1799999963,1713.6999999995369
1782.6999999994741
e94,94,1799999958,35.90000000000024
r25,25,199999977,953.5000000001482
e90,90,1799999979,1712.0999999995383
1782.799999999474
e94,94,1799999955,36.200000000000244
r25,25,199999993,951.9000000001479
e90,90,1799999969,1713.0999999995374
1782.899999999474
e94,94,1799999994,32.30000000000019
r25,25,199999998,951.4000000001478
e90,90,1799999956,1714.3999999995362
1782.9999999994739
e94,94,1799999974,34.30000000000022
r25,25,199999951,956.1000000001488
e90,90,1799999964,1713.599999999537
1783.0999999994738
e94,94,1799999999,31.800000000000182
r25,25,200000000,951.2000000001477
e90,90,1799999958,1714.1999999995364
1783.1999999994737
e94,94,1799999985,33.2000000000002
r25,25,199999986,952.600000000148
e90,90,1799999984,1711.5999999995388
1783.2999999994736
e94,94,1799999970,34.70000000000022
r25,25,199999984,952.8000000001481
e90,90,1799999997,1710.29999999954
1783.3999999994735
e94,94,1799999998,31.900000000000183
r25,25,199999967,954.5000000001485
e90,90,1799999999,1710.0999999995402
1783.4999999994734
e94,94,1799999952,36.50000000000025
r25,25,199999969,954.3000000001484
e90,90,1799999971,1712.8999999995376
1783.5999999994733
e94,94,1799999981,33.60000000000021
r25,25,199999959,955.3000000001487
e90,90,1799999965,1713.499999999537
1783.6999999994732
e94,94,1799999990,32.700000000000195
r25,25,199999953,955.9000000001488
e90,90,1799999960,1713.9999999995366
1783.7999999994731
e94,94,1799999979,33.80000000000021
r25,25,199999988,952.400000000148
e90,90,1799999954,1714.599999999536
1783.899999999473
e94,94,1800000000,31.70000000000018
r25,25,199999975,953.7000000001483
e90,90,1799999992,1710.7999999995395
1783.999999999473
e94,94,1799999965,35.20000000000023
r25,25,199999956,955.6000000001487
e90,90,1799999972,1712.7999999995377
1784.0999999994729
e94,94,1799999989,32.800000000000196
r25,25,199999996,951.6000000001478
e90,90,1799999983,1711.6999999995387
1784.1999999994728
e94,94,1799999966,35.10000000000023
r25,25,199999971,954.1000000001484
e90,90,1799999975,1712.499999999538
1784.2999999994727
e94,94,1799999973,34.40000000000022
r25,25,199999963,954.9000000001486
e90,90,1799999987,1711.299999999539
1784.3999999994726
e94,94,1799999984,33.3000000000002
r25,25,199999992,952.0000000001479
e90,90,1799999962,1713.7999999995368
1784.4999999994725
e94,94,1799999977,34.00000000000021
r25,25,199999999,951.3000000001477
e90,90,1799999996,1710.39999999954
1784.5999999994724
e94,94,1799999964,35.30000000000023
r25,25,199999973,953.9000000001483
e90,90,1799999990,1710.9999999995393
1784.6999999994723
e94,94,1799999954,36.300000000000246
r25,25,199999989,952.300000000148
e90,90,1799999970,1712.9999999995375
1784.7999999994722
e94,94,1799999980,33.70000000000021
r25,25,199999978,953.4000000001482
e90,90,1799999967,1713.2999999995372
1784.8999999994721
e94,94,1799999968,34.900000000000226
r25,25,199999994,951.8000000001479
e90,90,1799999995,1710.4999999995398
1784.999999999472
e94,94,1799999975,34.200000000000216
r25,25,199999990,952.200000000148
e90,90,1799999991,1710.8999999995394
1785.099999999472
e94,94,1799999982,33.500000000000206
r25,25,199999997,951.5000000001478
e90,90,1799999959,1714.0999999995365
1785.1999999994719
e94,94,1799999996,32.100000000000186
r25,25,199999981,953.1000000001482
e90,90,1799999998,1710.19999999954
1785.2999999994718
e94,94,1799999992,32.50000000000019
r25,25,199999966,954.6000000001485
e90,90,1799999985,1711.4999999995389
1785.3999999994717
e94,94,1799999959,35.80000000000024
r25,25,199999991,952.1000000001479
e90,90,1799999957,1714.2999999995363
1785.4999999994716
e94,94,1799999983,33.400000000000205
r25,25,199999970,954.2000000001484
e90,90,1799999966,1713.3999999995372
1785.5999999994715
e94,94,1799999976,34.100000000000215
r25,25,199999976,953.6000000001483
e90,90,1799999953,1714.699999999536
1785.6999999994714
e94,94,1799999951,36.60000000000025
r25,25,199999983,952.9000000001481
e90,90,1799999980,1711.9999999995384
1785.7999999994713
e94,94,1799999991,32.60000000000019
r25,25,199999952,956.0000000001488
e90,90,1799999951,1714.8999999995358
1785.8999999994712
e94,94,1799999962,35.500000000000234
r25,25,199999974,953.8000000001483
e90,90,1799999961,1713.8999999995367
1785.9999999994711
