e72,72,1799999992,266.69999999999214
e95,95,1799999971,1268.299999999942
l38,38,999999999,1307.9999999999059
l66,66,999999980,1456.199999999771
r21,21,199999985,1542.099999999693
r14,14,199999968,1641.6999999996024
2730.0999999986125
e72,72,1799999991,266.79999999999217
e95,95,1799999984,1266.9999999999432
l38,38,999999990,1308.899999999905
l66,66,999999998,1454.3999999997727
r21,21,200000000,1540.5999999996943
r14,14,199999961,1642.3999999996017
2730.1999999986124
r25,25,199999956,326.8000000000058
l52,52,999999990,905.2000000001373
e70,70,1799999995,966.9000000001513
r28,28,200000000,1289.6999999999225
r21,21,199999960,1612.9999999996285
r14,14,199999998,1638.699999999605
2730.2999999986123
e72,72,1799999984,267.4999999999923
e95,95,1799999989,1266.4999999999436
l38,38,999999980,1309.8999999999041
l66,66,999999965,1457.6999999997697
r21,21,199999998,1540.7999999996941
r14,14,199999969,1641.5999999996025
2730.399999998612
r25,25,199999952,327.2000000000059
l52,52,999999956,908.600000000138
e70,70,1799999990,967.4000000001514
r28,28,199999989,1290.7999999999215
r21,21,199999959,1613.0999999996284
r14,14,199999989,1639.5999999996043
2730.499999998612
e72,72,1799999970,268.89999999999264
e95,95,1799999991,1266.2999999999438
l38,38,999999962,1311.6999999999025
l66,66,999999981,1456.0999999997712
r21,21,199999972,1543.3999999996918
r14,14,199999983,1640.1999999996037
2730.599999998612
e72,72,1799999989,266.9999999999922
e95,95,1799999992,1266.1999999999439
l38,38,999999965,1311.3999999999028
l66,66,999999982,1455.9999999997713
r21,21,199999994,1541.1999999996938
r14,14,199999985,1639.999999999604
2730.699999998612
e72,72,1799999974,268.49999999999255
e95,95,1799999981,1267.2999999999429
l38,38,999999972,1310.6999999999034
l66,66,999999994,1454.7999999997724
r21,21,199999969,1543.6999999996915
r14,14,199999964,1642.099999999602
2730.799999998612
e72,72,1799999987,267.19999999999226
e95,95,1799999966,1268.7999999999415
l38,38,999999967,1311.199999999903
l66,66,999999976,1456.5999999997707
r21,21,199999977,1542.8999999996922
r14,14,199999979,1640.5999999996034
2730.8999999986117
e72,72,1799999966,269.29999999999274
e95,95,1799999972,1268.199999999942
l38,38,999999986,1309.2999999999047
l66,66,999999970,1457.1999999997702
r21,21,199999976,1542.9999999996921
r14,14,199999962,1642.2999999996018
2730.9999999986117
e72,72,1799999986,267.2999999999923
e95,95,1799999973,1268.0999999999422
l38,38,999999978,1310.099999999904
l66,66,999999995,1454.6999999997724
r21,21,199999971,1543.4999999996917
r14,14,199999996,1638.899999999605
2731.0999999986116
e72,72,1799999976,268.2999999999925
e95,95,1799999990,1266.3999999999437
l38,38,999999971,1310.7999999999033
l66,66,999999984,1455.7999999997714
r21,21,199999990,1541.5999999996934
r14,14,199999974,1641.099999999603
2731.1999999986115
e72,72,1799999978,268.09999999999246
e95,95,1799999982,1267.199999999943
l38,38,999999982,1309.6999999999043
l66,66,999999968,1457.39999999977
r21,21,199999980,1542.5999999996925
r14,14,199999991,1639.3999999996045
2731.2999999986114
e72,72,1799999973,268.5999999999926
e95,95,1799999967,1268.6999999999416
l38,38,999999964,1311.4999999999027
l66,66,1000000000,1454.199999999773
r21,21,199999981,1542.4999999996926
r14,14,199999993,1639.1999999996046
2731.3999999986113
e72,72,1799999972,268.6999999999926
e95,95,1799999994,1265.999999999944
l38,38,999999994,1308.4999999999054
l66,66,999999964,1457.7999999997696
r21,21,199999996,1540.999999999694
r14,14,199999986,1639.899999999604
2731.499999998611
e72,72,1799999985,267.3999999999923
e95,95,1799999987,1266.6999999999434
l38,38,999999968,1311.099999999903
l66,66,999999990,1455.199999999772
r21,21,199999974,1543.199999999692
r14,14,199999984,1640.0999999996038
2731.599999998611
e72,72,1799999965,269.39999999999276
e95,95,1799999968,1268.5999999999417
l38,38,999999981,1309.7999999999042
l66,66,999999997,1454.4999999997726
r21,21,199999968,1543.7999999996914
r14,14,200000000,1638.4999999996053
2731.699999998611
e72,72,1799999961,269.79999999999285
e95,95,1799999985,1266.8999999999432
l38,38,999999963,1311.5999999999026
l66,66,999999985,1455.6999999997715
r21,21,199999982,1542.3999999996927
r14,14,199999967,1641.7999999996023
2731.799999998611
e72,72,1799999999,265.999999999992
e95,95,1799999986,1266.7999999999433
l38,38,999999969,1310.9999999999031
l66,66,999999973,1456.8999999997704
r21,21,199999983,1542.2999999996928
r14,14,199999973,1641.1999999996028
2731.899999998611
e72,72,1799999998,266.099999999992
e95,95,1799999995,1265.8999999999442
l38,38,999999961,1311.7999999999024
l66,66,999999979,1456.299999999771
r21,21,199999979,1542.6999999996924
r14,14,199999972,1641.2999999996027
2731.9999999986107
e72,72,1800000000,265.89999999999196
e95,95,1799999996,1265.7999999999442
l38,38,999999984,1309.4999999999045
l66,66,999999989,1455.299999999772
r21,21,199999978,1542.7999999996923
r14,14,199999988,1639.6999999996042
2732.0999999986107
e72,72,1799999975,268.39999999999253
e95,95,1799999988,1266.5999999999435
l38,38,999999996,1308.2999999999056
l66,66,999999978,1456.399999999771
r21,21,199999995,1541.0999999996939
r14,14,199999965,1641.999999999602
2732.1999999986106
e72,72,1799999971,268.7999999999926
e95,95,1799999975,1267.8999999999423
l38,38,999999975,1310.3999999999037
l66,66,999999986,1455.5999999997716
r21,21,199999997,1540.899999999694
r14,14,199999997,1638.799999999605
2732.2999999986105
e72,72,1799999981,267.7999999999924
e95,95,1799999976,1267.7999999999424
l38,38,999999989,1308.999999999905
l66,66,999999988,1455.3999999997718
r21,21,199999992,1541.3999999996936
r14,14,199999971,1641.3999999996026
2732.3999999986104
e72,72,1799999979,267.99999999999244
e95,95,1799999977,1267.6999999999425
l38,38,999999979,1309.999999999904
l66,66,999999975,1456.6999999997706
r21,21,199999989,1541.6999999996933
r14,14,199999977,1640.7999999996032
2732.4999999986103
e72,72,1799999980,267.8999999999924
e95,95,1799999980,1267.3999999999428
l38,38,999999997,1308.1999999999057
l66,66,999999999,1454.2999999997728
r21,21,199999975,1543.099999999692
r14,14,199999963,1642.199999999602
2732.59999999861
e72,72,1799999982,267.6999999999924
e95,95,1799999961,1269.299999999941
l38,38,999999988,1309.0999999999049
l66,66,999999972,1456.9999999997704
r21,21,199999973,1543.2999999996919
r14,14,199999960,1642.4999999996016
2732.69999999861
e72,72,1799999997,266.19999999999203
e95,95,1799999970,1268.3999999999419
l38,38,999999985,1309.3999999999046
l66,66,999999963,1457.8999999997695
r21,21,199999970,1543.5999999996916
r14,14,199999992,1639.2999999996046
2732.79999999861
e72,72,1799999964,269.4999999999928
e95,95,1799999969,1268.4999999999418
l38,38,999999973,1310.5999999999035
l66,66,999999983,1455.8999999997714
r21,21,199999993,1541.2999999996937
r14,14,199999978,1640.6999999996033
2732.89999999861
e72,72,1799999990,266.8999999999922
e95,95,1799999997,1265.6999999999443
l38,38,1000000000,1307.899999999906
l66,66,999999967,1457.49999999977
r21,21,199999961,1544.4999999996908
r14,14,199999987,1639.799999999604
2732.99999999861
e72,72,1799999967,269.1999999999927
e95,95,1799999993,1266.099999999944
l38,38,999999970,1310.8999999999032
l66,66,999999974,1456.7999999997705
r21,21,199999987,1541.8999999996931
r14,14,199999959,1642.5999999996016
2733.0999999986097
e72,72,1799999983,267.59999999999235
e95,95,1799999978,1267.5999999999426
l38,38,999999993,1308.5999999999053
l66,66,999999962,1457.9999999997694
r21,21,199999999,1540.6999999996942
r14,14,199999995,1638.9999999996048
2733.1999999986097
e72,72,1799999995,266.3999999999921
e95,95,1799999963,1269.0999999999412
l38,38,999999998,1308.0999999999058
l66,66,999999987,1455.4999999997717
r21,21,199999988,1541.7999999996932
r14,14,199999990,1639.4999999996044
2733.2999999986096
e72,72,1799999962,269.6999999999928
e95,95,1799999965,1268.8999999999414
l38,38,999999991,1308.7999999999051
l66,66,999999996,1454.5999999997725
r21,21,199999991,1541.4999999996935
r14,14,199999994,1639.0999999996047
2733.3999999986095
e72,72,1799999963,269.5999999999928
e95,95,1799999979,1267.4999999999427
l38,38,999999987,1309.1999999999048
l66,66,999999966,1457.5999999997698
r21,21,199999963,1544.299999999691
r14,14,199999976,1640.899999999603
2733.4999999986094
e72,72,1799999996,266.29999999999205
e95,95,1800000000,1265.3999999999446
l38,38,999999977,1310.1999999999039
l66,66,999999977,1456.4999999997708
r21,21,199999967,1543.8999999996913
r14,14,199999981,1640.3999999996036
2733.5999999986093
e72,72,1799999993,266.5999999999921
e95,95,1799999983,1267.099999999943
l38,38,999999974,1310.4999999999036
l66,66,999999961,1458.0999999997694
r21,21,199999984,1542.1999999996929
r14,14,199999966,1641.8999999996022
2733.699999998609
e72,72,1799999988,267.09999999999224
e95,95,1799999962,1269.1999999999412
l38,38,999999983,1309.5999999999044
l66,66,999999992,1454.9999999997722
r21,21,199999965,1544.0999999996911
r14,14,199999975,1640.999999999603
2733.799999998609
e72,72,1799999968,269.0999999999927
e95,95,1799999999,1265.4999999999445
l38,38,999999992,1308.6999999999052
l66,66,999999993,1454.8999999997723
r21,21,199999966,1543.9999999996912
r14,14,199999970,1641.4999999996026
2733.899999998609
e72,72,1799999969,268.99999999999267
e95,95,1799999998,1265.5999999999444
l38,38,999999995,1308.3999999999055
l66,66,999999969,1457.29999999977
r21,21,199999964,1544.199999999691
r14,14,199999999,1638.5999999996052
2733.999999998609
e72,72,1799999977,268.1999999999925
e95,95,1799999964,1268.9999999999413
l38,38,999999976,1310.2999999999038
l66,66,999999991,1455.099999999772
r21,21,199999986,1541.999999999693
r14,14,199999982,1640.2999999996036
2734.099999998609
e72,72,1799999994,266.4999999999921
e95,95,1799999974,1267.9999999999422
l38,38,999999966,1311.2999999999029
l66,66,999999971,1457.0999999997703
r21,21,199999962,1544.3999999996909
r14,14,199999980,1640.4999999996035
2734.1999999986087
r25,25,199999954,327.00000000000585
r30,30,199999983,702.7000000000912
3498.3999999979137
r25,25,199999958,326.60000000000576
r30,30,199999993,701.700000000091
3498.4999999979136
r25,25,199999960,326.4000000000057
r30,30,199999954,705.6000000000919
3498.5999999979135
r25,25,199999955,326.90000000000583
r30,30,199999976,703.4000000000914
3498.6999999979134
r25,25,199999953,327.1000000000059
r30,30,199999957,705.3000000000918
3498.7999999979133
r25,25,199999951,327.3000000000059
r30,30,199999991,701.900000000091
3498.8999999979133
r25,25,199999957,326.7000000000058
r30,30,199999997,701.3000000000909
3498.999999997913
r25,25,199999959,326.50000000000574
r30,30,199999951,705.900000000092
3499.099999997913
