l56,56,999999994,170.99999999999457
r34,34,199999997,589.9000000000656
e75,75,1799999965,839.8000000001224
1603.7999999996368
l56,56,999999990,171.39999999999455
r34,34,199999985,591.1000000000658
e75,75,1799999958,840.5000000001226
1603.8999999996367
l56,56,999999971,173.29999999999444
r34,34,199999971,592.5000000000662
e75,75,1799999984,837.900000000122
1603.9999999996367
l56,56,999999978,172.59999999999448
r34,34,199999983,591.3000000000659
e75,75,1799999969,839.4000000001223
1604.0999999996366
l56,56,999999951,175.29999999999433
r34,34,199999954,594.2000000000666
e75,75,1799999989,837.4000000001218
1604.1999999996365
l56,56,999999977,172.69999999999447
r34,34,199999993,590.3000000000657
e75,75,1799999982,838.100000000122
1604.2999999996364
l56,56,999999959,174.49999999999437
r34,34,199999976,592.000000000066
e75,75,1799999996,836.7000000001217
1604.3999999996363
l56,56,999999956,174.79999999999436
r34,34,199999984,591.2000000000659
e75,75,1800000000,836.3000000001216
1604.4999999996362
l56,56,999999955,174.89999999999435
r34,34,199999963,593.3000000000663
e75,75,1799999963,840.0000000001224
1604.599999999636
l56,56,1000000000,170.3999999999946
r34,34,199999961,593.5000000000664
e75,75,1799999980,838.300000000122
1604.699999999636
l56,56,999999966,173.7999999999944
r34,34,199999987,590.9000000000658
e75,75,1799999974,838.9000000001222
1604.799999999636
l56,56,999999975,172.89999999999446
r34,34,199999953,594.3000000000666
e75,75,1799999981,838.200000000122
1604.8999999996358
l56,56,999999967,173.69999999999442
r34,34,199999994,590.2000000000656
e75,75,1799999960,840.3000000001225
1604.9999999996357
l56,56,999999986,171.79999999999453
r34,34,199999973,592.3000000000661
e75,75,1799999973,839.0000000001222
1605.0999999996357
l56,56,999999957,174.69999999999436
r34,34,199999965,593.1000000000663
e75,75,1799999999,836.4000000001216
1605.1999999996356
l56,56,999999996,170.79999999999458
r34,34,199999967,592.9000000000663
e75,75,1799999971,839.2000000001223
1605.2999999996355
l56,56,999999974,172.99999999999446
r34,34,199999998,589.8000000000656
e75,75,1799999956,840.7000000001226
1605.3999999996354
l56,56,999999969,173.49999999999443
r34,34,199999992,590.4000000000657
e75,75,1799999978,838.5000000001221
1605.4999999996353
l56,56,999999999,170.4999999999946
r34,34,199999959,593.7000000000664
e75,75,1799999964,839.9000000001224
1605.5999999996352
l56,56,999999982,172.1999999999945
r34,34,199999988,590.8000000000658
e75,75,1799999961,840.2000000001225
1605.699999999635
l56,56,999999962,174.1999999999944
r34,34,199999958,593.8000000000665
e75,75,1799999962,840.1000000001225
1605.799999999635
l56,56,999999958,174.59999999999437
r34,34,199999970,592.6000000000662
e75,75,1799999959,840.4000000001225
1605.899999999635
l56,56,999999960,174.39999999999438
r34,34,199999975,592.1000000000661
e75,75,1799999992,837.1000000001218
1605.9999999996348
l56,56,999999998,170.5999999999946
r34,34,199999960,593.6000000000664
e75,75,1799999954,840.9000000001226
1606.0999999996347
l56,56,999999995,170.89999999999458
r34,34,199999977,591.900000000066
e75,75,1799999955,840.8000000001226
1606.1999999996347
l56,56,999999988,171.59999999999454
r34,34,199999974,592.2000000000661
e75,75,1799999990,837.3000000001218
1606.2999999996346
l56,56,999999997,170.6999999999946
r34,34,199999951,594.5000000000666
e75,75,1799999986,837.7000000001219
1606.3999999996345
l56,56,999999953,175.09999999999434
r34,34,199999966,593.0000000000663
e75,75,1799999972,839.1000000001222
1606.4999999996344
l56,56,999999991,171.29999999999455
r34,34,199999956,594.0000000000665
e75,75,1799999983,838.000000000122
1606.5999999996343
l56,56,999999963,174.0999999999944
r34,34,199999957,593.9000000000665
e75,75,1799999970,839.3000000001223
1606.6999999996342
l56,56,999999973,173.09999999999445
r34,34,199999968,592.8000000000662
e75,75,1799999976,838.7000000001221
1606.799999999634
l56,56,999999980,172.3999999999945
r34,34,199999964,593.2000000000663
e75,75,1799999966,839.7000000001224
1606.899999999634
l56,56,999999964,173.9999999999944
r34,34,199999990,590.6000000000657
e75,75,1799999977,838.6000000001221
1606.999999999634
l56,56,999999954,174.99999999999434
r34,34,199999980,591.600000000066
e75,75,1799999998,836.5000000001216
1607.0999999996338
l56,56,999999981,172.2999999999945
r34,34,199999999,589.7000000000655
e75,75,1799999988,837.5000000001219
1607.1999999996337
l56,56,999999985,171.89999999999452
r34,34,199999952,594.4000000000666
e75,75,1799999995,836.8000000001217
1607.2999999996337
l56,56,999999976,172.79999999999447
r34,34,199999995,590.1000000000656
e75,75,1799999952,841.1000000001227
1607.3999999996336
l56,56,999999961,174.29999999999438
r34,34,199999982,591.4000000000659
e75,75,1799999975,838.8000000001222
1607.4999999996335
l56,56,999999952,175.19999999999433
r34,34,199999955,594.1000000000665
e75,75,1799999979,838.4000000001221
1607.5999999996334
l56,56,999999968,173.59999999999442
r34,34,199999979,591.700000000066
e75,75,1799999987,837.6000000001219
1607.6999999996333
l56,56,999999992,171.19999999999456
r34,34,199999972,592.4000000000661
e75,75,1799999957,840.6000000001226
1607.7999999996332
l56,56,999999983,172.0999999999945
r34,34,199999989,590.7000000000658
e75,75,1799999968,839.5000000001223
1607.899999999633
l56,56,999999970,173.39999999999444
r34,34,199999986,591.0000000000658
e75,75,1799999997,836.6000000001217
1607.999999999633
l56,56,999999979,172.4999999999945
r34,34,199999991,590.5000000000657
e75,75,1799999994,836.9000000001217
1608.099999999633
l56,56,999999984,171.99999999999451
r34,34,199999978,591.800000000066
e75,75,1799999991,837.2000000001218
1608.1999999996328
l56,56,999999987,171.69999999999453
r34,34,199999962,593.4000000000664
e75,75,1799999953,841.0000000001227
1608.2999999996327
l56,56,999999965,173.8999999999944
r34,34,199999996,590.0000000000656
e75,75,1799999951,841.2000000001227
1608.3999999996327
l56,56,999999972,173.19999999999445
r34,34,200000000,589.6000000000655
e75,75,1799999967,839.6000000001223
1608.4999999996326
l56,56,999999993,171.09999999999457
r34,34,199999969,592.7000000000662
e75,75,1799999985,837.8000000001219
1608.5999999996325
l56,56,999999989,171.49999999999454
r34,34,199999981,591.5000000000659
e75,75,1799999993,837.0000000001218
1608.6999999996324
