l43,43,999999952,626.6000000000739
r34,34,199999952,1255.199999999954
1267.5999999999426
l43,43,999999993,622.500000000073
r34,34,199999958,1254.5999999999544
1267.6999999999425
l43,43,999999982,623.6000000000732
r34,34,199999975,1252.899999999956
1267.7999999999424
l43,43,999999998,622.0000000000729
r34,34,199999999,1250.4999999999582
1267.8999999999423
l43,43,999999968,625.0000000000736
r34,34,199999966,1253.7999999999552
1267.9999999999422
l43,43,999999992,622.600000000073
r34,34,199999986,1251.799999999957
1268.0999999999422
l43,43,999999951,626.7000000000739
r34,34,199999982,1252.1999999999566
1268.199999999942
l43,43,999999956,626.2000000000738
r34,34,199999988,1251.5999999999572
1268.299999999942
l43,43,999999983,623.5000000000732
r34,34,199999961,1254.2999999999547
1268.3999999999419
l43,43,999999975,624.3000000000734
r34,34,199999962,1254.1999999999548
1268.4999999999418
l43,43,999999957,626.1000000000738
r34,34,199999989,1251.4999999999573
1268.5999999999417
l43,43,999999981,623.7000000000733
r34,34,199999960,1254.3999999999546
1268.6999999999416
l43,43,999999989,622.9000000000731
r34,34,199999994,1250.9999999999577
1268.7999999999415
l43,43,999999991,622.700000000073
r34,34,199999974,1252.999999999956
1268.8999999999414
l43,43,999999980,623.8000000000733
r34,34,199999957,1254.6999999999543
1268.9999999999413
l43,43,999999963,625.5000000000737
r34,34,200000000,1250.3999999999583
1269.0999999999412
l43,43,999999967,625.1000000000736
r34,34,199999977,1252.6999999999562
1269.1999999999412
l43,43,999999984,623.4000000000732
r34,34,199999998,1250.599999999958
1269.299999999941
l43,43,999999976,624.2000000000734
r34,34,199999967,1253.6999999999553
1269.399999999941
l43,43,999999985,623.3000000000732
r34,34,199999972,1253.1999999999557
1269.4999999999409
l43,43,999999969,624.9000000000735
r34,34,199999965,1253.899999999955
1269.5999999999408
l43,43,999999958,626.0000000000738
r34,34,199999976,1252.799999999956
1269.6999999999407
l43,43,999999961,625.7000000000737
r34,34,199999991,1251.2999999999574
1269.7999999999406
l43,43,999999972,624.6000000000735
r34,34,199999973,1253.0999999999558
1269.8999999999405
l43,43,999999953,626.5000000000739
r34,34,199999954,1254.999999999954
1269.9999999999404
l43,43,999999971,624.7000000000735
r34,34,199999963,1254.099999999955
1270.0999999999403
l43,43,999999994,622.400000000073
r34,34,199999964,1253.999999999955
1270.1999999999402
l43,43,999999978,624.0000000000733
r34,34,199999990,1251.3999999999573
1270.2999999999402
l43,43,1000000000,621.8000000000728
r34,34,199999981,1252.2999999999565
1270.39999999994
l43,43,999999999,621.9000000000729
r34,34,199999971,1253.2999999999556
1270.49999999994
l43,43,999999974,624.4000000000734
r34,34,199999983,1252.0999999999567
1270.5999999999399
l43,43,999999965,625.3000000000736
r34,34,199999980,1252.3999999999564
1270.6999999999398
l43,43,999999977,624.1000000000734
r34,34,199999978,1252.5999999999563
1270.7999999999397
l43,43,999999995,622.3000000000729
r34,34,199999992,1251.1999999999575
1270.8999999999396
l43,43,999999954,626.4000000000739
r34,34,199999979,1252.4999999999563
1270.9999999999395
l43,43,999999973,624.5000000000734
r34,34,199999984,1251.9999999999568
1271.0999999999394
l43,43,999999997,622.1000000000729
r34,34,199999955,1254.8999999999542
1271.1999999999393
l43,43,999999959,625.9000000000738
r34,34,199999951,1255.2999999999538
1271.2999999999392
l43,43,999999966,625.2000000000736
r34,34,199999987,1251.699999999957
1271.3999999999392
l43,43,999999986,623.2000000000731
r34,34,199999970,1253.3999999999555
1271.499999999939
l43,43,999999962,625.6000000000737
r34,34,199999968,1253.5999999999553
1271.599999999939
l43,43,999999987,623.1000000000731
r34,34,199999956,1254.7999999999543
1271.6999999999389
l43,43,999999970,624.8000000000735
r34,34,199999953,1255.099999999954
1271.7999999999388
l43,43,999999964,625.4000000000736
r34,34,199999959,1254.4999999999545
1271.8999999999387
l43,43,999999955,626.3000000000739
r34,34,199999996,1250.799999999958
1271.9999999999386
l43,43,999999979,623.9000000000733
r34,34,199999995,1250.8999999999578
1272.0999999999385
l43,43,999999988,623.0000000000731
r34,34,199999969,1253.4999999999554
1272.1999999999384
l43,43,999999996,622.2000000000729
r34,34,199999993,1251.0999999999576
1272.2999999999383
l43,43,999999960,625.8000000000737
r34,34,199999985,1251.899999999957
1272.3999999999382
l43,43,999999990,622.800000000073
r34,34,199999997,1250.699999999958
1272.4999999999382
