r30,30,199999973,243.19999999999047
r20,20,199999980,407.2000000000241
e90,90,1799999996,1069.7000000001226
e74,74,1799999995,1233.7999999999734
1427.0999999997975
r30,30,199999962,244.2999999999904
r20,20,199999956,409.60000000002464
e90,90,1799999986,1070.7000000001217
e74,74,1799999993,1233.9999999999732
1427.1999999997975
r30,30,199999988,241.69999999999055
r20,20,199999967,408.5000000000244
e90,90,1799999978,1071.500000000121
e74,74,1799999987,1234.5999999999726
1427.2999999997974
r30,30,199999971,243.39999999999046
r20,20,199999993,405.9000000000238
e90,90,1799999970,1072.3000000001202
e74,74,1799999976,1235.6999999999716
1427.3999999997973
r30,30,199999953,245.19999999999035
r20,20,199999973,407.90000000002425
e90,90,1799999976,1071.7000000001208
e74,74,1799999983,1234.9999999999723
1427.4999999997972
r30,30,199999982,242.29999999999052
r20,20,199999964,408.80000000002445
e90,90,1799999984,1070.9000000001215
e74,74,1799999964,1236.8999999999705
1427.599999999797
r30,30,199999995,240.9999999999906
r20,20,199999958,409.4000000000246
e90,90,1799999987,1070.6000000001218
e74,74,1799999966,1236.6999999999707
1427.699999999797
r30,30,199999991,241.39999999999057
r20,20,199999976,407.6000000000242
e90,90,1799999983,1071.0000000001214
e74,74,1799999959,1237.39999999997
1427.799999999797
r30,30,199999989,241.59999999999056
r20,20,199999968,408.40000000002436
e90,90,1799999974,1071.9000000001206
e74,74,1799999989,1234.3999999999728
1427.8999999997968
r30,30,199999990,241.49999999999056
r20,20,199999957,409.5000000000246
e90,90,1799999982,1071.1000000001213
e74,74,1799999967,1236.5999999999708
1427.9999999997967
r30,30,199999955,244.99999999999037
r20,20,200000000,405.20000000002364
e90,90,1799999961,1073.2000000001194
e74,74,1799999996,1233.6999999999734
1428.0999999997966
r30,30,199999996,240.8999999999906
r20,20,199999988,406.4000000000239
e90,90,1799999958,1073.5000000001191
e74,74,1799999985,1234.7999999999724
1428.1999999997965
r30,30,199999976,242.89999999999048
r20,20,199999987,406.50000000002393
e90,90,1799999965,1072.8000000001198
e74,74,1799999981,1235.199999999972
1428.2999999997965
r30,30,199999997,240.7999999999906
r20,20,199999997,405.5000000000237
e90,90,1799999981,1071.2000000001212
e74,74,1799999962,1237.0999999999704
1428.3999999997964
r30,30,199999958,244.69999999999038
r20,20,199999977,407.50000000002416
e90,90,1799999971,1072.2000000001203
e74,74,1799999960,1237.2999999999702
1428.4999999997963
r30,30,199999975,242.99999999999048
r20,20,199999984,406.800000000024
e90,90,1800000000,1069.300000000123
e74,74,1799999971,1236.1999999999712
1428.5999999997962
r30,30,199999966,243.89999999999043
r20,20,199999953,409.9000000000247
e90,90,1799999998,1069.5000000001228
e74,74,1799999956,1237.6999999999698
1428.699999999796
r30,30,199999960,244.4999999999904
r20,20,199999971,408.1000000000243
e90,90,1799999980,1071.3000000001211
e74,74,1799999954,1237.8999999999696
1428.799999999796
r30,30,199999952,245.29999999999035
r20,20,199999989,406.3000000000239
e90,90,1799999973,1072.0000000001205
e74,74,1799999991,1234.199999999973
1428.899999999796
r30,30,199999967,243.79999999999043
r20,20,199999983,406.900000000024
e90,90,1799999968,1072.50000000012
e74,74,1799999999,1233.3999999999737
1428.9999999997958
r30,30,199999993,241.19999999999058
r20,20,199999952,410.0000000000247
e90,90,1799999992,1070.1000000001222
e74,74,1799999980,1235.299999999972
1429.0999999997957
r30,30,199999965,243.99999999999042
r20,20,199999979,407.3000000000241
e90,90,1799999967,1072.60000000012
e74,74,1799999953,1237.9999999999695
1429.1999999997956
r30,30,199999986,241.89999999999054
r20,20,199999985,406.700000000024
e90,90,1799999964,1072.9000000001197
e74,74,1799999978,1235.4999999999718
1429.2999999997955
r30,30,199999992,241.29999999999058
r20,20,199999961,409.1000000000245
r24,24,199999976,619.1000000000722
l50,50,999999983,1357.7999999998606
1939.8999999993312
r30,30,199999959,244.5999999999904
r20,20,199999991,406.10000000002384
r24,24,199999995,617.2000000000718
l50,50,999999976,1358.49999999986
1939.999999999331
r30,30,199999963,244.1999999999904
r20,20,199999972,408.0000000000243
r24,24,199999953,621.4000000000727
l50,50,999999969,1359.1999999998593
1940.099999999331
r30,30,199999969,243.59999999999044
r20,20,199999982,407.00000000002404
r24,24,199999966,620.1000000000724
l50,50,999999979,1358.1999999998602
1940.1999999993309
r30,30,199999957,244.79999999999038
r20,20,199999951,410.10000000002475
r24,24,199999997,617.0000000000717
l50,50,1000000000,1356.0999999998621
1940.2999999993308
r30,30,199999999,240.59999999999062
r20,20,199999994,405.8000000000238
r24,24,199999977,619.0000000000722
l50,50,999999999,1356.199999999862
1940.3999999993307
r30,30,199999981,242.3999999999905
r20,20,199999978,407.40000000002414
r24,24,199999992,617.5000000000719
l50,50,999999965,1359.599999999859
1940.4999999993306
r30,30,199999987,241.79999999999055
r20,20,199999986,406.60000000002395
r24,24,199999990,617.7000000000719
l50,50,999999958,1360.2999999998583
1940.5999999993305
r30,30,199999972,243.29999999999046
r20,20,199999955,409.70000000002466
r24,24,199999975,619.2000000000722
l50,50,999999994,1356.6999999998616
1940.6999999993304
r30,30,199999977,242.7999999999905
r20,20,199999995,405.70000000002375
r24,24,199999983,618.400000000072
l50,50,999999980,1358.0999999998603
1940.7999999993303
r30,30,199999979,242.5999999999905
r20,20,199999974,407.8000000000242
r24,24,199999994,617.3000000000718
l50,50,999999982,1357.8999999998605
1940.8999999993302
r30,30,199999985,241.99999999999054
r20,20,199999963,408.9000000000245
r24,24,199999971,619.6000000000723
l50,50,999999968,1359.2999999998592
1940.9999999993302
r30,30,199999951,245.39999999999034
r20,20,199999999,405.30000000002366
r24,24,199999973,619.4000000000723
l50,50,999999972,1358.8999999998596
1941.09999999933
r30,30,199999994,241.0999999999906
r20,20,199999975,407.7000000000242
r24,24,199999998,616.9000000000717
l50,50,999999961,1359.9999999998586
1941.19999999933
r30,30,199999968,243.69999999999044
r20,20,199999962,409.0000000000245
r24,24,199999969,619.8000000000724
l50,50,999999998,1356.299999999862
1941.2999999993299
r30,30,199999961,244.3999999999904
r20,20,199999996,405.6000000000237
r24,24,199999959,620.8000000000726
l50,50,999999954,1360.699999999858
1941.3999999993298
r30,30,199999970,243.49999999999045
r20,20,199999981,407.10000000002407
r24,24,199999986,618.100000000072
l50,50,999999967,1359.3999999998591
1941.4999999993297
r30,30,199999980,242.4999999999905
r20,20,199999965,408.70000000002443
r24,24,199999963,620.4000000000725
l50,50,999999962,1359.8999999998587
1941.5999999993296
r30,30,199999974,243.09999999999047
r20,20,199999966,408.6000000000244
r24,24,199999988,617.9000000000719
l50,50,999999955,1360.599999999858
1941.6999999993295
r30,30,199999983,242.19999999999052
r20,20,199999998,405.4000000000237
r24,24,199999984,618.300000000072
l50,50,999999985,1357.5999999998608
1941.7999999993294
r30,30,199999954,245.09999999999036
r20,20,199999992,406.0000000000238
r24,24,199999980,618.7000000000721
l50,50,999999964,1359.6999999998588
1941.8999999993293
r30,30,199999956,244.89999999999037
r20,20,199999960,409.20000000002454
r24,24,199999974,619.3000000000723
l50,50,999999963,1359.7999999998588
1941.9999999993292
r30,30,199999998,240.6999999999906
r20,20,199999959,409.30000000002457
r24,24,199999979,618.8000000000721
l50,50,999999951,1360.9999999998577
1942.0999999993292
r30,30,199999984,242.09999999999053
r20,20,199999990,406.20000000002386
r24,24,200000000,616.7000000000717
l50,50,999999993,1356.7999999998615
1942.199999999329
r30,30,199999964,244.09999999999042
r20,20,199999970,408.2000000000243
r24,24,199999972,619.5000000000723
l50,50,999999957,1360.3999999998582
1942.299999999329
r30,30,200000000,240.49999999999062
r20,20,199999954,409.8000000000247
r24,24,199999999,616.8000000000717
l50,50,999999987,1357.399999999861
1942.3999999993289
r30,30,199999978,242.6999999999905
r20,20,199999969,408.30000000002434
r24,24,199999951,621.6000000000728
l50,50,999999977,1358.39999999986
1942.4999999993288
