r28,28,199999958,1803.8999999994548
e76,76,1799999998,1923.3999999993462
r16,16,199999974,2212.999999999083
2556.0999999987707
r28,28,199999964,1803.2999999994554
e76,76,1799999961,1927.0999999993428
r16,16,199999975,2212.899999999083
2556.1999999987706
r28,28,199999952,1804.4999999994543
e76,76,1799999985,1924.699999999345
r16,16,199999959,2214.4999999990814
2556.2999999987705
r28,28,199999987,1800.9999999994575
e76,76,1800000000,1923.1999999993463
r16,16,199999995,2210.8999999990847
2556.3999999987705
r28,28,199999986,1801.0999999994574
e76,76,1799999969,1926.2999999993435
r16,16,199999962,2214.1999999990817
2556.4999999987704
r28,28,200000000,1799.6999999994587
e76,76,1799999987,1924.4999999993452
r16,16,199999957,2214.6999999990812
2556.5999999987703
r28,28,199999974,1802.2999999994563
e76,76,1799999981,1925.0999999993446
r16,16,199999972,2213.1999999990826
2556.69999999877
r28,28,199999980,1801.6999999994568
e76,76,1799999990,1924.1999999993454
r16,16,199999993,2211.0999999990845
2556.79999999877
r28,28,199999989,1800.7999999994577
e76,76,1799999983,1924.8999999993448
r16,16,199999951,2215.2999999990807
2556.89999999877
r28,28,199999969,1802.7999999994558
e76,76,1799999976,1925.5999999993442
r16,16,199999992,2211.1999999990844
2556.99999999877
r28,28,199999972,1802.4999999994561
e76,76,1799999953,1927.899999999342
r16,16,199999969,2213.4999999990823
2557.09999999877
r28,28,199999991,1800.5999999994579
e76,76,1799999992,1923.9999999993456
r16,16,199999997,2210.699999999085
2557.1999999987697
r28,28,199999995,1800.1999999994582
e76,76,1799999984,1924.799999999345
r16,16,199999967,2213.699999999082
2557.2999999987696
r28,28,199999960,1803.699999999455
e76,76,1799999959,1927.2999999993426
r16,16,199999979,2212.4999999990832
2557.3999999987695
r28,28,199999962,1803.4999999994552
e76,76,1799999956,1927.5999999993423
r16,16,199999988,2211.599999999084
2557.4999999987695
r28,28,199999970,1802.699999999456
e76,76,1799999995,1923.699999999346
r16,16,199999961,2214.2999999990816
2557.5999999987694
r28,28,199999967,1802.9999999994557
e76,76,1799999967,1926.4999999993433
r16,16,199999956,2214.799999999081
2557.6999999987693
r28,28,199999955,1804.1999999994546
e76,76,1799999979,1925.2999999993444
r16,16,199999960,2214.3999999990815
2557.799999998769
r28,28,199999961,1803.5999999994551
e76,76,1799999988,1924.3999999993453
r16,16,199999999,2210.499999999085
2557.899999998769
r28,28,199999990,1800.6999999994578
e76,76,1799999999,1923.2999999993463
r16,16,199999978,2212.599999999083
2557.999999998769
r28,28,199999971,1802.599999999456
e76,76,1799999973,1925.899999999344
r16,16,199999985,2211.899999999084
2558.099999998769
r28,28,199999999,1799.7999999994586
e76,76,1799999968,1926.3999999993434
r16,16,199999983,2212.0999999990836
2558.199999998769
r28,28,199999976,1802.0999999994565
e76,76,1799999994,1923.7999999993458
r16,16,199999976,2212.799999999083
2558.2999999987687
r28,28,199999973,1802.3999999994562
e76,76,1799999972,1925.9999999993438
r16,16,199999996,2210.799999999085
2558.3999999987686
r28,28,199999988,1800.8999999994576
e76,76,1799999966,1926.5999999993433
r16,16,199999982,2212.1999999990835
2558.4999999987685
r28,28,199999983,1801.3999999994571
e76,76,1799999986,1924.599999999345
r16,16,199999991,2211.2999999990843
2558.5999999987685
r28,28,199999959,1803.799999999455
e76,76,1799999971,1926.0999999993437
r16,16,199999955,2214.899999999081
2558.6999999987684
r28,28,199999982,1801.499999999457
e76,76,1799999970,1926.1999999993436
r16,16,199999984,2211.9999999990837
2558.7999999987683
r28,28,199999966,1803.0999999994556
e76,76,1799999957,1927.4999999993424
r16,16,199999998,2210.599999999085
2558.899999998768
r28,28,199999968,1802.8999999994558
e76,76,1799999977,1925.4999999993443
r16,16,199999952,2215.199999999081
2558.999999998768
r28,28,199999998,1799.8999999994585
e76,76,1799999997,1923.499999999346
r16,16,199999968,2213.5999999990822
2559.099999998768
r28,28,199999957,1803.9999999994548
e76,76,1799999982,1924.9999999993447
r16,16,199999971,2213.2999999990825
2559.199999998768
r28,28,199999985,1801.1999999994573
e76,76,1799999989,1924.2999999993453
r16,16,199999981,2212.2999999990834
2559.299999998768
r28,28,199999965,1803.1999999994555
e76,76,1799999954,1927.7999999993422
r16,16,199999994,2210.9999999990846
2559.3999999987677
r28,28,199999954,1804.2999999994545
e76,76,1799999963,1926.899999999343
r16,16,199999987,2211.699999999084
2559.4999999987676
r28,28,199999978,1801.8999999994567
e76,76,1799999951,1928.099999999342
r16,16,199999986,2211.799999999084
2559.5999999987675
r28,28,199999953,1804.3999999994544
e76,76,1799999958,1927.3999999993425
r16,16,199999954,2214.999999999081
2559.6999999987675
r28,28,199999981,1801.599999999457
e76,76,1799999975,1925.699999999344
r16,16,200000000,2210.399999999085
2559.7999999987674
r28,28,199999951,1804.5999999994542
e76,76,1799999965,1926.6999999993432
r16,16,199999966,2213.799999999082
2559.8999999987673
r28,28,199999996,1800.0999999994583
e76,76,1799999960,1927.1999999993427
r16,16,199999990,2211.3999999990842
2559.999999998767
r28,28,199999975,1802.1999999994564
e76,76,1799999991,1924.0999999993455
r16,16,199999970,2213.3999999990824
2560.099999998767
r28,28,199999992,1800.499999999458
e76,76,1799999974,1925.799999999344
r16,16,199999953,2215.099999999081
2560.199999998767
r28,28,199999984,1801.2999999994572
e76,76,1799999962,1926.999999999343
r16,16,199999977,2212.699999999083
2560.299999998767
r28,28,199999993,1800.399999999458
e76,76,1799999955,1927.6999999993423
r16,16,199999989,2211.499999999084
2560.399999998767
r28,28,199999963,1803.3999999994553
e76,76,1799999964,1926.799999999343
r16,16,199999973,2213.0999999990827
2560.4999999987667
r28,28,199999979,1801.7999999994568
e76,76,1799999996,1923.599999999346
r16,16,199999965,2213.899999999082
2560.5999999987666
r28,28,199999977,1801.9999999994566
e76,76,1799999993,1923.8999999993457
r16,16,199999964,2213.999999999082
2560.6999999987665
r28,28,199999994,1800.2999999994581
e76,76,1799999980,1925.1999999993445
r16,16,199999958,2214.5999999990813
2560.7999999987665
r28,28,199999997,1799.9999999994584
e76,76,1799999952,1927.999999999342
r16,16,199999963,2214.099999999082
2560.8999999987664
r28,28,199999956,1804.0999999994547
e76,76,1799999978,1925.3999999993443
r16,16,199999980,2212.3999999990833
2560.9999999987663
