l65,65,999999977,148.99999999999582
e76,76,1799999987,327.600000000006
r34,34,199999985,376.70000000001716
r15,15,199999971,499.00000000004496
e87,87,1799999984,675.300000000085
l54,54,999999957,996.0000000001579
1366.199999999853
l65,65,999999997,146.99999999999594
e76,76,1799999992,327.1000000000059
r34,34,199999975,377.7000000000174
r15,15,199999997,496.4000000000444
e87,87,1799999961,677.6000000000855
l54,54,999999991,992.6000000001571
1366.2999999998528
l65,65,999999954,151.2999999999957
e76,76,1799999986,327.700000000006
r34,34,199999966,378.6000000000176
r15,15,199999968,499.30000000004503
e87,87,1799999987,675.0000000000849
l54,54,999999999,991.800000000157
1366.3999999998528
l65,65,999999983,148.39999999999586
e76,76,1799999998,326.50000000000574
r34,34,199999962,379.0000000000177
r15,15,199999960,500.1000000000452
e87,87,1799999975,676.2000000000852
l54,54,999999966,995.1000000001577
1366.4999999998527
l65,65,999999985,148.19999999999587
e76,76,1800000000,326.3000000000057
r34,34,199999992,376.000000000017
r15,15,199999956,500.5000000000453
e87,87,1799999978,675.9000000000851
l54,54,999999996,992.100000000157
1366.5999999998526
l65,65,999999963,150.39999999999574
e76,76,1799999964,329.9000000000065
r34,34,199999981,377.10000000001725
r15,15,199999974,498.7000000000449
e87,87,1799999965,677.2000000000854
l54,54,999999981,993.6000000001574
1366.6999999998525
l65,65,999999991,147.5999999999959
e76,76,1799999990,327.3000000000059
r34,34,199999983,376.9000000000172
r15,15,199999980,498.10000000004476
e87,87,1799999976,676.1000000000852
l54,54,999999977,994.0000000001575
1366.7999999998524
l65,65,999999961,150.59999999999573
e76,76,1799999975,328.80000000000626
r34,34,199999991,376.100000000017
r15,15,199999961,500.0000000000452
e87,87,1799999962,677.5000000000855
l54,54,999999959,995.8000000001579
1366.8999999998523
l65,65,999999993,147.3999999999959
e76,76,1799999966,329.70000000000647
r34,34,199999955,379.70000000001784
r15,15,199999984,497.70000000004467
e87,87,1799999959,677.8000000000856
l54,54,999999956,996.1000000001579
1366.9999999998522
l65,65,999999972,149.4999999999958
e76,76,1799999965,329.8000000000065
r34,34,199999969,378.3000000000175
r15,15,199999990,497.10000000004453
e87,87,1799999999,673.8000000000847
l54,54,999999993,992.4000000001571
1367.0999999998521
l65,65,999999955,151.1999999999957
e76,76,1799999972,329.10000000000633
r34,34,199999964,378.80000000001763
r15,15,199999986,497.5000000000446
e87,87,1799999995,674.2000000000847
l54,54,999999955,996.200000000158
1367.199999999852
l65,65,999999969,149.79999999999578
e76,76,1799999989,327.40000000000595
r34,34,199999974,377.8000000000174
r15,15,199999975,498.6000000000449
e87,87,1799999971,676.6000000000853
l54,54,1000000000,991.7000000001569
1367.299999999852
l65,65,999999974,149.2999999999958
e76,76,1799999960,330.3000000000066
r34,34,199999972,378.00000000001745
r15,15,199999966,499.5000000000451
e87,87,1799999969,676.8000000000853
l54,54,999999986,993.1000000001573
1367.3999999998518
l65,65,999999989,147.7999999999959
e76,76,1799999994,326.90000000000583
r34,34,199999978,377.4000000000173
r15,15,199999992,496.9000000000445
e87,87,1799999966,677.1000000000854
l54,54,999999973,994.4000000001575
1367.4999999998518
l65,65,999999995,147.19999999999592
e76,76,1799999979,328.4000000000062
r34,34,199999979,377.3000000000173
r15,15,199999985,497.60000000004464
e87,87,1799999986,675.100000000085
l54,54,999999994,992.3000000001571
1367.5999999998517
l65,65,999999970,149.69999999999578
e76,76,1799999956,330.7000000000067
r34,34,199999994,375.80000000001695
r15,15,199999969,499.200000000045
e87,87,1799999982,675.500000000085
l54,54,999999985,993.2000000001573
1367.6999999998516
l65,65,999999967,149.99999999999577
e76,76,1799999978,328.5000000000062
r34,34,199999973,377.9000000000174
r15,15,199999981,498.00000000004474
e87,87,1799999996,674.1000000000847
l54,54,999999992,992.5000000001571
1367.7999999998515
l65,65,999999979,148.79999999999583
e76,76,1799999991,327.2000000000059
r34,34,200000000,375.2000000000168
r15,15,199999996,496.5000000000444
e87,87,1799999964,677.3000000000854
l54,54,999999974,994.3000000001575
1367.8999999998514
l65,65,999999999,146.79999999999595
e76,76,1799999957,330.6000000000067
r34,34,199999984,376.8000000000172
r15,15,199999979,498.2000000000448
e87,87,1799999988,674.9000000000849
l54,54,999999978,993.9000000001574
1367.9999999998513
l65,65,999999965,150.19999999999575
e76,76,1799999951,331.2000000000068
r34,34,199999961,379.1000000000177
r15,15,199999972,498.90000000004494
e87,87,1799999977,676.0000000000852
l54,54,999999976,994.1000000001575
1368.0999999998512
l65,65,999999964,150.29999999999575
e76,76,1799999977,328.6000000000062
r34,34,199999993,375.900000000017
r15,15,199999976,498.50000000004485
e87,87,1799999994,674.3000000000848
l54,54,999999979,993.8000000001574
1368.1999999998511
l65,65,999999973,149.3999999999958
e76,76,1799999970,329.3000000000064
r34,34,199999976,377.60000000001736
r15,15,199999973,498.8000000000449
e87,87,1799999963,677.4000000000855
l54,54,999999983,993.4000000001573
1368.299999999851
l65,65,999999992,147.4999999999959
e76,76,1799999967,329.60000000000645
r34,34,199999956,379.6000000000178
r15,15,199999988,497.3000000000446
e87,87,1799999980,675.7000000000851
l54,54,999999987,993.0000000001572
1368.399999999851
l65,65,999999958,150.8999999999957
e76,76,1799999971,329.20000000000636
r34,34,199999986,376.60000000001713
r15,15,200000000,496.1000000000443
e87,87,1799999956,678.1000000000856
l54,54,999999984,993.3000000001573
1368.4999999998508
l65,65,999999981,148.59999999999584
e76,76,1799999973,329.0000000000063
r34,34,199999960,379.2000000000177
r15,15,199999998,496.30000000004435
e87,87,1799999997,674.0000000000847
l54,54,999999967,995.0000000001577
1368.5999999998508
l65,65,999999952,151.49999999999568
e76,76,1799999982,328.1000000000061
r34,34,199999989,376.30000000001706
r15,15,199999955,500.6000000000453
e87,87,1799999970,676.7000000000853
l54,54,999999988,992.9000000001572
1368.6999999998507
l65,65,999999962,150.49999999999574
e76,76,1799999993,327.00000000000585
r34,34,199999990,376.20000000001704
r15,15,199999970,499.100000000045
e87,87,1799999993,674.4000000000848
l54,54,999999970,994.7000000001576
1368.7999999998506
l65,65,999999975,149.1999999999958
e76,76,1799999959,330.4000000000066
r34,34,199999995,375.7000000000169
r15,15,199999995,496.6000000000444
e87,87,1799999981,675.6000000000851
l54,54,999999963,995.4000000001578
1368.8999999998505
l65,65,999999956,151.0999999999957
e76,76,1799999962,330.10000000000656
r34,34,199999987,376.5000000000171
r15,15,199999965,499.6000000000451
e87,87,1800000000,673.7000000000846
l54,54,999999980,993.7000000001574
1368.9999999998504
l65,65,999999980,148.69999999999584
e76,76,1799999961,330.2000000000066
r34,34,199999982,377.0000000000172
r15,15,199999993,496.80000000004446
e87,87,1799999972,676.5000000000853
l54,54,999999968,994.9000000001577
1369.0999999998503
l65,65,999999959,150.79999999999572
e76,76,1799999999,326.4000000000057
r34,34,199999999,375.30000000001684
r15,15,199999978,498.3000000000448
e87,87,1799999985,675.200000000085
l54,54,999999958,995.9000000001579
1369.1999999998502
l65,65,999999987,147.99999999999588
e76,76,1799999988,327.50000000000597
r34,34,199999977,377.50000000001734
r15,15,199999964,499.7000000000451
e87,87,1799999967,677.0000000000854
l54,54,999999969,994.8000000001576
1369.2999999998501
l65,65,999999957,150.9999999999957
e76,76,1799999985,327.80000000000604
r34,34,199999957,379.5000000000178
r15,15,199999982,497.9000000000447
e87,87,1799999957,678.0000000000856
l54,54,999999990,992.7000000001572
1369.39999999985
l65,65,999999988,147.89999999999588
e76,76,1799999969,329.4000000000064
r34,34,199999958,379.40000000001777
r15,15,199999957,500.4000000000453
e87,87,1799999991,674.6000000000848
l54,54,999999995,992.200000000157
1369.49999999985
l65,65,999999953,151.39999999999569
e76,76,1799999996,326.7000000000058
r34,34,199999967,378.50000000001756
r15,15,199999958,500.30000000004526
e87,87,1799999955,678.2000000000857
l54,54,999999982,993.5000000001573
1369.5999999998498
l65,65,999999998,146.89999999999594
e76,76,1799999974,328.9000000000063
r34,34,199999996,375.6000000000169
r15,15,199999987,497.4000000000446
e87,87,1799999968,676.9000000000854
l54,54,999999961,995.6000000001578
1369.6999999998498
l65,65,999999971,149.5999999999958
e76,76,1799999980,328.30000000000615
r34,34,199999963,378.90000000001766
r15,15,199999983,497.8000000000447
e87,87,1799999974,676.3000000000852
l54,54,999999965,995.2000000001577
1369.7999999998497
l65,65,999999986,148.09999999999587
e76,76,1799999981,328.2000000000061
r34,34,199999988,376.4000000000171
r15,15,199999999,496.2000000000443
e87,87,1799999979,675.8000000000851
l54,54,999999971,994.6000000001576
1369.8999999998496
l65,65,999999996,147.09999999999593
e76,76,1799999995,326.8000000000058
r34,34,199999970,378.2000000000175
r15,15,199999963,499.80000000004515
e87,87,1799999960,677.7000000000855
l54,54,999999989,992.8000000001572
1369.9999999998495
l65,65,999999984,148.29999999999586
e76,76,1799999953,331.00000000000676
r34,34,199999980,377.20000000001727
r15,15,199999967,499.40000000004505
e87,87,1799999992,674.5000000000848
l54,54,999999962,995.5000000001578
1370.0999999998494
l65,65,999999994,147.29999999999592
e76,76,1799999958,330.50000000000665
r34,34,199999968,378.40000000001754
r15,15,199999962,499.90000000004517
e87,87,1799999958,677.9000000000856
l54,54,999999972,994.5000000001576
1370.1999999998493
l65,65,999999951,151.59999999999567
e76,76,1799999976,328.70000000000624
r34,34,199999998,375.40000000001686
r15,15,199999977,498.4000000000448
e87,87,1799999983,675.400000000085
l54,54,999999998,991.900000000157
1370.2999999998492
l65,65,999999976,149.09999999999582
e76,76,1799999954,330.90000000000674
r34,34,199999971,378.1000000000175
r15,15,199999989,497.20000000004455
e87,87,1799999973,676.4000000000852
l54,54,999999960,995.7000000001578
1370.3999999998491
l65,65,999999978,148.89999999999583
e76,76,1799999997,326.60000000000576
r34,34,199999997,375.5000000000169
r15,15,199999991,497.0000000000445
e87,87,1799999990,674.7000000000849
l54,54,999999975,994.2000000001575
1370.499999999849
l65,65,1000000000,146.69999999999595
e76,76,1799999963,330.00000000000654
r34,34,199999965,378.7000000000176
r15,15,199999959,500.20000000004524
e87,87,1799999998,673.9000000000847
l54,54,999999997,992.000000000157
1370.599999999849
l65,65,999999966,150.09999999999576
e76,76,1799999952,331.1000000000068
r34,34,199999959,379.30000000001775
r15,15,199999994,496.70000000004444
e87,87,1799999989,674.8000000000849
l54,54,999999964,995.3000000001578
1370.6999999998488
l65,65,999999968,149.89999999999577
l47,47,999999996,251.59999999999
l61,61,999999962,274.899999999994
e91,91,1800000000,527.5000000000514
r30,30,199999954,881.1000000001318
1440.2999999997855
l65,65,999999960,150.69999999999573
l47,47,999999952,255.99999999998974
l61,61,999999976,273.4999999999937
e91,91,1799999960,531.5000000000523
r30,30,199999987,877.800000000131
1440.3999999997855
l65,65,999999982,148.49999999999585
l47,47,999999965,254.6999999999898
l61,61,999999969,274.19999999999385
e91,91,1799999972,530.300000000052
r30,30,199999990,877.500000000131
1440.4999999997854
l65,65,999999990,147.6999999999959
l47,47,999999959,255.29999999998978
l61,61,999999955,275.59999999999417
e91,91,1799999973,530.200000000052
r30,30,199999955,881.0000000001318
1440.5999999997853
