l65,65,999999999,631.9000000000751
r3,3,199999966,1372.4999999998472
l62,62,999999954,1823.2999999994372
e76,76,1799999973,1943.399999999328
2002.0999999992746
l65,65,999999961,635.700000000076
r3,3,199999952,1373.899999999846
l62,62,999999969,1821.7999999994386
e76,76,1799999969,1943.7999999993276
2002.1999999992745
l65,65,999999997,632.1000000000752
r3,3,199999961,1372.9999999998468
l62,62,999999976,1821.0999999994392
e76,76,1799999993,1941.3999999993298
2002.2999999992744
l65,65,999999957,636.1000000000761
r3,3,199999951,1373.9999999998458
l62,62,999999961,1822.5999999994378
e76,76,1799999990,1941.6999999993295
2002.3999999992743
l65,65,999999960,635.800000000076
r3,3,199999987,1370.3999999998491
l62,62,999999964,1822.2999999994381
e76,76,1799999957,1944.9999999993265
2002.4999999992742
l65,65,999999955,636.3000000000761
r3,3,199999968,1372.2999999998474
l62,62,999999998,1818.8999999994412
e76,76,1799999984,1942.299999999329
2002.5999999992741
l65,65,999999952,636.6000000000762
r3,3,200000000,1369.0999999998503
l62,62,999999974,1821.299999999439
e76,76,1799999968,1943.8999999993275
2002.699999999274
l65,65,999999974,634.4000000000757
r3,3,199999953,1373.799999999846
l62,62,999999996,1819.099999999441
e76,76,1799999982,1942.4999999993288
2002.799999999274
l65,65,999999990,632.8000000000753
r3,3,199999997,1369.39999999985
l62,62,999999959,1822.7999999994377
e76,76,1799999987,1941.9999999993292
2002.8999999992739
l65,65,999999978,634.0000000000756
r3,3,199999998,1369.2999999998501
l62,62,999999984,1820.29999999944
e76,76,1799999996,1941.09999999933
2002.9999999992738
l65,65,999999967,635.1000000000759
r3,3,199999972,1371.8999999998478
l62,62,999999977,1820.9999999994393
e76,76,1799999975,1943.1999999993282
2003.0999999992737
l65,65,999999966,635.2000000000759
r3,3,199999995,1369.5999999998498
l62,62,999999962,1822.499999999438
e76,76,1799999955,1945.1999999993263
2003.1999999992736
l65,65,999999975,634.3000000000757
r3,3,199999989,1370.1999999998493
l62,62,999999989,1819.7999999994404
e76,76,1799999989,1941.7999999993294
2003.2999999992735
l65,65,999999965,635.3000000000759
r3,3,199999983,1370.7999999998488
l62,62,999999970,1821.6999999994387
e76,76,1799999999,1940.7999999993303
2003.3999999992734
l65,65,999999998,632.0000000000751
r3,3,199999974,1371.699999999848
l62,62,999999991,1819.5999999994406
e76,76,1799999985,1942.199999999329
2003.4999999992733
l65,65,999999982,633.6000000000755
r3,3,199999984,1370.6999999998488
l62,62,999999994,1819.2999999994408
e76,76,1799999995,1941.19999999933
2003.5999999992732
l65,65,999999980,633.8000000000756
r3,3,199999999,1369.1999999998502
l62,62,999999990,1819.6999999994405
e76,76,1799999977,1942.9999999993283
2003.6999999992731
l65,65,999999964,635.4000000000759
r3,3,199999990,1370.0999999998494
l62,62,999999985,1820.19999999944
e76,76,1799999962,1944.499999999327
2003.799999999273
l65,65,999999968,635.0000000000758
r3,3,199999957,1373.3999999998464
l62,62,999999953,1823.3999999994371
e76,76,1799999981,1942.5999999993287
2003.899999999273
l65,65,999999991,632.7000000000753
r3,3,199999979,1371.1999999998484
l62,62,999999987,1819.9999999994402
e76,76,1799999966,1944.0999999993273
2003.9999999992729
l65,65,999999958,636.000000000076
r3,3,199999981,1370.9999999998486
l62,62,999999992,1819.4999999994407
e76,76,1799999956,1945.0999999993264
2004.0999999992728
l65,65,999999987,633.1000000000754
r3,3,199999992,1369.8999999998496
l62,62,999999975,1821.1999999994391
e76,76,1799999978,1942.8999999993284
2004.1999999992727
l65,65,999999995,632.3000000000752
r3,3,199999977,1371.3999999998482
l62,62,999999963,1822.399999999438
e76,76,1799999991,1941.5999999993296
2004.2999999992726
l65,65,999999972,634.6000000000757
r3,3,199999971,1371.9999999998477
l62,62,999999988,1819.8999999994403
e76,76,1799999951,1945.599999999326
2004.3999999992725
l65,65,999999989,632.9000000000754
r3,3,199999965,1372.5999999998471
l62,62,999999973,1821.399999999439
e76,76,1799999963,1944.399999999327
2004.4999999992724
l65,65,999999984,633.4000000000755
r3,3,199999963,1372.799999999847
l62,62,999999993,1819.3999999994408
e76,76,1799999961,1944.5999999993269
2004.5999999992723
l65,65,999999973,634.5000000000757
r3,3,199999955,1373.5999999998462
l62,62,999999956,1823.0999999994374
e76,76,1799999998,1940.8999999993302
2004.6999999992722
l65,65,999999996,632.2000000000752
r3,3,199999970,1372.0999999998476
l62,62,999999967,1821.9999999994384
e76,76,1799999974,1943.299999999328
2004.7999999992721
l65,65,999999979,633.9000000000756
r3,3,199999996,1369.49999999985
l62,62,999999965,1822.1999999994382
e76,76,1799999967,1943.9999999993274
2004.899999999272
l65,65,999999985,633.3000000000754
r3,3,199999978,1371.2999999998483
l62,62,999999957,1822.9999999994375
e76,76,1799999965,1944.1999999993272
2004.999999999272
l65,65,999999953,636.5000000000762
r3,3,199999969,1372.1999999998475
l62,62,999999979,1820.7999999994395
e76,76,1799999958,1944.8999999993266
2005.0999999992719
l65,65,999999976,634.2000000000756
r3,3,199999993,1369.7999999998497
l62,62,999999958,1822.8999999994376
e76,76,1799999960,1944.6999999993268
2005.1999999992718
l65,65,999999994,632.4000000000752
r3,3,199999976,1371.4999999998481
l62,62,999999986,1820.0999999994401
e76,76,1799999988,1941.8999999993293
2005.2999999992717
l65,65,999999951,636.7000000000762
r3,3,199999956,1373.4999999998463
l62,62,999999960,1822.6999999994378
e76,76,1799999952,1945.499999999326
2005.3999999992716
l65,65,999999969,634.9000000000758
r3,3,199999964,1372.699999999847
l62,62,999999981,1820.5999999994397
e76,76,1799999970,1943.6999999993277
2005.4999999992715
l65,65,999999956,636.2000000000761
r3,3,199999986,1370.499999999849
l62,62,999999983,1820.3999999994398
e76,76,1799999979,1942.7999999993285
2005.5999999992714
l65,65,999999971,634.7000000000758
r3,3,199999982,1370.8999999998487
l62,62,999999952,1823.499999999437
e76,76,1799999954,1945.2999999993262
2005.6999999992713
l65,65,999999977,634.1000000000756
r3,3,199999967,1372.3999999998473
l62,62,999999982,1820.4999999994398
e76,76,1799999997,1940.9999999993302
2005.7999999992712
l65,65,999999988,633.0000000000754
r3,3,199999980,1371.0999999998485
l62,62,999999999,1818.7999999994413
e76,76,1799999976,1943.0999999993282
2005.8999999992711
l65,65,1000000000,631.8000000000751
r3,3,199999960,1373.0999999998467
l62,62,999999972,1821.4999999994388
e76,76,1799999971,1943.5999999993278
2005.999999999271
l65,65,999999993,632.5000000000753
r3,3,199999973,1371.7999999998478
l62,62,999999997,1818.9999999994411
e76,76,1799999964,1944.2999999993272
2006.099999999271
l65,65,999999954,636.4000000000761
r3,3,199999962,1372.8999999998468
l62,62,999999971,1821.5999999994388
e76,76,1799999953,1945.3999999993262
2006.1999999992709
l65,65,999999992,632.6000000000753
r3,3,199999991,1369.9999999998495
l62,62,999999955,1823.1999999994373
e76,76,1799999972,1943.4999999993279
2006.2999999992708
l65,65,999999986,633.2000000000754
r3,3,199999958,1373.2999999998465
l62,62,999999951,1823.599999999437
e76,76,1799999980,1942.6999999993286
2006.3999999992707
l65,65,999999963,635.5000000000759
r3,3,199999985,1370.599999999849
l62,62,999999980,1820.6999999994396
e76,76,1799999983,1942.3999999993289
2006.4999999992706
l65,65,999999970,634.8000000000758
r3,3,199999959,1373.1999999998466
l62,62,1000000000,1818.6999999994414
e76,76,1799999959,1944.7999999993267
2006.5999999992705
l65,65,999999983,633.5000000000755
r3,3,199999994,1369.6999999998498
l62,62,999999968,1821.8999999994385
e76,76,1799999994,1941.2999999993299
2006.6999999992704
l65,65,999999962,635.600000000076
r3,3,199999988,1370.2999999998492
l62,62,999999995,1819.199999999441
e76,76,1799999986,1942.0999999993292
2006.7999999992703
l65,65,999999959,635.900000000076
r3,3,199999975,1371.599999999848
l62,62,999999978,1820.8999999994394
e76,76,1800000000,1940.6999999993304
2006.8999999992702
l65,65,999999981,633.7000000000755
r3,3,199999954,1373.699999999846
l62,62,999999966,1822.0999999994383
e76,76,1799999992,1941.4999999993297
2006.9999999992701
