l58,58,999999980,212.39999999999222
1658.599999999587
l58,58,999999979,212.4999999999922
1658.699999999587
l58,58,999999981,212.29999999999222
1658.7999999995868
l58,58,999999963,214.09999999999212
1658.8999999995867
l58,58,999999956,214.79999999999208
1658.9999999995866
l58,58,999999992,211.1999999999923
1659.0999999995865
l58,58,999999999,210.49999999999233
1659.1999999995865
l58,58,999999967,213.69999999999214
1659.2999999995864
l58,58,999999986,211.79999999999225
1659.3999999995863
l58,58,999999990,211.39999999999227
1659.4999999995862
l58,58,999999994,210.9999999999923
1659.599999999586
l58,58,999999997,210.69999999999231
1659.699999999586
l58,58,999999972,213.19999999999217
1659.799999999586
l58,58,999999951,215.29999999999205
1659.8999999995858
l58,58,999999987,211.69999999999226
1659.9999999995857
l58,58,999999998,210.59999999999232
1660.0999999995856
l58,58,999999985,211.89999999999225
1660.1999999995855
l58,58,999999953,215.09999999999206
1660.2999999995855
l58,58,999999959,214.4999999999921
1660.3999999995854
l58,58,999999971,213.29999999999217
1660.4999999995853
l58,58,999999970,213.39999999999216
1660.5999999995852
l58,58,999999989,211.49999999999227
1660.699999999585
l58,58,999999968,213.59999999999215
1660.799999999585
l58,58,999999965,213.89999999999213
1660.899999999585
l58,58,999999982,212.19999999999223
1660.9999999995848
l58,58,999999977,212.6999999999922
1661.0999999995847
l58,58,999999955,214.89999999999208
1661.1999999995846
l58,58,999999974,212.99999999999218
1661.2999999995845
l58,58,1000000000,210.39999999999233
1661.3999999995845
l58,58,999999996,210.7999999999923
1661.4999999995844
l58,58,999999988,211.59999999999226
1661.5999999995843
l58,58,999999984,211.99999999999224
1661.6999999995842
l58,58,999999975,212.8999999999922
1661.799999999584
l58,58,999999960,214.3999999999921
1661.899999999584
l58,58,999999954,214.99999999999207
1661.999999999584
l58,58,999999961,214.2999999999921
1662.0999999995838
l58,58,999999973,213.09999999999218
1662.1999999995837
l58,58,999999969,213.49999999999216
1662.2999999995836
l58,58,999999966,213.79999999999214
1662.3999999995835
l58,58,999999957,214.6999999999921
1662.4999999995835
l58,58,999999993,211.0999999999923
1662.5999999995834
l58,58,999999976,212.7999999999922
1662.6999999995833
l58,58,999999962,214.19999999999212
1662.7999999995832
l58,58,999999978,212.5999999999922
1662.899999999583
l58,58,999999952,215.19999999999206
1662.999999999583
l58,58,999999964,213.99999999999213
1663.099999999583
l58,58,999999983,212.09999999999224
1663.1999999995828
l58,58,999999958,214.5999999999921
1663.2999999995827
l58,58,999999991,211.29999999999228
1663.3999999995826
l58,58,999999995,210.8999999999923
1663.4999999995825
