l49,49,999999980,238.69999999999072
l50,50,999999952,286.49999999999665
e70,70,1799999978,734.5000000000985
l38,38,999999979,1529.1999999997047
1569.499999999668
l49,49,999999955,241.19999999999058
l50,50,999999997,281.9999999999956
e70,70,1799999975,734.8000000000985
l38,38,999999973,1529.7999999997041
1569.599999999668
l49,49,999999972,239.49999999999068
l50,50,999999979,283.79999999999603
e70,70,1799999982,734.1000000000984
l38,38,999999989,1528.1999999997056
1569.6999999996679
l49,49,999999962,240.49999999999062
l50,50,999999982,283.49999999999596
e70,70,1799999993,733.0000000000981
l38,38,999999959,1531.1999999997029
1569.7999999996678
l49,49,999999989,237.79999999999077
l50,50,999999955,286.1999999999966
e70,70,1799999955,736.800000000099
l38,38,999999972,1529.899999999704
1569.8999999996677
l49,49,999999951,241.59999999999056
l50,50,999999981,283.599999999996
e70,70,1799999997,732.600000000098
l38,38,1000000000,1527.0999999997066
1569.9999999996676
l49,49,999999990,237.69999999999078
l50,50,999999984,283.2999999999959
e70,70,1799999981,734.2000000000984
l38,38,999999997,1527.3999999997063
1570.0999999996675
l49,49,999999977,238.9999999999907
l50,50,999999954,286.2999999999966
e70,70,1799999991,733.2000000000982
l38,38,999999978,1529.2999999997046
1570.1999999996674
l49,49,999999996,237.0999999999908
l50,50,999999970,284.69999999999624
e70,70,1799999972,735.1000000000986
l38,38,999999992,1527.8999999997059
1570.2999999996673
l49,49,999999982,238.49999999999073
l50,50,999999953,286.3999999999966
e70,70,1799999995,732.8000000000981
l38,38,999999994,1527.699999999706
1570.3999999996672
l49,49,999999998,236.89999999999083
l50,50,999999975,284.1999999999961
e70,70,1799999971,735.2000000000986
l38,38,999999982,1528.899999999705
1570.4999999996671
l49,49,999999965,240.19999999999064
l50,50,999999961,285.59999999999644
e70,70,1799999965,735.8000000000987
l38,38,999999967,1530.3999999997036
1570.599999999667
l49,49,999999953,241.39999999999057
l50,50,999999989,282.7999999999958
e70,70,1799999987,733.6000000000982
l38,38,999999957,1531.3999999997027
1570.699999999667
l49,49,999999987,237.99999999999076
l50,50,999999986,283.0999999999959
e70,70,1799999996,732.700000000098
l38,38,999999976,1529.4999999997044
1570.7999999996669
l49,49,999999986,238.09999999999076
l50,50,999999991,282.59999999999576
e70,70,1799999957,736.6000000000989
l38,38,999999965,1530.5999999997034
1570.8999999996668
l49,49,999999958,240.8999999999906
l50,50,999999996,282.09999999999565
e70,70,1799999984,733.9000000000983
l38,38,999999962,1530.8999999997031
1570.9999999996667
l49,49,999999966,240.09999999999064
l50,50,999999974,284.29999999999615
e70,70,1799999979,734.4000000000984
l38,38,999999986,1528.4999999997053
1571.0999999996666
l49,49,999999959,240.7999999999906
l50,50,999999998,281.8999999999956
e70,70,1799999960,736.3000000000989
l38,38,999999974,1529.6999999997042
1571.1999999996665
l49,49,999999974,239.2999999999907
l50,50,999999967,284.9999999999963
e70,70,1799999992,733.1000000000981
l38,38,999999958,1531.2999999997028
1571.2999999996664
l49,49,999999988,237.89999999999077
l50,50,999999960,285.69999999999646
e70,70,1799999970,735.3000000000986
l38,38,999999956,1531.4999999997026
1571.3999999996663
l49,49,999999971,239.59999999999067
l50,50,1000000000,281.69999999999555
e70,70,1799999976,734.7000000000985
l38,38,999999993,1527.799999999706
1571.4999999996662
l49,49,1000000000,236.69999999999084
l50,50,999999999,281.7999999999956
e70,70,1799999989,733.4000000000982
l38,38,999999955,1531.5999999997025
1571.5999999996661
l49,49,999999964,240.29999999999063
l50,50,999999987,282.99999999999585
e70,70,1799999983,734.0000000000983
l38,38,999999964,1530.6999999997033
1571.699999999666
l49,49,999999975,239.1999999999907
l50,50,999999962,285.4999999999964
e70,70,1799999966,735.7000000000987
l38,38,999999991,1527.9999999997058
1571.799999999666
l49,49,999999983,238.39999999999074
l50,50,999999993,282.3999999999957
e70,70,1799999951,737.2000000000991
l38,38,999999984,1528.6999999997051
1571.8999999996659
l49,49,999999961,240.59999999999062
l50,50,999999992,282.49999999999574
e70,70,1799999953,737.000000000099
l38,38,999999952,1531.8999999997022
1571.9999999996658
l49,49,999999995,237.1999999999908
l50,50,999999994,282.2999999999957
e70,70,1799999963,736.0000000000988
l38,38,999999987,1528.3999999997054
1572.0999999996657
l49,49,999999957,240.9999999999906
l50,50,999999988,282.8999999999958
e70,70,1799999954,736.900000000099
l38,38,999999960,1531.099999999703
1572.1999999996656
l49,49,999999985,238.19999999999075
l50,50,999999980,283.699999999996
e70,70,1799999998,732.500000000098
l38,38,999999969,1530.1999999997038
1572.2999999996655
l49,49,999999994,237.2999999999908
l50,50,999999977,283.9999999999961
e70,70,1799999986,733.7000000000983
l38,38,999999995,1527.5999999997061
1572.3999999996654
l49,49,999999981,238.59999999999073
l50,50,999999956,286.09999999999656
e70,70,1799999956,736.700000000099
l38,38,999999999,1527.1999999997065
1572.4999999996653
l49,49,999999993,237.3999999999908
l50,50,999999965,285.19999999999635
e70,70,1799999985,733.8000000000983
l38,38,999999961,1530.999999999703
1572.5999999996652
l49,49,999999991,237.59999999999079
l50,50,999999966,285.0999999999963
e70,70,1799999990,733.3000000000982
l38,38,999999990,1528.0999999997057
1572.6999999996651
l49,49,999999973,239.39999999999068
l50,50,999999976,284.0999999999961
e70,70,1799999962,736.1000000000988
l38,38,999999985,1528.5999999997052
1572.799999999665
l49,49,999999970,239.69999999999067
l50,50,999999985,283.1999999999959
e70,70,1799999964,735.9000000000988
l38,38,999999977,1529.3999999997045
1572.899999999665
l49,49,999999956,241.0999999999906
l50,50,999999983,283.39999999999594
e70,70,1799999967,735.6000000000987
l38,38,999999954,1531.6999999997024
1572.9999999996649
l49,49,999999968,239.89999999999065
l50,50,999999995,282.19999999999567
e70,70,1799999977,734.6000000000985
l38,38,999999983,1528.799999999705
1573.0999999996648
l49,49,999999999,236.79999999999083
l50,50,999999968,284.8999999999963
e70,70,1799999968,735.5000000000987
l38,38,999999953,1531.7999999997023
1573.1999999996647
l49,49,999999978,238.8999999999907
l50,50,999999971,284.5999999999962
e70,70,1799999974,734.9000000000985
l38,38,999999996,1527.4999999997062
1573.2999999996646
l49,49,999999969,239.79999999999066
l50,50,999999957,285.99999999999653
e70,70,1799999969,735.4000000000987
l38,38,999999988,1528.2999999997055
1573.3999999996645
l49,49,999999984,238.29999999999075
l50,50,999999978,283.89999999999606
e70,70,1800000000,732.300000000098
l38,38,999999998,1527.2999999997064
1573.4999999996644
l49,49,999999992,237.4999999999908
l50,50,999999969,284.79999999999626
e70,70,1799999952,737.100000000099
l38,38,999999963,1530.7999999997032
1573.5999999996643
l49,49,999999954,241.29999999999058
l50,50,999999990,282.6999999999958
e70,70,1799999980,734.3000000000984
l38,38,999999966,1530.4999999997035
1573.6999999996642
l49,49,999999997,236.99999999999082
l50,50,999999951,286.59999999999667
e70,70,1799999988,733.5000000000982
l38,38,999999981,1528.9999999997049
1573.7999999996641
l49,49,999999967,239.99999999999065
l50,50,999999972,284.4999999999962
e70,70,1799999961,736.2000000000988
l38,38,999999971,1529.999999999704
1573.899999999664
l49,49,999999963,240.39999999999063
l50,50,999999964,285.2999999999964
e70,70,1799999958,736.5000000000989
l38,38,999999980,1529.0999999997048
1573.999999999664
l49,49,999999976,239.0999999999907
l50,50,999999963,285.3999999999964
e70,70,1799999973,735.0000000000986
l38,38,999999975,1529.5999999997043
1574.0999999996639
l49,49,999999979,238.79999999999072
l50,50,999999958,285.8999999999965
e70,70,1799999999,732.400000000098
l38,38,999999951,1531.9999999997021
1574.1999999996638
l49,49,999999952,241.49999999999056
l50,50,999999973,284.39999999999617
e70,70,1799999959,736.4000000000989
l38,38,999999970,1530.0999999997039
1574.2999999996637
l49,49,999999960,240.6999999999906
l50,50,999999959,285.7999999999965
e70,70,1799999994,732.9000000000981
l38,38,999999968,1530.2999999997037
1574.3999999996636
