r18,18,999999975,148.99999999999582
r85,85,999999974,432.8000000000299
r55,55,999999975,978.900000000154
r15,15,999999987,1366.6999999998525
3061.9999999983106
r18,18,999999993,147.19999999999592
r85,85,999999972,433.00000000002996
r55,55,999999994,977.0000000001536
r15,15,999999977,1367.6999999998516
3062.0999999983105
r7,7,999999987,908.7000000001381
r44,44,999999994,1574.999999999663
r86,86,999999998,1635.8999999996076
r19,19,999999959,1849.3999999994135
r93,93,999999972,2016.8999999992611
r15,15,999999951,2046.699999999234
3062.1999999983104
r18,18,999999980,148.49999999999585
r85,85,999999978,432.4000000000298
r55,55,999999983,978.1000000001538
r15,15,999999970,1368.399999999851
3062.2999999983103
r18,18,999999951,151.39999999999569
r85,85,999999976,432.60000000002987
r55,55,999999988,977.6000000001537
r15,15,999999974,1367.9999999998513
3062.3999999983102
r18,18,999999987,147.7999999999959
r85,85,999999994,430.80000000002946
r55,55,999999998,976.6000000001535
r15,15,999999962,1369.1999999998502
3062.49999999831
r18,18,999999986,147.89999999999588
r85,85,999999985,431.70000000002966
r55,55,1000000000,976.4000000001535
r15,15,999999965,1368.8999999998505
3062.59999999831
r18,18,999999952,151.2999999999957
r85,85,999999965,433.7000000000301
r55,55,999999984,978.0000000001538
r15,15,999999999,1365.4999999998536
3062.69999999831
r18,18,999999976,148.89999999999583
r85,85,999999983,431.9000000000297
r55,55,999999990,977.4000000001537
r15,15,999999983,1367.0999999998521
3062.79999999831
r7,7,999999993,908.1000000001379
r44,44,999999976,1576.7999999996614
r86,86,999999978,1637.8999999996058
r19,19,999999960,1849.2999999994136
r93,93,999999999,2014.1999999992636
r15,15,999999956,2046.1999999992345
3062.89999999831
r7,7,999999986,908.8000000001381
r44,44,999999964,1577.9999999996603
r86,86,999999990,1636.699999999607
r19,19,999999957,1849.5999999994133
r93,93,999999960,2018.09999999926
r15,15,999999960,2045.7999999992348
3062.9999999983097
r18,18,999999990,147.4999999999959
r85,85,999999979,432.3000000000298
r55,55,999999967,979.7000000001542
r15,15,999999979,1367.4999999998518
3063.0999999983096
r18,18,999999992,147.29999999999592
r85,85,999999987,431.5000000000296
r55,55,999999971,979.3000000001541
r15,15,999999997,1365.6999999998534
3063.1999999983095
r7,7,999999994,908.0000000001379
r44,44,999999951,1579.2999999996591
r86,86,999999954,1640.2999999996036
r19,19,999999955,1849.799999999413
r93,93,999999968,2017.2999999992608
r15,15,999999953,2046.4999999992342
3063.2999999983094
r18,18,999999972,149.2999999999958
r85,85,999999997,430.5000000000294
r55,55,999999982,978.2000000001539
r15,15,999999981,1367.299999999852
3063.3999999983093
r18,18,999999982,148.29999999999586
r85,85,999999967,433.50000000003007
r55,55,999999979,978.5000000001539
r15,15,999999991,1366.2999999998528
3063.4999999983092
r18,18,999999995,146.99999999999594
r85,85,999999962,434.0000000000302
r55,55,999999999,976.5000000001535
r15,15,999999966,1368.7999999998506
3063.599999998309
r18,18,999999959,150.59999999999573
r85,85,999999988,431.4000000000296
r55,55,999999980,978.4000000001539
r15,15,999999994,1365.9999999998531
3063.699999998309
r18,18,999999956,150.8999999999957
r85,85,999999970,433.20000000003
r55,55,999999996,976.8000000001535
r15,15,999999984,1366.9999999998522
3063.799999998309
r7,7,999999954,912.0000000001388
r44,44,999999998,1574.5999999996634
r86,86,999999996,1636.0999999996075
r19,19,999999954,1849.899999999413
r93,93,999999966,2017.4999999992606
r15,15,999999952,2046.5999999992341
3063.899999998309
r18,18,999999994,147.09999999999593
r85,85,999999975,432.7000000000299
r55,55,999999977,978.700000000154
r15,15,999999963,1369.0999999998503
3063.999999998309
r18,18,999999969,149.5999999999958
r85,85,999999971,433.10000000003
r55,55,999999962,980.2000000001543
r15,15,999999995,1365.8999999998532
3064.0999999983087
r18,18,999999974,149.09999999999582
r85,85,999999968,433.40000000003005
r55,55,999999964,980.0000000001543
r15,15,999999967,1368.6999999998507
3064.1999999983086
r7,7,999999973,910.1000000001384
r44,44,999999972,1577.199999999661
r86,86,999999960,1639.6999999996042
r19,19,999999958,1849.4999999994134
r93,93,999999982,2015.899999999262
r15,15,999999958,2045.9999999992347
3064.2999999983085
r18,18,999999964,150.09999999999576
r85,85,999999963,433.90000000003016
r55,55,999999995,976.9000000001536
r15,15,999999986,1366.7999999998524
3064.3999999983084
r18,18,999999965,149.99999999999577
r85,85,999999996,430.6000000000294
r55,55,999999986,977.8000000001538
r15,15,1000000000,1365.3999999998537
3064.4999999983083
r18,18,999999999,146.59999999999596
r85,85,999999992,431.0000000000295
r55,55,999999976,978.800000000154
r15,15,999999971,1368.299999999851
3064.5999999983082
r18,18,999999958,150.69999999999573
r85,85,999999973,432.90000000002993
r55,55,999999987,977.7000000001538
r15,15,999999961,1369.2999999998501
3064.699999998308
r18,18,999999970,149.4999999999958
r85,85,999999990,431.20000000002955
r55,55,999999974,979.000000000154
r15,15,999999976,1367.7999999998515
3064.799999998308
r7,7,999999985,908.9000000001381
r44,44,999999981,1576.2999999996618
r86,86,999999968,1638.899999999605
r19,19,999999951,1850.1999999994127
r93,93,999999956,2018.4999999992597
r15,15,999999954,2046.3999999992343
3064.899999998308
r18,18,999999968,149.69999999999578
r85,85,999999999,430.30000000002934
r55,55,999999965,979.9000000001543
r15,15,999999964,1368.9999999998504
3064.999999998308
r18,18,999999981,148.39999999999586
r85,85,999999998,430.40000000002937
r55,55,999999981,978.3000000001539
r15,15,999999968,1368.5999999998508
3065.099999998308
r18,18,999999960,150.49999999999574
r85,85,1000000000,430.2000000000293
r55,55,999999989,977.5000000001537
r15,15,999999985,1366.8999999998523
3065.1999999983077
r18,18,999999989,147.5999999999959
r85,85,999999982,432.00000000002973
r55,55,999999966,979.8000000001542
r15,15,999999973,1368.0999999998512
3065.2999999983076
r18,18,999999957,150.79999999999572
r85,85,999999989,431.30000000002957
r55,55,999999978,978.600000000154
r15,15,999999992,1366.199999999853
3065.3999999983075
r18,18,999999988,147.6999999999959
r85,85,999999993,430.9000000000295
r55,55,999999969,979.5000000001542
r15,15,999999993,1366.099999999853
3065.4999999983074
r18,18,999999954,151.0999999999957
r85,85,999999961,434.1000000000302
r55,55,999999970,979.4000000001541
r15,15,999999998,1365.5999999998535
3065.5999999983073
r7,7,999999980,909.4000000001382
r44,44,999999955,1578.8999999996595
r86,86,1000000000,1635.6999999996078
r19,19,999999952,1850.0999999994128
r93,93,999999975,2016.5999999992614
r15,15,999999955,2046.2999999992344
3065.6999999983072
r18,18,999999966,149.89999999999577
r85,85,999999977,432.50000000002984
r55,55,999999973,979.1000000001541
r15,15,999999990,1366.3999999998528
3065.799999998307
r18,18,999999984,148.09999999999587
r85,85,999999991,431.1000000000295
r55,55,999999985,977.9000000001538
r15,15,999999978,1367.5999999998517
3065.899999998307
r18,18,999999991,147.3999999999959
r85,85,999999986,431.60000000002964
r55,55,999999972,979.2000000001541
r15,15,999999972,1368.1999999998511
3065.999999998307
r7,7,999999981,909.3000000001382
r44,44,999999992,1575.1999999996629
r86,86,999999966,1639.0999999996047
r19,19,999999953,1849.999999999413
r93,93,999999961,2017.9999999992601
r15,15,999999959,2045.8999999992348
3066.099999998307
r18,18,999999978,148.69999999999584
r85,85,999999969,433.30000000003
r55,55,999999963,980.1000000001543
r15,15,999999980,1367.3999999998518
3066.199999998307
r18,18,999999963,150.19999999999575
r85,85,999999981,432.10000000002975
r55,55,999999961,980.3000000001543
r15,15,999999969,1368.4999999998508
3066.2999999983067
r18,18,999999996,146.89999999999594
r85,85,999999966,433.6000000000301
r55,55,999999991,977.3000000001537
r15,15,999999975,1367.8999999998514
3066.3999999983066
r18,18,999999997,146.79999999999595
r85,85,999999984,431.8000000000297
r55,55,999999992,977.2000000001536
r15,15,999999989,1366.4999999998527
3066.4999999983065
r18,18,999999953,151.1999999999957
r85,85,999999964,433.80000000003014
r55,55,999999968,979.6000000001542
r15,15,999999996,1365.7999999998533
3066.5999999983064
r7,7,999999959,911.5000000001387
r44,44,999999965,1577.8999999996604
r86,86,999999964,1639.2999999996046
r19,19,999999956,1849.6999999994132
r93,93,999999995,2014.5999999992632
r15,15,999999957,2046.0999999992346
3066.6999999983063
r18,18,999999998,146.69999999999595
r85,85,999999980,432.2000000000298
r55,55,999999997,976.7000000001535
r15,15,999999988,1366.5999999998526
3066.7999999983062
r18,18,999999971,149.3999999999958
r85,85,999999995,430.70000000002943
r55,55,999999993,977.1000000001536
r15,15,999999982,1367.199999999852
3066.899999998306
