r33,33,999999954,591.0000000000658
r6,6,999999970,1309.8999999999041
r7,7,999999956,1776.4999999994798
r17,17,999999988,1849.2999999994136
r95,95,999999999,1998.4999999992779
r90,90,999999998,2086.5999999991977
2624.3999999987086
r33,33,999999977,588.7000000000653
r6,6,999999978,1309.0999999999049
r7,7,1000000000,1772.0999999994838
r17,17,999999995,1848.5999999994142
r95,95,999999988,1999.5999999992769
r90,90,999999993,2087.0999999991973
2624.4999999987085
r33,33,999999974,589.0000000000654
r6,6,999999977,1309.1999999999048
r7,7,999999969,1775.199999999481
r17,17,999999992,1848.899999999414
r95,95,999999981,2000.2999999992762
r90,90,999999990,2087.399999999197
2624.5999999987084
r33,33,999999991,587.300000000065
r6,6,999999951,1311.7999999999024
r7,7,999999979,1774.1999999994819
r17,17,999999999,1848.1999999994146
r95,95,999999995,1998.8999999992775
r90,90,1000000000,2086.399999999198
2624.6999999987083
r33,33,999999957,590.7000000000658
r6,6,999999975,1309.3999999999046
r7,7,999999985,1773.5999999994824
r17,17,999999991,1848.9999999994138
r95,95,999999987,1999.6999999992768
r90,90,999999984,2087.9999999991965
2624.7999999987082
r33,33,999999952,591.2000000000659
r6,6,999999986,1308.2999999999056
r7,7,999999997,1772.3999999994835
r17,17,999999984,1849.6999999994132
r95,95,999999989,1999.499999999277
r90,90,999999991,2087.299999999197
2624.899999998708
r33,33,999999982,588.2000000000652
r6,6,999999998,1307.0999999999067
r7,7,999999965,1775.5999999994806
r17,17,999999986,1849.4999999994134
r95,95,999999985,1999.8999999992766
r90,90,999999983,2088.0999999991964
2624.999999998708
r33,33,999999972,589.2000000000654
r6,6,999999996,1307.2999999999065
r7,7,999999990,1773.0999999994829
r17,17,999999997,1848.3999999994144
r95,95,999999986,1999.7999999992767
r90,90,999999989,2087.499999999197
2625.099999998708
r33,33,999999986,587.8000000000651
r6,6,999999991,1307.799999999906
r7,7,999999951,1776.9999999994793
r17,17,1000000000,1848.0999999994146
r95,95,999999984,1999.9999999992765
r90,90,999999988,2087.599999999197
2625.199999998708
r33,33,999999992,587.200000000065
r6,6,999999962,1310.6999999999034
r7,7,999999992,1772.899999999483
r17,17,999999985,1849.5999999994133
r95,95,999999990,1999.399999999277
r90,90,999999999,2086.499999999198
2625.299999998708
r33,33,999999995,586.9000000000649
r6,6,999999994,1307.4999999999063
r7,7,999999984,1773.6999999994823
r17,17,999999983,1849.799999999413
r95,95,999999992,1999.1999999992772
r90,90,999999985,2087.8999999991966
2625.3999999987077
r33,33,999999958,590.6000000000657
r6,6,999999992,1307.6999999999061
r7,7,999999971,1774.9999999994811
r17,17,999999982,1849.899999999413
r95,95,999999997,1998.6999999992777
r90,90,999999996,2086.7999999991976
2625.4999999987076
r33,33,999999959,590.5000000000657
r6,6,999999971,1309.7999999999042
r7,7,999999986,1773.4999999994825
r17,17,999999996,1848.4999999994143
r95,95,999999996,1998.7999999992776
r90,90,999999980,2088.399999999196
2625.5999999987075
r33,33,999999963,590.1000000000656
r6,6,999999997,1307.1999999999066
r7,7,999999955,1776.5999999994797
r17,17,999999981,1849.999999999413
r95,95,999999982,2000.1999999992763
r90,90,999999986,2087.7999999991966
2625.6999999987074
r33,33,999999996,586.8000000000649
r6,6,999999993,1307.5999999999062
r7,7,999999974,1774.6999999994814
r17,17,999999990,1849.0999999994137
r95,95,1000000000,1998.399999999278
r90,90,999999994,2086.9999999991974
2625.7999999987073
r33,33,999999978,588.6000000000653
r6,6,999999957,1311.199999999903
r7,7,999999977,1774.3999999994817
r17,17,999999987,1849.3999999994135
r95,95,999999983,2000.0999999992764
r90,90,999999981,2088.299999999196
2625.8999999987072
r33,33,999999965,589.9000000000656
r6,6,999999959,1310.9999999999031
r7,7,999999959,1776.19999999948
r17,17,999999993,1848.799999999414
r95,95,999999994,1998.9999999992774
r90,90,999999997,2086.6999999991976
2625.999999998707
r33,33,999999956,590.8000000000658
r6,6,999999969,1309.999999999904
r7,7,999999961,1775.9999999994802
r17,17,999999980,1850.0999999994128
r95,95,999999991,1999.2999999992771
r90,90,999999992,2087.199999999197
2626.099999998707
r33,33,999999968,589.6000000000655
r6,6,999999980,1308.899999999905
r7,7,999999988,1773.2999999994827
r17,17,999999989,1849.1999999994136
r95,95,999999993,1999.0999999992773
r90,90,999999995,2086.8999999991975
2626.199999998707
r33,33,999999964,590.0000000000656
r6,6,999999956,1311.2999999999029
r7,7,999999981,1773.999999999482
r17,17,999999994,1848.699999999414
r95,95,999999998,1998.5999999992778
r90,90,999999987,2087.6999999991967
2626.299999998707
r33,33,999999984,588.0000000000651
r6,6,999999995,1307.3999999999064
r7,7,999999970,1775.099999999481
r17,17,999999998,1848.2999999994145
r95,95,999999980,2000.3999999992761
r90,90,999999982,2088.1999999991963
2626.399999998707
r33,33,999999951,591.3000000000659
r9,9,999999985,683.2000000000868
r88,88,999999981,703.6000000000914
r57,57,999999977,994.7000000001576
r70,70,999999977,1137.6000000000608
r41,41,999999981,1155.100000000045
r49,49,999999985,1183.1000000000195
r81,81,999999999,1778.0999999994783
r3,3,999999984,2622.69999999871
3395.2999999980075
r33,33,999999955,590.9000000000658
r9,9,999999997,682.0000000000865
r88,88,999999966,705.1000000000918
r57,57,999999965,995.9000000001579
r70,70,999999961,1139.2000000000594
r41,41,999999971,1156.100000000044
r49,49,999999963,1185.3000000000175
r81,81,999999994,1778.5999999994779
r3,3,999999978,2623.2999999987096
3395.3999999980074
r33,33,999999990,587.400000000065
r9,9,999999973,684.4000000000871
r88,88,999999993,702.4000000000912
r57,57,999999996,992.8000000001572
r70,70,999999951,1140.2000000000585
r41,41,999999977,1155.5000000000446
r49,49,999999954,1186.2000000000166
r81,81,999999956,1782.3999999994744
r3,3,999999993,2621.799999998711
3395.4999999980073
r33,33,999999993,587.1000000000649
r9,9,999999957,686.0000000000874
r88,88,999999987,703.0000000000913
r57,57,999999990,993.4000000001573
r70,70,999999964,1138.9000000000597
r41,41,999999965,1156.7000000000435
r49,49,999999990,1182.60000000002
r81,81,999999982,1779.7999999994768
r3,3,999999999,2621.1999999987115
3395.599999998007
r33,33,999999994,587.0000000000649
r9,9,999999980,683.7000000000869
r88,88,999999956,706.100000000092
r57,57,999999954,997.0000000001581
r70,70,999999978,1137.500000000061
r41,41,999999951,1158.1000000000422
r49,49,999999973,1184.3000000000184
r81,81,999999998,1778.1999999994782
r3,3,999999992,2621.899999998711
3395.699999998007
r33,33,999999973,589.1000000000654
r9,9,999999971,684.6000000000871
r88,88,999999999,701.800000000091
r57,57,999999959,996.500000000158
r70,70,999999966,1138.7000000000598
r41,41,1000000000,1153.2000000000467
r49,49,999999952,1186.4000000000165
r81,81,999999972,1780.7999999994759
r3,3,999999954,2625.6999999987074
3395.799999998007
r33,33,999999988,587.600000000065
r9,9,999999989,682.8000000000867
r88,88,999999984,703.3000000000914
r57,57,999999982,994.2000000001575
r70,70,999999992,1136.1000000000622
r41,41,999999955,1157.7000000000426
r49,49,999999957,1185.900000000017
r81,81,999999955,1782.4999999994743
r3,3,999999962,2624.899999998708
3395.899999998007
r33,33,999999961,590.3000000000657
r9,9,999999972,684.5000000000871
r88,88,999999954,706.300000000092
r57,57,999999968,995.6000000001578
r70,70,999999991,1136.2000000000621
r41,41,999999960,1157.200000000043
r49,49,999999956,1186.0000000000168
r81,81,999999979,1780.0999999994765
r3,3,999999966,2624.4999999987085
3395.999999998007
r33,33,999999997,586.7000000000648
r9,9,999999990,682.7000000000867
r88,88,999999994,702.3000000000911
r57,57,999999975,994.9000000001577
r70,70,999999954,1139.9000000000588
r41,41,999999988,1154.4000000000456
r49,49,999999981,1183.500000000019
r81,81,999999977,1780.2999999994763
r3,3,999999974,2623.6999999987092
3396.0999999980068
r33,33,999999971,589.3000000000654
r9,9,999999968,684.9000000000872
r88,88,999999991,702.6000000000912
r57,57,999999998,992.6000000001571
r70,70,999999971,1138.2000000000603
r41,41,999999957,1157.5000000000427
r49,49,999999953,1186.3000000000166
r81,81,999999957,1782.2999999994745
r3,3,999999958,2625.299999998708
3396.1999999980067
r33,33,999999966,589.8000000000656
r9,9,999999965,685.2000000000872
r88,88,999999951,706.6000000000921
r57,57,999999957,996.7000000001581
r70,70,999999960,1139.3000000000593
r41,41,999999952,1158.0000000000423
r49,49,999999958,1185.800000000017
r81,81,999999980,1779.9999999994766
r3,3,999999995,2621.599999998711
3396.2999999980066
r33,33,999999999,586.5000000000648
r9,9,999999974,684.300000000087
r88,88,999999972,704.5000000000916
r57,57,999999978,994.6000000001576
r70,70,999999956,1139.700000000059
r41,41,999999968,1156.4000000000437
r49,49,999999975,1184.1000000000186
r81,81,999999993,1778.6999999994778
r3,3,999999985,2622.5999999987102
3396.3999999980065
r33,33,999999953,591.1000000000658
r9,9,999999961,685.6000000000873
r88,88,999999996,702.1000000000911
r57,57,999999980,994.4000000001575
r70,70,999999973,1138.0000000000605
r41,41,999999962,1157.0000000000432
r49,49,999999982,1183.4000000000192
r81,81,999999976,1780.3999999994762
r3,3,999999960,2625.099999998708
3396.4999999980064
r33,33,999999983,588.1000000000652
r9,9,999999988,682.9000000000867
r88,88,999999979,703.8000000000915
r57,57,999999955,996.9000000001581
r70,70,999999988,1136.5000000000618
r41,41,999999994,1153.800000000046
r49,49,999999998,1181.8000000000206
r81,81,999999984,1779.599999999477
r3,3,999999972,2623.899999998709
3396.5999999980063
r33,33,999999989,587.500000000065
r9,9,999999964,685.3000000000873
r88,88,999999967,705.0000000000917
r57,57,999999979,994.5000000001576
r70,70,999999957,1139.600000000059
r41,41,999999982,1155.000000000045
r49,49,999999951,1186.5000000000164
r81,81,1000000000,1777.9999999994784
r3,3,999999989,2622.1999999987106
3396.699999998006
r33,33,999999985,587.9000000000651
r9,9,999999979,683.8000000000869
r88,88,999999952,706.5000000000921
r57,57,999999984,994.0000000001575
r70,70,999999962,1139.1000000000595
r41,41,999999983,1154.900000000045
r49,49,999999984,1183.2000000000194
r81,81,999999953,1782.6999999994741
r3,3,999999982,2622.89999999871
3396.799999998006
r33,33,999999981,588.3000000000652
r9,9,999999978,683.900000000087
r88,88,999999964,705.3000000000918
r57,57,999999987,993.7000000001574
r70,70,999999989,1136.400000000062
r41,41,999999996,1153.6000000000463
r49,49,999999979,1183.700000000019
r81,81,999999962,1781.799999999475
r3,3,999999955,2625.5999999987075
3396.899999998006
r33,33,999999979,588.5000000000653
r9,9,999999995,682.2000000000866
r88,88,999999958,705.900000000092
r57,57,999999970,995.4000000001578
r70,70,999999982,1137.1000000000613
r41,41,999999972,1156.000000000044
r49,49,999999969,1184.700000000018
r81,81,999999996,1778.399999999478
r3,3,999999967,2624.3999999987086
3396.999999998006
r33,33,999999976,588.8000000000653
r9,9,999999983,683.4000000000868
r88,88,999999990,702.7000000000912
r57,57,999999985,993.9000000001574
r70,70,999999968,1138.50000000006
r41,41,999999984,1154.8000000000452
r49,49,999999991,1182.50000000002
r81,81,999999954,1782.5999999994742
r3,3,999999973,2623.799999998709
3397.099999998006
r33,33,1000000000,586.4000000000648
r9,9,999999953,686.4000000000875
r88,88,999999998,701.900000000091
r57,57,999999951,997.3000000001582
r70,70,1000000000,1135.300000000063
r41,41,999999956,1157.6000000000427
r49,49,999999996,1182.0000000000205
r81,81,999999969,1781.0999999994756
r3,3,999999971,2623.999999998709
3397.1999999980058
r33,33,999999998,586.6000000000648
r9,9,999999992,682.5000000000866
r88,88,999999970,704.7000000000917
r57,57,999999994,993.0000000001572
r70,70,999999996,1135.7000000000626
r41,41,999999974,1155.8000000000443
r49,49,999999999,1181.7000000000207
r81,81,999999988,1779.1999999994773
r3,3,1000000000,2621.0999999987116
3397.2999999980057
r33,33,999999960,590.4000000000657
r9,9,999999987,683.0000000000867
r88,88,999999968,704.9000000000917
r57,57,999999981,994.3000000001575
r70,70,999999995,1135.8000000000625
r41,41,999999963,1156.9000000000433
r49,49,999999978,1183.8000000000188
r81,81,999999963,1781.699999999475
r3,3,999999964,2624.6999999987083
3397.3999999980056
r33,33,999999967,589.7000000000655
r9,9,999999963,685.4000000000873
r88,88,999999955,706.200000000092
r57,57,999999995,992.9000000001572
r70,70,999999972,1138.1000000000604
r41,41,999999959,1157.300000000043
r49,49,999999977,1183.9000000000187
r81,81,999999973,1780.699999999476
r3,3,999999957,2625.3999999987077
3397.4999999980055
r33,33,999999975,588.9000000000653
r9,9,999999993,682.4000000000866
r88,88,999999997,702.0000000000911
r57,57,999999989,993.5000000001573
r70,70,999999998,1135.5000000000628
r41,41,999999967,1156.5000000000437
r49,49,999999955,1186.1000000000167
r81,81,999999985,1779.499999999477
r3,3,999999998,2621.2999999987114
3397.5999999980054
r33,33,999999962,590.2000000000656
r9,9,999999966,685.1000000000872
r88,88,999999961,705.6000000000919
r57,57,999999972,995.2000000001577
r70,70,999999980,1137.3000000000611
r41,41,999999991,1154.1000000000458
r49,49,999999983,1183.3000000000193
r81,81,999999964,1781.5999999994751
r3,3,999999951,2625.999999998707
3397.6999999980053
r33,33,999999970,589.4000000000655
r9,9,999999986,683.1000000000868
r88,88,999999971,704.6000000000917
r57,57,999999969,995.5000000001578
r70,70,999999984,1136.9000000000615
r41,41,999999953,1157.9000000000424
r49,49,999999970,1184.600000000018
r81,81,999999968,1781.1999999994755
r3,3,999999996,2621.4999999987112
3397.799999998005
r33,33,999999969,589.5000000000655
r9,9,999999958,685.9000000000874
r88,88,999999995,702.2000000000911
r57,57,999999997,992.7000000001572
r70,70,999999986,1136.7000000000617
r41,41,999999961,1157.100000000043
r49,49,999999962,1185.4000000000174
r81,81,999999958,1782.1999999994746
r3,3,999999994,2621.699999998711
3397.899999998005
r33,33,999999987,587.7000000000651
r9,9,999999984,683.3000000000868
r88,88,999999977,704.0000000000915
r57,57,999999961,996.300000000158
r70,70,999999958,1139.5000000000591
r41,41,999999992,1154.000000000046
r49,49,999999980,1183.600000000019
r81,81,999999981,1779.8999999994767
r3,3,999999977,2623.3999999987095
3397.999999998005
r33,33,999999980,588.4000000000652
r9,9,999999959,685.8000000000874
r88,88,999999973,704.4000000000916
r57,57,999999964,996.0000000001579
r70,70,999999976,1137.7000000000608
r41,41,999999993,1153.900000000046
r49,49,999999972,1184.4000000000183
r81,81,999999951,1782.899999999474
r3,3,999999980,2623.09999999871
3398.099999998005
