r44,44,999999969,3.3000000000000016
r35,35,999999974,221.6999999999917
r33,33,999999985,458.8000000000358
r25,25,999999984,761.3000000001045
r88,88,1000000000,779.4000000001087
r4,4,999999967,1173.800000000028
r100,100,999999997,1267.2999999999429
1573.1999999996647
r44,44,999999992,0.9999999999999999
r35,35,999999997,219.39999999999182
r33,33,999999992,458.10000000003566
r25,25,999999966,763.100000000105
r88,88,999999988,780.6000000001089
r4,4,999999974,1173.1000000000286
r100,100,999999984,1268.5999999999417
1573.2999999996646
r44,44,999999988,1.4000000000000001
r35,35,999999987,220.39999999999176
r33,33,999999967,460.60000000003623
r25,25,999999987,761.0000000001045
r88,88,999999951,784.3000000001098
r4,4,999999957,1174.800000000027
r100,100,1000000000,1266.9999999999432
1573.3999999996645
r44,44,999999986,1.6000000000000003
r35,35,999999959,223.1999999999916
r33,33,999999982,459.1000000000359
r25,25,999999953,764.4000000001053
r88,88,999999991,780.3000000001089
r4,4,999999958,1174.700000000027
r100,100,999999967,1270.2999999999402
1573.4999999996644
r44,44,999999985,1.7000000000000004
r35,35,999999973,221.79999999999168
r33,33,999999996,457.7000000000356
r25,25,999999980,761.7000000001046
r88,88,999999975,781.9000000001092
r4,4,999999955,1175.0000000000268
r100,100,999999966,1270.39999999994
1573.5999999996643
r44,44,999999979,2.3000000000000007
r35,35,999999976,221.4999999999917
r33,33,999999955,461.8000000000365
r25,25,999999995,760.2000000001043
r88,88,999999987,780.700000000109
r4,4,999999990,1171.50000000003
r100,100,999999972,1269.7999999999406
1573.6999999996642
r44,44,999999981,2.1000000000000005
r35,35,999999964,222.69999999999163
r33,33,999999958,461.50000000003644
r25,25,999999992,760.5000000001044
r88,88,999999970,782.4000000001093
r4,4,999999973,1173.2000000000285
r100,100,999999958,1271.1999999999393
1573.7999999996641
r44,44,999999963,3.900000000000002
r35,35,999999969,222.19999999999166
r33,33,999999957,461.60000000003646
r25,25,999999959,763.8000000001051
r88,88,999999955,783.9000000001097
r4,4,999999996,1170.9000000000306
r100,100,999999955,1271.499999999939
1573.899999999664
r44,44,999999961,4.100000000000001
r35,35,999999970,222.09999999999167
r33,33,999999952,462.1000000000366
r25,25,999999985,761.2000000001045
r88,88,999999976,781.8000000001092
r4,4,999999959,1174.6000000000272
r100,100,999999992,1267.7999999999424
1573.999999999664
r44,44,999999996,0.6
r35,35,999999963,222.79999999999163
r33,33,999999987,458.6000000000358
r25,25,999999988,760.9000000001045
r88,88,999999981,781.3000000001091
r4,4,999999995,1171.0000000000305
r100,100,999999996,1267.3999999999428
1574.0999999996639
r44,44,999999964,3.800000000000002
r35,35,999999956,223.4999999999916
r33,33,999999979,459.40000000003596
r25,25,999999969,762.8000000001049
r88,88,999999983,781.100000000109
r4,4,999999999,1170.6000000000308
r100,100,999999957,1271.2999999999392
1574.1999999996638
r44,44,999999999,0.30000000000000004
r35,35,999999977,221.3999999999917
r33,33,999999983,459.00000000003587
r25,25,999999999,759.8000000001042
r88,88,999999952,784.2000000001098
r4,4,999999994,1171.1000000000304
r100,100,999999959,1271.0999999999394
1574.2999999996637
r44,44,999999967,3.5000000000000018
r35,35,999999962,222.89999999999162
r33,33,1000000000,457.3000000000355
r25,25,999999961,763.6000000001051
r88,88,999999959,783.5000000001096
r4,4,999999951,1175.4000000000265
r100,100,999999962,1270.7999999999397
1574.3999999996636
r44,44,999999965,3.700000000000002
r35,35,999999965,222.59999999999164
r33,33,999999976,459.700000000036
r25,25,999999955,764.2000000001052
r88,88,999999997,779.7000000001087
r4,4,999999964,1174.1000000000276
r100,100,999999977,1269.299999999941
1574.4999999996635
r44,44,999999983,1.9000000000000006
r35,35,999999995,219.5999999999918
r33,33,999999962,461.10000000003635
r25,25,999999990,760.7000000001044
r88,88,999999961,783.3000000001095
r4,4,999999952,1175.3000000000266
r100,100,999999978,1269.1999999999412
1574.5999999996634
r44,44,999999997,0.5
r35,35,999999999,219.19999999999183
r33,33,999999968,460.5000000000362
r25,25,999999993,760.4000000001043
r88,88,999999985,780.900000000109
r4,4,999999998,1170.7000000000307
r100,100,999999964,1270.5999999999399
1574.6999999996633
r44,44,999999976,2.600000000000001
r35,35,999999960,223.0999999999916
r33,33,999999951,462.2000000000366
r25,25,999999997,760.0000000001043
r88,88,999999974,782.0000000001093
r4,4,999999965,1174.0000000000277
r100,100,999999961,1270.8999999999396
1574.7999999996632
r44,44,999999966,3.600000000000002
r35,35,999999952,223.89999999999156
r33,33,999999953,462.00000000003655
r25,25,999999968,762.9000000001049
r88,88,999999980,781.4000000001091
r4,4,999999988,1171.7000000000298
r100,100,999999976,1269.399999999941
1574.8999999996631
r44,44,999999994,0.7999999999999999
r35,35,999999991,219.9999999999918
r33,33,999999973,460.0000000000361
r25,25,999999994,760.3000000001043
r88,88,999999960,783.4000000001096
r4,4,999999971,1173.4000000000283
r100,100,999999965,1270.49999999994
1574.999999999663
r44,44,1000000000,0.2
r35,35,999999994,219.6999999999918
r33,33,999999997,457.60000000003555
r25,25,999999967,763.0000000001049
r88,88,999999977,781.7000000001092
r4,4,999999966,1173.9000000000278
r100,100,999999982,1268.7999999999415
1575.099999999663
r44,44,999999974,2.800000000000001
r35,35,999999983,220.79999999999174
r33,33,999999999,457.4000000000355
r25,25,999999957,764.0000000001052
r88,88,999999995,779.9000000001088
r4,4,999999953,1175.2000000000266
r100,100,999999980,1268.9999999999413
1575.1999999996629
r44,44,999999980,2.2000000000000006
r35,35,999999966,222.49999999999164
r33,33,999999998,457.5000000000355
r25,25,999999963,763.400000000105
r88,88,999999956,783.8000000001097
r4,4,999999969,1173.600000000028
r100,100,999999963,1270.6999999999398
1575.2999999996628
r44,44,999999959,4.300000000000001
r35,35,999999958,223.2999999999916
r33,33,999999978,459.500000000036
r25,25,999999973,762.4000000001048
r88,88,999999965,782.9000000001095
r4,4,999999981,1172.4000000000292
r100,100,999999987,1268.299999999942
1575.3999999996627
r44,44,999999993,0.8999999999999999
r35,35,999999954,223.69999999999158
r33,33,999999993,458.00000000003564
r25,25,999999974,762.3000000001048
r88,88,999999979,781.5000000001091
r4,4,999999986,1171.9000000000296
r100,100,999999994,1267.5999999999426
1575.4999999996626
r44,44,999999991,1.0999999999999999
r35,35,999999984,220.69999999999175
r33,33,999999963,461.0000000000363
r25,25,999999952,764.5000000001053
r88,88,999999978,781.6000000001092
r4,4,999999975,1173.0000000000286
r100,100,999999998,1267.199999999943
1575.5999999996625
r44,44,999999975,2.700000000000001
r35,35,999999955,223.59999999999158
r33,33,999999964,460.9000000000363
r25,25,999999958,763.9000000001051
r88,88,999999992,780.2000000001088
r4,4,999999983,1172.2000000000294
r100,100,999999990,1267.9999999999422
1575.6999999996624
r44,44,999999972,3.0000000000000013
r35,35,1000000000,219.09999999999184
r33,33,999999989,458.40000000003573
r25,25,999999972,762.5000000001048
r88,88,999999972,782.2000000001093
r4,4,999999962,1174.3000000000275
r100,100,999999999,1267.099999999943
1575.7999999996623
r44,44,999999984,1.8000000000000005
r35,35,999999968,222.29999999999166
r33,33,999999994,457.9000000000356
r25,25,999999971,762.6000000001048
r88,88,999999953,784.1000000001097
r4,4,999999982,1172.3000000000293
r100,100,999999988,1268.199999999942
1575.8999999996622
r44,44,999999987,1.5000000000000002
r35,35,999999981,220.99999999999173
r33,33,999999990,458.3000000000357
r25,25,999999983,761.4000000001046
r88,88,999999957,783.7000000001096
r4,4,999999991,1171.40000000003
r100,100,999999983,1268.6999999999416
1575.9999999996621
r44,44,999999955,4.699999999999999
r35,35,999999978,221.2999999999917
r33,33,999999981,459.2000000000359
r25,25,999999982,761.5000000001046
r88,88,999999996,779.8000000001088
r4,4,999999968,1173.700000000028
r100,100,999999991,1267.8999999999423
1576.099999999662
r44,44,999999973,2.9000000000000012
r35,35,999999993,219.7999999999918
r33,33,999999960,461.3000000000364
r25,25,999999956,764.1000000001052
r88,88,999999968,782.6000000001094
r4,4,999999970,1173.5000000000282
r100,100,999999995,1267.4999999999427
1576.199999999662
r44,44,999999953,4.899999999999999
r35,35,999999986,220.49999999999176
r33,33,999999986,458.7000000000358
r25,25,999999991,760.6000000001044
r88,88,999999964,783.0000000001095
r4,4,999999963,1174.2000000000276
r100,100,999999974,1269.5999999999408
1576.2999999996618
r44,44,999999977,2.500000000000001
r35,35,999999953,223.79999999999157
r33,33,999999977,459.600000000036
r25,25,999999979,761.8000000001047
r88,88,999999973,782.1000000001093
r4,4,999999980,1172.500000000029
r100,100,999999973,1269.6999999999407
1576.3999999996618
r44,44,999999954,4.799999999999999
r35,35,999999996,219.49999999999181
r33,33,999999965,460.8000000000363
r25,25,999999951,764.6000000001053
r88,88,999999993,780.1000000001088
r4,4,999999961,1174.4000000000274
r100,100,999999985,1268.4999999999418
1576.4999999996617
r44,44,999999962,4.000000000000002
r35,35,999999957,223.3999999999916
r33,33,999999959,461.4000000000364
r25,25,999999976,762.1000000001047
r88,88,999999989,780.5000000001089
r4,4,999999993,1171.2000000000303
r100,100,999999951,1271.8999999999387
1576.5999999996616
r44,44,999999978,2.400000000000001
r35,35,999999951,223.99999999999156
r33,33,999999954,461.9000000000365
r25,25,999999978,761.9000000001047
r88,88,999999966,782.8000000001094
r4,4,999999992,1171.3000000000302
r100,100,999999952,1271.7999999999388
1576.6999999996615
r44,44,999999998,0.4
r35,35,999999971,221.99999999999167
r33,33,999999956,461.7000000000365
r25,25,999999981,761.6000000001046
r88,88,999999967,782.7000000001094
r4,4,999999978,1172.700000000029
r100,100,999999975,1269.4999999999409
1576.7999999996614
r44,44,999999960,4.200000000000001
r35,35,999999972,221.89999999999168
r33,33,999999974,459.9000000000361
r25,25,999999986,761.1000000001045
r88,88,999999962,783.2000000001095
r4,4,999999985,1172.0000000000296
r100,100,999999953,1271.6999999999389
1576.8999999996613
r44,44,999999990,1.2
r35,35,999999988,220.29999999999177
r33,33,999999995,457.8000000000356
r25,25,999999998,759.9000000001042
r88,88,999999971,782.3000000001093
r4,4,999999956,1174.900000000027
r100,100,999999986,1268.3999999999419
1576.9999999996612
r44,44,999999958,4.4
r35,35,999999989,220.19999999999177
r33,33,999999984,458.90000000003585
r25,25,999999962,763.500000000105
r88,88,999999994,780.0000000001088
r4,4,999999954,1175.1000000000267
r100,100,999999954,1271.599999999939
1577.0999999996611
r44,44,999999982,2.0000000000000004
r35,35,999999992,219.8999999999918
r33,33,999999988,458.50000000003575
r25,25,999999964,763.300000000105
r88,88,999999954,784.0000000001097
r4,4,999999989,1171.60000000003
r100,100,999999971,1269.8999999999405
1577.199999999661
r44,44,999999971,3.1000000000000014
r35,35,999999998,219.29999999999183
r33,33,999999969,460.4000000000362
r25,25,999999996,760.1000000001043
r88,88,999999998,779.6000000001087
r4,4,999999987,1171.8000000000297
r100,100,999999981,1268.8999999999414
1577.299999999661
r44,44,999999956,4.6
r35,35,999999982,220.89999999999173
r33,33,999999991,458.2000000000357
r25,25,999999970,762.7000000001049
r88,88,999999969,782.5000000001094
r4,4,999999977,1172.8000000000288
r100,100,999999956,1271.3999999999392
1577.3999999996608
r44,44,999999957,4.5
r35,35,999999967,222.39999999999165
r33,33,999999980,459.30000000003594
r25,25,999999977,762.0000000001047
r88,88,999999963,783.1000000001095
r4,4,999999976,1172.9000000000287
r100,100,999999969,1270.0999999999403
1577.4999999996608
r44,44,999999968,3.4000000000000017
r35,35,999999980,221.09999999999172
r33,33,999999966,460.70000000003625
r25,25,1000000000,759.7000000001042
r88,88,999999984,781.000000000109
r4,4,999999972,1173.3000000000284
r100,100,999999993,1267.6999999999425
1577.5999999996607
r44,44,999999970,3.2000000000000015
r35,35,999999961,222.99999999999162
r33,33,999999972,460.1000000000361
r25,25,999999960,763.7000000001051
r88,88,999999990,780.4000000001089
r4,4,999999997,1170.8000000000306
r100,100,999999979,1269.0999999999412
1577.6999999996606
r44,44,999999952,4.999999999999998
r35,35,999999990,220.09999999999178
r33,33,999999971,460.20000000003614
r25,25,999999965,763.200000000105
r88,88,999999999,779.5000000001087
r4,4,999999984,1172.1000000000295
r100,100,999999970,1269.9999999999404
1577.7999999996605
r44,44,999999951,5.099999999999998
r35,35,999999979,221.19999999999172
r33,33,999999975,459.80000000003605
r25,25,999999975,762.2000000001048
r88,88,999999958,783.6000000001096
r4,4,999999979,1172.600000000029
r100,100,999999968,1270.1999999999402
1577.8999999996604
r44,44,999999995,0.7
r35,35,999999985,220.59999999999175
r33,33,999999961,461.20000000003637
r25,25,999999989,760.8000000001044
r88,88,999999982,781.2000000001091
r4,4,1000000000,1170.500000000031
r100,100,999999989,1268.0999999999422
1577.9999999996603
r44,44,999999989,1.3
r35,35,999999975,221.5999999999917
r33,33,999999970,460.30000000003616
r25,25,999999954,764.3000000001052
r88,88,999999986,780.800000000109
r4,4,999999960,1174.5000000000273
r100,100,999999960,1270.9999999999395
1578.0999999996602
