r5,5,999999990,391.4000000000205
r91,91,999999982,516.0000000000488
r90,90,999999992,550.6000000000566
r73,73,999999963,1128.8000000000688
r82,82,999999987,1144.7000000000544
1227.1999999999794
r5,5,999999977,392.7000000000208
r91,91,999999986,515.6000000000487
r90,90,999999965,553.3000000000573
r73,73,999999973,1127.8000000000698
r82,82,999999976,1145.8000000000534
1227.2999999999793
r5,5,999999963,394.1000000000211
r91,91,999999970,517.200000000049
r90,90,999999996,550.2000000000565
r73,73,999999985,1126.6000000000708
r82,82,999999985,1144.9000000000542
1227.3999999999792
r5,5,999999996,390.80000000002036
r91,91,999999992,515.0000000000485
r90,90,999999976,552.200000000057
r73,73,999999970,1128.1000000000695
r82,82,999999981,1145.3000000000538
1227.499999999979
r5,5,999999985,391.9000000000206
r91,91,999999995,514.7000000000485
r90,90,999999977,552.100000000057
r73,73,999999987,1126.400000000071
r82,82,999999999,1143.5000000000555
1227.599999999979
r5,5,999999982,392.2000000000207
r91,91,999999969,517.3000000000491
r90,90,999999973,552.5000000000571
r73,73,999999991,1126.0000000000714
r82,82,999999973,1146.1000000000531
1227.699999999979
r5,5,999999998,390.6000000000203
r91,91,999999981,516.1000000000488
r90,90,999999986,551.2000000000568
r73,73,999999993,1125.8000000000716
r82,82,999999993,1144.100000000055
1227.7999999999788
r5,5,999999975,392.90000000002084
r91,91,999999967,517.5000000000491
r90,90,999999983,551.5000000000568
r73,73,999999965,1128.600000000069
r82,82,999999990,1144.4000000000547
1227.8999999999787
r5,5,999999965,393.90000000002107
r91,91,999999983,515.9000000000487
r90,90,999999987,551.1000000000568
r73,73,999999995,1125.6000000000718
r82,82,999999964,1147.0000000000523
1227.9999999999786
r5,5,999999994,391.0000000000204
r91,91,999999990,515.2000000000486
r90,90,999999975,552.300000000057
r73,73,999999962,1128.9000000000688
r82,82,999999977,1145.7000000000535
1228.0999999999785
r5,5,999999976,392.8000000000208
r91,91,999999979,516.3000000000488
r90,90,999999964,553.4000000000573
r73,73,999999979,1127.2000000000703
r82,82,999999967,1146.7000000000526
1228.1999999999784
r5,5,999999988,391.60000000002054
r91,91,999999971,517.100000000049
r90,90,999999974,552.400000000057
r73,73,999999972,1127.9000000000697
r82,82,999999997,1143.7000000000553
1228.2999999999784
r5,5,999999986,391.8000000000206
r91,91,999999965,517.7000000000492
r90,90,999999990,550.8000000000567
r73,73,999999980,1127.1000000000704
r82,82,999999988,1144.6000000000545
1228.3999999999783
r5,5,999999959,394.5000000000212
r91,91,999999993,514.9000000000485
r90,90,999999997,550.1000000000565
r73,73,999999976,1127.50000000007
r82,82,1000000000,1143.4000000000556
1228.4999999999782
r5,5,999999961,394.30000000002116
r91,91,999999975,516.7000000000489
r90,90,999999998,550.0000000000565
r73,73,999999977,1127.4000000000701
r82,82,999999969,1146.5000000000528
1228.599999999978
r5,5,999999972,393.2000000000209
r91,91,999999988,515.4000000000486
r90,90,999999966,553.2000000000572
r73,73,999999994,1125.7000000000717
r82,82,999999963,1147.1000000000522
1228.699999999978
r5,5,999999987,391.70000000002057
r91,91,999999991,515.1000000000486
r90,90,999999993,550.5000000000566
r73,73,999999967,1128.4000000000692
r82,82,999999970,1146.4000000000528
1228.799999999978
r5,5,999999971,393.30000000002093
r91,91,999999972,517.000000000049
r90,90,999999988,551.0000000000567
r73,73,999999992,1125.9000000000715
r82,82,999999984,1145.0000000000541
1228.8999999999778
r5,5,999999956,394.80000000002127
r91,91,999999973,516.900000000049
r90,90,999999981,551.7000000000569
r73,73,999999978,1127.3000000000702
r82,82,999999986,1144.8000000000543
1228.9999999999777
r5,5,999999954,395.0000000000213
r91,91,999999976,516.6000000000489
r90,90,999999970,552.8000000000571
r73,73,999999961,1129.0000000000687
r82,82,999999983,1145.100000000054
1229.0999999999776
r5,5,999999955,394.9000000000213
r91,91,999999968,517.4000000000491
r90,90,999999979,551.9000000000569
r73,73,999999966,1128.5000000000691
r82,82,999999979,1145.5000000000537
1229.1999999999775
r5,5,999999995,390.9000000000204
r91,91,999999978,516.4000000000489
r90,90,999999980,551.8000000000569
r73,73,999999996,1125.5000000000719
r82,82,999999978,1145.6000000000536
1229.2999999999774
r5,5,999999997,390.70000000002034
r91,91,999999964,517.8000000000492
r90,90,999999982,551.6000000000569
r73,73,999999968,1128.3000000000693
r82,82,999999998,1143.6000000000554
1229.3999999999774
r5,5,999999958,394.6000000000212
r91,91,999999996,514.6000000000485
r90,90,999999972,552.6000000000571
r73,73,999999983,1126.8000000000707
r82,82,999999974,1146.0000000000532
1229.4999999999773
r5,5,999999973,393.1000000000209
r91,91,999999962,518.0000000000492
r90,90,999999984,551.4000000000568
r73,73,999999981,1127.0000000000705
r82,82,999999975,1145.9000000000533
1229.5999999999772
r5,5,999999967,393.700000000021
r91,91,999999985,515.7000000000487
r90,90,999999995,550.3000000000566
r73,73,999999982,1126.9000000000706
r82,82,999999996,1143.8000000000552
1229.699999999977
r5,5,999999953,395.10000000002134
r91,91,999999963,517.9000000000492
r90,90,999999961,553.7000000000573
r73,73,999999997,1125.400000000072
r82,82,999999992,1144.2000000000548
1229.799999999977
r5,5,999999974,393.00000000002086
r91,91,999999994,514.8000000000485
r90,90,999999978,552.000000000057
r73,73,999999974,1127.7000000000698
r82,82,999999995,1143.9000000000551
1229.899999999977
r5,5,999999969,393.500000000021
r91,91,999999997,514.5000000000484
r90,90,999999967,553.1000000000572
r73,73,1000000000,1125.1000000000722
r82,82,999999989,1144.5000000000546
1229.9999999999768
r5,5,999999966,393.80000000002104
r91,91,999999980,516.2000000000488
r90,90,999999969,552.9000000000572
r73,73,999999989,1126.2000000000712
r82,82,999999965,1146.9000000000524
1230.0999999999767
r5,5,999999957,394.70000000002125
r91,91,999999961,518.1000000000492
r90,90,999999963,553.5000000000573
r73,73,999999988,1126.3000000000711
r82,82,999999972,1146.200000000053
1230.1999999999766
r5,5,999999964,394.0000000000211
r91,91,1000000000,514.2000000000484
r90,90,999999989,550.9000000000567
r73,73,999999969,1128.2000000000694
r82,82,999999961,1147.300000000052
1230.2999999999765
r5,5,999999984,392.00000000002063
r91,91,999999989,515.3000000000486
r90,90,999999968,553.0000000000572
r73,73,999999984,1126.7000000000708
r82,82,999999966,1146.8000000000525
1230.3999999999764
r5,5,999999970,393.40000000002095
r91,91,999999987,515.5000000000487
r90,90,999999991,550.7000000000567
r73,73,999999998,1125.300000000072
r82,82,999999991,1144.3000000000548
1230.4999999999764
r5,5,999999981,392.3000000000207
r91,91,999999999,514.3000000000484
r90,90,999999962,553.6000000000573
r73,73,999999964,1128.700000000069
r82,82,999999962,1147.2000000000521
1230.5999999999763
r5,5,999999952,395.20000000002136
r91,91,999999974,516.800000000049
r90,90,999999999,549.9000000000565
r73,73,999999975,1127.60000000007
r82,82,999999982,1145.200000000054
1230.6999999999762
r5,5,999999968,393.600000000021
r91,91,999999977,516.5000000000489
r90,90,999999971,552.7000000000571
r73,73,999999999,1125.2000000000721
r82,82,999999968,1146.6000000000527
1230.799999999976
r5,5,999999980,392.4000000000207
r91,91,999999966,517.6000000000491
r90,90,999999994,550.4000000000566
r73,73,999999986,1126.500000000071
r82,82,999999971,1146.300000000053
1230.899999999976
r5,5,1000000000,390.40000000002027
r91,91,999999984,515.8000000000487
r90,90,1000000000,549.8000000000565
r73,73,999999990,1126.1000000000713
r82,82,999999994,1144.000000000055
1230.999999999976
r5,5,999999979,392.50000000002075
r91,91,999999998,514.4000000000484
r90,90,999999985,551.3000000000568
r73,73,999999971,1128.0000000000696
r82,82,999999980,1145.4000000000538
1231.0999999999758
r5,5,999999993,391.10000000002043
r61,61,999999984,947.3000000001468
1737.1999999995155
r5,5,999999991,391.3000000000205
r61,61,999999970,948.7000000001472
1737.2999999995154
r5,5,999999989,391.5000000000205
r61,61,999999972,948.5000000001471
1737.3999999995153
r5,5,999999962,394.20000000002113
r61,61,999999980,947.7000000001469
1737.4999999995152
r5,5,999999983,392.10000000002066
r61,61,999999986,947.1000000001468
1737.5999999995151
r5,5,999999999,390.5000000000203
r61,61,999999973,948.4000000001471
1737.699999999515
r5,5,999999978,392.60000000002077
r61,61,999999994,946.3000000001466
1737.799999999515
r5,5,999999960,394.4000000000212
r61,61,1000000000,945.7000000001465
1737.8999999995149
r5,5,999999992,391.20000000002045
r61,61,999999989,946.8000000001467
1737.9999999995148
r5,5,999999951,395.3000000000214
r61,61,999999975,948.200000000147
1738.0999999995147
