r3,3,999999989,384.10000000001884
r91,91,999999997,804.6000000001144
r2,2,999999955,1954.0999999993182
r83,83,999999963,2199.799999999095
2201.1999999990935
r3,3,999999983,384.700000000019
r91,91,999999995,804.8000000001144
r2,2,999999953,1954.299999999318
r83,83,999999958,2200.2999999990943
2201.2999999990934
r3,3,999999958,387.20000000001954
r91,91,999999954,808.9000000001154
r2,2,999999974,1952.19999999932
r83,83,999999960,2200.0999999990945
2201.3999999990933
r3,3,999999992,383.80000000001877
r91,91,999999983,806.0000000001147
r2,2,999999995,1950.0999999993219
r83,83,999999954,2200.699999999094
2201.4999999990932
r3,3,999999980,385.00000000001904
r91,91,999999959,808.4000000001153
r2,2,999999978,1951.7999999993203
r83,83,999999953,2200.799999999094
2201.599999999093
r3,3,999999977,385.3000000000191
r91,91,999999993,805.0000000001145
r2,2,999999954,1954.1999999993182
r83,83,999999994,2196.6999999990976
2201.699999999093
r3,3,999999954,387.60000000001963
r91,91,999999982,806.1000000001147
r2,2,999999993,1950.2999999993217
r83,83,999999967,2199.399999999095
2201.799999999093
r3,3,999999998,383.20000000001863
r91,91,999999977,806.6000000001148
r2,2,999999970,1952.5999999993196
r83,83,999999984,2197.6999999990967
2201.899999999093
r3,3,999999978,385.2000000000191
r91,91,999999956,808.7000000001153
r2,2,999999952,1954.399999999318
r83,83,999999996,2196.499999999098
2201.999999999093
r3,3,999999953,387.70000000001966
r91,91,999999973,807.0000000001149
r2,2,999999963,1953.299999999319
r83,83,999999987,2197.399999999097
2202.0999999990927
r3,3,999999957,387.30000000001957
r91,91,999999961,808.2000000001152
r2,2,999999986,1950.999999999321
r83,83,999999979,2198.1999999990962
2202.1999999990926
r3,3,999999961,386.9000000000195
r91,91,999999965,807.8000000001151
r2,2,999999956,1953.9999999993183
r83,83,999999962,2199.8999999990947
2202.2999999990925
r3,3,999999962,386.80000000001945
r91,91,999999960,808.3000000001152
r2,2,999999972,1952.3999999993198
r83,83,999999970,2199.0999999990954
2202.3999999990924
r3,3,999999956,387.4000000000196
r91,91,999999990,805.3000000001146
r2,2,999999975,1952.09999999932
r83,83,999999969,2199.1999999990953
2202.4999999990923
r3,3,999999987,384.3000000000189
r91,91,999999975,806.8000000001149
r2,2,999999985,1951.099999999321
r83,83,999999959,2200.1999999990944
2202.5999999990922
r3,3,999999993,383.70000000001875
r91,91,999999978,806.5000000001148
r2,2,999999962,1953.3999999993189
r83,83,999999992,2196.8999999990974
2202.699999999092
r3,3,999999973,385.7000000000192
r91,91,999999964,807.9000000001151
r2,2,999999969,1952.6999999993195
2256.499999999043
r3,3,999999997,383.30000000001866
r91,91,999999957,808.6000000001153
r2,2,999999979,1951.6999999993204
2256.599999999043
r3,3,999999991,383.9000000000188
r91,91,999999962,808.1000000001152
r2,2,999999951,1954.4999999993179
2256.699999999043
r3,3,999999990,384.0000000000188
r91,91,999999967,807.6000000001151
r2,2,999999959,1953.6999999993186
2256.799999999043
r3,3,999999970,386.00000000001927
r91,91,999999986,805.7000000001146
r2,2,999999964,1953.199999999319
2256.899999999043
r3,3,999999967,386.30000000001934
r91,91,999999976,806.7000000001149
r2,2,999999968,1952.7999999993194
2256.9999999990428
r3,3,999999968,386.2000000000193
r91,91,999999988,805.5000000001146
r2,2,999999998,1949.7999999993222
2257.0999999990427
r3,3,999999965,386.5000000000194
r91,91,999999994,804.9000000001145
r2,2,999999984,1951.1999999993209
2257.1999999990426
r3,3,999999984,384.60000000001895
r91,91,999999952,809.1000000001154
r2,2,999999982,1951.3999999993207
2257.2999999990425
r3,3,999999982,384.800000000019
r91,91,999999992,805.1000000001145
r2,2,999999966,1952.9999999993192
2257.3999999990424
r3,3,999999988,384.20000000001886
r91,91,999999987,805.6000000001146
r2,2,999999971,1952.4999999993197
2257.4999999990423
r3,3,999999963,386.70000000001943
r91,91,999999974,806.9000000001149
r2,2,999999990,1950.5999999993214
2257.599999999042
r3,3,999999960,387.0000000000195
r91,91,999999989,805.4000000001146
r2,2,999999976,1951.9999999993202
2257.699999999042
r3,3,999999975,385.50000000001916
r91,91,999999985,805.8000000001147
r2,2,999999989,1950.6999999993213
2257.799999999042
r3,3,999999999,383.1000000000186
r91,91,999999996,804.7000000001144
r2,2,999999992,1950.3999999993216
2257.899999999042
r3,3,999999971,385.90000000001925
r91,91,999999970,807.300000000115
r2,2,999999987,1950.8999999993212
2257.999999999042
r3,3,999999986,384.4000000000189
r91,91,999999998,804.5000000001144
r2,2,999999988,1950.7999999993212
2258.0999999990418
r3,3,999999964,386.6000000000194
r91,91,999999979,806.4000000001148
r2,2,999999967,1952.8999999993193
2258.1999999990417
r3,3,999999952,387.8000000000197
r91,91,1000000000,804.3000000001143
r2,2,999999965,1953.0999999993192
2258.2999999990416
r3,3,999999976,385.40000000001913
r91,91,999999971,807.200000000115
r2,2,1000000000,1949.5999999993223
2258.3999999990415
r3,3,999999981,384.900000000019
r91,91,999999958,808.5000000001153
r2,2,999999996,1949.999999999322
2258.4999999990414
r3,3,999999979,385.10000000001907
r91,91,999999981,806.2000000001148
r2,2,999999994,1950.1999999993218
2258.5999999990413
r3,3,999999996,383.4000000000187
r91,91,999999953,809.0000000001154
r2,2,999999981,1951.4999999993206
2258.699999999041
r3,3,999999951,387.9000000000197
r91,91,999999980,806.3000000001148
r2,2,999999961,1953.4999999993188
2258.799999999041
r3,3,999999966,386.40000000001936
r91,91,999999999,804.4000000001143
r2,2,999999991,1950.4999999993215
2258.899999999041
r3,3,999999959,387.1000000000195
r91,91,999999955,808.8000000001153
r2,2,999999960,1953.5999999993187
2258.999999999041
r3,3,1000000000,383.0000000000186
r91,91,999999991,805.2000000001145
r2,2,999999999,1949.6999999993222
2259.099999999041
r3,3,999999955,387.5000000000196
r91,91,999999966,807.7000000001151
r2,2,999999983,1951.2999999993208
2259.1999999990408
r3,3,999999974,385.6000000000192
r91,91,999999972,807.100000000115
r2,2,999999958,1953.7999999993185
2259.2999999990407
r3,3,999999985,384.50000000001893
r91,91,999999984,805.9000000001147
r2,2,999999977,1951.8999999993202
2259.3999999990406
r3,3,999999994,383.6000000000187
r91,91,999999968,807.500000000115
r2,2,999999973,1952.2999999993199
2259.4999999990405
r3,3,999999969,386.1000000000193
r91,91,999999969,807.400000000115
r2,2,999999957,1953.8999999993184
2259.5999999990404
r3,3,999999972,385.8000000000192
r91,91,999999951,809.2000000001154
r2,2,999999997,1949.899999999322
2259.6999999990403
r3,3,999999995,383.5000000000187
r91,91,999999963,808.0000000001152
r2,2,999999980,1951.5999999993205
2259.79999999904
