r76,76,999999975,2.700000000000001
r4,4,999999990,388.3000000000198
r11,11,999999973,513.7000000000482
r39,39,999999981,975.6000000001533
r42,42,999999987,1771.4999999994843
2016.2999999992617
r76,76,999999963,3.900000000000002
r4,4,999999998,387.5000000000196
r11,11,999999952,515.8000000000487
r39,39,999999968,976.9000000001536
r42,42,999999970,1773.1999999994828
2016.3999999992616
r76,76,999999997,0.5
r4,4,999999972,390.1000000000202
r11,11,999999978,513.2000000000481
r39,39,999999997,974.0000000001529
r42,42,999999994,1770.799999999485
2016.4999999992615
r76,76,999999954,4.799999999999999
r4,4,999999955,391.8000000000206
r11,11,999999997,511.30000000004776
r39,39,999999982,975.5000000001532
r42,42,1000000000,1770.1999999994855
2016.5999999992614
r76,76,999999955,4.699999999999999
r4,4,999999991,388.20000000001977
r11,11,999999964,514.6000000000485
r39,39,999999977,976.0000000001534
r42,42,999999986,1771.5999999994842
2016.6999999992613
r76,76,999999980,2.2000000000000006
r4,4,999999980,389.30000000002
r11,11,999999984,512.600000000048
r39,39,999999973,976.4000000001535
r42,42,999999982,1771.9999999994839
2016.7999999992612
r76,76,999999993,0.8999999999999999
r4,4,999999961,391.20000000002045
r11,11,999999987,512.3000000000479
r39,39,999999969,976.8000000001535
r42,42,999999980,1772.1999999994837
2016.8999999992611
r76,76,999999967,3.5000000000000018
r4,4,999999970,390.30000000002025
r11,11,999999995,511.5000000000478
r39,39,999999992,974.500000000153
r42,42,999999988,1771.3999999994844
2016.999999999261
r76,76,999999981,2.1000000000000005
r4,4,999999984,388.90000000001993
r11,11,999999967,514.3000000000484
r39,39,999999966,977.1000000001536
r42,42,999999964,1773.7999999994822
2017.099999999261
r76,76,999999986,1.6000000000000003
r4,4,999999994,387.9000000000197
r11,11,999999983,512.700000000048
r39,39,999999980,975.7000000001533
r42,42,999999990,1771.1999999994846
2017.1999999992609
r76,76,999999999,0.30000000000000004
r4,4,999999973,390.0000000000202
r11,11,999999961,514.9000000000485
r39,39,999999986,975.1000000001532
r42,42,999999981,1772.0999999994838
2017.2999999992608
r76,76,999999990,1.2
r4,4,999999963,391.0000000000204
r11,11,999999994,511.6000000000478
r39,39,999999972,976.5000000001535
r42,42,999999983,1771.899999999484
2017.3999999992607
r76,76,999999983,1.9000000000000006
r4,4,999999982,389.10000000002
r11,11,999999982,512.800000000048
r39,39,999999991,974.600000000153
r42,42,999999976,1772.5999999994833
2017.4999999992606
r76,76,999999965,3.700000000000002
r39,39,999999955,1203.1000000000013
r42,42,999999974,1772.7999999994831
2017.5999999992605
r76,76,999999971,3.1000000000000014
r4,4,999999966,390.70000000002034
r11,11,999999980,513.0000000000481
r39,39,999999996,974.1000000001529
r42,42,999999972,1772.999999999483
2017.6999999992604
r76,76,999999964,3.800000000000002
r4,4,999999960,391.3000000000205
r11,11,999999993,511.70000000004785
r39,39,999999976,976.1000000001534
r42,42,999999989,1771.2999999994845
2017.7999999992603
r76,76,999999969,3.3000000000000016
r4,4,999999964,390.9000000000204
r11,11,999999959,515.1000000000486
r39,39,999999959,977.8000000001538
r42,42,999999973,1772.899999999483
2017.8999999992602
r76,76,999999968,3.4000000000000017
r4,4,999999952,392.10000000002066
r11,11,999999999,511.1000000000477
r39,39,999999971,976.6000000001535
r42,42,999999985,1771.6999999994841
2017.9999999992601
r76,76,999999992,0.9999999999999999
r4,4,999999983,389.00000000001995
r11,11,999999974,513.6000000000482
r39,39,999999985,975.2000000001532
r42,42,999999999,1770.2999999994854
2018.09999999926
r76,76,999999973,2.9000000000000012
r39,39,999999958,1202.8000000000015
r42,42,999999996,1770.5999999994851
2018.19999999926
r76,76,999999984,1.8000000000000005
r4,4,999999995,387.8000000000197
r11,11,999999957,515.3000000000486
r39,39,999999995,974.200000000153
r42,42,999999969,1773.2999999994827
2018.2999999992599
r76,76,999999976,2.600000000000001
r39,39,999999957,1202.9000000000015
r42,42,999999977,1772.4999999994834
2018.3999999992598
r76,76,999999982,2.0000000000000004
r39,39,999999956,1203.0000000000014
r42,42,999999968,1773.3999999994826
2018.4999999992597
r76,76,999999960,4.200000000000001
r4,4,999999956,391.70000000002057
r11,11,999999955,515.5000000000487
r39,39,999999989,974.8000000001531
r42,42,999999997,1770.4999999994852
2018.5999999992596
r76,76,999999998,0.4
r4,4,999999999,387.4000000000196
r11,11,999999969,514.1000000000483
r39,39,999999999,973.8000000001529
r42,42,999999967,1773.4999999994825
2018.6999999992595
r76,76,999999988,1.4000000000000001
r4,4,999999985,388.8000000000199
r11,11,999999963,514.7000000000485
r39,39,999999967,977.0000000001536
r42,42,999999965,1773.6999999994823
2018.7999999992594
r76,76,999999952,4.999999999999998
r4,4,999999997,387.60000000001963
r11,11,999999977,513.3000000000482
r39,39,999999964,977.3000000001537
r42,42,999999984,1771.799999999484
2018.8999999992593
r76,76,999999961,4.100000000000001
r4,4,999999965,390.80000000002036
r11,11,999999972,513.8000000000483
r39,39,999999988,974.9000000001531
r42,42,999999992,1770.9999999994848
2018.9999999992592
r76,76,999999979,2.3000000000000007
r4,4,999999993,388.0000000000197
r11,11,999999962,514.8000000000485
r39,39,999999987,975.0000000001531
r42,42,999999971,1773.0999999994829
2019.0999999992591
r76,76,999999996,0.6
r4,4,999999996,387.70000000001966
r11,11,999999954,515.6000000000487
r39,39,999999998,973.9000000001529
r42,42,999999978,1772.3999999994835
2019.199999999259
r76,76,999999957,4.5
r4,4,999999981,389.20000000002
r11,11,999999965,514.5000000000484
r39,39,999999993,974.400000000153
r42,42,999999979,1772.2999999994836
2019.299999999259
r76,76,999999951,5.099999999999998
r4,4,999999951,392.2000000000207
r11,11,999999981,512.9000000000481
r39,39,1000000000,973.7000000001528
r42,42,999999991,1771.0999999994847
2019.3999999992589
r76,76,999999953,4.899999999999999
r4,4,999999978,389.50000000002007
r11,11,999999971,513.9000000000483
r39,39,999999974,976.3000000001534
r42,42,999999966,1773.5999999994824
2019.4999999992588
r76,76,999999989,1.3
r4,4,999999969,390.40000000002027
r11,11,999999992,511.8000000000479
r39,39,999999994,974.300000000153
r42,42,999999993,1770.8999999994849
2019.5999999992587
r76,76,999999977,2.500000000000001
r39,39,999999951,1203.500000000001
r42,42,999999998,1770.3999999994853
2019.6999999992586
r76,76,999999970,3.2000000000000015
r4,4,999999959,391.4000000000205
r11,11,999999958,515.2000000000486
r39,39,999999990,974.7000000001531
r42,42,999999975,1772.6999999994832
2019.7999999992585
r76,76,999999994,0.7999999999999999
r4,4,999999967,390.6000000000203
r11,11,999999985,512.500000000048
r39,39,999999979,975.8000000001533
r42,42,999999995,1770.699999999485
2019.8999999992584
r62,62,999999972,173.7999999999944
r15,15,999999955,389.40000000002004
r87,87,999999953,697.10000000009
r25,25,999999984,1662.6999999995833
2675.1999999986624
r62,62,999999977,173.29999999999444
r15,15,999999963,388.60000000001986
r87,87,999999967,695.7000000000896
r25,25,999999983,1662.7999999995832
2675.2999999986623
r62,62,1000000000,170.99999999999457
r15,15,999999959,389.00000000001995
r87,87,999999981,694.3000000000893
r25,25,999999985,1662.5999999995834
2675.399999998662
r62,62,999999983,172.69999999999447
r15,15,999999969,388.0000000000197
r87,87,999999964,696.0000000000897
r25,25,999999981,1662.999999999583
2675.499999998662
r62,62,999999954,175.5999999999943
r15,15,999999967,388.20000000001977
r87,87,999999963,696.1000000000897
r25,25,999999997,1661.3999999995845
2675.599999998662
r62,62,999999964,174.59999999999437
r15,15,999999986,386.30000000001934
r87,87,999999993,693.100000000089
r25,25,999999994,1661.6999999995842
2675.699999998662
r62,62,999999976,173.39999999999444
r15,15,999999994,385.50000000001916
r87,87,999999999,692.5000000000889
r25,25,999999995,1661.5999999995843
2675.799999998662
r62,62,999999974,173.59999999999442
r15,15,999999956,389.30000000002
r87,87,999999987,693.7000000000892
r25,25,999999992,1661.899999999584
2675.8999999986618
r62,62,999999992,171.79999999999453
r15,15,999999951,389.80000000002013
r87,87,999999989,693.5000000000891
r25,25,999999955,1665.5999999995806
2675.9999999986617
r62,62,999999966,174.39999999999438
r15,15,999999968,388.10000000001975
r87,87,999999979,694.5000000000894
r25,25,999999958,1665.299999999581
2676.0999999986616
r62,62,999999962,174.79999999999436
r15,15,999999953,389.6000000000201
r87,87,999999971,695.3000000000895
r25,25,999999975,1663.5999999995825
2676.1999999986615
r62,62,999999982,172.79999999999447
r15,15,999999954,389.50000000002007
r87,87,999999983,694.1000000000893
r25,25,999999969,1664.199999999582
2676.2999999986614
r62,62,999999973,173.69999999999442
r15,15,999999964,388.50000000001984
r87,87,1000000000,692.4000000000889
r25,25,999999987,1662.3999999995835
2676.3999999986613
