r98,98,999999952,571.6000000000614
r40,40,999999975,1850.6999999994123
1943.5999999993278
r98,98,999999983,568.5000000000607
r40,40,999999974,1850.7999999994122
1943.6999999993277
r98,98,999999978,569.0000000000608
r40,40,999999998,1848.3999999994144
1943.7999999993276
r98,98,999999961,570.7000000000612
r40,40,999999973,1850.899999999412
1943.8999999993275
r98,98,999999980,568.8000000000608
r40,40,999999996,1848.5999999994142
1943.9999999993274
r98,98,999999998,567.0000000000604
r40,40,999999984,1849.799999999413
1944.0999999993273
r98,98,999999960,570.8000000000612
r40,40,999999962,1851.999999999411
1944.1999999993272
r98,98,999999969,569.900000000061
r40,40,999999985,1849.6999999994132
1944.2999999993272
r98,98,999999964,570.4000000000611
r40,40,999999981,1850.0999999994128
1944.399999999327
r98,98,999999958,571.0000000000613
r40,40,999999972,1850.999999999412
1944.499999999327
r98,98,999999955,571.3000000000613
r40,40,999999986,1849.5999999994133
1944.5999999993269
r98,98,999999994,567.4000000000605
r40,40,999999951,1853.09999999941
1944.6999999993268
r98,98,999999989,567.9000000000606
r40,40,999999979,1850.2999999994126
1944.7999999993267
r98,98,999999977,569.1000000000608
r40,40,999999993,1848.899999999414
1944.8999999993266
r98,98,999999995,567.3000000000604
r40,40,999999988,1849.3999999994135
1944.9999999993265
r98,98,1000000000,566.8000000000603
r40,40,999999994,1848.799999999414
1945.0999999993264
r98,98,999999966,570.2000000000611
r40,40,999999982,1849.999999999413
1945.1999999993263
r98,98,999999982,568.6000000000607
r40,40,999999965,1851.6999999994114
1945.2999999993262
r98,98,999999991,567.7000000000605
r40,40,999999954,1852.7999999994104
1945.3999999993262
r98,98,999999979,568.9000000000608
r40,40,999999976,1850.5999999994124
1945.499999999326
r98,98,999999951,571.7000000000614
r40,40,999999995,1848.699999999414
1945.599999999326
r98,98,999999981,568.7000000000608
r40,40,999999992,1848.9999999994138
1945.6999999993259
r98,98,999999957,571.1000000000613
r40,40,999999957,1852.4999999994106
1945.7999999993258
r98,98,999999996,567.2000000000604
r40,40,1000000000,1848.1999999994146
1945.8999999993257
r98,98,999999975,569.3000000000609
r40,40,999999983,1849.899999999413
1945.9999999993256
r98,98,999999956,571.2000000000613
r40,40,999999971,1851.099999999412
1946.0999999993255
r98,98,999999962,570.6000000000612
r40,40,999999952,1852.9999999994102
1946.1999999993254
r98,98,999999985,568.3000000000607
r40,40,999999991,1849.0999999994137
1946.2999999993253
r98,98,999999999,566.9000000000603
r40,40,999999980,1850.1999999994127
1946.3999999993252
r98,98,999999973,569.5000000000609
r40,40,999999953,1852.8999999994103
1946.4999999993252
r98,98,999999988,568.0000000000606
r40,40,999999959,1852.2999999994108
1946.599999999325
r98,98,999999965,570.3000000000611
r40,40,999999970,1851.1999999994118
1946.699999999325
r98,98,999999992,567.6000000000605
r40,40,999999978,1850.3999999994126
1946.7999999993249
r98,98,999999968,570.000000000061
r40,40,999999968,1851.3999999994116
1946.8999999993248
r98,98,999999993,567.5000000000605
r40,40,999999987,1849.4999999994134
1946.9999999993247
r98,98,999999987,568.1000000000606
r40,40,999999955,1852.6999999994105
1947.0999999993246
r98,98,999999953,571.5000000000614
r40,40,999999969,1851.2999999994117
1947.1999999993245
r98,98,999999954,571.4000000000614
r40,40,999999964,1851.7999999994113
1947.2999999993244
r98,98,999999974,569.4000000000609
r40,40,999999977,1850.4999999994125
1947.3999999993243
r98,98,999999990,567.8000000000605
r40,40,999999990,1849.1999999994136
1947.4999999993242
r98,98,999999959,570.9000000000613
r40,40,999999989,1849.2999999994136
1947.5999999993242
r98,98,999999972,569.600000000061
r40,40,999999966,1851.5999999994115
1947.699999999324
r98,98,999999971,569.700000000061
r40,40,999999967,1851.4999999994116
1947.799999999324
r98,98,999999967,570.1000000000611
r40,40,999999997,1848.4999999994143
1947.8999999993239
r98,98,999999997,567.1000000000604
r40,40,999999960,1852.199999999411
1947.9999999993238
r98,98,999999984,568.4000000000607
r40,40,999999958,1852.3999999994107
1948.0999999993237
r98,98,999999970,569.800000000061
r40,40,999999963,1851.8999999994112
1948.1999999993236
r98,98,999999963,570.5000000000612
r40,40,999999956,1852.5999999994106
1948.2999999993235
r98,98,999999986,568.2000000000606
r40,40,999999961,1852.099999999411
1948.3999999993234
r98,98,999999976,569.2000000000609
r40,40,999999999,1848.2999999994145
1948.4999999993233
