r82,82,999999953,323.7000000000051
r86,86,999999989,809.8000000001156
1775.6999999994805
r82,82,999999977,321.30000000000456
r86,86,999999952,813.5000000001164
1775.7999999994804
r82,82,999999978,321.20000000000454
r86,86,999999988,809.9000000001156
1775.8999999994803
r82,82,999999971,321.9000000000047
r86,86,999999971,811.600000000116
1775.9999999994802
r82,82,999999983,320.7000000000044
r86,86,999999956,813.1000000001163
1776.0999999994801
r82,82,999999991,319.90000000000424
r86,86,999999951,813.6000000001164
1776.19999999948
r82,82,999999973,321.70000000000465
r86,86,999999963,812.4000000001162
1776.29999999948
r82,82,999999976,321.4000000000046
r86,86,999999980,810.7000000001158
1776.3999999994799
r82,82,999999970,322.0000000000047
r86,86,999999957,813.0000000001163
1776.4999999994798
r82,82,999999974,321.6000000000046
r86,86,999999990,809.7000000001156
1776.5999999994797
r82,82,999999963,322.7000000000049
r86,86,999999964,812.3000000001161
1776.6999999994796
r82,82,999999958,323.200000000005
r86,86,999999983,810.4000000001157
1776.7999999994795
r82,82,999999982,320.80000000000445
r86,86,999999954,813.3000000001164
1776.8999999994794
r82,82,999999969,322.10000000000474
r86,86,999999955,813.2000000001163
1776.9999999994793
r82,82,999999957,323.300000000005
r86,86,999999986,810.1000000001156
1777.0999999994792
r82,82,999999985,320.5000000000044
r86,86,999999976,811.1000000001159
1777.1999999994791
r82,82,999999966,322.4000000000048
r86,86,999999958,812.9000000001163
1777.299999999479
r82,82,999999988,320.2000000000043
r86,86,999999981,810.6000000001158
1777.399999999479
r82,82,999999984,320.6000000000044
r86,86,999999998,808.9000000001154
1777.4999999994789
r82,82,999999989,320.1000000000043
r86,86,999999978,810.9000000001158
1777.5999999994788
r82,82,999999981,320.90000000000447
r86,86,999999966,812.1000000001161
1777.6999999994787
r82,82,999999987,320.30000000000433
r86,86,999999962,812.5000000001162
1777.7999999994786
r82,82,999999994,319.6000000000042
r86,86,999999996,809.1000000001154
1777.8999999994785
r82,82,999999952,323.8000000000051
r86,86,999999999,808.8000000001153
1777.9999999994784
r82,82,999999997,319.3000000000041
r86,86,999999977,811.0000000001158
1778.0999999994783
r82,82,999999959,323.10000000000497
r86,86,1000000000,808.7000000001153
1778.1999999994782
r82,82,999999960,323.00000000000495
r86,86,999999967,812.0000000001161
1778.2999999994781
r82,82,999999992,319.8000000000042
r86,86,999999960,812.7000000001162
1778.399999999478
r82,82,1000000000,319.00000000000404
r86,86,999999982,810.5000000001157
1778.499999999478
r82,82,999999962,322.8000000000049
r86,86,999999987,810.0000000001156
1778.5999999994779
r82,82,999999998,319.2000000000041
r86,86,999999974,811.3000000001159
1778.6999999994778
r82,82,999999995,319.50000000000415
r86,86,999999953,813.4000000001164
1778.7999999994777
r82,82,999999954,323.6000000000051
r86,86,999999997,809.0000000001154
1778.8999999994776
r82,82,999999975,321.5000000000046
r86,86,999999961,812.6000000001162
1778.9999999994775
r82,82,999999967,322.3000000000048
r86,86,999999973,811.4000000001159
1779.0999999994774
r82,82,999999956,323.40000000000504
r86,86,999999985,810.2000000001157
1779.1999999994773
r82,82,999999986,320.40000000000435
r86,86,999999965,812.2000000001161
1779.2999999994772
r82,82,999999996,319.4000000000041
r86,86,999999972,811.500000000116
1779.3999999994771
r82,82,999999972,321.8000000000047
r86,86,999999979,810.8000000001158
1779.499999999477
r82,82,999999980,321.0000000000045
r86,86,999999995,809.2000000001154
1779.599999999477
r82,82,999999979,321.1000000000045
r86,86,999999994,809.3000000001155
1779.6999999994769
r82,82,999999990,320.00000000000426
r86,86,999999992,809.5000000001155
1779.7999999994768
r82,82,999999961,322.9000000000049
r86,86,999999959,812.8000000001163
1779.8999999994767
r82,82,999999964,322.60000000000485
r86,86,999999970,811.700000000116
1779.9999999994766
r82,82,999999999,319.10000000000406
r86,86,999999969,811.800000000116
1780.0999999994765
r82,82,999999965,322.50000000000483
r86,86,999999968,811.900000000116
1780.1999999994764
r82,82,999999993,319.7000000000042
r86,86,999999984,810.3000000001157
1780.2999999994763
r82,82,999999955,323.50000000000506
r86,86,999999991,809.6000000001155
1780.3999999994762
r82,82,999999968,322.20000000000476
r86,86,999999993,809.4000000001155
1780.4999999994761
r82,82,999999951,323.90000000000515
r86,86,999999975,811.2000000001159
1780.599999999476
