r7,7,999999970,229.69999999999123
r63,63,999999958,1409.099999999814
1884.099999999382
r7,7,999999973,229.39999999999125
r63,63,999999985,1406.3999999998164
1884.1999999993818
r7,7,999999958,230.89999999999117
r63,63,999999971,1407.799999999815
1884.2999999993817
r7,7,999999992,227.49999999999136
r63,63,999999975,1407.3999999998155
1884.3999999993816
r7,7,999999960,230.69999999999118
r63,63,999999991,1405.799999999817
1884.4999999993815
r7,7,999999952,231.49999999999113
r63,63,999999954,1409.4999999998136
1884.5999999993815
r7,7,999999987,227.99999999999133
r63,63,999999989,1405.9999999998167
1884.6999999993814
r7,7,999999995,227.19999999999138
r63,63,999999967,1408.1999999998147
1884.7999999993813
r7,7,999999989,227.79999999999134
r63,63,999999990,1405.8999999998168
1884.8999999993812
r7,7,999999996,227.09999999999138
r63,63,999999999,1404.9999999998176
1884.999999999381
r7,7,999999956,231.09999999999116
r63,63,999999993,1405.599999999817
1885.099999999381
r7,7,999999985,228.19999999999132
r63,63,999999963,1408.5999999998144
1885.199999999381
r7,7,999999986,228.09999999999133
r63,63,999999962,1408.6999999998143
1885.2999999993808
r7,7,999999959,230.79999999999117
r63,63,999999977,1407.1999999998156
1885.3999999993807
r7,7,999999954,231.29999999999114
r63,63,999999983,1406.5999999998162
1885.4999999993806
r7,7,999999971,229.59999999999124
r63,63,999999970,1407.899999999815
1885.5999999993805
r7,7,999999998,226.8999999999914
r63,63,999999981,1406.799999999816
1885.6999999993805
r7,7,999999984,228.29999999999131
r63,63,999999960,1408.899999999814
1885.7999999993804
r7,7,999999981,228.5999999999913
r63,63,999999951,1409.7999999998133
1885.8999999993803
r7,7,999999990,227.69999999999135
r63,63,999999956,1409.2999999998137
1885.9999999993802
r7,7,999999968,229.89999999999122
r63,63,999999992,1405.699999999817
1886.09999999938
r7,7,999999957,230.99999999999116
r63,63,999999995,1405.3999999998173
1886.19999999938
r7,7,999999999,226.7999999999914
r63,63,999999959,1408.999999999814
1886.29999999938
r7,7,999999964,230.2999999999912
r63,63,999999982,1406.699999999816
1886.3999999993798
r7,7,999999980,228.6999999999913
r63,63,999999965,1408.3999999998146
1886.4999999993797
r7,7,1000000000,226.6999999999914
r63,63,999999980,1406.899999999816
1886.5999999993796
r7,7,999999982,228.4999999999913
r63,63,999999994,1405.4999999998172
1886.6999999993795
r7,7,999999978,228.89999999999128
r63,63,999999961,1408.7999999998142
1886.7999999993795
r7,7,999999988,227.89999999999134
r63,63,999999966,1408.2999999998146
1886.8999999993794
r7,7,999999951,231.59999999999113
r63,63,999999968,1408.0999999998148
1886.9999999993793
r7,7,999999969,229.79999999999123
r63,63,999999969,1407.999999999815
1887.0999999993792
r7,7,999999974,229.29999999999126
r63,63,999999953,1409.5999999998135
1887.199999999379
r7,7,999999972,229.49999999999125
r63,63,999999972,1407.6999999998152
1887.299999999379
r7,7,999999961,230.59999999999118
r63,63,999999998,1405.0999999998176
1887.399999999379
r7,7,999999993,227.39999999999137
r63,63,1000000000,1404.8999999998177
1887.4999999993788
r7,7,999999994,227.29999999999137
r63,63,999999978,1407.0999999998157
1887.5999999993787
r7,7,999999979,228.7999999999913
r63,63,999999986,1406.2999999998165
1887.6999999993786
r7,7,999999983,228.3999999999913
r63,63,999999952,1409.6999999998134
1887.7999999993785
r7,7,999999955,231.19999999999115
r63,63,999999988,1406.0999999998166
1887.8999999993785
r7,7,999999962,230.4999999999912
r63,63,999999974,1407.4999999998154
1887.9999999993784
r7,7,999999991,227.59999999999135
r63,63,999999976,1407.2999999998156
1888.0999999993783
r7,7,999999997,226.9999999999914
r63,63,999999955,1409.3999999998136
1888.1999999993782
r7,7,999999966,230.0999999999912
r63,63,999999979,1406.9999999998158
1888.299999999378
r7,7,999999975,229.19999999999126
r63,63,999999973,1407.5999999998153
1888.399999999378
r7,7,999999967,229.99999999999122
r63,63,999999964,1408.4999999998145
1888.499999999378
r7,7,999999953,231.39999999999114
r63,63,999999997,1405.1999999998175
1888.5999999993778
r7,7,999999963,230.3999999999912
r63,63,999999987,1406.1999999998166
1888.6999999993777
r7,7,999999976,229.09999999999127
r63,63,999999984,1406.4999999998163
1888.7999999993776
r7,7,999999965,230.1999999999912
r63,63,999999957,1409.1999999998138
1888.8999999993775
r7,7,999999977,228.99999999999127
r63,63,999999996,1405.2999999998174
1888.9999999993775
