r34,34,999999951,120.79999999999741
r20,20,999999976,1125.1000000000722
r66,66,999999964,1406.4999999998163
r81,81,999999996,1606.1999999996347
1715.0999999995356
r34,34,999999987,117.19999999999762
r20,20,999999953,1127.4000000000701
r66,66,999999967,1406.1999999998166
r81,81,999999991,1606.6999999996342
1715.1999999995355
r34,34,999999999,115.99999999999768
r20,20,999999964,1126.3000000000711
r66,66,999999956,1407.2999999998156
r81,81,999999972,1608.5999999996325
1715.2999999995354
r34,34,999999982,117.69999999999759
r20,20,999999968,1125.9000000000715
r66,66,999999977,1405.1999999998175
r81,81,999999959,1609.8999999996313
1715.3999999995353
r34,34,999999977,118.19999999999756
r20,20,999999995,1123.200000000074
r66,66,999999959,1406.9999999998158
r81,81,999999954,1610.3999999996308
1715.4999999995352
r34,34,999999993,116.59999999999765
r20,20,999999974,1125.300000000072
r66,66,999999968,1406.0999999998166
r81,81,999999964,1609.3999999996317
1715.5999999995352
r34,34,999999963,119.59999999999748
r20,20,999999998,1122.9000000000742
r66,66,999999987,1404.1999999998184
r81,81,999999952,1610.5999999996307
1715.699999999535
r34,34,999999965,119.39999999999749
r20,20,999999989,1123.8000000000734
r66,66,999999997,1403.1999999998193
r81,81,999999953,1610.4999999996307
1715.799999999535
r34,34,1000000000,115.89999999999769
r20,20,999999963,1126.400000000071
r66,66,999999951,1407.799999999815
r81,81,999999977,1608.099999999633
1715.8999999995349
r34,34,999999966,119.2999999999975
r20,20,999999983,1124.4000000000729
r66,66,999999969,1405.9999999998167
r81,81,999999974,1608.3999999996327
1715.9999999995348
r34,34,999999954,120.49999999999743
r20,20,999999961,1126.6000000000708
r66,66,999999960,1406.899999999816
r81,81,999999989,1606.899999999634
1716.0999999995347
r34,34,999999974,118.49999999999754
r20,20,999999966,1126.1000000000713
r66,66,999999974,1405.4999999998172
r81,81,999999965,1609.2999999996318
1716.1999999995346
r34,34,999999992,116.69999999999764
r20,20,999999999,1122.8000000000743
r66,66,999999996,1403.2999999998192
r81,81,999999997,1606.0999999996347
1716.2999999995345
r34,34,999999981,117.79999999999758
r20,20,999999992,1123.5000000000737
r66,66,999999988,1404.0999999998185
r81,81,999999990,1606.799999999634
1716.3999999995344
r34,34,999999991,116.79999999999764
r20,20,999999973,1125.400000000072
r66,66,999999979,1404.9999999998176
r81,81,999999982,1607.5999999996334
1716.4999999995343
r34,34,999999967,119.1999999999975
r20,20,999999970,1125.7000000000717
r66,66,999999992,1403.6999999998188
r81,81,999999980,1607.7999999996332
1716.5999999995342
r34,34,999999973,118.59999999999754
r20,20,999999954,1127.3000000000702
r66,66,999999966,1406.2999999998165
r81,81,999999979,1607.899999999633
1716.6999999995342
r34,34,999999952,120.69999999999742
r20,20,999999979,1124.8000000000725
r66,66,999999998,1403.0999999998194
r81,81,999999983,1607.4999999996335
1716.799999999534
r34,34,999999984,117.4999999999976
r20,20,999999987,1124.0000000000732
r66,66,999999995,1403.399999999819
r81,81,999999976,1608.1999999996328
1716.899999999534
r34,34,999999985,117.3999999999976
r20,20,999999965,1126.2000000000712
r66,66,999999990,1403.8999999998186
r81,81,999999999,1605.899999999635
1716.9999999995339
r34,34,999999957,120.19999999999744
r20,20,999999981,1124.6000000000727
r66,66,999999989,1403.9999999998186
r81,81,999999957,1610.099999999631
1717.0999999995338
r34,34,999999960,119.89999999999746
r20,20,999999958,1126.9000000000706
r66,66,999999981,1404.7999999998178
r81,81,999999969,1608.8999999996322
1717.1999999995337
r34,34,999999956,120.29999999999744
r20,20,999999985,1124.200000000073
r66,66,999999980,1404.8999999998177
r81,81,999999970,1608.7999999996323
1717.2999999995336
r34,34,999999975,118.39999999999755
r20,20,999999952,1127.50000000007
r66,66,999999976,1405.2999999998174
r81,81,999999951,1610.6999999996306
1717.3999999995335
r34,34,999999986,117.29999999999761
r20,20,999999955,1127.2000000000703
r66,66,999999954,1407.4999999998154
r81,81,999999981,1607.6999999996333
1717.4999999995334
r34,34,999999976,118.29999999999755
r20,20,999999969,1125.8000000000716
r66,66,999999955,1407.3999999998155
r81,81,999999968,1608.999999999632
1717.5999999995333
r34,34,999999970,118.89999999999752
r20,20,999999967,1126.0000000000714
r66,66,1000000000,1402.8999999998196
r81,81,999999986,1607.1999999996337
1717.6999999995332
r34,34,999999971,118.79999999999752
r20,20,999999956,1127.1000000000704
r66,66,999999999,1402.9999999998195
r81,81,999999984,1607.3999999996336
1717.7999999995332
r34,34,999999959,119.99999999999746
r20,20,999999980,1124.7000000000726
r66,66,999999970,1405.8999999998168
r81,81,999999971,1608.6999999996324
1717.899999999533
r34,34,999999969,118.99999999999751
r20,20,999999951,1127.60000000007
r66,66,999999975,1405.3999999998173
r81,81,999999988,1606.999999999634
1717.999999999533
r34,34,999999997,116.19999999999767
r20,20,999999977,1125.0000000000723
r66,66,999999972,1405.699999999817
r81,81,999999966,1609.199999999632
1718.0999999995329
r34,34,999999964,119.49999999999748
r20,20,999999960,1126.7000000000708
r66,66,999999978,1405.0999999998176
r81,81,999999960,1609.7999999996314
1718.1999999995328
r34,34,999999995,116.39999999999766
r20,20,999999959,1126.8000000000707
r66,66,999999973,1405.599999999817
r81,81,999999998,1605.9999999996348
1718.2999999995327
r34,34,999999953,120.59999999999742
r20,20,999999991,1123.6000000000736
r66,66,999999985,1404.3999999998182
r81,81,999999992,1606.5999999996343
1718.3999999995326
r34,34,999999972,118.69999999999753
r20,20,999999990,1123.7000000000735
r66,66,999999965,1406.3999999998164
r81,81,999999978,1607.999999999633
1718.4999999995325
r34,34,999999983,117.59999999999759
r20,20,999999996,1123.100000000074
r66,66,999999971,1405.799999999817
r81,81,999999967,1609.099999999632
1718.5999999995324
r34,34,999999990,116.89999999999763
r20,20,1000000000,1122.7000000000744
r66,66,999999984,1404.499999999818
r81,81,999999956,1610.199999999631
1718.6999999995323
r34,34,999999958,120.09999999999745
r20,20,999999978,1124.9000000000724
r66,66,999999958,1407.0999999998157
r81,81,999999963,1609.4999999996317
1718.7999999995322
r34,34,999999989,116.99999999999763
r20,20,999999986,1124.1000000000731
r66,66,999999953,1407.5999999998153
r81,81,999999987,1607.0999999996338
1718.8999999995322
r34,34,999999955,120.39999999999743
r20,20,999999994,1123.3000000000739
r66,66,999999961,1406.799999999816
r81,81,999999973,1608.4999999996326
1718.999999999532
r34,34,999999988,117.09999999999762
r20,20,999999971,1125.6000000000718
r66,66,999999963,1406.5999999998162
r81,81,999999961,1609.6999999996315
1719.099999999532
r34,34,999999962,119.69999999999747
r20,20,999999997,1123.0000000000741
r66,66,999999994,1403.499999999819
r81,81,999999962,1609.5999999996316
1719.1999999995319
r34,34,999999980,117.89999999999758
r20,20,999999988,1123.9000000000733
r66,66,999999983,1404.599999999818
r81,81,1000000000,1605.799999999635
1719.2999999995318
r34,34,999999998,116.09999999999768
r20,20,999999982,1124.5000000000728
r66,66,999999982,1404.699999999818
r81,81,999999994,1606.3999999996345
1719.3999999995317
r34,34,999999968,119.09999999999751
r20,20,999999993,1123.4000000000738
r66,66,999999962,1406.699999999816
r81,81,999999958,1609.9999999996312
1719.4999999995316
r34,34,999999979,117.99999999999757
r20,20,999999972,1125.5000000000719
r66,66,999999991,1403.7999999998187
r81,81,999999985,1607.2999999996337
1719.5999999995315
r34,34,999999994,116.49999999999766
r20,20,999999957,1127.0000000000705
r66,66,999999986,1404.2999999998183
r81,81,999999955,1610.299999999631
1719.6999999995314
r34,34,999999978,118.09999999999756
r20,20,999999975,1125.2000000000721
r66,66,999999993,1403.599999999819
r81,81,999999995,1606.2999999996346
1719.7999999995313
r34,34,999999996,116.29999999999767
r20,20,999999984,1124.300000000073
r66,66,999999952,1407.6999999998152
r81,81,999999993,1606.4999999996344
1719.8999999995312
r34,34,999999961,119.79999999999747
r20,20,999999962,1126.500000000071
r66,66,999999957,1407.1999999998156
r81,81,999999975,1608.2999999996327
1719.9999999995312
