r23,23,999999955,4.799999999999999
r6,6,999999974,551.6000000000569
r19,19,999999957,664.1000000000824
r81,81,999999959,926.100000000142
r10,10,999999973,1477.199999999752
r74,74,999999971,1555.6999999996806
1739.5999999995133
r23,23,999999968,3.5000000000000018
r6,6,999999970,552.000000000057
r19,19,999999998,660.0000000000815
r81,81,999999952,926.8000000001422
r10,10,999999958,1478.6999999997506
r74,74,999999958,1556.9999999996794
1739.6999999995132
r23,23,999999991,1.2
r6,6,999999993,549.7000000000564
r19,19,999999985,661.3000000000818
r81,81,999999968,925.2000000001418
r10,10,999999993,1475.1999999997538
r74,74,999999961,1556.6999999996797
1739.7999999995131
r23,23,999999953,4.999999999999998
r6,6,999999962,552.8000000000571
r19,19,999999974,662.4000000000821
r81,81,999999958,926.200000000142
r10,10,999999972,1477.299999999752
r74,74,999999964,1556.39999999968
1739.899999999513
r23,23,999999958,4.5
r6,6,999999985,550.5000000000566
r19,19,999999973,662.5000000000821
r81,81,999999957,926.3000000001421
r10,10,999999997,1474.7999999997542
r74,74,999999996,1553.1999999996829
1739.999999999513
r23,23,999999993,0.9999999999999999
r6,6,999999976,551.4000000000568
r19,19,999999987,661.1000000000818
r81,81,999999986,923.4000000001414
r10,10,999999953,1479.1999999997502
r74,74,999999970,1555.7999999996805
1740.0999999995129
r23,23,999999981,2.2000000000000006
r6,6,999999954,553.6000000000573
r19,19,999999994,660.4000000000816
r81,81,999999956,926.4000000001421
r10,10,999999994,1475.099999999754
r74,74,999999993,1553.4999999996826
1740.1999999995128
r23,23,999999999,0.4
r6,6,999999990,550.0000000000565
r19,19,999999983,661.5000000000819
r81,81,999999982,923.8000000001415
r10,10,999999955,1478.9999999997503
r74,74,999999982,1554.5999999996816
1740.2999999995127
r23,23,999999976,2.700000000000001
r6,6,999999996,549.4000000000564
r19,19,999999977,662.100000000082
r81,81,999999983,923.7000000001415
r10,10,999999965,1477.9999999997513
r74,74,999999981,1554.6999999996815
1740.3999999995126
r23,23,999999975,2.800000000000001
r6,6,999999951,553.9000000000574
r19,19,1000000000,659.8000000000815
r81,81,999999993,922.7000000001412
r10,10,999999971,1477.3999999997518
r74,74,999999951,1557.6999999996788
1740.4999999995125
r23,23,999999992,1.0999999999999999
r6,6,999999968,552.200000000057
r19,19,999999982,661.6000000000819
r81,81,999999976,924.4000000001416
r10,10,999999998,1474.6999999997543
r74,74,999999954,1557.399999999679
1740.5999999995124
r23,23,999999962,4.100000000000001
r6,6,999999956,553.4000000000573
r19,19,999999952,664.6000000000826
r81,81,999999971,924.9000000001417
r10,10,999999980,1476.4999999997526
r74,74,999999967,1556.0999999996802
1740.6999999995123
r23,23,999999952,5.099999999999998
r6,6,999999980,551.0000000000567
r19,19,999999995,660.3000000000816
r81,81,999999995,922.5000000001412
r10,10,999999952,1479.29999999975
r74,74,999999956,1557.1999999996792
1740.7999999995122
r23,23,999999969,3.4000000000000017
r6,6,999999966,552.400000000057
r19,19,999999955,664.3000000000825
r81,81,999999990,923.0000000001413
r10,10,999999969,1477.5999999997516
r74,74,999999988,1553.9999999996821
1740.8999999995121
r23,23,999999989,1.4000000000000001
r6,6,999999978,551.2000000000568
r19,19,999999954,664.4000000000825
r81,81,999999979,924.1000000001416
r10,10,999999982,1476.2999999997528
r74,74,999999976,1555.199999999681
1740.999999999512
r23,23,999999970,3.3000000000000016
r6,6,999999992,549.8000000000565
r19,19,999999976,662.200000000082
r81,81,999999994,922.6000000001412
r10,10,999999985,1475.999999999753
r74,74,999999994,1553.3999999996827
1741.099999999512
r23,23,999999988,1.5000000000000002
r6,6,999999960,553.0000000000572
r19,19,999999951,664.7000000000826
r81,81,999999991,922.9000000001413
r10,10,999999960,1478.4999999997508
r74,74,999999959,1556.8999999996795
1741.1999999995119
r23,23,999999960,4.300000000000001
r6,6,999999965,552.5000000000571
r19,19,999999967,663.1000000000822
r81,81,999999955,926.5000000001421
r10,10,999999977,1476.7999999997523
r74,74,999999972,1555.5999999996807
1741.2999999995118
r23,23,999999979,2.400000000000001
r6,6,999999961,552.9000000000572
r19,19,999999961,663.7000000000824
r81,81,999999987,923.3000000001414
r10,10,999999987,1475.7999999997533
r74,74,999999977,1555.0999999996811
1741.3999999995117
r23,23,999999998,0.5
r6,6,999999963,552.7000000000571
r19,19,999999972,662.6000000000821
r81,81,999999973,924.7000000001417
r10,10,999999983,1476.199999999753
r74,74,999999955,1557.2999999996791
1741.4999999995116
r23,23,999999982,2.1000000000000005
r6,6,999999983,550.7000000000567
r19,19,999999989,660.9000000000817
r81,81,999999981,923.9000000001415
r10,10,999999988,1475.6999999997533
r74,74,999999979,1554.8999999996813
1741.5999999995115
r23,23,999999980,2.3000000000000007
r6,6,999999959,553.1000000000572
r19,19,999999980,661.8000000000819
r81,81,999999992,922.8000000001413
r10,10,999999951,1479.39999999975
r74,74,999999974,1555.3999999996809
1741.6999999995114
r23,23,999999972,3.1000000000000014
r6,6,999999984,550.6000000000566
r19,19,999999962,663.6000000000823
r81,81,999999953,926.7000000001422
r10,10,999999990,1475.4999999997535
r74,74,999999968,1555.9999999996803
1741.7999999995113
r23,23,999999986,1.7000000000000004
r6,6,999999972,551.8000000000569
r19,19,999999958,664.0000000000824
r81,81,999999965,925.5000000001419
r10,10,999999999,1474.5999999997543
r74,74,999999980,1554.7999999996814
1741.8999999995112
r23,23,999999957,4.6
r6,6,999999964,552.6000000000571
r19,19,999999991,660.7000000000817
r81,81,999999960,926.000000000142
r10,10,999999986,1475.8999999997532
r74,74,999999957,1557.0999999996793
1741.9999999995111
r23,23,999999996,0.7
r6,6,999999995,549.5000000000564
r19,19,999999969,662.9000000000822
r81,81,999999964,925.6000000001419
r10,10,999999964,1478.0999999997512
r74,74,999999965,1556.29999999968
1742.099999999511
r23,23,999999954,4.899999999999999
r6,6,999999994,549.6000000000564
r19,19,999999960,663.8000000000824
r81,81,999999974,924.6000000001417
r10,10,999999992,1475.2999999997537
r74,74,999999969,1555.8999999996804
1742.199999999511
r23,23,999999961,4.200000000000001
r6,6,999999955,553.5000000000573
r19,19,999999984,661.4000000000818
r81,81,999999989,923.1000000001413
r10,10,999999996,1474.899999999754
r74,74,999999989,1553.8999999996822
1742.2999999995109
r23,23,999999974,2.9000000000000012
r6,6,999999957,553.3000000000573
r19,19,999999979,661.900000000082
r81,81,999999988,923.2000000001414
r10,10,999999954,1479.0999999997503
r74,74,999999952,1557.5999999996789
1742.3999999995108
r23,23,999999956,4.699999999999999
r6,6,999999987,550.3000000000566
r19,19,999999992,660.6000000000816
r81,81,999999963,925.7000000001419
r10,10,999999970,1477.4999999997517
r74,74,999999978,1554.9999999996812
1742.4999999995107
r23,23,999999964,3.900000000000002
r6,6,999999973,551.7000000000569
r19,19,999999959,663.9000000000824
r81,81,999999999,922.1000000001411
r10,10,999999966,1477.8999999997513
r74,74,999999973,1555.4999999996808
1742.5999999995106
r23,23,999999995,0.7999999999999999
r6,6,999999991,549.9000000000565
r19,19,999999981,661.7000000000819
r81,81,999999996,922.4000000001412
r10,10,999999995,1474.999999999754
r74,74,999999992,1553.5999999996825
1742.6999999995105
r23,23,999999951,5.1999999999999975
r6,6,999999952,553.8000000000574
r19,19,999999956,664.2000000000825
r81,81,999999985,923.5000000001414
r10,10,999999961,1478.399999999751
r74,74,999999985,1554.2999999996819
1742.7999999995104
r23,23,999999973,3.0000000000000013
r6,6,999999999,549.1000000000563
r19,19,999999993,660.5000000000816
r81,81,999999954,926.6000000001421
r10,10,999999991,1475.3999999997536
r74,74,999999963,1556.4999999996799
1742.8999999995103
r23,23,1000000000,0.30000000000000004
r6,6,999999958,553.2000000000572
r19,19,999999988,661.0000000000817
r81,81,999999962,925.800000000142
r10,10,999999956,1478.8999999997504
r74,74,999999986,1554.199999999682
1742.9999999995102
r23,23,999999966,3.700000000000002
r6,6,999999982,550.8000000000567
r19,19,999999986,661.2000000000818
r81,81,999999967,925.3000000001418
r10,10,999999978,1476.6999999997524
r74,74,1000000000,1552.7999999996832
1743.0999999995101
r23,23,999999990,1.3
r6,6,999999971,551.9000000000569
r19,19,999999990,660.8000000000817
r81,81,999999966,925.4000000001419
r10,10,999999968,1477.6999999997515
r74,74,999999999,1552.8999999996831
1743.19999999951
r23,23,999999971,3.2000000000000015
r6,6,999999981,550.9000000000567
r19,19,999999965,663.3000000000823
r81,81,999999980,924.0000000001415
r10,10,999999981,1476.3999999997527
r74,74,999999984,1554.3999999996818
1743.29999999951
r23,23,999999984,1.9000000000000006
r6,6,999999989,550.1000000000565
r19,19,999999968,663.0000000000822
r81,81,999999997,922.3000000001412
r10,10,1000000000,1474.4999999997544
r74,74,999999966,1556.1999999996801
1743.3999999995099
r23,23,999999987,1.6000000000000003
r6,6,999999953,553.7000000000573
r19,19,999999975,662.300000000082
r81,81,999999975,924.5000000001417
r10,10,999999979,1476.5999999997525
r74,74,999999998,1552.999999999683
1743.4999999995098
r23,23,999999985,1.8000000000000005
r6,6,1000000000,549.0000000000563
r19,19,999999966,663.2000000000822
r81,81,999999984,923.6000000001414
r10,10,999999959,1478.5999999997507
r74,74,999999975,1555.299999999681
1743.5999999995097
r23,23,999999965,3.800000000000002
r6,6,999999998,549.2000000000563
r19,19,999999999,659.9000000000815
r81,81,999999977,924.3000000001416
r10,10,999999975,1476.9999999997522
r74,74,999999953,1557.499999999679
1743.6999999995096
r23,23,999999959,4.4
r6,6,999999975,551.5000000000568
r19,19,999999964,663.4000000000823
r81,81,999999972,924.8000000001417
r10,10,999999976,1476.8999999997523
r74,74,999999995,1553.2999999996828
1743.7999999995095
r23,23,999999978,2.500000000000001
r6,6,999999967,552.300000000057
r19,19,999999970,662.8000000000822
r81,81,999999978,924.2000000001416
r10,10,999999984,1476.099999999753
r74,74,999999991,1553.6999999996824
1743.8999999995094
r23,23,999999994,0.8999999999999999
r6,6,999999988,550.2000000000565
r19,19,999999953,664.5000000000825
r81,81,999999951,926.9000000001422
r10,10,999999962,1478.299999999751
r74,74,999999960,1556.7999999996796
1743.9999999995093
r23,23,999999997,0.6
r6,6,999999997,549.3000000000563
r19,19,999999996,660.2000000000816
r81,81,999999998,922.2000000001411
r10,10,999999957,1478.7999999997505
r74,74,999999983,1554.4999999996817
1744.0999999995092
r23,23,999999977,2.600000000000001
r6,6,999999969,552.100000000057
r19,19,999999971,662.7000000000821
r81,81,999999970,925.0000000001418
r10,10,999999974,1477.099999999752
r74,74,999999987,1554.099999999682
1744.1999999995091
r23,23,999999963,4.000000000000002
r6,6,999999986,550.4000000000566
r19,19,999999963,663.5000000000823
r81,81,999999961,925.900000000142
r10,10,999999967,1477.7999999997514
r74,74,999999962,1556.5999999996798
1744.299999999509
r23,23,999999967,3.600000000000002
r6,6,999999977,551.3000000000568
r19,19,999999997,660.1000000000815
r81,81,999999969,925.1000000001418
r10,10,999999963,1478.199999999751
r74,74,999999997,1553.099999999683
1744.399999999509
r23,23,999999983,2.0000000000000004
r6,6,999999979,551.1000000000568
r19,19,999999978,662.000000000082
r81,81,1000000000,922.0000000001411
r10,10,999999989,1475.5999999997534
r74,74,999999990,1553.7999999996823
1744.4999999995089
