r36,36,999999970,415.600000000026
1185.800000000017
r36,36,999999991,413.5000000000255
1185.900000000017
r36,36,999999966,416.0000000000261
1186.0000000000168
r36,36,999999994,413.20000000002545
1186.1000000000167
r36,36,999999957,416.9000000000263
1186.2000000000166
r36,36,999999997,412.9000000000254
1186.3000000000166
r36,36,999999995,413.10000000002543
1186.4000000000165
r36,36,999999961,416.5000000000262
1186.5000000000164
r36,36,999999953,417.3000000000264
1186.6000000000163
r36,36,999999985,414.10000000002566
1186.7000000000162
r36,36,999999977,414.90000000002584
1186.800000000016
r36,36,1000000000,412.6000000000253
1186.900000000016
r36,36,999999980,414.6000000000258
1187.000000000016
r36,36,999999986,414.00000000002564
1187.1000000000158
r36,36,999999954,417.20000000002636
1187.2000000000157
r36,36,999999967,415.90000000002607
1187.3000000000156
r36,36,999999981,414.50000000002575
1187.4000000000156
r36,36,999999959,416.70000000002625
1187.5000000000155
r36,36,999999962,416.4000000000262
1187.6000000000154
r36,36,999999999,412.70000000002534
1187.7000000000153
r36,36,999999969,415.700000000026
1187.8000000000152
r36,36,999999982,414.4000000000257
1187.900000000015
r36,36,999999987,413.9000000000256
1188.000000000015
r36,36,999999960,416.6000000000262
1188.100000000015
r36,36,999999992,413.4000000000255
1188.2000000000148
r36,36,999999951,417.50000000002643
1188.3000000000147
r36,36,999999971,415.500000000026
1188.4000000000146
r36,36,999999965,416.1000000000261
1188.5000000000146
r36,36,999999988,413.8000000000256
1188.6000000000145
r36,36,999999996,413.0000000000254
1188.7000000000144
r36,36,999999983,414.3000000000257
1188.8000000000143
r36,36,999999973,415.30000000002593
1188.9000000000142
r36,36,999999978,414.8000000000258
1189.000000000014
r36,36,999999968,415.80000000002605
1189.100000000014
r36,36,999999958,416.8000000000263
1189.200000000014
r36,36,999999989,413.70000000002557
1189.3000000000138
r36,36,999999972,415.40000000002595
1189.4000000000137
r36,36,999999990,413.60000000002555
1189.5000000000136
r36,36,999999963,416.30000000002616
1189.6000000000136
r36,36,999999975,415.1000000000259
1189.7000000000135
r36,36,999999984,414.2000000000257
1189.8000000000134
r36,36,999999952,417.4000000000264
1189.9000000000133
r36,36,999999993,413.3000000000255
1190.0000000000132
r36,36,999999998,412.80000000002536
1190.100000000013
r36,36,999999964,416.20000000002614
1190.200000000013
r36,36,999999955,417.10000000002634
1190.300000000013
r36,36,999999979,414.7000000000258
1190.4000000000128
r36,36,999999956,417.0000000000263
1190.5000000000127
r36,36,999999974,415.2000000000259
1190.6000000000126
r36,36,999999976,415.00000000002586
1190.7000000000126
