r94,94,999999975,685.2000000000872
r85,85,999999987,1197.6000000000063
r44,44,999999986,1438.1999999997875
1944.5999999993269
r94,94,999999996,683.1000000000868
r85,85,999999960,1200.3000000000038
r44,44,999999985,1438.2999999997874
1944.6999999993268
r94,94,999999993,683.4000000000868
r85,85,999999994,1196.900000000007
r44,44,999999951,1441.6999999997843
1944.7999999993267
r94,94,999999966,686.1000000000874
r85,85,999999954,1200.9000000000033
r44,44,999999996,1437.1999999997884
1944.8999999993266
r94,94,999999999,682.8000000000867
r85,85,999999988,1197.5000000000064
r44,44,999999987,1438.0999999997875
1944.9999999993265
r94,94,999999952,687.5000000000878
r85,85,999999968,1199.5000000000045
r44,44,999999972,1439.5999999997862
1945.0999999993264
r94,94,999999964,686.3000000000875
r85,85,999999991,1197.2000000000066
r44,44,999999967,1440.0999999997857
1945.1999999993263
r94,94,1000000000,682.7000000000867
r85,85,999999980,1198.3000000000056
r44,44,999999979,1438.8999999997868
1945.2999999993262
r94,94,999999976,685.1000000000872
r85,85,999999958,1200.5000000000036
r44,44,999999964,1440.3999999997855
1945.3999999993262
r94,94,999999985,684.200000000087
r85,85,999999956,1200.7000000000035
r44,44,999999961,1440.6999999997852
1945.499999999326
r94,94,999999962,686.5000000000875
r85,85,999999992,1197.1000000000067
r44,44,999999988,1437.9999999997876
1945.599999999326
r94,94,999999998,682.9000000000867
r85,85,999999974,1198.900000000005
r44,44,999999993,1437.499999999788
1945.6999999993259
r94,94,999999991,683.6000000000869
r85,85,999999989,1197.4000000000065
r44,44,999999963,1440.4999999997854
1945.7999999993258
r94,94,999999969,685.8000000000874
r85,85,999999963,1200.000000000004
r44,44,999999978,1438.9999999997867
1945.8999999993257
r94,94,999999967,686.0000000000874
r85,85,999999999,1196.4000000000074
r44,44,999999953,1441.4999999997844
1945.9999999993256
r94,94,999999958,686.9000000000876
r85,85,999999975,1198.8000000000052
r44,44,999999989,1437.8999999997877
1946.0999999993255
r94,94,999999978,684.9000000000872
r85,85,999999967,1199.6000000000045
r44,44,999999997,1437.0999999997885
1946.1999999993254
r94,94,999999959,686.8000000000876
r85,85,999999984,1197.900000000006
r44,44,999999998,1436.9999999997885
1946.2999999993253
r94,94,999999990,683.7000000000869
r85,85,999999996,1196.700000000007
r44,44,999999955,1441.2999999997846
1946.3999999993252
r94,94,999999979,684.8000000000872
r85,85,999999981,1198.2000000000057
r44,44,999999976,1439.1999999997865
1946.4999999993252
r94,94,999999961,686.6000000000876
r85,85,999999998,1196.5000000000073
r44,44,999999990,1437.7999999997878
1946.599999999325
r94,94,999999982,684.5000000000871
r85,85,999999965,1199.8000000000043
r44,44,999999966,1440.1999999997856
1946.699999999325
r94,94,999999983,684.4000000000871
r85,85,999999972,1199.100000000005
r44,44,999999956,1441.1999999997847
1946.7999999993249
r94,94,999999973,685.4000000000873
r85,85,999999979,1198.4000000000055
r44,44,999999957,1441.0999999997848
1946.8999999993248
r94,94,999999986,684.100000000087
r85,85,999999955,1200.8000000000034
r44,44,999999969,1439.899999999786
1946.9999999993247
r94,94,999999988,683.900000000087
r85,85,999999995,1196.800000000007
r44,44,999999965,1440.2999999997855
1947.0999999993246
r94,94,999999974,685.3000000000873
r85,85,999999990,1197.3000000000065
r44,44,999999974,1439.3999999997864
1947.1999999993245
r94,94,999999995,683.2000000000868
r85,85,999999973,1199.000000000005
r44,44,999999977,1439.0999999997866
1947.2999999993244
r94,94,999999957,687.0000000000877
r85,85,999999953,1201.0000000000032
r44,44,999999958,1440.999999999785
1947.3999999993243
r94,94,999999994,683.3000000000868
r85,85,999999962,1200.100000000004
r44,44,1000000000,1436.7999999997887
1947.4999999993242
r94,94,999999987,684.000000000087
r85,85,999999951,1201.200000000003
r44,44,999999973,1439.4999999997863
1947.5999999993242
r94,94,999999963,686.4000000000875
r85,85,999999997,1196.6000000000072
r44,44,999999975,1439.2999999997865
1947.699999999324
r94,94,999999956,687.1000000000877
r85,85,999999961,1200.200000000004
r44,44,999999982,1438.599999999787
1947.799999999324
r94,94,999999971,685.6000000000873
r85,85,999999970,1199.3000000000047
r44,44,999999981,1438.699999999787
1947.8999999993239
r94,94,999999980,684.7000000000871
r85,85,1000000000,1196.3000000000075
r44,44,999999992,1437.599999999788
1947.9999999993238
r94,94,999999965,686.2000000000875
r85,85,999999986,1197.7000000000062
r44,44,999999983,1438.4999999997872
1948.0999999993237
r94,94,999999984,684.300000000087
r85,85,999999971,1199.2000000000048
r44,44,999999952,1441.5999999997844
1948.1999999993236
r94,94,999999992,683.5000000000869
r85,85,999999985,1197.800000000006
r44,44,999999954,1441.3999999997845
1948.2999999993235
r94,94,999999997,683.0000000000867
r85,85,999999964,1199.9000000000042
r44,44,999999999,1436.8999999997886
1948.3999999993234
r94,94,999999968,685.9000000000874
r85,85,999999952,1201.100000000003
r44,44,999999994,1437.3999999997882
1948.4999999993233
r94,94,999999989,683.8000000000869
r85,85,999999966,1199.7000000000044
r44,44,999999984,1438.3999999997873
1948.5999999993232
r94,94,999999954,687.3000000000877
r85,85,999999977,1198.6000000000054
r44,44,999999962,1440.5999999997853
1948.6999999993232
r94,94,999999955,687.2000000000877
r85,85,999999983,1198.000000000006
r44,44,999999980,1438.799999999787
1948.799999999323
r94,94,999999960,686.7000000000876
r85,85,999999978,1198.5000000000055
r44,44,999999959,1440.899999999785
1948.899999999323
r94,94,999999953,687.4000000000877
r85,85,999999993,1197.0000000000068
r44,44,999999968,1439.9999999997858
1948.9999999993229
r94,94,999999977,685.0000000000872
r85,85,999999959,1200.4000000000037
r44,44,999999970,1439.799999999786
1949.0999999993228
r94,94,999999981,684.6000000000871
r85,85,999999957,1200.6000000000035
r44,44,999999971,1439.699999999786
1949.1999999993227
r94,94,999999970,685.7000000000874
r85,85,999999976,1198.7000000000053
r44,44,999999995,1437.2999999997883
1949.2999999993226
r94,94,999999951,687.6000000000878
r85,85,999999969,1199.4000000000046
r44,44,999999991,1437.699999999788
1949.3999999993225
r94,94,999999972,685.5000000000873
r85,85,999999982,1198.1000000000058
r44,44,999999960,1440.799999999785
1949.4999999993224
