r47,47,999999955,210.49999999999233
r53,53,999999986,632.3000000000752
r87,87,999999953,782.2000000001093
1092.300000000102
r47,47,999999952,210.7999999999923
r53,53,999999953,635.600000000076
r87,87,999999963,781.2000000001091
1092.400000000102
r47,47,999999986,207.3999999999925
r53,53,999999982,632.7000000000753
r87,87,999999966,780.900000000109
1092.5000000001019
r47,47,999999987,207.2999999999925
r53,53,999999994,631.500000000075
r87,87,999999970,780.5000000001089
1092.6000000001018
r47,47,999999996,206.39999999999256
r53,53,999999966,634.3000000000757
r87,87,999999980,779.5000000001087
1092.7000000001017
r47,47,999999979,208.09999999999246
r53,53,999999964,634.5000000000757
r87,87,999999981,779.4000000001087
1092.8000000001016
r47,47,999999977,208.29999999999245
r53,53,999999976,633.3000000000754
r87,87,999999977,779.8000000001088
1092.9000000001015
r47,47,999999963,209.69999999999237
r53,53,999999957,635.2000000000759
r87,87,999999955,782.0000000001093
1093.0000000001014
r47,47,999999962,209.79999999999237
r53,53,999999993,631.600000000075
r87,87,999999967,780.800000000109
1093.1000000001013
r47,47,999999990,206.99999999999253
r53,53,999999968,634.1000000000756
r87,87,999999960,781.5000000001091
1093.2000000001012
r47,47,999999965,209.49999999999238
r53,53,999999992,631.7000000000751
r87,87,999999983,779.2000000001086
1093.3000000001011
r47,47,999999988,207.1999999999925
r53,53,999999983,632.6000000000753
r87,87,999999982,779.3000000001086
1093.400000000101
r47,47,999999976,208.39999999999245
r53,53,999999981,632.8000000000753
r87,87,999999996,777.9000000001083
1093.500000000101
r47,47,999999971,208.89999999999242
r53,53,999999952,635.700000000076
r87,87,999999979,779.6000000001087
1093.6000000001009
r47,47,999999973,208.69999999999243
r53,53,999999975,633.4000000000755
r87,87,999999958,781.7000000001092
1093.7000000001008
r47,47,999999978,208.19999999999246
r53,53,999999999,631.0000000000749
r87,87,999999951,782.4000000001093
1093.8000000001007
r47,47,999999974,208.59999999999243
r53,53,999999967,634.2000000000756
r87,87,999999968,780.700000000109
1093.9000000001006
r47,47,999999989,207.09999999999252
r53,53,999999979,633.0000000000754
r87,87,999999969,780.6000000001089
1094.0000000001005
r47,47,999999980,207.99999999999247
r53,53,999999977,633.2000000000754
r87,87,999999986,778.9000000001085
1094.1000000001004
r47,47,999999983,207.69999999999249
r53,53,999999978,633.1000000000754
r87,87,999999994,778.1000000001084
1094.2000000001003
r47,47,999999993,206.69999999999254
r53,53,999999990,631.9000000000751
r87,87,999999988,778.7000000001085
1094.3000000001002
r47,47,999999953,210.69999999999231
r53,53,999999980,632.9000000000754
r87,87,999999961,781.4000000001091
1094.4000000001001
r47,47,999999999,206.09999999999258
r53,53,999999973,633.6000000000755
r87,87,999999954,782.1000000001093
1094.5000000001
r47,47,999999984,207.5999999999925
r53,53,999999972,633.7000000000755
r87,87,999999985,779.0000000001086
1094.6000000001
r47,47,999999964,209.59999999999238
r53,53,999999956,635.3000000000759
r87,87,999999995,778.0000000001083
1094.7000000000999
r47,47,999999967,209.2999999999924
r53,53,999999985,632.4000000000752
r87,87,999999962,781.3000000001091
1094.8000000000998
r47,47,999999966,209.3999999999924
r53,53,999999991,631.8000000000751
r87,87,999999998,777.7000000001083
1094.9000000000997
r47,47,999999997,206.29999999999256
r53,53,999999996,631.300000000075
r87,87,1000000000,777.5000000001082
1095.0000000000996
r47,47,999999970,208.9999999999924
r53,53,999999951,635.800000000076
r87,87,999999972,780.3000000001089
1095.1000000000995
r47,47,999999960,209.99999999999235
r53,53,999999962,634.7000000000758
r87,87,999999976,779.9000000001088
1095.2000000000994
r47,47,999999981,207.89999999999247
r53,53,999999958,635.1000000000759
r87,87,999999993,778.2000000001084
1095.3000000000993
r47,47,999999995,206.49999999999255
r53,53,999999998,631.1000000000749
r87,87,999999989,778.6000000001085
1095.4000000000992
r47,47,999999991,206.89999999999253
r53,53,999999955,635.4000000000759
r87,87,999999975,780.0000000001088
1095.5000000000991
r47,47,999999958,210.19999999999234
r53,53,999999960,634.9000000000758
r87,87,999999992,778.3000000001084
1095.600000000099
r47,47,999999954,210.59999999999232
r53,53,999999974,633.5000000000755
r87,87,999999971,780.4000000001089
1095.700000000099
r47,47,999999975,208.49999999999244
r53,53,999999961,634.8000000000758
r87,87,999999987,778.8000000001085
1095.8000000000989
r47,47,1000000000,205.99999999999258
r53,53,999999987,632.2000000000752
r87,87,999999959,781.6000000001092
1095.9000000000988
r47,47,999999992,206.79999999999254
r53,53,999999954,635.5000000000759
r87,87,999999964,781.100000000109
1096.0000000000987
r47,47,999999961,209.89999999999236
r53,53,999999963,634.6000000000757
r87,87,999999956,781.9000000001092
1096.1000000000986
r47,47,999999982,207.79999999999248
r53,53,999999969,634.0000000000756
r87,87,999999965,781.000000000109
1096.2000000000985
r47,47,999999969,209.0999999999924
r53,53,1000000000,630.9000000000749
r87,87,999999984,779.1000000001086
1096.3000000000984
r47,47,999999998,206.19999999999257
r53,53,999999989,632.0000000000751
r87,87,999999978,779.7000000001087
1096.4000000000983
r47,47,999999951,210.8999999999923
r53,53,999999984,632.5000000000753
r87,87,999999991,778.4000000001084
1096.5000000000982
r47,47,999999956,210.39999999999233
r53,53,999999959,635.0000000000758
r87,87,999999957,781.8000000001092
1096.6000000000981
r47,47,999999985,207.4999999999925
r53,53,999999988,632.1000000000752
r87,87,999999952,782.3000000001093
1096.700000000098
r47,47,999999968,209.1999999999924
r53,53,999999995,631.400000000075
r87,87,999999999,777.6000000001083
1096.800000000098
r47,47,999999972,208.79999999999242
r53,53,999999970,633.9000000000756
r87,87,999999990,778.5000000001085
1096.9000000000979
r47,47,999999957,210.29999999999234
r53,53,999999965,634.4000000000757
r87,87,999999973,780.2000000001088
1097.0000000000978
r47,47,999999994,206.59999999999255
r53,53,999999997,631.200000000075
r87,87,999999974,780.1000000001088
1097.1000000000977
r47,47,999999959,210.09999999999235
r53,53,999999971,633.8000000000756
r87,87,999999997,777.8000000001083
1097.2000000000976
