r42,42,999999993,642.9000000000776
1536.3999999996981
r42,42,999999970,645.2000000000781
1536.499999999698
r42,42,999999955,646.7000000000785
1536.599999999698
r42,42,999999966,645.6000000000782
1536.6999999996979
r42,42,999999978,644.400000000078
1536.7999999996978
r42,42,999999971,645.1000000000781
1536.8999999996977
r42,42,999999991,643.1000000000777
1536.9999999996976
r42,42,999999967,645.5000000000782
1537.0999999996975
r42,42,999999976,644.600000000078
1537.1999999996974
r42,42,999999951,647.1000000000786
1537.2999999996973
r42,42,999999994,642.8000000000776
1537.3999999996972
r42,42,999999972,645.0000000000781
1537.4999999996971
r42,42,1000000000,642.2000000000775
1537.599999999697
r42,42,999999977,644.500000000078
1537.699999999697
r42,42,999999960,646.2000000000784
1537.7999999996969
r42,42,999999990,643.2000000000777
1537.8999999996968
r42,42,999999973,644.9000000000781
1537.9999999996967
r42,42,999999959,646.3000000000784
1538.0999999996966
r42,42,999999965,645.7000000000783
1538.1999999996965
r42,42,999999956,646.6000000000785
1538.2999999996964
r42,42,999999954,646.8000000000785
1538.3999999996963
r42,42,999999981,644.1000000000779
1538.4999999996962
r42,42,999999988,643.4000000000777
1538.5999999996961
r42,42,999999974,644.8000000000781
1538.699999999696
r42,42,999999952,647.0000000000786
1538.799999999696
r42,42,999999958,646.4000000000784
1538.8999999996959
r42,42,999999953,646.9000000000785
1538.9999999996958
r42,42,999999969,645.3000000000782
1539.0999999996957
r42,42,999999986,643.6000000000778
1539.1999999996956
r42,42,999999968,645.4000000000782
1539.2999999996955
r42,42,999999984,643.8000000000778
1539.3999999996954
r42,42,999999957,646.5000000000784
1539.4999999996953
r42,42,999999983,643.9000000000779
1539.5999999996952
r42,42,999999989,643.3000000000777
1539.6999999996951
r42,42,999999975,644.700000000078
1539.799999999695
r42,42,999999962,646.0000000000783
1539.899999999695
r42,42,999999963,645.9000000000783
1539.9999999996949
r42,42,999999987,643.5000000000778
1540.0999999996948
r42,42,999999980,644.2000000000779
1540.1999999996947
r42,42,999999964,645.8000000000783
1540.2999999996946
r42,42,999999996,642.6000000000776
1540.3999999996945
r42,42,999999999,642.3000000000775
1540.4999999996944
r42,42,999999998,642.4000000000775
1540.5999999996943
r42,42,999999979,644.300000000078
1540.6999999996942
r42,42,999999995,642.7000000000776
1540.7999999996941
r42,42,999999997,642.5000000000775
1540.899999999694
r42,42,999999982,644.0000000000779
1540.999999999694
r42,42,999999992,643.0000000000776
1541.0999999996939
r42,42,999999985,643.7000000000778
1541.1999999996938
r42,42,999999961,646.1000000000784
1541.2999999996937
