r64,64,999999987,925.5000000001419
r46,46,999999970,1594.5999999996452
r63,63,999999980,1855.6999999994077
2615.299999998717
r64,64,999999977,926.5000000001421
r46,46,999999983,1593.2999999996464
r63,63,999999987,1854.9999999994084
2615.399999998717
r64,64,999999964,927.8000000001424
r46,46,999999958,1595.7999999996441
r63,63,999999976,1856.0999999994074
2615.4999999987167
r64,64,999999984,925.800000000142
r46,46,999999985,1593.0999999996466
r63,63,999999996,1854.0999999994092
2615.5999999987166
r64,64,999999990,925.2000000001418
r46,46,999999984,1593.1999999996465
r63,63,999999978,1855.8999999994076
2615.6999999987165
r64,64,999999999,924.3000000001416
r46,46,999999956,1595.999999999644
r63,63,999999971,1856.599999999407
2615.7999999987164
r64,64,999999968,927.4000000001423
r46,46,999999999,1591.6999999996478
r63,63,999999953,1858.3999999994053
2615.8999999987163
r64,64,999999980,926.200000000142
r46,46,999999953,1596.2999999996437
r63,63,999999970,1856.6999999994068
2615.9999999987162
r64,64,999999956,928.6000000001426
r46,46,999999996,1591.9999999996476
r63,63,999999994,1854.299999999409
2616.099999998716
r64,64,999999963,927.9000000001424
r46,46,999999971,1594.4999999996453
r63,63,999999972,1856.499999999407
2616.199999998716
r64,64,999999971,927.1000000001422
r46,46,999999990,1592.599999999647
r63,63,999999951,1858.599999999405
2616.299999998716
r64,64,999999976,926.6000000001421
r46,46,999999991,1592.4999999996471
r63,63,999999999,1853.7999999994095
2616.399999998716
r64,64,999999952,929.0000000001427
r46,46,999999973,1594.2999999996455
r63,63,999999965,1857.1999999994064
2616.499999998716
r64,64,999999951,929.1000000001427
r46,46,999999964,1595.1999999996447
r63,63,999999983,1855.399999999408
2616.5999999987157
r64,64,999999981,926.100000000142
r46,46,999999994,1592.1999999996474
r63,63,999999979,1855.7999999994076
2616.6999999987156
r64,64,999999991,925.1000000001418
r46,46,999999981,1593.4999999996462
r63,63,999999990,1854.6999999994086
2616.7999999987155
r64,64,999999989,925.3000000001418
r46,46,999999977,1593.8999999996458
r63,63,999999995,1854.199999999409
2616.8999999987154
r64,64,999999954,928.8000000001426
r46,46,999999951,1596.4999999996435
r63,63,999999975,1856.1999999994073
2616.9999999987153
r64,64,999999992,925.0000000001418
r46,46,999999957,1595.899999999644
r63,63,999999997,1853.9999999994093
2617.0999999987152
r64,64,999999993,924.9000000001417
r46,46,999999997,1591.8999999996477
r63,63,999999988,1854.8999999994085
2617.199999998715
r64,64,999999983,925.900000000142
r46,46,1000000000,1591.599999999648
r63,63,999999982,1855.499999999408
2617.299999998715
r64,64,999999959,928.3000000001425
r46,46,999999972,1594.3999999996454
r63,63,999999952,1858.4999999994052
2617.399999998715
r64,64,999999961,928.1000000001425
r46,46,999999961,1595.4999999996444
r63,63,999999954,1858.2999999994054
2617.499999998715
r64,64,999999996,924.6000000001417
r46,46,999999979,1593.699999999646
r63,63,999999966,1857.0999999994065
2617.599999998715
r64,64,999999982,926.000000000142
r46,46,999999960,1595.5999999996443
r63,63,999999992,1854.4999999994088
2617.6999999987147
r64,64,999999970,927.2000000001423
r46,46,999999969,1594.6999999996451
r63,63,999999986,1855.0999999994083
2617.7999999987146
r64,64,999999967,927.5000000001423
r46,46,999999987,1592.8999999996468
r63,63,999999981,1855.5999999994078
2617.8999999987145
r64,64,999999962,928.0000000001424
r46,46,999999982,1593.3999999996463
r63,63,999999959,1857.7999999994058
2617.9999999987144
r64,64,999999966,927.6000000001424
r46,46,999999980,1593.5999999996461
r63,63,999999955,1858.1999999994055
2618.0999999987143
r64,64,999999969,927.3000000001423
r46,46,999999975,1594.0999999996457
r63,63,999999956,1858.0999999994056
2618.1999999987142
r64,64,999999994,924.8000000001417
r46,46,999999962,1595.3999999996445
r63,63,999999985,1855.1999999994082
2618.299999998714
r64,64,999999960,928.2000000001425
r46,46,999999995,1592.0999999996475
r63,63,999999993,1854.399999999409
2618.399999998714
r64,64,999999957,928.5000000001426
r46,46,999999989,1592.699999999647
r63,63,999999969,1856.7999999994067
2618.499999998714
r64,64,999999972,927.0000000001422
r46,46,999999954,1596.1999999996438
r63,63,999999977,1855.9999999994075
2618.599999998714
r64,64,999999978,926.4000000001421
r46,46,999999992,1592.3999999996472
r63,63,999999984,1855.299999999408
2618.699999998714
r64,64,1000000000,924.2000000001416
r46,46,999999968,1594.799999999645
r63,63,999999960,1857.699999999406
2618.7999999987137
r64,64,999999975,926.7000000001422
r46,46,999999965,1595.0999999996448
r63,63,999999964,1857.2999999994063
2618.8999999987136
r64,64,999999986,925.6000000001419
r46,46,999999963,1595.2999999996446
r63,63,999999991,1854.5999999994087
2618.9999999987135
r64,64,999999955,928.7000000001426
r46,46,999999998,1591.7999999996478
r63,63,999999962,1857.499999999406
2619.0999999987134
r64,64,999999985,925.7000000001419
r46,46,999999988,1592.7999999996468
r63,63,999999963,1857.3999999994062
2619.1999999987133
r64,64,999999997,924.5000000001417
r46,46,999999974,1594.1999999996456
r63,63,999999989,1854.7999999994086
2619.2999999987132
r64,64,999999979,926.3000000001421
r46,46,999999959,1595.6999999996442
r63,63,999999974,1856.2999999994072
2619.399999998713
r64,64,999999958,928.4000000001425
r46,46,999999967,1594.899999999645
r63,63,999999967,1856.9999999994066
2619.499999998713
r64,64,999999998,924.4000000001416
r46,46,999999952,1596.3999999996436
r63,63,999999968,1856.8999999994066
2619.599999998713
r64,64,999999973,926.9000000001422
r46,46,999999976,1593.9999999996458
r63,63,1000000000,1853.6999999994096
2619.699999998713
r64,64,999999965,927.7000000001424
r46,46,999999993,1592.2999999996473
r63,63,999999957,1857.9999999994056
2619.799999998713
r64,64,999999988,925.4000000001419
r46,46,999999966,1594.9999999996448
r63,63,999999998,1853.8999999994094
2619.8999999987127
r64,64,999999974,926.8000000001422
r46,46,999999955,1596.0999999996438
r63,63,999999973,1856.399999999407
2619.9999999987126
r64,64,999999953,928.9000000001427
r46,46,999999978,1593.799999999646
r63,63,999999961,1857.599999999406
2620.0999999987125
r64,64,999999995,924.7000000001417
r46,46,999999986,1592.9999999996467
r63,63,999999958,1857.8999999994057
2620.1999999987124
