r29,29,999999965,967.9000000001515
r42,42,999999994,1027.500000000161
r91,91,999999966,1680.0999999995674
2481.4999999988386
r29,29,999999989,965.500000000151
r42,42,999999989,1028.0000000001605
r91,91,999999952,1681.4999999995662
2481.5999999988385
r29,29,999999961,968.3000000001516
r42,42,999999960,1030.900000000158
r91,91,999999956,1681.0999999995665
2481.6999999988384
r29,29,999999993,965.1000000001509
r42,42,999999992,1027.7000000001608
r91,91,999999984,1678.299999999569
2481.7999999988383
r29,29,999999954,969.0000000001518
r42,42,999999985,1028.4000000001602
r91,91,999999986,1678.0999999995693
2481.899999998838
r29,29,999999973,967.1000000001513
r42,42,999999982,1028.70000000016
r91,91,999999996,1677.0999999995702
2481.999999998838
r29,29,999999992,965.2000000001509
r42,42,999999974,1029.5000000001592
r91,91,999999975,1679.1999999995683
2482.099999998838
r29,29,999999971,967.3000000001514
r42,42,999999968,1030.1000000001586
r91,91,999999973,1679.399999999568
2482.199999998838
r29,29,999999991,965.3000000001509
r42,42,999999983,1028.60000000016
r91,91,999999977,1678.9999999995684
2482.299999998838
r29,29,999999972,967.2000000001514
r42,42,999999969,1030.0000000001587
r91,91,999999962,1680.499999999567
2482.3999999988378
r29,29,999999957,968.7000000001517
r42,42,999999981,1028.8000000001598
r91,91,999999983,1678.399999999569
2482.4999999988377
r29,29,999999959,968.5000000001517
r42,42,999999978,1029.1000000001595
r91,91,999999998,1676.8999999995704
2482.5999999988376
r29,29,999999977,966.7000000001512
r42,42,999999990,1027.9000000001606
r91,91,999999987,1677.9999999995694
2482.6999999988375
r29,29,999999968,967.6000000001515
r42,42,999999963,1030.6000000001582
r91,91,999999993,1677.39999999957
2482.7999999988374
r29,29,999999979,966.5000000001512
r42,42,999999956,1031.3000000001575
r91,91,999999997,1676.9999999995703
2482.8999999988373
r29,29,999999969,967.5000000001514
r42,42,999999976,1029.3000000001593
r91,91,999999960,1680.699999999567
2482.999999998837
r29,29,999999985,965.9000000001511
r42,42,999999952,1031.7000000001572
r91,91,999999988,1677.8999999995694
2483.099999998837
r29,29,999999986,965.800000000151
r42,42,999999972,1029.700000000159
r91,91,1000000000,1676.6999999995705
2483.199999998837
r29,29,999999999,964.5000000001507
r42,42,999999964,1030.5000000001583
r91,91,999999992,1677.4999999995698
2483.299999998837
r29,29,999999994,965.0000000001509
r42,42,999999955,1031.4000000001574
r91,91,999999955,1681.1999999995664
2483.399999998837
r29,29,999999987,965.700000000151
r42,42,999999987,1028.2000000001603
r91,91,999999978,1678.8999999995685
2483.4999999988368
r29,29,999999963,968.1000000001516
r42,42,999999959,1031.0000000001578
r91,91,999999957,1680.9999999995666
2483.5999999988367
r29,29,999999978,966.6000000001512
r42,42,999999984,1028.50000000016
r91,91,999999964,1680.2999999995673
2483.6999999988366
r29,29,999999995,964.9000000001508
r42,42,999999957,1031.2000000001576
r91,91,999999969,1679.7999999995677
2483.7999999988365
r29,29,999999988,965.600000000151
r42,42,999999954,1031.5000000001573
r91,91,999999974,1679.2999999995682
2483.8999999988364
r29,29,999999952,969.2000000001518
r42,42,999999965,1030.4000000001583
r91,91,999999971,1679.599999999568
2483.9999999988363
r29,29,999999958,968.6000000001517
r42,42,999999951,1031.800000000157
r91,91,999999951,1681.599999999566
2484.099999998836
r29,29,999999967,967.7000000001515
r42,42,999999971,1029.800000000159
r91,91,999999958,1680.8999999995667
2484.199999998836
r29,29,999999975,966.9000000001513
r42,42,999999958,1031.1000000001577
r91,91,999999989,1677.7999999995695
2484.299999998836
r29,29,999999964,968.0000000001515
r42,42,999999973,1029.600000000159
r91,91,999999968,1679.8999999995676
2484.399999998836
r29,29,999999960,968.4000000001516
r42,42,999999996,1027.3000000001612
r91,91,999999967,1679.9999999995675
2484.499999998836
r29,29,999999984,966.0000000001511
r42,42,999999997,1027.2000000001613
r91,91,999999980,1678.6999999995687
2484.5999999988358
r29,29,999999976,966.8000000001513
r42,42,999999953,1031.6000000001573
r91,91,999999982,1678.499999999569
2484.6999999988357
r29,29,999999981,966.3000000001512
r42,42,999999991,1027.8000000001607
r91,91,999999961,1680.599999999567
2484.7999999988356
r29,29,999999956,968.8000000001517
r42,42,999999977,1029.2000000001594
r91,91,999999979,1678.7999999995686
2484.8999999988355
r29,29,999999983,966.1000000001511
r42,42,1000000000,1026.9000000001615
r91,91,999999976,1679.0999999995684
2484.9999999988354
r29,29,999999998,964.6000000001508
r42,42,999999988,1028.1000000001604
r91,91,999999994,1677.29999999957
2485.0999999988353
r29,29,999999966,967.8000000001515
r42,42,999999980,1028.9000000001597
r91,91,999999953,1681.3999999995663
2485.199999998835
r29,29,999999953,969.1000000001518
r42,42,999999962,1030.700000000158
r91,91,999999981,1678.5999999995688
2485.299999998835
r29,29,999999962,968.2000000001516
r42,42,999999993,1027.600000000161
r91,91,999999990,1677.6999999995696
2485.399999998835
r29,29,999999970,967.4000000001514
r42,42,999999998,1027.1000000001613
r91,91,999999963,1680.3999999995672
2485.499999998835
r29,29,999999974,967.0000000001513
r42,42,999999975,1029.4000000001593
r91,91,999999995,1677.19999999957
2485.599999998835
r29,29,999999996,964.8000000001508
r42,42,999999966,1030.3000000001584
r91,91,999999970,1679.6999999995678
2485.6999999988348
r29,29,999999980,966.4000000001512
r42,42,999999995,1027.400000000161
r91,91,999999999,1676.7999999995704
2485.7999999988347
r29,29,999999951,969.3000000001518
r42,42,999999986,1028.3000000001603
r91,91,999999954,1681.2999999995664
2485.8999999988346
r29,29,999999997,964.7000000001508
r42,42,999999961,1030.800000000158
r91,91,999999972,1679.499999999568
2485.9999999988345
r29,29,999999990,965.400000000151
r42,42,999999999,1027.0000000001614
r91,91,999999985,1678.1999999995692
2486.0999999988344
r29,29,1000000000,964.4000000001507
r42,42,999999979,1029.0000000001596
r91,91,999999991,1677.5999999995697
2486.1999999988343
r29,29,999999982,966.2000000001511
r42,42,999999970,1029.9000000001588
r91,91,999999965,1680.1999999995674
2486.299999998834
r29,29,999999955,968.9000000001517
r42,42,999999967,1030.2000000001585
r91,91,999999959,1680.7999999995668
2486.399999998834
