r14,14,999999988,139.19999999999638
r97,97,999999969,372.20000000001613
r48,48,999999998,600.400000000068
r90,90,999999956,651.7000000000796
r25,25,999999955,903.6000000001369
r85,85,999999969,1237.6999999999698
1723.5999999995279
r14,14,999999983,139.69999999999635
r80,80,999999973,528.0000000000515
r25,25,999999989,721.9000000000956
r85,85,999999952,1239.3999999999683
1723.6999999995278
r14,14,999999967,141.29999999999626
r97,97,999999983,370.8000000000158
r48,48,999999987,601.5000000000682
r90,90,1000000000,647.3000000000786
r25,25,999999958,903.3000000001368
r85,85,999999984,1236.1999999999712
1723.7999999995277
r14,14,999999992,138.7999999999964
r80,80,999999972,528.1000000000515
r25,25,999999963,724.5000000000962
r85,85,999999958,1238.7999999999688
1723.8999999995276
r14,14,999999986,139.39999999999637
r80,80,999999978,527.5000000000514
r25,25,999999964,724.4000000000962
r85,85,999999982,1236.399999999971
1723.9999999995275
r14,14,999999975,140.4999999999963
r97,97,999999991,370.00000000001563
r48,48,999999999,600.3000000000679
r90,90,999999991,648.2000000000788
r25,25,999999954,903.7000000001369
r85,85,999999968,1237.7999999999697
1724.0999999995274
r14,14,999999998,138.19999999999644
r97,97,999999980,371.1000000000159
r48,48,999999970,603.2000000000686
r90,90,999999953,652.0000000000797
r25,25,999999957,903.4000000001369
r85,85,999999973,1237.2999999999702
1724.1999999995273
r14,14,999999966,141.39999999999625
r97,97,999999963,372.80000000001627
r48,48,999999992,601.0000000000681
r90,90,999999989,648.4000000000789
r25,25,999999953,903.800000000137
r85,85,999999997,1234.8999999999724
1724.2999999995272
r14,14,999999976,140.3999999999963
r80,80,999999991,526.2000000000511
r25,25,999999984,722.4000000000957
r85,85,999999974,1237.1999999999703
1724.3999999995272
r14,14,999999954,142.5999999999962
r97,97,999999955,373.60000000001645
r48,48,999999971,603.1000000000686
r90,90,999999969,650.4000000000793
r25,25,999999959,903.2000000001368
r85,85,999999986,1235.9999999999714
1724.499999999527
r14,14,999999962,141.79999999999623
r80,80,999999980,527.3000000000513
r25,25,999999991,721.7000000000955
r85,85,999999975,1237.0999999999704
1724.599999999527
r14,14,999999996,138.39999999999642
r80,80,999999990,526.3000000000511
r25,25,999999976,723.2000000000959
r85,85,999999979,1236.6999999999707
1724.6999999995269
r14,14,999999979,140.09999999999633
r80,80,999999960,529.3000000000518
r25,25,999999987,722.1000000000956
r85,85,1000000000,1234.5999999999726
1724.7999999995268
r14,14,999999964,141.59999999999624
r80,80,1000000000,525.3000000000509
r25,25,999999998,721.0000000000954
r85,85,999999994,1235.199999999972
1724.8999999995267
r14,14,999999953,142.69999999999618
r80,80,999999988,526.5000000000512
r25,25,999999975,723.3000000000959
r85,85,999999991,1235.4999999999718
1724.9999999995266
r14,14,999999955,142.4999999999962
r80,80,999999999,525.4000000000509
r25,25,999999997,721.1000000000954
r85,85,999999970,1237.59999999997
1725.0999999995265
r14,14,999999960,141.99999999999622
r80,80,999999995,525.800000000051
r25,25,1000000000,720.8000000000953
r85,85,999999965,1238.0999999999694
1725.1999999995264
r14,14,999999958,142.1999999999962
r80,80,999999968,528.5000000000516
r25,25,999999999,720.9000000000954
r85,85,999999959,1238.699999999969
1725.2999999995263
r14,14,999999993,138.6999999999964
r80,80,999999962,529.1000000000518
r25,25,999999969,723.900000000096
r85,85,999999960,1238.599999999969
1725.3999999995262
r14,14,999999981,139.89999999999634
r97,97,999999967,372.4000000000162
r48,48,999999995,600.700000000068
r90,90,999999981,649.2000000000791
r25,25,999999952,903.900000000137
r85,85,999999992,1235.399999999972
1725.4999999995262
r14,14,999999965,141.49999999999625
r80,80,999999994,525.900000000051
r25,25,999999996,721.2000000000954
r85,85,999999987,1235.8999999999714
1725.599999999526
r14,14,999999969,141.09999999999627
r80,80,999999983,527.0000000000513
r25,25,999999970,723.800000000096
r85,85,999999995,1235.0999999999722
1725.699999999526
r14,14,999999991,138.8999999999964
r80,80,999999979,527.4000000000514
r25,25,999999971,723.700000000096
r85,85,999999957,1238.8999999999687
1725.7999999995259
r14,14,999999980,139.99999999999633
r80,80,999999965,528.8000000000517
r25,25,999999982,722.6000000000957
r85,85,999999953,1239.2999999999683
1725.8999999995258
r14,14,999999959,142.09999999999621
r80,80,999999967,528.6000000000516
r25,25,999999978,723.0000000000958
r85,85,999999998,1234.7999999999724
1725.9999999995257
r14,14,999999970,140.99999999999628
r80,80,999999970,528.3000000000516
r25,25,999999983,722.5000000000957
r85,85,999999980,1236.5999999999708
1726.0999999995256
r14,14,999999977,140.29999999999632
r80,80,999999996,525.700000000051
r25,25,999999972,723.600000000096
r85,85,999999972,1237.39999999997
1726.1999999995255
r85,85,999999951,1253.999999999955
1726.2999999995254
r14,14,999999973,140.6999999999963
r80,80,999999992,526.1000000000511
r25,25,999999986,722.2000000000957
r85,85,999999977,1236.8999999999705
1726.3999999995253
r14,14,999999999,138.09999999999644
r80,80,999999984,526.9000000000513
r25,25,999999961,724.7000000000962
r85,85,999999990,1235.5999999999717
1726.4999999995252
r14,14,999999985,139.49999999999636
r80,80,999999981,527.2000000000513
r25,25,999999977,723.1000000000959
r85,85,999999981,1236.499999999971
1726.5999999995252
r14,14,999999968,141.19999999999627
r80,80,999999985,526.8000000000512
r25,25,999999967,724.1000000000961
r85,85,999999978,1236.7999999999706
1726.699999999525
r14,14,999999972,140.7999999999963
r80,80,999999977,527.6000000000514
r25,25,999999990,721.8000000000956
r85,85,999999961,1238.499999999969
1726.799999999525
r14,14,999999971,140.89999999999628
r80,80,999999975,527.8000000000515
r25,25,999999973,723.500000000096
r85,85,999999962,1238.3999999999692
1726.8999999995249
r14,14,999999952,142.79999999999617
r97,97,999999973,371.80000000001604
r48,48,999999975,602.7000000000685
r90,90,999999995,647.8000000000787
r25,25,999999956,903.5000000001369
r85,85,999999956,1238.9999999999686
1726.9999999995248
r14,14,999999994,138.5999999999964
r80,80,999999989,526.4000000000511
r25,25,999999979,722.9000000000958
r85,85,999999964,1238.1999999999694
1727.0999999995247
r14,14,999999997,138.29999999999643
r80,80,999999969,528.4000000000516
r25,25,999999965,724.3000000000961
r85,85,999999955,1239.0999999999685
1727.1999999995246
r14,14,999999995,138.49999999999642
r80,80,999999974,527.9000000000515
r25,25,999999994,721.4000000000955
r85,85,999999976,1236.9999999999704
1727.2999999995245
r14,14,999999982,139.79999999999634
r80,80,999999964,528.9000000000517
r25,25,999999960,724.8000000000962
r85,85,999999985,1236.0999999999713
1727.3999999995244
r14,14,1000000000,137.99999999999645
r80,80,999999987,526.6000000000512
r25,25,999999993,721.5000000000955
r85,85,999999983,1236.299999999971
1727.4999999995243
r14,14,999999987,139.29999999999637
r80,80,999999993,526.000000000051
r25,25,999999988,722.0000000000956
r85,85,999999971,1237.49999999997
1727.5999999995242
r14,14,999999978,140.19999999999632
r80,80,999999971,528.2000000000515
r25,25,999999974,723.4000000000959
r85,85,999999996,1234.9999999999723
1727.6999999995242
r14,14,999999990,138.9999999999964
r80,80,999999986,526.7000000000512
r25,25,999999985,722.3000000000957
r85,85,999999954,1239.1999999999684
1727.799999999524
r14,14,999999957,142.2999999999962
r80,80,999999976,527.7000000000514
r25,25,999999962,724.6000000000962
r85,85,999999963,1238.2999999999693
1727.899999999524
r14,14,999999956,142.3999999999962
r80,80,999999963,529.0000000000517
r25,25,999999980,722.8000000000958
r85,85,999999989,1235.6999999999716
1727.9999999995239
r14,14,999999984,139.59999999999636
r80,80,999999982,527.1000000000513
r25,25,999999966,724.2000000000961
r85,85,999999993,1235.299999999972
1728.0999999995238
r14,14,999999963,141.69999999999624
r80,80,999999961,529.2000000000518
r25,25,999999992,721.6000000000955
r85,85,999999967,1237.8999999999696
1728.1999999995237
r14,14,999999974,140.5999999999963
r80,80,999999998,525.5000000000509
r25,25,999999995,721.3000000000955
r85,85,999999988,1235.7999999999715
1728.2999999995236
r14,14,999999989,139.09999999999638
r80,80,999999966,528.7000000000517
r25,25,999999981,722.7000000000958
r85,85,999999999,1234.6999999999725
1728.3999999995235
r14,14,999999961,141.89999999999623
r80,80,999999997,525.600000000051
r25,25,999999968,724.0000000000961
r85,85,999999966,1237.9999999999695
1728.4999999995234
