r64,64,999999980,970.6000000001521
r41,41,999999959,1413.49999999981
2254.1999999990453
r64,64,999999967,971.9000000001524
r41,41,999999984,1410.9999999998122
2254.299999999045
r64,64,999999982,970.4000000001521
r41,41,999999973,1412.0999999998112
2254.399999999045
r64,64,999999992,969.4000000001519
r41,41,999999975,1411.8999999998114
2254.499999999045
r64,64,999999954,973.2000000001527
r41,41,999999991,1410.2999999998128
2254.599999999045
r64,64,999999996,969.0000000001518
r41,41,999999953,1414.0999999998094
2254.699999999045
r64,64,999999955,973.1000000001527
r41,41,999999978,1411.5999999998116
2254.7999999990448
r64,64,999999957,972.9000000001527
r41,41,999999986,1410.7999999998124
2254.8999999990447
r64,64,999999952,973.4000000001528
r41,41,999999954,1413.9999999998095
2254.9999999990446
r64,64,999999991,969.5000000001519
r41,41,1000000000,1409.3999999998136
2255.0999999990445
r64,64,999999962,972.4000000001525
r41,41,999999993,1410.099999999813
2255.1999999990444
r64,64,999999994,969.2000000001518
r41,41,999999969,1412.4999999998108
2255.2999999990443
r64,64,999999977,970.9000000001522
r41,41,999999951,1414.2999999998092
2255.399999999044
r64,64,999999972,971.4000000001523
r41,41,999999980,1411.3999999998118
2255.499999999044
r64,64,999999986,970.000000000152
r41,41,999999994,1409.999999999813
2255.599999999044
r64,64,999999970,971.6000000001524
r41,41,999999966,1412.7999999998106
2255.699999999044
r64,64,999999963,972.3000000001525
r41,41,999999983,1411.099999999812
2255.799999999044
r64,64,999999974,971.2000000001523
r41,41,999999982,1411.199999999812
2255.8999999990438
r64,64,999999969,971.7000000001524
r41,41,999999997,1409.6999999998134
2255.9999999990437
r64,64,999999958,972.8000000001526
r41,41,999999955,1413.8999999998096
2256.0999999990436
r64,64,999999990,969.6000000001519
r41,41,999999995,1409.8999999998132
2256.1999999990435
r64,64,999999961,972.5000000001526
r41,41,999999989,1410.4999999998126
2256.2999999990434
r64,64,999999964,972.2000000001525
r41,41,999999971,1412.299999999811
2256.3999999990433
r64,64,999999973,971.3000000001523
r41,41,999999990,1410.3999999998127
2256.499999999043
r64,64,999999985,970.100000000152
r41,41,999999998,1409.5999999998135
2256.599999999043
r64,64,999999989,969.7000000001519
r41,41,999999996,1409.7999999998133
2256.699999999043
r64,64,999999953,973.3000000001527
r41,41,999999985,1410.8999999998123
2256.799999999043
r64,64,999999971,971.5000000001523
r41,41,999999979,1411.4999999998117
2256.899999999043
r64,64,999999984,970.200000000152
r41,41,999999976,1411.7999999998115
2256.9999999990428
r64,64,999999981,970.5000000001521
r41,41,999999981,1411.299999999812
2257.0999999990427
r64,64,1000000000,968.6000000001517
r41,41,999999992,1410.199999999813
2257.1999999990426
r64,64,999999995,969.1000000001518
r41,41,999999956,1413.7999999998096
2257.2999999990425
r64,64,999999988,969.800000000152
r41,41,999999977,1411.6999999998116
2257.3999999990424
r64,64,999999966,972.0000000001525
r41,41,999999967,1412.6999999998106
2257.4999999990423
r64,64,999999999,968.7000000001517
r41,41,999999999,1409.4999999998136
2257.599999999042
r64,64,999999979,970.7000000001522
r41,41,999999988,1410.5999999998126
2257.699999999042
r64,64,999999965,972.1000000001525
r41,41,999999974,1411.9999999998113
2257.799999999042
r64,64,999999956,973.0000000001527
r41,41,999999964,1412.9999999998104
2257.899999999042
r64,64,999999959,972.7000000001526
r41,41,999999972,1412.199999999811
2257.999999999042
r64,64,999999993,969.3000000001518
r41,41,999999968,1412.5999999998107
2258.0999999990418
r64,64,999999976,971.0000000001522
r41,41,999999965,1412.8999999998105
2258.1999999990417
r64,64,999999998,968.8000000001517
r41,41,999999987,1410.6999999998125
2258.2999999990416
r64,64,999999951,973.5000000001528
r41,41,999999957,1413.6999999998097
2258.3999999990415
r64,64,999999987,969.900000000152
r41,41,999999952,1414.1999999998093
2258.4999999990414
r64,64,999999960,972.6000000001526
r41,41,999999970,1412.399999999811
2258.5999999990413
r64,64,999999975,971.1000000001522
r41,41,999999963,1413.0999999998103
2258.699999999041
r64,64,999999968,971.8000000001524
r41,41,999999961,1413.29999999981
2258.799999999041
r64,64,999999997,968.9000000001517
r41,41,999999962,1413.1999999998102
2258.899999999041
r64,64,999999978,970.8000000001522
r41,41,999999958,1413.5999999998098
2258.999999999041
r64,64,999999983,970.3000000001521
r41,41,999999960,1413.39999999981
2259.099999999041
