r71,71,999999980,693.100000000089
r79,79,999999993,980.6000000001544
r51,51,999999963,1105.2000000000903
r43,43,999999968,1544.7999999996905
r12,12,999999965,1666.8999999995794
r41,41,999999971,1895.6999999993714
2000.599999999276
r71,71,999999987,692.4000000000889
r79,79,999999974,982.5000000001548
r51,51,999999998,1101.7000000000935
r43,43,999999975,1544.0999999996911
r12,12,999999967,1666.6999999995796
r41,41,999999962,1896.5999999993705
2000.6999999992759
r71,71,999999977,693.4000000000891
r79,79,999999976,982.3000000001548
r51,51,999999993,1102.200000000093
r43,43,999999970,1544.5999999996907
r12,12,999999974,1665.9999999995803
r41,41,999999980,1894.7999999993722
2000.7999999992758
r71,71,1000000000,691.1000000000886
r79,79,999999994,980.5000000001544
r51,51,999999964,1105.1000000000904
r43,43,999999990,1542.5999999996925
r12,12,999999994,1663.999999999582
r41,41,999999969,1895.8999999993712
2000.8999999992757
r71,71,999999997,691.4000000000887
r79,79,999999955,984.4000000001553
r51,51,999999989,1102.6000000000927
r43,43,999999992,1542.3999999996927
r12,12,999999999,1663.4999999995825
r41,41,999999961,1896.6999999993704
2000.9999999992756
r71,71,999999990,692.1000000000888
r79,79,999999979,982.0000000001547
r51,51,999999996,1101.9000000000933
r43,43,999999984,1543.199999999692
r12,12,999999991,1664.2999999995818
r41,41,999999998,1892.9999999993738
2001.0999999992755
r71,71,999999988,692.3000000000889
r79,79,999999962,983.7000000001551
r51,51,999999999,1101.6000000000936
r43,43,999999958,1545.7999999996896
r12,12,999999997,1663.6999999995824
r41,41,999999982,1894.5999999993724
2001.1999999992754
r71,71,999999966,694.5000000000894
r79,79,999999975,982.4000000001548
r51,51,999999986,1102.9000000000924
r43,43,999999980,1543.5999999996916
r12,12,999999966,1666.7999999995795
r41,41,999999993,1893.4999999993734
2001.2999999992753
r71,71,999999976,693.5000000000891
r79,79,999999971,982.8000000001549
r51,51,999999960,1105.50000000009
r43,43,999999993,1542.2999999996928
r12,12,999999953,1668.0999999995784
r41,41,999999992,1893.5999999993733
2001.3999999992752
r71,71,999999991,692.0000000000888
r79,79,999999995,980.4000000001544
r51,51,999999975,1104.0000000000914
r43,43,999999959,1545.6999999996897
r12,12,999999978,1665.5999999995806
r41,41,999999999,1892.899999999374
2001.4999999992751
r71,71,999999996,691.5000000000887
r79,79,999999954,984.5000000001553
r51,51,999999957,1105.8000000000898
r43,43,999999967,1544.8999999996904
r12,12,999999964,1666.9999999995794
r41,41,999999985,1894.2999999993726
2001.599999999275
r71,71,999999971,694.0000000000892
r79,79,999999963,983.6000000001551
r51,51,999999992,1102.300000000093
r43,43,999999995,1542.099999999693
r12,12,999999980,1665.3999999995808
r41,41,999999994,1893.3999999993734
2001.699999999275
r71,71,999999984,692.700000000089
r79,79,999999960,983.9000000001552
r51,51,999999973,1104.2000000000912
r43,43,999999951,1546.499999999689
r12,12,999999968,1666.5999999995797
r41,41,999999997,1893.0999999993737
2001.7999999992749
r71,71,999999972,693.9000000000892
r79,79,999999980,981.9000000001547
r51,51,999999953,1106.2000000000894
r43,43,999999974,1544.199999999691
r12,12,999999969,1666.4999999995798
r41,41,999999960,1896.7999999993704
2001.8999999992748
r71,71,999999952,695.9000000000897
r79,79,999999952,984.7000000001553
r51,51,999999962,1105.3000000000902
r43,43,999999998,1541.7999999996932
r12,12,999999998,1663.5999999995825
r41,41,999999967,1896.099999999371
2001.9999999992747
r71,71,999999993,691.8000000000887
r79,79,999999965,983.400000000155
r51,51,999999987,1102.8000000000925
r43,43,999999982,1543.3999999996918
r12,12,999999956,1667.7999999995786
r41,41,999999995,1893.2999999993735
2002.0999999992746
r71,71,999999986,692.5000000000889
r79,79,999999991,980.8000000001545
r51,51,999999990,1102.5000000000928
r43,43,999999988,1542.7999999996923
r12,12,999999979,1665.4999999995807
r41,41,999999970,1895.7999999993713
2002.1999999992745
r71,71,999999951,696.0000000000897
r79,79,999999984,981.5000000001546
r51,51,999999994,1102.1000000000931
r43,43,999999987,1542.8999999996922
r12,12,999999972,1666.19999999958
r41,41,999999966,1896.199999999371
2002.2999999992744
r71,71,999999961,695.0000000000895
r79,79,999999957,984.2000000001552
r51,51,999999954,1106.1000000000895
r43,43,999999973,1544.299999999691
r12,12,999999987,1664.6999999995815
r41,41,999999958,1896.9999999993702
2002.3999999992743
r71,71,999999963,694.8000000000894
r79,79,999999972,982.7000000001549
r51,51,999999959,1105.60000000009
r43,43,999999989,1542.6999999996924
r12,12,999999981,1665.299999999581
r41,41,999999989,1893.899999999373
2002.4999999992742
r71,71,999999974,693.7000000000892
r79,79,999999992,980.7000000001544
r51,51,1000000000,1101.5000000000937
r43,43,999999960,1545.5999999996898
r12,12,999999955,1667.8999999995785
r41,41,999999957,1897.09999999937
2002.5999999992741
r71,71,999999953,695.8000000000897
r79,79,999999997,980.2000000001543
r51,51,999999978,1103.7000000000917
r43,43,999999964,1545.1999999996901
r12,12,999999957,1667.6999999995787
r41,41,999999986,1894.1999999993727
2002.699999999274
r71,71,999999967,694.4000000000893
r79,79,999999953,984.6000000001553
r51,51,999999980,1103.5000000000919
r43,43,1000000000,1541.5999999996934
r12,12,999999984,1664.9999999995812
r41,41,999999955,1897.29999999937
2002.799999999274
r71,71,999999955,695.6000000000896
r79,79,999999966,983.300000000155
r51,51,999999961,1105.4000000000901
r43,43,999999996,1541.999999999693
r12,12,999999996,1663.7999999995823
r41,41,1000000000,1892.799999999374
2002.8999999992739
r71,71,999999962,694.9000000000894
r79,79,999999983,981.6000000001546
r51,51,999999985,1103.0000000000923
r43,43,999999962,1545.39999999969
r12,12,999999954,1667.9999999995784
r41,41,999999972,1895.5999999993714
2002.9999999992738
r71,71,999999968,694.3000000000893
r79,79,999999986,981.3000000001546
r51,51,999999951,1106.4000000000892
r43,43,999999953,1546.2999999996891
r12,12,999999990,1664.3999999995817
r41,41,999999981,1894.6999999993723
2003.0999999992737
r71,71,999999975,693.6000000000892
r79,79,999999970,982.9000000001549
r51,51,999999958,1105.7000000000899
r43,43,999999985,1543.099999999692
r12,12,999999975,1665.8999999995804
r41,41,999999964,1896.3999999993707
2003.1999999992736
r71,71,999999985,692.6000000000889
r79,79,999999988,981.1000000001545
r51,51,999999970,1104.500000000091
r43,43,999999986,1542.9999999996921
r12,12,999999985,1664.8999999995813
r41,41,999999996,1893.1999999993736
2003.2999999992735
r71,71,999999992,691.9000000000888
r79,79,999999956,984.3000000001553
r51,51,999999995,1102.0000000000932
r43,43,999999969,1544.6999999996906
r12,12,999999971,1666.29999999958
r41,41,999999987,1894.0999999993728
2003.3999999992734
r71,71,999999969,694.2000000000893
r79,79,999999961,983.8000000001551
r51,51,999999977,1103.8000000000916
r43,43,999999991,1542.4999999996926
r12,12,999999962,1667.1999999995792
r41,41,999999953,1897.4999999993697
2003.4999999992733
r71,71,999999983,692.800000000089
r79,79,999999981,981.8000000001547
r51,51,999999966,1104.9000000000906
r43,43,999999954,1546.1999999996892
r12,12,999999986,1664.7999999995814
r41,41,999999956,1897.19999999937
2003.5999999992732
r71,71,999999979,693.2000000000891
r79,79,999999973,982.6000000001549
r51,51,999999974,1104.1000000000913
r43,43,999999997,1541.8999999996931
r12,12,999999977,1665.6999999995805
r41,41,999999983,1894.4999999993724
2003.6999999992731
r71,71,999999959,695.2000000000895
r79,79,999999958,984.1000000001552
r51,51,999999967,1104.8000000000907
r43,43,999999972,1544.3999999996909
r12,12,999999989,1664.4999999995816
r41,41,999999959,1896.8999999993703
2003.799999999273
r71,71,999999989,692.2000000000888
r79,79,999999977,982.2000000001548
r51,51,999999997,1101.8000000000934
r43,43,999999976,1543.9999999996912
r12,12,999999952,1668.1999999995783
r41,41,999999963,1896.4999999993706
2003.899999999273
r71,71,999999965,694.6000000000894
r79,79,999999990,980.9000000001545
r51,51,999999968,1104.7000000000908
r43,43,999999955,1546.0999999996893
r12,12,999999963,1667.0999999995793
r41,41,999999977,1895.099999999372
2003.9999999992729
r71,71,999999994,691.7000000000887
r79,79,999999998,980.1000000001543
r51,51,999999984,1103.1000000000922
r43,43,999999978,1543.7999999996914
r12,12,999999970,1666.39999999958
r41,41,999999988,1893.999999999373
2004.0999999992728
r71,71,999999978,693.3000000000891
r79,79,999999996,980.3000000001543
r51,51,999999979,1103.6000000000918
r43,43,999999952,1546.399999999689
r12,12,999999958,1667.5999999995788
r41,41,999999979,1894.899999999372
2004.1999999992727
r71,71,999999973,693.8000000000892
r79,79,999999985,981.4000000001546
r51,51,999999971,1104.400000000091
r43,43,999999961,1545.4999999996899
r12,12,999999983,1665.099999999581
r41,41,999999968,1895.999999999371
2004.2999999992726
r71,71,999999981,693.000000000089
r79,79,999999982,981.7000000001547
r51,51,999999983,1103.2000000000921
r43,43,999999977,1543.8999999996913
r12,12,999999992,1664.199999999582
r41,41,999999984,1894.3999999993725
2004.3999999992725
r71,71,999999954,695.7000000000896
r79,79,999999959,984.0000000001552
r51,51,999999981,1103.400000000092
r43,43,999999956,1545.9999999996894
r12,12,999999993,1664.099999999582
r41,41,999999954,1897.3999999993698
2004.4999999992724
r71,71,999999956,695.5000000000896
r79,79,999999968,983.100000000155
r51,51,999999956,1105.9000000000897
r43,43,999999999,1541.6999999996933
r12,12,999999988,1664.5999999995815
r41,41,999999974,1895.3999999993716
2004.5999999992723
r71,71,999999964,694.7000000000894
r79,79,999999987,981.2000000001545
r51,51,999999991,1102.4000000000929
r43,43,999999983,1543.2999999996919
r12,12,999999976,1665.7999999995805
r41,41,999999973,1895.4999999993715
2004.6999999992722
r71,71,999999999,691.2000000000886
r79,79,1000000000,979.9000000001543
r51,51,999999976,1103.9000000000915
r43,43,999999957,1545.8999999996895
r12,12,999999959,1667.499999999579
r41,41,999999990,1893.799999999373
2004.7999999992721
r71,71,999999998,691.3000000000886
r79,79,999999969,983.000000000155
r51,51,999999982,1103.300000000092
r43,43,999999963,1545.29999999969
r12,12,999999951,1668.2999999995782
r41,41,999999975,1895.2999999993717
2004.899999999272
r71,71,999999982,692.900000000089
r79,79,999999967,983.200000000155
r51,51,999999952,1106.3000000000893
r43,43,999999971,1544.4999999996908
r12,12,999999961,1667.299999999579
r41,41,999999978,1894.999999999372
2004.999999999272
r71,71,999999970,694.1000000000893
r79,79,999999999,980.0000000001543
r51,51,999999972,1104.3000000000911
r43,43,999999965,1545.0999999996902
r12,12,999999960,1667.399999999579
r41,41,999999976,1895.1999999993718
2005.0999999992719
r71,71,999999995,691.6000000000887
r79,79,999999989,981.0000000001545
r51,51,999999988,1102.7000000000926
r43,43,999999981,1543.4999999996917
r12,12,999999973,1666.0999999995802
r41,41,999999951,1897.6999999993695
2005.1999999992718
r71,71,999999960,695.1000000000895
r79,79,999999964,983.5000000001551
r51,51,999999965,1105.0000000000905
r43,43,999999966,1544.9999999996903
r12,12,1000000000,1663.3999999995826
r41,41,999999952,1897.5999999993696
2005.2999999992717
r71,71,999999958,695.3000000000895
r79,79,999999951,984.8000000001554
r51,51,999999969,1104.6000000000909
r43,43,999999994,1542.1999999996929
r12,12,999999982,1665.199999999581
r41,41,999999965,1896.2999999993708
2005.3999999992716
r71,71,999999957,695.4000000000896
r79,79,999999978,982.1000000001548
r51,51,999999955,1106.0000000000896
r43,43,999999979,1543.6999999996915
r12,12,999999995,1663.8999999995822
r41,41,999999991,1893.6999999993732
2005.4999999992715
