r99,99,999999952,332.9000000000072
r43,43,999999984,1413.7999999998096
r54,54,999999998,1462.899999999765
2241.099999999057
r99,99,999999970,331.1000000000068
r43,43,999999966,1415.599999999808
r54,54,999999984,1464.2999999997637
2241.199999999057
r99,99,999999980,330.10000000000656
r43,43,999999970,1415.1999999998084
r54,54,999999988,1463.899999999764
2241.299999999057
r99,99,999999961,332.000000000007
r43,43,999999995,1412.6999999998106
r54,54,999999971,1465.5999999997625
2241.399999999057
r99,99,999999984,329.70000000000647
r43,43,999999959,1416.2999999998074
r54,54,999999959,1466.7999999997614
2241.499999999057
r99,99,999999993,328.80000000000626
r43,43,999999952,1416.9999999998067
r54,54,999999953,1467.399999999761
2241.5999999990568
r99,99,999999981,330.00000000000654
r43,43,999999998,1412.399999999811
r54,54,999999972,1465.4999999997626
2241.6999999990567
r99,99,999999995,328.6000000000062
r43,43,1000000000,1412.199999999811
r54,54,999999991,1463.5999999997643
2241.7999999990566
r99,99,999999971,331.00000000000676
r43,43,999999980,1414.1999999998093
r54,54,999999951,1467.5999999997607
2241.8999999990565
r99,99,999999954,332.70000000000715
r43,43,999999997,1412.4999999998108
r54,54,999999987,1463.999999999764
2241.9999999990564
r99,99,999999979,330.2000000000066
r43,43,999999976,1414.599999999809
r54,54,999999956,1467.0999999997612
2242.0999999990563
r99,99,999999963,331.80000000000695
r43,43,999999999,1412.299999999811
r54,54,999999989,1463.7999999997642
2242.199999999056
r99,99,999999973,330.8000000000067
r43,43,999999955,1416.699999999807
r54,54,999999964,1466.299999999762
2242.299999999056
r99,99,999999982,329.9000000000065
r43,43,999999989,1413.29999999981
r54,54,999999962,1466.4999999997617
2242.399999999056
r99,99,999999978,330.3000000000066
r43,43,999999986,1413.5999999998098
r54,54,999999979,1464.7999999997633
2242.499999999056
r99,99,999999988,329.3000000000064
r43,43,999999973,1414.8999999998086
r54,54,999999992,1463.4999999997644
2242.599999999056
r99,99,999999967,331.40000000000686
r43,43,999999982,1413.9999999998095
r54,54,999999995,1463.1999999997647
2242.6999999990558
r99,99,999999951,333.0000000000072
r43,43,999999971,1415.0999999998085
r54,54,999999976,1465.099999999763
2242.7999999990557
r99,99,999999983,329.8000000000065
r43,43,999999951,1417.0999999998066
r54,54,999999986,1464.099999999764
2242.8999999990556
r99,99,999999974,330.7000000000067
r43,43,999999992,1412.9999999998104
r54,54,999999975,1465.199999999763
2242.9999999990555
r99,99,999999976,330.50000000000665
r43,43,999999991,1413.0999999998103
r54,54,999999957,1466.9999999997613
2243.0999999990554
r99,99,999999996,328.5000000000062
r43,43,999999958,1416.3999999998073
r54,54,999999994,1463.2999999997646
2243.1999999990553
r99,99,999999965,331.6000000000069
r43,43,999999983,1413.8999999998096
r54,54,999999968,1465.8999999997623
2243.299999999055
r99,99,999999977,330.4000000000066
r43,43,999999957,1416.4999999998072
r54,54,999999966,1466.099999999762
2243.399999999055
r99,99,999999960,332.100000000007
r43,43,999999961,1416.0999999998076
r54,54,999999955,1467.199999999761
2243.499999999055
r99,99,999999966,331.5000000000069
r43,43,999999988,1413.39999999981
r54,54,999999961,1466.5999999997616
2243.599999999055
r99,99,999999975,330.6000000000067
r43,43,999999963,1415.8999999998077
r54,54,999999977,1464.999999999763
2243.699999999055
r99,99,999999997,328.4000000000062
r43,43,999999962,1415.9999999998076
r54,54,999999970,1465.6999999997624
2243.7999999990548
r99,99,999999994,328.70000000000624
r43,43,999999979,1414.2999999998092
r54,54,999999974,1465.2999999997628
2243.8999999990547
r99,99,999999986,329.5000000000064
r43,43,999999972,1414.9999999998086
r54,54,1000000000,1462.6999999997652
2243.9999999990546
r99,99,999999969,331.2000000000068
r43,43,999999968,1415.3999999998082
r54,54,999999996,1463.0999999997648
2244.0999999990545
r99,99,999999987,329.4000000000064
r43,43,999999987,1413.49999999981
r54,54,999999985,1464.1999999997638
2244.1999999990544
r99,99,999999992,328.9000000000063
r43,43,999999965,1415.699999999808
r54,54,999999981,1464.5999999997634
2244.2999999990543
r99,99,999999957,332.4000000000071
r43,43,999999978,1414.399999999809
r54,54,999999980,1464.6999999997633
2244.399999999054
r99,99,999999972,330.90000000000674
r43,43,999999990,1413.1999999998102
r54,54,999999952,1467.4999999997608
2244.499999999054
r99,99,999999959,332.20000000000704
r43,43,999999964,1415.7999999998078
r54,54,999999983,1464.3999999997636
2244.599999999054
r99,99,999999991,329.0000000000063
r43,43,999999967,1415.499999999808
r54,54,999999990,1463.6999999997643
2244.699999999054
r99,99,999999989,329.20000000000636
r43,43,999999993,1412.8999999998105
r54,54,999999999,1462.799999999765
2244.799999999054
r99,99,999999964,331.7000000000069
r43,43,999999977,1414.499999999809
r54,54,999999973,1465.3999999997627
2244.8999999990538
r99,99,999999990,329.10000000000633
r43,43,999999953,1416.8999999998068
r54,54,999999969,1465.7999999997623
2244.9999999990537
r99,99,999999962,331.90000000000697
r43,43,999999969,1415.2999999998083
r54,54,999999965,1466.199999999762
2245.0999999990536
r99,99,999999956,332.5000000000071
r43,43,999999975,1414.6999999998088
r54,54,999999997,1462.999999999765
2245.1999999990535
r99,99,999999955,332.6000000000071
r43,43,999999996,1412.5999999998107
r54,54,999999960,1466.6999999997615
2245.2999999990534
r99,99,999999968,331.30000000000683
r43,43,999999960,1416.1999999998075
r54,54,999999978,1464.8999999997632
2245.3999999990533
r99,99,999999985,329.60000000000645
r43,43,999999974,1414.7999999998087
r54,54,999999993,1463.3999999997645
2245.499999999053
r99,99,1000000000,328.1000000000061
r43,43,999999985,1413.6999999998097
r54,54,999999958,1466.8999999997613
2245.599999999053
r99,99,999999953,332.8000000000072
r43,43,999999994,1412.7999999998106
r54,54,999999963,1466.3999999997618
2245.699999999053
r99,99,999999958,332.30000000000706
r43,43,999999954,1416.799999999807
r54,54,999999967,1465.9999999997622
2245.799999999053
r99,99,999999999,328.2000000000061
r43,43,999999981,1414.0999999998094
r54,54,999999982,1464.4999999997635
2245.899999999053
r99,99,999999998,328.30000000000615
r43,43,999999956,1416.599999999807
r54,54,999999954,1467.299999999761
2245.9999999990528
