r67,67,999999953,508.5000000000471
r96,96,999999965,933.5000000001437
1221.1999999999848
r67,67,999999970,506.80000000004674
r96,96,999999953,934.700000000144
1221.2999999999847
r67,67,999999971,506.7000000000467
r96,96,999999987,931.3000000001432
1221.3999999999846
r67,67,999999957,508.10000000004703
r96,96,999999990,931.0000000001431
1221.4999999999845
r67,67,999999960,507.80000000004696
r96,96,999999970,933.0000000001436
1221.5999999999844
r67,67,999999999,503.9000000000461
r96,96,999999989,931.1000000001432
1221.6999999999844
r67,67,999999961,507.70000000004694
r96,96,999999955,934.5000000001439
1221.7999999999843
r67,67,999999991,504.70000000004626
r96,96,999999984,931.6000000001433
1221.8999999999842
r67,67,999999987,505.10000000004635
r96,96,999999982,931.8000000001433
1221.999999999984
r67,67,999999952,508.60000000004715
r96,96,999999983,931.7000000001433
1222.099999999984
r67,67,999999951,508.70000000004717
r96,96,999999971,932.9000000001436
1222.199999999984
r67,67,999999963,507.5000000000469
r96,96,999999978,932.2000000001434
1222.2999999999838
r67,67,999999993,504.5000000000462
r96,96,999999975,932.5000000001435
1222.3999999999837
r67,67,999999962,507.6000000000469
r96,96,999999981,931.9000000001433
1222.4999999999836
r67,67,999999998,504.0000000000461
r96,96,999999999,930.1000000001429
1222.5999999999835
r67,67,999999954,508.4000000000471
r96,96,999999958,934.2000000001439
1222.6999999999834
r67,67,999999977,506.1000000000466
r96,96,999999995,930.500000000143
1222.7999999999834
r67,67,999999980,505.8000000000465
r96,96,999999988,931.2000000001432
1222.8999999999833
r67,67,999999978,506.00000000004655
r96,96,999999996,930.400000000143
1222.9999999999832
r67,67,999999964,507.4000000000469
r96,96,999999959,934.1000000001438
1223.099999999983
r67,67,999999968,507.0000000000468
r96,96,999999974,932.6000000001435
1223.199999999983
r67,67,999999969,506.90000000004676
r96,96,999999977,932.3000000001434
1223.299999999983
r67,67,999999983,505.50000000004644
r96,96,999999969,933.1000000001436
1223.3999999999828
r67,67,999999959,507.900000000047
r96,96,999999998,930.200000000143
1223.4999999999827
r67,67,999999958,508.000000000047
r96,96,999999997,930.300000000143
1223.5999999999826
r67,67,999999965,507.30000000004685
r96,96,999999963,933.7000000001437
1223.6999999999825
r67,67,999999989,504.9000000000463
r96,96,999999972,932.8000000001435
1223.7999999999824
r67,67,999999972,506.6000000000467
r96,96,999999979,932.1000000001434
1223.8999999999824
r67,67,999999955,508.3000000000471
r96,96,999999951,934.900000000144
1223.9999999999823
r67,67,999999990,504.8000000000463
r96,96,999999952,934.800000000144
1224.0999999999822
r67,67,999999956,508.20000000004705
r96,96,999999962,933.8000000001438
1224.199999999982
r67,67,1000000000,503.80000000004605
r96,96,999999957,934.3000000001439
1224.299999999982
r67,67,999999966,507.2000000000468
r96,96,999999976,932.4000000001435
1224.399999999982
r67,67,999999985,505.3000000000464
r96,96,999999985,931.5000000001432
1224.4999999999818
r67,67,999999995,504.30000000004617
r96,96,999999994,930.600000000143
1224.5999999999817
r67,67,999999967,507.1000000000468
r96,96,999999964,933.6000000001437
1224.6999999999816
r67,67,999999975,506.3000000000466
r96,96,999999973,932.7000000001435
1224.7999999999815
r67,67,999999981,505.7000000000465
r96,96,999999986,931.4000000001432
1224.8999999999814
r67,67,999999979,505.90000000004653
r96,96,1000000000,930.0000000001429
1224.9999999999814
r67,67,999999994,504.4000000000462
r96,96,999999992,930.8000000001431
1225.0999999999813
r67,67,999999976,506.2000000000466
r96,96,999999967,933.3000000001437
1225.1999999999812
r67,67,999999996,504.20000000004615
r96,96,999999991,930.9000000001431
1225.299999999981
r67,67,999999997,504.1000000000461
r96,96,999999980,932.0000000001434
1225.399999999981
r67,67,999999973,506.50000000004667
r96,96,999999960,934.0000000001438
1225.499999999981
r67,67,999999984,505.4000000000464
r96,96,999999966,933.4000000001437
1225.5999999999808
r67,67,999999988,505.0000000000463
r96,96,999999954,934.600000000144
1225.6999999999807
r67,67,999999974,506.40000000004665
r96,96,999999993,930.7000000001431
1225.7999999999806
r67,67,999999992,504.60000000004624
r96,96,999999968,933.2000000001436
1225.8999999999805
r67,67,999999982,505.60000000004646
r96,96,999999961,933.9000000001438
1225.9999999999804
r67,67,999999986,505.2000000000464
r96,96,999999956,934.4000000001439
1226.0999999999804
