r80,80,999999961,1363.6999999998552
r5,5,999999952,1366.099999999853
r65,65,999999953,1367.5999999998517
r35,35,999999981,1444.099999999782
r60,60,999999952,1531.2999999997028
r53,53,999999987,1754.0999999995001
r9,9,999999968,1807.9999999994511
2570.199999998758
r65,65,999999997,1350.5999999998671
r35,35,999999993,1442.8999999997832
r60,60,999999974,1529.0999999997048
r53,53,999999969,1755.8999999994985
r9,9,1000000000,1804.799999999454
2570.299999998758
r65,65,999999990,1351.2999999998665
r35,35,1000000000,1442.1999999997838
r60,60,999999997,1526.7999999997069
r53,53,999999992,1753.5999999995006
r9,9,999999983,1806.4999999994525
2570.3999999987577
r65,65,999999985,1351.799999999866
r35,35,999999997,1442.4999999997835
r60,60,999999962,1530.2999999997037
r53,53,999999971,1755.6999999994987
r9,9,999999959,1808.8999999994503
2570.4999999987576
r65,65,999999986,1351.6999999998661
r35,35,999999969,1445.299999999781
r60,60,999999979,1528.5999999997052
r53,53,999999993,1753.4999999995007
r9,9,999999999,1804.899999999454
2570.5999999987575
r65,65,999999994,1350.8999999998668
r35,35,999999964,1445.7999999997805
r60,60,999999956,1530.8999999997031
r53,53,999999984,1754.3999999994999
r9,9,999999973,1807.4999999994516
2570.6999999987574
r80,80,999999956,1364.1999999998548
r5,5,999999961,1365.1999999998538
r65,65,999999955,1367.3999999998518
r35,35,999999982,1443.9999999997822
r60,60,999999980,1528.4999999997053
r53,53,999999998,1752.9999999995011
r9,9,999999997,1805.0999999994538
2570.7999999987574
r65,65,999999971,1353.1999999998648
r35,35,999999967,1445.4999999997808
r60,60,999999999,1526.599999999707
r53,53,999999955,1757.2999999994972
r9,9,999999977,1807.099999999452
2570.8999999987573
r65,65,999999996,1350.699999999867
r35,35,999999954,1446.7999999997796
r60,60,999999971,1529.3999999997045
r53,53,999999959,1756.8999999994976
r9,9,999999961,1808.6999999994505
2570.999999998757
r65,65,999999991,1351.1999999998666
r35,35,999999999,1442.2999999997837
r60,60,999999983,1528.1999999997056
r53,53,999999954,1757.3999999994971
r9,9,999999954,1809.3999999994498
2571.099999998757
r65,65,999999992,1351.0999999998667
r35,35,999999973,1444.8999999997814
r60,60,999999975,1528.9999999997049
r53,53,999999972,1755.5999999994988
r9,9,999999958,1808.9999999994502
2571.199999998757
r65,65,999999974,1352.899999999865
r35,35,999999979,1444.299999999782
r60,60,999999989,1527.5999999997061
r53,53,999999994,1753.3999999995008
r9,9,999999996,1805.1999999994537
2571.299999998757
r65,65,999999984,1351.899999999866
r35,35,999999983,1443.8999999997823
r60,60,999999954,1531.099999999703
r53,53,999999960,1756.7999999994977
r9,9,999999987,1806.0999999994528
2571.399999998757
r65,65,999999982,1352.0999999998658
r35,35,999999963,1445.8999999997804
r60,60,999999982,1528.2999999997055
r53,53,1000000000,1752.7999999995013
r9,9,999999966,1808.199999999451
2571.4999999987567
r65,65,999999969,1353.3999999998646
r35,35,999999977,1444.4999999997817
r60,60,999999992,1527.2999999997064
r53,53,999999980,1754.7999999994995
r9,9,999999974,1807.3999999994517
2571.5999999987566
r80,80,999999962,1363.5999999998553
r5,5,999999959,1365.3999999998537
r65,65,999999961,1366.7999999998524
r35,35,999999971,1445.0999999997812
r60,60,999999972,1529.2999999997046
r53,53,999999956,1757.1999999994973
r9,9,999999953,1809.4999999994498
2571.6999999987565
r65,65,999999999,1350.3999999998673
r35,35,999999992,1442.999999999783
r60,60,999999970,1529.4999999997044
r53,53,999999996,1753.199999999501
r9,9,999999994,1805.3999999994535
2571.7999999987564
r80,80,999999959,1363.899999999855
r5,5,999999956,1365.6999999998534
r65,65,999999965,1366.3999999998528
r35,35,999999987,1443.4999999997826
r60,60,999999958,1530.6999999997033
r53,53,999999989,1753.8999999995003
r9,9,999999971,1807.6999999994514
2571.8999999987564
r65,65,999999981,1352.1999999998657
r35,35,999999975,1444.6999999997815
r60,60,999999994,1527.0999999997066
r53,53,999999957,1757.0999999994974
r9,9,999999965,1808.2999999994508
2571.9999999987563
r80,80,999999960,1363.7999999998551
r5,5,999999953,1365.9999999998531
r65,65,999999956,1367.299999999852
r35,35,999999958,1446.39999999978
r60,60,999999973,1529.1999999997047
r53,53,999999988,1753.9999999995002
r9,9,999999975,1807.2999999994518
2572.099999998756
r65,65,999999995,1350.799999999867
r35,35,999999961,1446.0999999997803
r60,60,999999955,1530.999999999703
r53,53,999999966,1756.1999999994982
r9,9,999999991,1805.6999999994532
2572.199999998756
r65,65,999999987,1351.5999999998662
r35,35,999999957,1446.49999999978
r60,60,999999968,1529.6999999997042
r53,53,999999965,1756.2999999994981
r9,9,999999957,1809.0999999994501
2572.299999998756
r80,80,999999955,1364.2999999998547
r5,5,999999962,1365.099999999854
r65,65,999999960,1366.8999999998523
r35,35,999999995,1442.6999999997834
r60,60,999999951,1531.3999999997027
r53,53,999999982,1754.5999999994997
r9,9,999999986,1806.1999999994528
2572.399999998756
r80,80,999999964,1363.3999999998555
r5,5,999999957,1365.5999999998535
r65,65,999999964,1366.4999999998527
r35,35,999999994,1442.7999999997833
r60,60,999999977,1528.799999999705
r53,53,999999977,1755.0999999994992
r9,9,999999989,1805.899999999453
2572.499999998756
r65,65,999999988,1351.4999999998663
r35,35,999999976,1444.5999999997816
r60,60,999999966,1529.899999999704
r53,53,999999985,1754.2999999995
r9,9,999999990,1805.7999999994531
2572.5999999987557
r80,80,999999952,1364.5999999998544
r5,5,999999960,1365.2999999998538
r65,65,999999954,1367.4999999998518
r35,35,999999952,1446.9999999997794
r60,60,999999953,1531.1999999997029
r53,53,999999983,1754.4999999994998
r9,9,999999962,1808.5999999994506
2572.6999999987556
r80,80,999999957,1364.0999999998548
r5,5,999999951,1366.199999999853
r65,65,999999962,1366.6999999998525
r35,35,999999998,1442.3999999997836
r60,60,999999986,1527.8999999997059
r53,53,999999990,1753.7999999995004
r9,9,999999992,1805.5999999994533
2572.7999999987555
r65,65,999999973,1352.999999999865
r35,35,999999966,1445.5999999997807
r60,60,999999998,1526.699999999707
r53,53,999999962,1756.5999999994979
r9,9,999999998,1804.9999999994538
2572.8999999987554
r80,80,999999954,1364.3999999998546
r5,5,999999954,1365.8999999998532
r65,65,999999959,1366.9999999998522
r35,35,999999988,1443.3999999997827
r60,60,1000000000,1526.4999999997071
r53,53,999999968,1755.9999999994984
r9,9,999999964,1808.3999999994508
2572.9999999987554
r65,65,999999979,1352.3999999998655
r35,35,999999965,1445.6999999997806
r60,60,999999960,1530.4999999997035
r53,53,999999986,1754.1999999995
r9,9,999999960,1808.7999999994504
2573.0999999987553
r80,80,999999951,1364.6999999998543
r5,5,999999964,1364.8999999998541
r65,65,999999951,1367.7999999998515
r35,35,999999951,1447.0999999997794
r60,60,999999961,1530.3999999997036
r53,53,999999952,1757.599999999497
r9,9,999999984,1806.3999999994526
2573.199999998755
r65,65,999999968,1353.4999999998645
r35,35,999999989,1443.2999999997828
r60,60,999999959,1530.5999999997034
r53,53,999999978,1754.9999999994993
r9,9,999999976,1807.1999999994518
2573.299999998755
r65,65,999999977,1352.5999999998653
r35,35,999999986,1443.5999999997825
r60,60,999999995,1526.9999999997067
r53,53,999999964,1756.399999999498
r9,9,999999955,1809.29999999945
2573.399999998755
r80,80,999999965,1363.2999999998556
r5,5,999999963,1364.999999999854
r65,65,999999958,1367.0999999998521
r35,35,999999955,1446.6999999997797
r60,60,999999957,1530.7999999997032
r53,53,999999999,1752.8999999995012
r9,9,999999993,1805.4999999994534
2573.499999998755
r65,65,999999993,1350.9999999998668
r35,35,999999985,1443.6999999997824
r60,60,999999987,1527.799999999706
r53,53,999999991,1753.6999999995005
r9,9,999999995,1805.2999999994536
2573.599999998755
r65,65,999999976,1352.6999999998652
r35,35,999999972,1444.9999999997813
r60,60,999999991,1527.3999999997063
r53,53,999999976,1755.1999999994991
r9,9,999999952,1809.5999999994497
2573.6999999987547
r65,65,999999967,1353.5999999998644
r35,35,999999978,1444.3999999997818
r60,60,999999981,1528.3999999997054
r53,53,999999975,1755.299999999499
r9,9,999999963,1808.4999999994507
2573.7999999987546
r80,80,999999953,1364.4999999998545
r5,5,999999965,1364.7999999998542
r65,65,999999957,1367.199999999852
r35,35,999999956,1446.5999999997798
r60,60,999999996,1526.8999999997068
r53,53,999999973,1755.4999999994989
r9,9,999999967,1808.099999999451
2573.8999999987545
r65,65,999999989,1351.3999999998664
r35,35,999999980,1444.199999999782
r60,60,999999967,1529.7999999997041
r53,53,999999979,1754.8999999994994
r9,9,999999979,1806.8999999994521
2573.9999999987544
r65,65,999999983,1351.9999999998658
r35,35,999999959,1446.29999999978
r60,60,999999993,1527.1999999997065
r53,53,999999967,1756.0999999994983
r9,9,999999978,1806.999999999452
2574.0999999987544
r65,65,999999970,1353.2999999998647
r35,35,999999984,1443.7999999997824
r60,60,999999976,1528.899999999705
r53,53,999999995,1753.2999999995009
r9,9,999999956,1809.19999999945
2574.1999999987543
r65,65,1000000000,1350.2999999998674
r35,35,999999996,1442.5999999997834
r60,60,999999984,1528.0999999997057
r53,53,999999961,1756.6999999994978
r9,9,999999951,1809.6999999994496
2574.299999998754
r65,65,999999978,1352.4999999998654
r35,35,999999990,1443.199999999783
r60,60,999999965,1529.999999999704
r53,53,999999997,1753.099999999501
r9,9,999999970,1807.7999999994513
2574.399999998754
r65,65,999999980,1352.2999999998656
r35,35,999999991,1443.099999999783
r60,60,999999988,1527.699999999706
r53,53,999999953,1757.499999999497
r9,9,999999969,1807.8999999994512
2574.499999998754
r65,65,999999975,1352.7999999998651
r35,35,999999953,1446.8999999997795
r60,60,999999985,1527.9999999997058
r53,53,999999970,1755.7999999994986
r9,9,999999980,1806.7999999994522
2574.599999998754
r80,80,999999958,1363.999999999855
r5,5,999999955,1365.7999999998533
r65,65,999999963,1366.5999999998526
r35,35,999999960,1446.1999999997802
r60,60,999999963,1530.1999999997038
r53,53,999999958,1756.9999999994975
r9,9,999999988,1805.999999999453
2574.699999998754
r65,65,999999998,1350.4999999998672
r35,35,999999970,1445.199999999781
r60,60,999999990,1527.4999999997062
r53,53,999999963,1756.499999999498
r9,9,999999981,1806.6999999994523
2574.7999999987537
r80,80,999999963,1363.4999999998554
r5,5,999999958,1365.4999999998536
r65,65,999999952,1367.6999999998516
r35,35,999999962,1445.9999999997804
r60,60,999999964,1530.0999999997039
r53,53,999999981,1754.6999999994996
r9,9,999999985,1806.2999999994527
2574.8999999987536
r65,65,999999966,1353.6999999998643
r35,35,999999974,1444.7999999997814
r60,60,999999978,1528.6999999997051
r53,53,999999974,1755.399999999499
r9,9,999999982,1806.5999999994524
2574.9999999987535
r65,65,999999972,1353.0999999998648
r35,35,999999968,1445.399999999781
r60,60,999999969,1529.5999999997043
r53,53,999999951,1757.6999999994969
r9,9,999999972,1807.5999999994515
2575.0999999987534
