r62,62,999999995,350.20000000001113
r52,52,999999965,1103.6000000000918
1463.3999999997645
r62,62,999999966,353.1000000000118
r52,52,999999966,1103.5000000000919
1463.4999999997644
r62,62,999999976,352.10000000001156
r52,52,999999984,1101.7000000000935
1463.5999999997643
r62,62,999999994,350.30000000001115
r52,52,999999958,1104.3000000000911
1463.6999999997643
r62,62,999999963,353.40000000001186
r52,52,999999989,1101.200000000094
1463.7999999997642
r62,62,999999961,353.6000000000119
r52,52,999999992,1100.9000000000942
1463.899999999764
r62,62,999999967,353.00000000001177
r52,52,999999990,1101.100000000094
1463.999999999764
r62,62,999999985,351.20000000001136
r52,52,999999981,1102.0000000000932
1464.099999999764
r62,62,999999991,350.6000000000112
r52,52,999999976,1102.5000000000928
1464.1999999997638
r62,62,999999997,350.0000000000111
r52,52,999999979,1102.200000000093
1464.2999999997637
r62,62,999999954,354.30000000001206
r52,52,999999961,1104.0000000000914
1464.3999999997636
r62,62,999999996,350.1000000000111
r52,52,999999998,1100.3000000000948
1464.4999999997635
r62,62,999999977,352.00000000001154
r52,52,999999954,1104.7000000000908
1464.5999999997634
r62,62,999999978,351.9000000000115
r52,52,999999993,1100.8000000000943
1464.6999999997633
r62,62,999999962,353.5000000000119
r52,52,999999978,1102.300000000093
1464.7999999997633
r62,62,999999958,353.90000000001197
r52,52,999999973,1102.8000000000925
1464.8999999997632
r62,62,999999981,351.60000000001145
r52,52,999999996,1100.5000000000946
1464.999999999763
r62,62,1000000000,349.700000000011
r52,52,999999962,1103.9000000000915
1465.099999999763
r62,62,999999965,353.2000000000118
r52,52,999999994,1100.7000000000944
1465.199999999763
r62,62,999999974,352.3000000000116
r52,52,999999991,1101.0000000000941
1465.2999999997628
r62,62,999999960,353.7000000000119
r52,52,999999980,1102.1000000000931
1465.3999999997627
r62,62,999999982,351.5000000000114
r52,52,999999995,1100.6000000000945
1465.4999999997626
r62,62,999999951,354.60000000001213
r52,52,1000000000,1100.100000000095
1465.5999999997625
r62,62,999999955,354.20000000001204
r52,52,999999972,1102.9000000000924
1465.6999999997624
r62,62,999999987,351.0000000000113
r52,52,999999951,1105.0000000000905
1465.7999999997623
r62,62,999999968,352.90000000001174
r52,52,999999988,1101.3000000000939
1465.8999999997623
r62,62,999999970,352.7000000000117
r52,52,999999955,1104.6000000000909
1465.9999999997622
r62,62,999999972,352.50000000001165
r52,52,999999968,1103.300000000092
1466.099999999762
r62,62,999999993,350.4000000000112
r52,52,999999957,1104.400000000091
1466.199999999762
r62,62,999999980,351.70000000001147
r52,52,999999982,1101.9000000000933
1466.299999999762
r62,62,999999973,352.40000000001163
r52,52,999999953,1104.8000000000907
1466.3999999997618
r62,62,999999964,353.30000000001183
r52,52,999999964,1103.7000000000917
1466.4999999997617
r62,62,999999986,351.10000000001133
r52,52,999999956,1104.500000000091
1466.5999999997616
r62,62,999999969,352.8000000000117
r52,52,999999970,1103.1000000000922
1466.6999999997615
r62,62,999999999,349.80000000001104
r52,52,999999985,1101.6000000000936
1466.7999999997614
r62,62,999999971,352.6000000000117
r52,52,999999977,1102.4000000000929
1466.8999999997613
r62,62,999999975,352.2000000000116
r52,52,999999975,1102.6000000000927
1466.9999999997613
r62,62,999999998,349.90000000001106
r52,52,999999967,1103.400000000092
1467.0999999997612
r62,62,999999988,350.9000000000113
r52,52,999999999,1100.2000000000949
1467.199999999761
r62,62,999999984,351.3000000000114
r52,52,999999963,1103.8000000000916
1467.299999999761
r62,62,999999992,350.5000000000112
r52,52,999999983,1101.8000000000934
1467.399999999761
r62,62,999999989,350.80000000001127
r52,52,999999986,1101.5000000000937
1467.4999999997608
r62,62,999999956,354.100000000012
r52,52,999999974,1102.7000000000926
1467.5999999997607
r62,62,999999983,351.4000000000114
r52,52,999999987,1101.4000000000938
1467.6999999997606
r62,62,999999952,354.5000000000121
r52,52,999999971,1103.0000000000923
1467.7999999997605
r62,62,999999953,354.4000000000121
r52,52,999999952,1104.9000000000906
1467.8999999997604
r62,62,999999979,351.8000000000115
r52,52,999999960,1104.1000000000913
1467.9999999997603
r62,62,999999957,354.000000000012
r52,52,999999959,1104.2000000000912
1468.0999999997603
r62,62,999999959,353.80000000001195
r52,52,999999997,1100.4000000000947
1468.1999999997602
r62,62,999999990,350.70000000001124
r52,52,999999969,1103.2000000000921
1468.29999999976
