r29,29,999999986,141.39999999999625
r74,74,999999955,587.9000000000651
r69,69,999999966,639.1000000000768
r54,54,999999953,924.9000000001417
1465.099999999763
r29,29,999999971,142.89999999999617
r74,74,999999973,586.1000000000647
r69,69,999999980,637.7000000000764
r54,54,999999959,924.3000000001416
1465.199999999763
r29,29,999999953,144.69999999999607
r74,74,1000000000,583.4000000000641
r69,69,999999962,639.5000000000769
r54,54,999999961,924.1000000001416
1465.2999999997628
r29,29,999999994,140.5999999999963
r74,74,999999958,587.600000000065
r69,69,1000000000,635.700000000076
r54,54,999999987,921.500000000141
1465.3999999997627
r29,29,999999993,140.6999999999963
r74,74,999999957,587.7000000000651
r69,69,999999988,636.9000000000763
r54,54,999999964,923.8000000001415
1465.4999999997626
r29,29,999999976,142.3999999999962
r74,74,999999977,585.7000000000646
r69,69,999999953,640.4000000000771
r54,54,999999973,922.9000000001413
1465.5999999997625
r29,29,999999991,140.89999999999628
r74,74,999999952,588.2000000000652
r69,69,999999961,639.6000000000769
r54,54,999999976,922.6000000001412
1465.6999999997624
r29,29,999999967,143.29999999999615
r74,74,999999986,584.8000000000644
r69,69,999999984,637.3000000000764
r54,54,999999972,923.0000000001413
1465.7999999997623
r29,29,999999988,141.19999999999627
r74,74,999999951,588.3000000000652
r69,69,999999986,637.1000000000763
r54,54,999999955,924.7000000001417
1465.8999999997623
r29,29,999999965,143.49999999999613
r74,74,999999965,586.9000000000649
r69,69,999999971,638.6000000000766
r54,54,999999971,923.1000000001413
1465.9999999997622
r29,29,999999972,142.79999999999617
r74,74,999999969,586.5000000000648
r69,69,999999994,636.3000000000761
r54,54,999999993,920.9000000001408
1466.099999999762
r29,29,999999984,141.59999999999624
r74,74,999999981,585.3000000000645
r69,69,999999987,637.0000000000763
r54,54,999999994,920.8000000001408
1466.199999999762
r29,29,999999969,143.09999999999616
r74,74,999999985,584.9000000000644
r69,69,999999970,638.7000000000767
r54,54,999999992,921.0000000001409
1466.299999999762
r29,29,999999990,140.99999999999628
r74,74,999999978,585.6000000000646
r69,69,999999998,635.900000000076
r54,54,999999983,921.9000000001411
1466.3999999997618
r29,29,999999981,141.89999999999623
r74,74,999999995,583.9000000000642
r69,69,999999992,636.5000000000762
r54,54,999999986,921.600000000141
1466.4999999997617
r29,29,999999966,143.39999999999614
r74,74,999999979,585.5000000000646
r69,69,999999990,636.7000000000762
r54,54,999999969,923.3000000001414
1466.5999999997616
r29,29,999999956,144.39999999999608
r74,74,999999980,585.4000000000646
r69,69,999999956,640.100000000077
r54,54,999999978,922.4000000001412
1466.6999999997615
r29,29,999999978,142.1999999999962
r74,74,999999984,585.0000000000645
r69,69,999999958,639.900000000077
r54,54,999999995,920.7000000001408
1466.7999999997614
r29,29,999999998,140.19999999999632
r74,74,999999967,586.7000000000648
r69,69,999999982,637.5000000000764
r54,54,999999979,922.3000000001412
1466.8999999997613
r29,29,999999974,142.5999999999962
r74,74,999999953,588.1000000000652
r69,69,999999967,639.0000000000767
r54,54,999999985,921.700000000141
1466.9999999997613
r29,29,999999992,140.7999999999963
r74,74,999999982,585.2000000000645
r69,69,999999993,636.4000000000761
r54,54,999999958,924.4000000001416
1467.0999999997612
r29,29,999999985,141.49999999999625
r74,74,999999990,584.4000000000643
r69,69,999999989,636.8000000000762
r54,54,1000000000,920.2000000001407
1467.199999999761
r29,29,999999995,140.4999999999963
r74,74,999999988,584.6000000000644
r69,69,999999951,640.6000000000771
r54,54,999999960,924.2000000001416
1467.299999999761
r29,29,999999979,142.09999999999621
r74,74,999999993,584.1000000000643
r69,69,999999979,637.8000000000765
r54,54,999999977,922.5000000001412
1467.399999999761
r29,29,999999952,144.79999999999606
r74,74,999999989,584.5000000000643
r69,69,999999999,635.800000000076
r54,54,999999982,922.0000000001411
1467.4999999997608
r29,29,999999964,143.59999999999613
r74,74,999999992,584.2000000000643
r69,69,999999996,636.1000000000761
r54,54,999999981,922.1000000001411
1467.5999999997607
r29,29,999999955,144.49999999999608
r74,74,999999975,585.9000000000647
r69,69,999999960,639.7000000000769
r54,54,999999966,923.6000000001414
1467.6999999997606
r29,29,999999980,141.99999999999622
r74,74,999999974,586.0000000000647
r69,69,999999977,638.0000000000765
r54,54,999999951,925.1000000001418
1467.7999999997605
r29,29,999999982,141.79999999999623
r74,74,999999987,584.7000000000644
r69,69,999999974,638.3000000000766
r54,54,999999962,924.0000000001415
1467.8999999997604
r29,29,999999960,143.9999999999961
r74,74,999999954,588.0000000000651
r69,69,999999955,640.200000000077
r54,54,999999974,922.8000000001413
1467.9999999997603
r29,29,999999968,143.19999999999615
r74,74,999999991,584.3000000000643
r69,69,999999952,640.5000000000771
r54,54,999999968,923.4000000001414
1468.0999999997603
r29,29,999999957,144.2999999999961
r74,74,999999972,586.2000000000647
r69,69,999999981,637.6000000000764
r54,54,999999989,921.3000000001409
1468.1999999997602
r29,29,999999996,140.3999999999963
r74,74,999999966,586.8000000000649
r69,69,999999978,637.9000000000765
r54,54,999999963,923.9000000001415
1468.29999999976
r29,29,999999959,144.0999999999961
r74,74,999999999,583.5000000000641
r69,69,999999959,639.8000000000769
r54,54,999999975,922.7000000001412
1468.39999999976
r29,29,1000000000,139.99999999999633
r74,74,999999970,586.4000000000648
r69,69,999999964,639.3000000000768
r54,54,999999956,924.6000000001417
1468.49999999976
r29,29,999999962,143.79999999999612
r74,74,999999963,587.1000000000649
r69,69,999999985,637.2000000000763
r54,54,999999988,921.400000000141
1468.5999999997598
r29,29,999999977,142.2999999999962
r74,74,999999971,586.3000000000648
r69,69,999999963,639.4000000000768
r54,54,999999997,920.5000000001407
1468.6999999997597
r29,29,999999989,141.09999999999627
r74,74,999999956,587.8000000000651
r69,69,999999972,638.5000000000766
r54,54,999999996,920.6000000001408
1468.7999999997596
r29,29,999999973,142.69999999999618
r74,74,999999962,587.200000000065
r69,69,999999995,636.2000000000761
r54,54,999999954,924.8000000001417
1468.8999999997595
r29,29,999999954,144.59999999999607
r74,74,999999968,586.6000000000648
r69,69,999999997,636.000000000076
r54,54,999999965,923.7000000001415
1468.9999999997594
r29,29,999999975,142.4999999999962
r74,74,999999961,587.300000000065
r69,69,999999973,638.4000000000766
r54,54,999999999,920.3000000001407
1469.0999999997593
r29,29,999999961,143.8999999999961
r74,74,999999976,585.8000000000646
r69,69,999999954,640.300000000077
r54,54,999999957,924.5000000001417
1469.1999999997593
r29,29,999999958,144.1999999999961
r74,74,999999983,585.1000000000645
r69,69,999999983,637.4000000000764
r54,54,999999984,921.800000000141
1469.2999999997592
r29,29,999999987,141.29999999999626
r74,74,999999996,583.8000000000642
r69,69,999999975,638.2000000000766
r54,54,999999980,922.2000000001411
1469.399999999759
r29,29,999999997,140.29999999999632
r74,74,999999960,587.400000000065
r69,69,999999976,638.1000000000765
r54,54,999999990,921.2000000001409
1469.499999999759
r29,29,999999963,143.69999999999612
r74,74,999999959,587.500000000065
r69,69,999999968,638.9000000000767
r54,54,999999991,921.1000000001409
1469.599999999759
r29,29,999999983,141.69999999999624
r74,74,999999964,587.0000000000649
r69,69,999999957,640.000000000077
r54,54,999999970,923.2000000001414
1469.6999999997588
r29,29,999999951,144.89999999999606
r74,74,999999994,584.0000000000642
r69,69,999999969,638.8000000000767
r54,54,999999967,923.5000000001414
1469.7999999997587
r29,29,999999999,140.09999999999633
r74,74,999999998,583.6000000000641
r69,69,999999991,636.6000000000762
r54,54,999999952,925.0000000001418
1469.8999999997586
r29,29,999999970,142.99999999999616
r74,74,999999997,583.7000000000642
r69,69,999999965,639.2000000000768
r54,54,999999998,920.4000000001407
1469.9999999997585
