r96,96,999999974,1033.7000000001553
2342.7999999989647
r96,96,999999993,1031.800000000157
2342.8999999989646
r96,96,999999956,1035.5000000001537
2342.9999999989645
r96,96,999999957,1035.4000000001538
2343.0999999989644
r96,96,999999971,1034.000000000155
2343.1999999989644
r96,96,999999983,1032.8000000001562
2343.2999999989643
r96,96,1000000000,1031.1000000001577
2343.399999998964
r96,96,999999980,1033.100000000156
2343.499999998964
r96,96,999999964,1034.7000000001544
2343.599999998964
r96,96,999999960,1035.100000000154
2343.699999998964
r96,96,999999988,1032.3000000001566
2343.799999998964
r96,96,999999958,1035.300000000154
2343.8999999989637
r96,96,999999990,1032.1000000001568
2343.9999999989636
r96,96,999999989,1032.2000000001567
2344.0999999989635
r96,96,999999963,1034.8000000001543
2344.1999999989634
r96,96,999999981,1033.000000000156
2344.2999999989634
r96,96,999999951,1036.0000000001532
2344.3999999989633
r96,96,999999961,1035.0000000001542
2344.499999998963
r96,96,999999979,1033.2000000001558
2344.599999998963
r96,96,999999953,1035.8000000001534
2344.699999998963
r96,96,999999968,1034.3000000001548
2344.799999998963
r96,96,999999977,1033.4000000001556
2344.899999998963
r96,96,999999995,1031.6000000001573
2344.9999999989627
r96,96,999999985,1032.6000000001563
2345.0999999989626
r96,96,999999954,1035.7000000001535
2345.1999999989625
r96,96,999999969,1034.200000000155
2345.2999999989624
r96,96,999999973,1033.8000000001553
2345.3999999989624
r96,96,999999955,1035.6000000001536
2345.4999999989623
r96,96,999999962,1034.9000000001543
2345.599999998962
r96,96,999999996,1031.5000000001573
2345.699999998962
r96,96,999999999,1031.2000000001576
2345.799999998962
r96,96,999999982,1032.900000000156
2345.899999998962
r96,96,999999997,1031.4000000001574
2345.999999998962
r96,96,999999965,1034.6000000001545
2346.0999999989617
r96,96,999999970,1034.100000000155
2346.1999999989616
r96,96,999999978,1033.3000000001557
2346.2999999989615
r96,96,999999998,1031.3000000001575
2346.3999999989614
r96,96,999999952,1035.9000000001533
2346.4999999989614
r96,96,999999967,1034.4000000001547
2346.5999999989613
r96,96,999999959,1035.200000000154
2346.699999998961
r96,96,999999987,1032.4000000001565
2346.799999998961
r96,96,999999975,1033.6000000001554
2346.899999998961
r96,96,999999986,1032.5000000001564
2346.999999998961
r96,96,999999984,1032.7000000001563
2347.099999998961
r96,96,999999991,1032.000000000157
2347.1999999989607
r96,96,999999992,1031.900000000157
2347.2999999989606
r96,96,999999994,1031.7000000001572
2347.3999999989605
r96,96,999999972,1033.9000000001552
2347.4999999989604
r96,96,999999966,1034.5000000001546
2347.5999999989604
r96,96,999999976,1033.5000000001555
2347.6999999989603
