l56,56,537999988,60040.0
r8,8,1000000,60694.0
l41,41,534000000,60820.0
913.0
l56,56,537999996,60032.0
e80,80,1337999988,60987.0
e91,91,1332000000,61086.0
2011.0
l56,56,537999998,60030.0
l55,55,534999999,60915.0
e80,80,1344000000,60947.0
e91,91,1331999999,61087.0
2022.0
e75,75,1334999995,60437.0
r10,10,1000000,61327.0
3215.0
r12,12,1000000,60971.0
r10,10,999999,61583.0
3226.0
e75,75,1334999994,60438.0
r18,18,999999,64356.0
4528.0
e75,75,1335000000,60432.0
r18,18,999998,64364.0
4495.0
l56,56,537999986,60042.0
l55,55,535000000,60914.0
e72,72,1311999995,63658.0
r18,18,999997,64515.0
4501.0
e99,99,1329999999,60392.0
e82,82,1328999997,60624.0
e93,93,1335000000,61024.0
e75,75,1322999987,62715.0
r18,18,1000000,64348.0
4522.0
l56,56,537999991,60037.0
l55,55,533999996,60919.0
l52,52,534999999,62636.0
l36,36,530000000,63083.0
l44,44,511999998,63215.0
r4,4,1000000,63506.0
l49,49,518999995,63956.0
r33,33,999999,64260.0
4675.0
e90,90,1321999991,61468.0
e78,78,1329999996,61534.0
l67,67,530999999,61738.0
e82,82,1310999984,64231.0
r5,5,999992,64549.0
4706.0
e90,90,1321999996,61463.0
l67,67,522999990,61992.0
e82,82,1304999977,64244.0
r5,5,999993,64505.0
4748.0
r9,9,999999,63698.0
e82,82,1310999988,64090.0
r5,5,999990,64587.0
4717.0
l56,56,537999993,60035.0
e92,92,1346999998,60441.0
e79,79,1328999997,61547.0
l48,48,523999999,62585.0
e82,82,1315999990,63184.0
r5,5,999994,64498.0
4731.0
e99,99,1330000000,60391.0
e82,82,1326999995,60628.0
r5,5,999991,64555.0
4757.0
e90,90,1321999988,61471.0
e78,78,1329999999,61531.0
l67,67,530999998,61739.0
e82,82,1310999985,64230.0
r5,5,999997,64436.0
4742.0
e99,99,1329999994,60397.0
e82,82,1330999998,60621.0
r5,5,999999,64419.0
4745.0
e99,99,1329999993,60398.0
l37,37,518999997,61475.0
l53,53,515999994,62387.0
e87,87,1319999993,62625.0
4939.0
e99,99,1329999997,60394.0
l37,37,515999992,61483.0
e87,87,1326999998,62119.0
4946.0
e90,90,1320999982,61478.0
r6,6,999999,62362.0
e87,87,1309999990,64678.0
4975.0
e99,99,1329999998,60393.0
l37,37,518999998,61474.0
e87,87,1324999997,62122.0
4970.0
l56,56,537999987,60041.0
e92,92,1348000000,60438.0
e99,99,1325999991,60710.0
l37,37,516999994,61480.0
e87,87,1330000000,62114.0
4952.0
e99,99,1329999996,60395.0
l37,37,518999995,61477.0
l53,53,519999999,62378.0
e87,87,1319999994,62624.0
4964.0
l56,56,537999999,60029.0
l55,55,532999995,60921.0
5054.0
l56,56,537999989,60039.0
l55,55,534999997,60917.0
5052.0
r9,9,1000000,63692.0
e82,82,1310999989,64089.0
5631.0
e90,90,1321999989,61470.0
l67,67,525999994,61985.0
e82,82,1307999980,64238.0
5627.0
e90,90,1321999987,61472.0
l67,67,521999987,61996.0
e82,82,1307999981,64237.0
5625.0
e90,90,1321999999,61460.0
l67,67,521999986,61997.0
e82,82,1307999979,64239.0
5666.0
e90,90,1321999998,61461.0
e78,78,1329999998,61532.0
l67,67,531000000,61737.0
e82,82,1308999983,64234.0
5631.0
l37,37,511999978,63084.0
l45,45,522999995,63200.0
l40,40,506999991,63899.0
l35,35,516999993,64147.0
e73,73,1308999989,64696.0
l55,55,495999983,65398.0
5771.0
l37,37,511999974,63088.0
l45,45,520999992,63205.0
l40,40,506999994,63896.0
l35,35,516999992,64148.0
e73,73,1309999993,64691.0
l55,55,498999988,65390.0
5753.0
l37,37,511999976,63086.0
e76,76,1319999999,63371.0
e98,98,1312999988,63454.0
l43,43,520999992,64452.0
l48,48,499999984,65251.0
6387.0
l37,37,511999983,63079.0
e76,76,1321000000,63369.0
e98,98,1315999989,63450.0
e96,96,1303999983,64357.0
e88,88,1300999977,65625.0
l48,48,492999971,66360.0
6352.0
e75,75,1334999996,60436.0
r30,30,999998,62867.0
e100,100,1318999984,64284.0
l43,43,517999988,64473.0
l48,48,500999986,65248.0
6356.0
l37,37,511999984,63078.0
l45,45,522999997,63198.0
e88,88,1305999989,63605.0
l48,48,492999974,66357.0
6368.0
l37,37,511999973,63089.0
e76,76,1318999987,63384.0
e98,98,1319999993,63442.0
7313.0
l62,62,532999995,62687.0
l60,60,519999996,63568.0
e98,98,1301999974,64195.0
7305.0
e90,90,1321999990,61469.0
l67,67,525999995,61984.0
l44,44,492999970,67137.0
l52,52,479999966,67533.0
11706.0
l37,37,511999982,63080.0
e89,89,1319000000,63328.0
l42,42,523999995,63780.0
r27,27,999998,66908.0
l52,52,477999965,68654.0
11741.0
e93,93,1305999991,66052.0
l66,66,498999984,66572.0
l38,38,482999969,68076.0
e78,78,1273999958,70150.0
l52,52,464999956,71270.0
11717.0
l57,57,489999963,67479.0
l38,38,478999962,68143.0
e78,78,1272999957,70152.0
l52,52,465999959,71266.0
11741.0
l57,57,488999953,67490.0
e86,86,1259999959,69783.0
l52,52,466999961,70930.0
11738.0
l57,57,488999952,67491.0
e86,86,1253999952,69796.0
l52,52,465999960,70932.0
11722.0
e99,99,1310999980,66839.0
l40,40,482999962,68364.0
l63,63,464999959,70525.0
e78,78,1267999955,70708.0
l52,52,465999957,71268.0
11724.0
e75,75,1334999998,60434.0
l63,63,496999971,67524.0
e78,78,1263999954,70713.0
l52,52,465999958,71267.0
11706.0
l37,37,510999972,63915.0
e82,82,1280999964,66602.0
e85,85,1281999966,70945.0
12350.0
e99,99,1313999982,66834.0
l40,40,482999964,68362.0
l64,64,445999953,72678.0
13942.0
l57,57,488999956,67487.0
e86,86,1261999960,69780.0
e78,78,1255999953,70778.0
l43,43,451999952,71309.0
l40,40,442999951,72079.0
l64,64,451999955,72670.0
13963.0
l57,57,488999955,67488.0
e86,86,1253999953,69795.0
l43,43,462999955,70157.0
e73,73,1267999963,70983.0
l55,55,452999952,72854.0
l64,64,435999951,72914.0
13983.0
