e79,79,1327999994,61120.0
l41,41,528999993,61356.0
l35,35,524000000,62580.0
e82,82,1310999994,63630.0
3916.0
e79,79,1327999990,61124.0
l41,41,530999995,61352.0
l35,35,520999995,62588.0
e82,82,1309999993,63632.0
3911.0
e79,79,1327999996,61118.0
l41,41,527999992,61358.0
l48,48,516999996,61366.0
e82,82,1324999997,62726.0
3953.0
e79,79,1326999987,61128.0
l41,41,531999999,61347.0
l48,48,516999999,61363.0
e82,82,1324999996,62727.0
3909.0
e79,79,1327999995,61119.0
l41,41,530999996,61351.0
l48,48,516999994,61368.0
e82,82,1324999999,62724.0
3907.0
e79,79,1326999989,61126.0
l41,41,531999997,61349.0
l48,48,519000000,61360.0
e82,82,1324999998,62725.0
3941.0
e79,79,1327999992,61122.0
l41,41,533000000,61345.0
l35,35,520999994,62589.0
e82,82,1309999992,63633.0
3951.0
e79,79,1327999993,61121.0
l41,41,528999994,61355.0
l48,48,516999993,61369.0
e82,82,1324999995,62728.0
3916.0
e79,79,1327999991,61123.0
l41,41,531999998,61348.0
l48,48,516999992,61370.0
e82,82,1329000000,62719.0
3950.0
l36,36,522999988,61932.0
4015.0
l36,36,522999986,61934.0
4019.0
l36,36,522999997,61923.0
3998.0
l36,36,522999990,61930.0
4015.0
l36,36,522999984,61936.0
4024.0
l36,36,522999998,61922.0
4003.0
l36,36,522999995,61925.0
4013.0
l36,36,522999989,61931.0
3984.0
l36,36,523000000,61920.0
3993.0
l36,36,522999999,61921.0
4014.0
l36,36,522999994,61926.0
4014.0
l36,36,522999982,61938.0
3998.0
l36,36,522999993,61927.0
4007.0
l36,36,522999987,61933.0
4026.0
l36,36,522999996,61924.0
4023.0
e79,79,1328000000,61114.0
l43,43,534999999,61191.0
l60,60,522999999,62331.0
e86,86,1312999990,63258.0
r5,5,999999,63871.0
4112.0
e75,75,1336999996,60425.0
l46,46,527999984,61105.0
l62,62,528999998,62113.0
e76,76,1327999988,62691.0
4180.0
e76,76,1335999996,62278.0
4201.0
e75,75,1336999997,60424.0
l46,46,527999982,61107.0
l62,62,528999995,62116.0
e76,76,1325999986,62695.0
4184.0
e76,76,1338999998,62273.0
4175.0
e75,75,1335999989,60433.0
l46,46,527999985,61104.0
l62,62,528999994,62117.0
e76,76,1330999991,62685.0
4183.0
e75,75,1336999995,60426.0
l46,46,527999990,61099.0
l62,62,528999999,62112.0
e76,76,1330999990,62686.0
4207.0
e75,75,1336999998,60423.0
l46,46,527999992,61097.0
l62,62,525999991,62123.0
e76,76,1330999993,62683.0
4201.0
e76,76,1333999995,62281.0
4166.0
e76,76,1338999997,62274.0
4189.0
e76,76,1338999999,62272.0
4194.0
e76,76,1339000000,62271.0
4168.0
e79,79,1326999988,61127.0
l45,45,527999998,61392.0
l43,43,513999989,62625.0
e76,76,1320999984,63021.0
4181.0
e75,75,1336999991,60430.0
l46,46,527999983,61106.0
l62,62,528999996,62115.0
e76,76,1323999985,62698.0
4210.0
e75,75,1335999988,60434.0
l61,61,515000000,61983.0
l67,67,513999998,62951.0
l38,38,499999980,65138.0
e91,91,1297999982,65999.0
8326.0
e92,92,1315999984,63217.0
e95,95,1304999989,63325.0
e73,73,1301999984,65108.0
l61,61,486999968,66061.0
e93,93,1278999960,67748.0
e91,91,1293999975,68321.0
8341.0
l61,61,513999984,62409.0
e91,91,1303999993,64414.0
8330.0
e77,77,1299999968,65364.0
l36,36,494999961,65517.0
e101,101,1294999975,65728.0
e95,95,1293999977,66720.0
r21,21,999994,67833.0
9126.0
r4,4,1000000,62382.0
l43,43,516999994,62467.0
e73,73,1318999994,63122.0
l44,44,503999988,64091.0
r29,29,999992,66636.0
9598.0
l68,68,512999979,63257.0
l44,44,502999985,64178.0
l56,56,499999987,64333.0
r2,2,1999998,66080.0
10021.0
l61,61,513999994,62399.0
r2,2,999996,67327.0
10024.0
l62,62,495999977,67582.0
e74,74,1288999963,68431.0
l35,35,483999968,69768.0
10373.0
l62,62,491999966,68001.0
e74,74,1288999962,68432.0
l35,35,482999966,69771.0
10371.0
e92,92,1315999986,63215.0
e95,95,1304999985,63329.0
l35,35,492999976,68461.0
10379.0
l62,62,494999973,67587.0
e74,74,1289999967,68426.0
l35,35,477999958,69784.0
10412.0
e77,77,1333999998,60377.0
l46,46,533000000,60786.0
e75,75,1331999986,61113.0
e95,95,1302999984,64406.0
l35,35,494999980,68455.0
10375.0
