e89,89,1331000000,61084.0
e88,88,1311999999,62531.0
l54,54,511999998,62822.0
e85,85,1309999999,63292.0
4357.0
e89,89,1330999997,61087.0
e88,88,1307999994,62540.0
l54,54,510999997,62824.0
e85,85,1306999998,63296.0
4376.0
e89,89,1330999998,61086.0
e76,76,1325000000,61369.0
l57,57,520000000,61855.0
l39,39,519000000,61953.0
e85,85,1313000000,62717.0
4367.0
e89,89,1330999993,61091.0
e88,88,1307999996,62538.0
l54,54,509999994,62828.0
e85,85,1306999996,63298.0
4390.0
e89,89,1330999992,61092.0
e88,88,1307999995,62539.0
l54,54,510999996,62825.0
e85,85,1306999997,63297.0
4375.0
e89,89,1330999994,61090.0
e88,88,1307999993,62541.0
l54,54,511999999,62821.0
e85,85,1306999995,63299.0
4402.0
l58,58,526000000,61683.0
e74,74,1323999999,62214.0
e94,94,1312999999,62758.0
e77,77,1311999997,62796.0
4685.0
e89,89,1330999995,61089.0
e77,77,1307999994,63526.0
4688.0
e89,89,1330999996,61088.0
e77,77,1305999993,63529.0
4681.0
l64,64,515999991,62405.0
l48,48,523999995,62647.0
e89,89,1315999990,63380.0
e77,77,1304999991,63532.0
4666.0
l64,64,515999992,62404.0
l48,48,523999994,62648.0
e75,75,1316999998,62775.0
l61,61,512999991,63363.0
e77,77,1303999987,64346.0
4672.0
l58,58,525999999,61684.0
e77,77,1318999998,62290.0
4683.0
e89,89,1330999999,61085.0
l37,37,529999998,61171.0
l61,61,514999996,62828.0
e77,77,1303999986,64347.0
4681.0
l58,58,525999997,61686.0
e77,77,1319999999,62288.0
4671.0
l64,64,515999987,62409.0
l48,48,524999999,62642.0
e75,75,1315999993,62781.0
l61,61,512999990,63364.0
e77,77,1303999985,64348.0
4660.0
l58,58,525999998,61685.0
e77,77,1321000000,62286.0
4666.0
l64,64,515999986,62410.0
l48,48,523999997,62645.0
e89,89,1315999991,63379.0
e77,77,1303999989,63535.0
4686.0
l64,64,515999990,62406.0
l48,48,520999992,62653.0
e89,89,1313999987,63385.0
e77,77,1303999990,63534.0
4697.0
l64,64,515999988,62408.0
l48,48,523999996,62646.0
e89,89,1313999988,63384.0
e77,77,1307999996,63524.0
4672.0
e72,72,1316999999,61639.0
e95,95,1328999999,62196.0
l38,38,508999995,63297.0
e92,92,1302999989,64543.0
4874.0
e72,72,1316999992,61646.0
e95,95,1330000000,62194.0
l38,38,508999994,63298.0
e92,92,1302999990,64542.0
4859.0
l64,64,515999996,62400.0
l55,55,511999995,63401.0
l47,47,500999986,63518.0
7780.0
e72,72,1316999990,61648.0
e80,80,1294999977,65226.0
l50,50,515999998,65373.0
l42,42,507999986,66431.0
l47,47,489999970,67713.0
7788.0
e99,99,1300999976,64938.0
l47,47,492999975,65692.0
7818.0
l64,64,515999998,62398.0
e99,99,1302999987,64322.0
l47,47,492999978,65689.0
7778.0
l64,64,515999997,62399.0
l55,55,511999994,63402.0
l47,47,498999982,63524.0
7800.0
l60,60,517999999,61975.0
l62,62,520999994,62046.0
e72,72,1300999971,63929.0
e80,80,1294999978,65225.0
l50,50,508999995,65383.0
l42,42,516999994,66414.0
l47,47,489999969,67714.0
7781.0
e72,72,1316999986,61652.0
e80,80,1293999971,65233.0
l42,42,495999980,66567.0
l47,47,489999967,67716.0
7812.0
e99,99,1301999977,64936.0
l47,47,492999977,65690.0
7826.0
e72,72,1316999988,61650.0
e80,80,1293999968,65236.0
l42,42,491999973,66578.0
l47,47,490999973,67709.0
7799.0
e99,99,1300999971,64943.0
l47,47,492999976,65691.0
7821.0
e99,99,1300999972,64942.0
l47,47,492999974,65693.0
7802.0
e72,72,1316999993,61645.0
e80,80,1293999973,65231.0
l42,42,495999979,66568.0
l47,47,489999971,67712.0
7828.0
e99,99,1301999978,64935.0
l47,47,493999980,65686.0
7833.0
l64,64,515999983,62413.0
l55,55,509999991,63407.0
l47,47,499999983,63522.0
7801.0
e90,90,1301999979,63902.0
l48,48,505999984,66583.0
l42,42,489999970,66953.0
l47,47,490999972,67710.0
7817.0
e90,90,1301999985,63896.0
l62,62,499999979,64002.0
8173.0
e90,90,1302999989,63891.0
l62,62,500999980,64000.0
8211.0
l44,44,510999990,63702.0
e89,89,1306999981,64236.0
l58,58,511999991,65208.0
l62,62,492999957,67422.0
8191.0
e90,90,1301999983,63898.0
l62,62,500999986,63994.0
8172.0
e90,90,1301999988,63893.0
l62,62,498999975,64007.0
8194.0
l44,44,510999989,63703.0
e80,80,1289999962,66873.0
e98,98,1295999985,67315.0
e78,78,1296999974,68025.0
e69,69,1278999967,69056.0
9485.0
e99,99,1299999967,64948.0
l57,57,501999983,64973.0
e89,89,1294999963,65830.0
e78,78,1305999989,66436.0
e69,69,1278999964,69059.0
9515.0
r27,27,999999,64215.0
e69,69,1312999998,64234.0
9507.0
l44,44,510999993,63699.0
e89,89,1306999982,64235.0
e78,78,1303999987,66440.0
e69,69,1279999969,69053.0
9509.0
r33,33,999997,62589.0
e83,83,1311999997,63162.0
l65,65,507000000,63778.0
e93,93,1310999991,64067.0
l38,38,492999979,66463.0
l67,67,492999983,67305.0
e69,69,1285999973,67333.0
9515.0
e89,89,1305999979,64471.0
e81,81,1297999979,65986.0
e78,78,1299999977,66886.0
e69,69,1277999960,69064.0
9484.0
e89,89,1305999972,64478.0
l61,61,499999983,65666.0
e94,94,1304999990,67705.0
e88,88,1285999966,68640.0
10098.0
r7,7,1000000,65689.0
l35,35,505999994,66394.0
e92,92,1289999975,66504.0
l62,62,486999953,68862.0
e96,96,1256999954,71574.0
12041.0
l59,59,466999952,70851.0
l47,47,460999951,71130.0
e72,72,1265999952,72308.0
e80,80,1250999952,73656.0
13757.0
