l43,43,543999999,60950.0
r20,20,1000000,61650.0
3836.0
l49,49,509999988,63095.0
l54,54,514000000,63514.0
e75,75,1313999999,63591.0
r20,20,999999,63599.0
3835.0
l49,49,510999990,63092.0
l54,54,513999999,63515.0
e78,78,1317000000,63856.0
3818.0
l43,43,543999994,60955.0
e87,87,1323999999,62549.0
e101,101,1318999998,64401.0
4804.0
l43,43,543999991,60958.0
e99,99,1345999999,61953.0
e82,82,1328999999,62260.0
e101,101,1320999999,62367.0
4811.0
l43,43,543999997,60952.0
e99,99,1346000000,61952.0
e82,82,1330000000,62258.0
e101,101,1323000000,62364.0
4814.0
l43,43,543999985,60964.0
e82,82,1313999992,63253.0
r22,22,1000000,64502.0
5578.0
l43,43,543999987,60962.0
e82,82,1314999998,63246.0
l36,36,512999996,63645.0
e96,96,1308999997,63897.0
r26,26,1000000,64148.0
6606.0
l38,38,508999983,63755.0
e81,81,1297999981,66690.0
r7,7,1000000,68105.0
8141.0
l49,49,512000000,63081.0
r5,5,1000000,64656.0
r2,2,999997,68120.0
8229.0
l43,43,543999996,60953.0
l58,58,503999997,65343.0
e93,93,1301999996,65469.0
r2,2,999999,65579.0
8255.0
e70,70,1295999981,65956.0
l46,46,492999984,68284.0
9255.0
e73,73,1295999987,66722.0
r15,15,999992,67568.0
l46,46,484999972,68998.0
9253.0
e77,77,1311000000,63670.0
l51,51,508999990,63968.0
l65,65,508000000,64875.0
e100,100,1298999972,66055.0
e70,70,1282999968,67387.0
l46,46,497999987,68276.0
9279.0
e77,77,1310999996,63674.0
l47,47,499999983,65372.0
e76,76,1302999989,67623.0
l46,46,490999978,68733.0
9248.0
e70,70,1300999994,65938.0
l46,46,492999983,68285.0
9253.0
l43,43,543999989,60960.0
l48,48,528000000,61677.0
l67,67,518999997,62069.0
l46,46,523000000,63044.0
9271.0
r15,15,1000000,62237.0
l46,46,500999989,66304.0
9237.0
l43,43,543999986,60963.0
l48,48,527999996,61681.0
e92,92,1321999998,63819.0
l46,46,517999999,63931.0
9269.0
l38,38,508999991,62805.0
l40,40,522999987,64283.0
l47,47,501999991,64873.0
e76,76,1303999990,67621.0
l46,46,485999973,68743.0
9268.0
e70,70,1295999982,65955.0
l46,46,491999981,68288.0
9273.0
l43,43,543999998,60951.0
e87,87,1324000000,62548.0
e91,91,1313999996,62878.0
e72,72,1309999995,63252.0
e98,98,1304999995,63594.0
l44,44,506999997,64595.0
e70,70,1327999999,64603.0
l46,46,497999986,68277.0
9263.0
l38,38,508999992,62804.0
l40,40,522999988,64282.0
l47,47,501999995,64869.0
l39,39,495999991,65136.0
l46,46,502999992,65427.0
9276.0
e70,70,1296999984,65952.0
l46,46,494999985,68281.0
9255.0
e70,70,1299999991,65942.0
l47,47,496999980,66087.0
e76,76,1300999988,67626.0
l46,46,489999975,68737.0
9245.0
l43,43,543999983,60966.0
e87,87,1320999996,62555.0
e91,91,1309999990,62888.0
r11,11,1000000,64460.0
l46,46,507999994,64979.0
9262.0
l49,49,509999986,63097.0
l61,61,498999993,64237.0
l47,47,489999978,66136.0
e76,76,1299999987,67628.0
l46,46,489999977,68735.0
9253.0
l43,43,543999993,60956.0
l48,48,527999998,61679.0
e92,92,1321999996,63821.0
l46,46,515999997,63935.0
9266.0
l49,49,510999995,63087.0
e91,91,1307999985,64409.0
e99,99,1317999994,64864.0
e100,100,1299999980,65211.0
e70,70,1282999969,67386.0
l46,46,491999982,68287.0
9276.0
e77,77,1310999999,63671.0
l51,51,509999996,63961.0
l61,61,500000000,64198.0
l60,60,495999982,64999.0
9686.0
e100,100,1306999998,64108.0
l60,60,500999996,64731.0
9698.0
e100,100,1304999995,64113.0
l60,60,500999999,64728.0
9706.0
l49,49,510999994,63088.0
l61,61,497999989,64242.0
l60,60,489999975,68337.0
9679.0
e100,100,1304999991,64117.0
l60,60,499999990,64738.0
9709.0
l38,38,508999996,62800.0
e100,100,1303999985,64667.0
l60,60,498999985,64744.0
9663.0
e100,100,1304999988,64120.0
l60,60,499999988,64740.0
9676.0
e77,77,1310999998,63672.0
l51,51,508999989,63969.0
l61,61,499999998,64200.0
l38,38,496999979,65290.0
l42,42,507999998,68105.0
l60,60,487999974,69469.0
9710.0
l49,49,510999989,63093.0
l61,61,497999983,64248.0
l60,60,493999980,65003.0
9710.0
l38,38,508999988,63750.0
e100,100,1303999986,64666.0
l60,60,499999989,64739.0
9709.0
e77,77,1309999992,63679.0
l51,51,509999998,63959.0
l64,64,510999996,64018.0
l63,63,509999999,64063.0
e94,94,1295999993,67801.0
e79,79,1296999991,68258.0
l66,66,485999985,68299.0
9820.0
l49,49,511999996,63085.0
l62,62,512000000,64424.0
l66,66,492999989,66455.0
9830.0
e77,77,1309999989,63682.0
r27,27,1000000,63803.0
r34,34,999998,67494.0
10132.0
e70,70,1296999987,65949.0
l67,67,490999964,67271.0
l56,56,484999969,69977.0
10497.0
e77,77,1295999970,67268.0
e82,82,1285999974,68494.0
l67,67,470999956,69295.0
l56,56,488999978,69964.0
10510.0
e77,77,1286999958,68243.0
e82,82,1284999969,68500.0
r20,20,999993,69056.0
12095.0
l53,53,489999975,68769.0
l59,59,478999966,69430.0
e94,94,1263999956,69446.0
r20,20,999989,71894.0
12087.0
l49,49,510999992,63090.0
e70,70,1253999953,71216.0
r20,20,999987,72027.0
12105.0
e77,77,1295999967,67271.0
e80,80,1285999968,69312.0
12474.0
e77,77,1295999964,67274.0
e80,80,1289999975,69301.0
12489.0
l49,49,464999954,70516.0
l40,40,473999959,70595.0
e82,82,1255999954,70961.0
13430.0
