e82,82,1311999998,63678.0
l50,50,511999998,63864.0
l66,66,501999998,64189.0
l56,56,491999997,64794.0
5466.0
e82,82,1311999987,63689.0
e89,89,1310999995,64989.0
l56,56,490999994,65228.0
5442.0
e82,82,1311999984,63692.0
l50,50,512000000,63862.0
l66,66,500999993,64195.0
l56,56,499000000,64784.0
5471.0
e82,82,1311999985,63691.0
l50,50,510999996,63867.0
l66,66,502000000,64187.0
l56,56,491999996,64795.0
5433.0
e82,82,1311999990,63686.0
l50,50,510999993,63870.0
l66,66,501999997,64190.0
l56,56,494999998,64790.0
5471.0
e82,82,1311999992,63684.0
e89,89,1313999998,64983.0
l56,56,490999995,65227.0
5459.0
e82,82,1311999994,63682.0
e89,89,1315000000,64980.0
l56,56,489999993,65230.0
5464.0
e82,82,1312000000,63676.0
e89,89,1313999997,64984.0
l56,56,489999992,65231.0
5459.0
e82,82,1311999982,63694.0
l50,50,511999999,63863.0
l66,66,501999995,64192.0
l56,56,494999999,64789.0
5463.0
e82,82,1311999989,63687.0
e89,89,1310999996,64988.0
l56,56,488999990,65234.0
5453.0
e82,82,1311999993,63683.0
e89,89,1314999999,64981.0
l56,56,488999991,65233.0
5470.0
e82,82,1311999983,63693.0
l50,50,510999995,63868.0
l66,66,499999992,64197.0
e77,77,1300000000,65049.0
e69,69,1301000000,66245.0
7495.0
e82,82,1311999995,63681.0
e71,71,1301999999,65741.0
e69,69,1288999996,66400.0
7452.0
e82,82,1311999986,63690.0
l50,50,510999992,63871.0
l66,66,501999994,64193.0
e77,77,1298999999,65051.0
e69,69,1294999999,66252.0
7477.0
e82,82,1311999991,63685.0
l50,50,510999997,63866.0
l38,38,502999999,66573.0
l67,67,484999996,67732.0
8090.0
r25,25,1000000,65462.0
l67,67,494000000,65545.0
8105.0
e82,82,1311999988,63688.0
l35,35,505000000,65512.0
e88,88,1286999988,67199.0
l49,49,473999997,67512.0
e91,91,1273999994,67582.0
8181.0
e82,82,1311999997,63679.0
l35,35,503999995,65518.0
e80,80,1272999988,67437.0
8164.0
e82,82,1311999999,63677.0
l35,35,503999997,65516.0
e80,80,1271999984,67442.0
8157.0
e82,82,1311999996,63680.0
l41,41,504999995,66292.0
l48,48,476999992,67325.0
e101,101,1272999991,67885.0
l57,57,473999994,68053.0
9076.0
l46,46,496999990,66093.0
l58,58,492999996,66838.0
e81,81,1283999991,67823.0
l47,47,470999989,68650.0
e80,80,1263999981,69502.0
l65,65,458999981,69725.0
e91,91,1267999987,69919.0
10491.0
l46,46,495999989,66095.0
l58,58,491999994,66841.0
e98,98,1250999979,70711.0
e97,97,1256999979,71457.0
l62,62,462999985,71863.0
12452.0
l46,46,496999996,66087.0
l65,65,450999975,70313.0
l64,64,460999983,71740.0
12937.0
l46,46,497000000,66083.0
e93,93,1280999998,68687.0
l65,65,454999978,69983.0
l64,64,463999985,71735.0
12961.0
l51,51,521999995,66364.0
e85,85,1270999986,70540.0
e69,69,1264999983,71208.0
l66,66,456999974,71757.0
r13,13,999991,71874.0
r11,11,999996,73230.0
14743.0
l36,36,475999988,69838.0
l56,56,445999978,72414.0
15354.0
l46,46,496999991,66092.0
e72,72,1278999990,68663.0
e84,84,1274999982,68954.0
l47,47,456999977,70454.0
l54,54,450999976,72596.0
e93,93,1245999975,72733.0
l44,44,455999978,73135.0
e96,96,1239999972,73922.0
l56,56,438999975,74544.0
15357.0
l36,36,476999993,69832.0
l56,56,445999977,72415.0
15347.0
l36,36,476999990,69835.0
l56,56,449999981,72407.0
15343.0
l36,36,476999994,69831.0
l56,56,446999979,72412.0
15345.0
l36,36,476999991,69834.0
l56,56,449999980,72408.0
15376.0
e89,89,1232999969,74399.0
e76,76,1221999959,74420.0
e69,69,1218999958,74613.0
17946.0
l46,46,496999992,66091.0
l58,58,493000000,66834.0
e73,73,1261999982,69824.0
e69,69,1276999988,70979.0
17915.0
l51,51,523999996,66361.0
e85,85,1268999984,70544.0
e69,69,1261999977,71217.0
17940.0
l46,46,495999986,66098.0
l40,40,471999982,70067.0
l45,45,472999986,70101.0
e74,74,1253999975,70706.0
l54,54,459999984,70850.0
l63,63,482999993,70920.0
l43,43,447999970,73953.0
e69,69,1233999967,74497.0
17916.0
l51,51,523999997,66360.0
e85,85,1267999982,70547.0
e69,69,1262999979,71214.0
17939.0
e89,89,1234999971,74395.0
e76,76,1221999960,74419.0
e69,69,1221999959,74609.0
17917.0
l46,46,496999998,66085.0
l58,58,491999995,66840.0
e73,73,1261999985,69821.0
e69,69,1274999986,70983.0
17913.0
r21,21,999982,73530.0
l36,36,439999966,75993.0
l55,55,425999965,76629.0
e79,79,1223999963,76926.0
l39,39,418999963,78386.0
18891.0
l46,46,496999999,66084.0
e72,72,1278999987,68666.0
e84,84,1271999980,68959.0
l47,47,459999980,70448.0
l53,53,464999982,70547.0
l39,39,444999978,73026.0
18912.0
l51,51,524999999,66357.0
e95,95,1265999987,70902.0
l53,53,438999970,73333.0
l39,39,436999970,74559.0
18896.0
e89,89,1235999974,74391.0
e76,76,1221999958,74421.0
l65,65,410999961,76584.0
l39,39,420999964,76755.0
18890.0
l51,51,526000000,66355.0
e95,95,1263999985,70906.0
l53,53,434999966,73341.0
l39,39,439999974,74552.0
18910.0
e89,89,1234999973,74393.0
e76,76,1221999963,74416.0
l63,63,428999965,77323.0
20266.0
e89,89,1232999967,74401.0
20316.0
r21,21,999982,73538.0
e97,97,1230999966,74239.0
e82,82,1206999957,76812.0
r21,21,999990,76841.0
e89,89,1206999957,78191.0
20295.0
l48,48,432999963,77951.0
l53,53,388999953,80324.0
21140.0
r21,21,999985,73454.0
e91,91,1235999967,74226.0
e72,72,1236999966,75504.0
e81,81,1227999964,76311.0
e92,92,1238999973,76406.0
l53,53,428999963,77581.0
21175.0
l48,48,432999964,77950.0
l53,53,389999955,80321.0
21170.0
l48,48,432999960,77954.0
l53,53,390999958,80317.0
21156.0
