l58,58,514999999,63293.0
l51,51,515999998,63475.0
l43,43,517000000,65137.0
5275.0
e81,81,1306999993,64063.0
l41,41,523000000,64199.0
l40,40,491999999,66467.0
e78,78,1289999997,66632.0
6607.0
e81,81,1309000000,64054.0
r2,2,1000000,65006.0
e78,78,1290999998,65709.0
6613.0
l57,57,512999987,63330.0
e76,76,1313000000,64416.0
e78,78,1297000000,64611.0
6647.0
l58,58,515000000,63292.0
l51,51,515999999,63474.0
l64,64,506000000,63627.0
r17,17,1000000,65040.0
e78,78,1292999999,65200.0
6635.0
l57,57,512999988,63329.0
r3,3,999999,66179.0
l41,41,505999996,66420.0
l40,40,491999998,66468.0
e78,78,1284999996,66638.0
6655.0
e81,81,1306999986,64070.0
e83,83,1298999999,65881.0
6740.0
e81,81,1306999992,64064.0
e83,83,1300000000,65879.0
6732.0
l43,43,485999987,68108.0
8573.0
l43,43,485999984,68111.0
8575.0
l43,43,487999991,68102.0
8531.0
l57,57,513999996,63320.0
l64,64,503999991,63976.0
r15,15,999996,64637.0
l43,43,487999992,65960.0
8561.0
r15,15,999999,64543.0
l43,43,488999994,65957.0
8545.0
l43,43,485999989,68106.0
8565.0
l43,43,485999980,68115.0
8552.0
l43,43,485999985,68110.0
8555.0
l57,57,512999989,63328.0
r15,15,1000000,64276.0
l43,43,488999995,65956.0
8575.0
l43,43,485999979,68116.0
8561.0
l43,43,485999978,68117.0
8574.0
e87,87,1288999989,66761.0
e97,97,1296999991,66959.0
l54,54,475999984,68409.0
8762.0
r15,15,999997,64547.0
e98,98,1296999999,64824.0
l38,38,494999997,65254.0
e101,101,1287999993,66668.0
e97,97,1305999996,66754.0
l58,58,475999983,68395.0
l54,54,470999977,68422.0
8761.0
e87,87,1288999984,66766.0
e97,97,1296999990,66960.0
l54,54,474999983,68411.0
8742.0
e87,87,1288999985,66765.0
e97,97,1294999984,66968.0
l58,58,471999979,68403.0
l54,54,470999978,68421.0
8758.0
l57,57,513999994,63322.0
l64,64,503999992,63975.0
e87,87,1291999996,66607.0
e97,97,1294999985,66967.0
l58,58,476999984,68393.0
l54,54,473999982,68414.0
8771.0
l49,49,528999992,62813.0
l36,36,491999995,66375.0
l55,55,487999995,67604.0
l58,58,483999992,67625.0
l54,54,491999991,68327.0
8743.0
l57,57,513999993,63323.0
l54,54,470999976,68563.0
8754.0
e87,87,1288999986,66764.0
e97,97,1294999986,66966.0
l58,58,471999977,68405.0
l54,54,472999980,68417.0
8756.0
l57,57,514000000,63316.0
l64,64,503999996,63971.0
e73,73,1303000000,65106.0
l42,42,494999991,66569.0
l54,54,495999998,67366.0
8779.0
l58,58,514999998,63294.0
l51,51,516000000,63473.0
l64,64,504999998,63630.0
e73,73,1298999995,65115.0
l42,42,497000000,66558.0
l54,54,495999997,67367.0
8752.0
l57,57,513999999,63317.0
l54,54,470999975,68564.0
8774.0
e87,87,1288999987,66763.0
e97,97,1296999989,66961.0
l58,58,473999981,68399.0
l54,54,471999979,68419.0
8744.0
l49,49,527999990,62816.0
l36,36,491999998,66372.0
l55,55,487999996,67603.0
l58,58,482999990,67628.0
l54,54,479999985,68345.0
8789.0
l57,57,513999995,63321.0
l64,64,503999994,63973.0
e73,73,1297999991,65120.0
l42,42,496999999,66559.0
l54,54,495999994,67370.0
8783.0
r4,4,1000000,65266.0
l58,58,501999997,66016.0
l54,54,488999989,68332.0
8787.0
e81,81,1306999991,64065.0
9711.0
e75,75,1292999980,66642.0
e101,101,1272999980,69258.0
l39,39,486999988,69473.0
10013.0
e75,75,1292999983,66639.0
e101,101,1271999975,69264.0
l39,39,483999987,69477.0
10013.0
e75,75,1292999985,66637.0
e101,101,1273999989,69248.0
l39,39,480999985,69482.0
10038.0
e75,75,1292999981,66641.0
e101,101,1271999977,69262.0
l39,39,481999986,69480.0
10030.0
l43,43,485999983,68112.0
10758.0
r21,21,999999,66690.0
l66,66,481999990,69006.0
l48,48,475999984,69158.0
l43,43,471999967,70121.0
10747.0
l43,43,485999982,68113.0
10755.0
l46,46,481999977,67438.0
e78,78,1273999970,70555.0
11834.0
e78,78,1278999986,68317.0
11829.0
l46,46,480999966,67450.0
e78,78,1272999968,70558.0
11854.0
e78,78,1278999984,68319.0
11859.0
e75,75,1292999986,66636.0
e101,101,1274999990,69246.0
l58,58,461999969,69652.0
e78,78,1263999965,70853.0
11812.0
l49,49,527999988,62818.0
l62,62,495999996,66830.0
e95,95,1273999988,68776.0
11868.0
e75,75,1292999984,66638.0
e93,93,1299999996,66766.0
l51,51,476999969,69119.0
l35,35,464999975,69909.0
12546.0
e87,87,1288999988,66762.0
l67,67,491999990,67857.0
e94,94,1272999978,69000.0
e92,92,1293999995,69019.0
l35,35,458999965,70872.0
12530.0
