e97,97,1322999997,60808.0
e99,99,1320999996,62104.0
e82,82,1314999997,62424.0
2999.0
e97,97,1322999999,60806.0
e99,99,1322999999,62099.0
e82,82,1320000000,62416.0
2978.0
e97,97,1322999998,60807.0
e99,99,1320999997,62103.0
e82,82,1316999999,62420.0
3002.0
e97,97,1322999994,60811.0
e99,99,1323000000,62098.0
e82,82,1316999998,62421.0
3000.0
e97,97,1322999989,60816.0
e88,88,1327999996,61794.0
e96,96,1317999997,62863.0
e69,69,1309999993,63042.0
e101,101,1313999999,63886.0
4591.0
e97,97,1322999988,60817.0
e88,88,1325999993,61799.0
e96,96,1314999994,62869.0
e69,69,1307999992,63045.0
e101,101,1316000000,63883.0
4607.0
e97,97,1322999987,60818.0
e88,88,1329999998,61790.0
e96,96,1317999996,62864.0
e69,69,1309999994,63041.0
e101,101,1312999997,63889.0
4606.0
e97,97,1322999992,60813.0
e99,99,1321999998,62101.0
e69,69,1317999996,62284.0
e76,76,1325999998,62984.0
e87,87,1316999998,63451.0
e100,100,1310999996,63575.0
l46,46,513999995,63607.0
r12,12,999999,63796.0
5159.0
e97,97,1322999993,60812.0
e88,88,1330000000,61788.0
r12,12,1000000,62800.0
5192.0
e91,91,1303999988,64248.0
l62,62,499999986,64618.0
l60,60,504999997,65026.0
e69,69,1288999984,65232.0
l50,50,508999985,65400.0
5534.0
e85,85,1306999984,63868.0
l60,60,502999996,65194.0
e69,69,1285999983,65236.0
l50,50,503999982,65408.0
5501.0
r29,29,999999,62728.0
l53,53,506999991,64086.0
e79,79,1298999990,64539.0
e69,69,1290999986,64989.0
l50,50,510999986,65397.0
5506.0
l64,64,514999985,62426.0
r25,25,1000000,62614.0
l46,46,522000000,63036.0
e69,69,1303999991,64103.0
l50,50,507999983,65403.0
5515.0
e89,89,1313999965,62021.0
l50,50,518999993,62428.0
5527.0
e89,89,1313999963,62023.0
l50,50,518999998,62423.0
5496.0
r29,29,1000000,62725.0
l53,53,506999993,64084.0
e79,79,1302999997,64528.0
e69,69,1292999987,64986.0
l50,50,512999988,65393.0
5538.0
l39,39,514999991,63216.0
e85,85,1307999989,63514.0
l60,60,502999995,65195.0
e69,69,1285999982,65237.0
l50,50,508999984,65401.0
5523.0
e89,89,1312999955,62032.0
l50,50,518999997,62424.0
5521.0
e75,75,1332999999,61277.0
e98,98,1321000000,62071.0
l50,50,524000000,62307.0
5512.0
e89,89,1313999966,62020.0
l50,50,518999999,62422.0
5515.0
e89,89,1313999980,62006.0
l50,50,518999994,62427.0
5504.0
e91,91,1303999989,64247.0
l67,67,511999994,64458.0
e100,100,1299999992,65090.0
5710.0
e91,91,1303999991,64245.0
l67,67,512999998,64453.0
e100,100,1299999990,65092.0
5717.0
l64,64,514999986,62425.0
r17,17,1000000,62549.0
e100,100,1312000000,63293.0
5702.0
l41,41,524999997,62304.0
e91,91,1299999977,64426.0
l67,67,510999990,64463.0
e100,100,1299999993,65089.0
5739.0
l41,41,524999995,62306.0
e91,91,1300999980,64422.0
5799.0
e89,89,1311999951,62037.0
l36,36,507999986,64647.0
r11,11,999999,65724.0
e91,91,1294999973,65811.0
5810.0
l41,41,524999998,62303.0
e91,91,1300999981,64421.0
5807.0
e91,91,1303999994,64242.0
5820.0
e89,89,1313999993,61993.0
l36,36,507999985,64648.0
r11,11,999998,65726.0
e91,91,1293999972,65813.0
5776.0
l41,41,521999989,62315.0
e91,91,1299999979,64424.0
5794.0
e91,91,1303999990,64246.0
5780.0
e85,85,1305999981,63872.0
r30,30,999999,64221.0
l41,41,513999986,64242.0
e91,91,1300999983,64419.0
5799.0
e91,91,1303999995,64241.0
5792.0
e97,97,1322999990,60815.0
e81,81,1347999998,61847.0
e95,95,1330999997,64166.0
l43,43,520999999,64226.0
e78,78,1319999998,64281.0
e96,96,1287999971,67336.0
7906.0
l64,64,516999999,62410.0
e71,71,1303999990,63954.0
e76,76,1302999992,64857.0
e78,78,1303999994,64891.0
e96,96,1287999970,67337.0
7901.0
e97,97,1322999991,60814.0
e86,86,1304999998,64138.0
e96,96,1281999966,67798.0
7881.0
e85,85,1305999979,63874.0
e95,95,1299999992,65088.0
l44,44,508999992,65455.0
l65,65,486999979,67340.0
l55,55,487999978,67364.0
8573.0
e89,89,1313999968,62018.0
e72,72,1305999993,63577.0
e74,74,1300999995,63885.0
l55,55,496999989,64732.0
8581.0
e89,89,1313999972,62014.0
e72,72,1305999995,63575.0
e74,74,1300999994,63886.0
l55,55,498999990,64729.0
8547.0
l64,64,517000000,62409.0
e71,71,1303999992,63952.0
l65,65,497999985,65034.0
l55,55,487999975,67367.0
8546.0
l46,46,501999985,64392.0
r6,6,999997,65424.0
l40,40,502999986,66449.0
8972.0
l64,64,515999990,62420.0
e71,71,1303999989,63955.0
l41,41,496999973,66152.0
e77,77,1283999970,66709.0
l40,40,475999959,68823.0
8937.0
l64,64,516999995,62414.0
r26,26,1000000,64648.0
l40,40,482999970,68574.0
8965.0
e89,89,1312999956,62031.0
l40,40,482999969,68664.0
8952.0
e85,85,1305999977,63876.0
l59,59,513999997,65358.0
9928.0
l39,39,516999999,63206.0
e85,85,1314000000,63497.0
l59,59,513999996,65359.0
9919.0
l39,39,516999996,63209.0
e85,85,1312999996,63502.0
l59,59,500999984,67134.0
9909.0
l57,57,480999973,67560.0
11747.0
e89,89,1313999958,62028.0
e75,75,1326999995,65045.0
e85,85,1264999953,70014.0
e82,82,1281999968,70899.0
l57,57,476999963,71317.0
11736.0
