l38,38,527999991,60285.0
l44,44,534000000,60289.0
l48,48,527999993,60402.0
l56,56,531999995,61290.0
e84,84,1320000000,61379.0
e80,80,1324000000,61581.0
1863.0
l38,38,527999993,60283.0
l60,60,518999994,61586.0
2362.0
l38,38,527999994,60282.0
l44,44,533999997,60292.0
l66,66,531000000,60728.0
e89,89,1324999999,60740.0
l37,37,520999998,61071.0
l60,60,524999999,61512.0
2375.0
l38,38,527999992,60284.0
l44,44,533999992,60297.0
l66,66,529999998,60731.0
e89,89,1326000000,60738.0
l37,37,522999999,61068.0
l60,60,522999998,61515.0
2339.0
l38,38,528999998,60277.0
l44,44,533999991,60298.0
l66,66,527999997,60734.0
e89,89,1324999998,60741.0
l37,37,523000000,61067.0
l60,60,530000000,61506.0
2349.0
l38,38,529999999,60275.0
l60,60,518999997,61583.0
2335.0
l38,38,530000000,60274.0
l60,60,518999995,61585.0
2355.0
l38,38,527999989,60287.0
l60,60,518999996,61584.0
2351.0
r7,7,1000000,63172.0
4373.0
r7,7,999998,63926.0
4375.0
r7,7,999999,63924.0
4385.0
l38,38,527999995,60281.0
l44,44,533999994,60295.0
l61,61,511999992,62672.0
l40,40,512999992,63116.0
l64,64,502999991,63880.0
5607.0
l38,38,527999996,60280.0
l44,44,532999990,60300.0
l48,48,526999991,60405.0
l56,56,537999998,61281.0
e95,95,1318999996,61590.0
l64,64,523999998,61915.0
5644.0
l38,38,527999990,60286.0
l44,44,533999995,60294.0
l48,48,525999989,60408.0
l56,56,530999994,61292.0
e95,95,1318999997,61589.0
l64,64,525000000,61912.0
5619.0
l38,38,527999988,60288.0
l44,44,533999999,60290.0
l48,48,526999990,60406.0
l56,56,540000000,61277.0
e95,95,1316999994,61594.0
l64,64,519999996,61921.0
5639.0
l38,38,528999997,60278.0
l44,44,533999993,60296.0
l61,61,511999996,62668.0
l40,40,513999995,63112.0
l64,64,501999989,63883.0
5625.0
r31,31,1000000,62579.0
l37,37,513999996,62685.0
r28,28,999995,65082.0
r33,33,999999,65635.0
7031.0
e96,96,1315999995,63325.0
r28,28,1000000,64519.0
r33,33,999998,65642.0
7035.0
l66,66,513999980,63898.0
l68,68,515999985,64229.0
7248.0
l66,66,514999996,63881.0
l68,68,517999988,64224.0
7234.0
l66,66,514999984,63893.0
l68,68,518999990,64221.0
7219.0
l66,66,514999995,63882.0
l68,68,517999989,64223.0
7243.0
l66,66,514999989,63888.0
l68,68,515999986,64228.0
7229.0
e72,72,1311999998,62771.0
l53,53,494999976,64921.0
l59,59,503999987,66510.0
8710.0
l53,53,497999988,64865.0
l59,59,491999981,66528.0
8748.0
l53,53,497999987,64866.0
l59,59,497999984,66519.0
8739.0
l53,53,496999981,64873.0
l59,59,496999982,66522.0
8721.0
l53,53,497999983,64870.0
l59,59,501999986,66513.0
8711.0
l53,53,497999990,64863.0
e76,76,1289999982,66142.0
9334.0
l66,66,514999994,63883.0
e76,76,1284999974,66369.0
9344.0
l43,43,520999993,62129.0
l36,36,502999986,65826.0
l60,60,485999981,66795.0
l58,58,479999976,67319.0
e76,76,1275999967,68916.0
9318.0
l53,53,496999980,64874.0
e76,76,1288999981,66144.0
9324.0
l66,66,514999991,63886.0
e76,76,1281999970,66376.0
9349.0
l43,43,520999995,62127.0
e79,79,1309999994,64891.0
e76,76,1294999984,65436.0
9334.0
l43,43,520999994,62128.0
e79,79,1308999989,64897.0
e76,76,1293999983,65438.0
9331.0
l43,43,520999986,62136.0
l58,58,485999985,67115.0
e70,70,1284999984,68640.0
9743.0
r13,13,1000000,65252.0
l41,41,508999987,65484.0
r12,12,999996,65753.0
e70,70,1277999982,68678.0
9724.0
e72,72,1311999994,62775.0
r2,2,1000000,62855.0
l35,35,503999997,63700.0
l58,58,489999986,65900.0
e70,70,1284999986,68638.0
9758.0
e72,72,1311999996,62773.0
l65,65,502999989,64053.0
l36,36,480999976,67456.0
e98,98,1283999981,70553.0
10560.0
l43,43,519999983,62140.0
l36,36,502999985,65827.0
e98,98,1284999982,70551.0
10530.0
l43,43,519999985,62138.0
l63,63,496999983,66264.0
e100,100,1287999981,67584.0
e79,79,1271999967,69630.0
e97,97,1269999969,69865.0
e99,99,1275999978,70087.0
e88,88,1273999967,70534.0
10739.0
l66,66,514999985,63892.0
e69,69,1302999986,67048.0
e80,80,1279999974,68968.0
e76,76,1264999964,69446.0
l44,44,455999959,70768.0
l36,36,475999968,70874.0
11202.0
e96,96,1317999999,63319.0
e101,101,1283999978,68208.0
e73,73,1274999979,68229.0
e94,94,1281999971,69437.0
12205.0
e74,74,1307999981,64568.0
l62,62,494999987,66499.0
l46,46,477999974,67813.0
l37,37,468999971,68693.0
e94,94,1263999962,70699.0
12201.0
r13,13,999998,65259.0
l41,41,509999988,65482.0
e94,94,1285999974,67977.0
12204.0
e74,74,1307999983,64566.0
r17,17,999999,66515.0
e86,86,1299999990,67598.0
e90,90,1269999970,68709.0
e77,77,1254999957,72220.0
l43,43,441999954,72389.0
l47,47,459999957,73962.0
14490.0
e82,82,1285999982,69303.0
e75,75,1295999987,69320.0
e91,91,1253999961,72459.0
e97,97,1240999955,73912.0
l47,47,450999954,74173.0
14478.0
l64,64,465999967,69748.0
l43,43,467999962,70389.0
l47,47,463999961,73954.0
14485.0
l64,64,465999969,69746.0
l50,50,467999967,70024.0
l49,49,469999983,70110.0
l39,39,452999956,72582.0
l41,41,442999956,74002.0
e89,89,1239999957,74443.0
16517.0
e74,74,1308999996,64552.0
e70,70,1262999972,72041.0
l39,39,436999952,73441.0
e101,101,1249999956,73537.0
l57,57,437999957,73960.0
l63,63,431999952,74170.0
l64,64,433999951,75643.0
16788.0
