l57,57,530999987,60093.0
r5,5,1000000,60622.0
668.0
r30,30,1000000,60845.0
2192.0
r30,30,999998,60853.0
2201.0
r30,30,999999,60847.0
2167.0
e73,73,1325999999,60858.0
e74,74,1323999998,61185.0
e72,72,1318999996,61345.0
l40,40,523999999,61751.0
e97,97,1315999999,61889.0
l42,42,521000000,62217.0
3411.0
e73,73,1324999994,60864.0
e74,74,1323999997,61186.0
e72,72,1318999999,61342.0
l40,40,522999996,61755.0
e97,97,1314999998,61891.0
l42,42,517999998,62222.0
3393.0
e73,73,1324999996,60862.0
e74,74,1322999991,61193.0
e72,72,1318999997,61344.0
l40,40,522999997,61754.0
e97,97,1313999997,61893.0
l42,42,517999999,62221.0
3425.0
e73,73,1324999995,60863.0
e74,74,1323999993,61190.0
e72,72,1318999998,61343.0
l62,62,520999996,61567.0
l39,39,525999998,61574.0
r34,34,1000000,62377.0
3407.0
l57,57,532999997,60081.0
l41,41,530999992,61450.0
l60,60,519000000,61787.0
e71,71,1314999999,63447.0
4599.0
l57,57,533999998,60079.0
l41,41,530999994,61448.0
l60,60,518999997,61790.0
e71,71,1312999996,63452.0
4607.0
l57,57,532999992,60086.0
e81,81,1328999995,61415.0
l41,41,534999999,61429.0
l60,60,518999995,61792.0
e71,71,1309999994,63457.0
4576.0
l57,57,532999988,60090.0
e81,81,1330999999,61409.0
l41,41,533999998,61431.0
l60,60,518999996,61791.0
e71,71,1313999997,63450.0
4587.0
e89,89,1308999981,63806.0
l65,65,527999994,63888.0
5564.0
l63,63,527999994,60695.0
l47,47,523999991,61026.0
l57,57,522999977,61570.0
e77,77,1320999997,61793.0
l36,36,509999994,64133.0
e84,84,1315000000,64330.0
e96,96,1311999994,64667.0
l65,65,498999964,65274.0
5554.0
e73,73,1324999997,60861.0
e74,74,1323999999,61184.0
e95,95,1330999999,61359.0
e90,90,1317999998,61982.0
l45,45,517999993,63758.0
e80,80,1303999986,64905.0
e96,96,1302999989,65177.0
l65,65,499999965,65272.0
5564.0
l65,65,501999977,65121.0
5554.0
l65,65,500999973,65126.0
5560.0
e73,73,1324999998,60860.0
e74,74,1323999996,61187.0
e72,72,1319000000,61341.0
l40,40,527000000,61747.0
e96,96,1314999997,63803.0
l44,44,512999997,63830.0
e92,92,1319999996,63884.0
l65,65,516999991,64297.0
5546.0
l65,65,501999983,65115.0
5569.0
l65,65,501999980,65118.0
5581.0
r11,11,999983,62250.0
e76,76,1309999994,63111.0
e79,79,1313999995,63239.0
l55,55,514999996,64144.0
l65,65,503999987,64533.0
5550.0
l65,65,500999968,65131.0
5593.0
l65,65,500999970,65129.0
5571.0
e89,89,1317000000,62796.0
l55,55,514999998,63824.0
l65,65,502999986,64535.0
5555.0
l63,63,527999988,60701.0
l47,47,525999999,61016.0
e92,92,1332000000,63393.0
l65,65,516999990,64298.0
5599.0
l57,57,532999991,60087.0
e77,77,1318999993,61799.0
e81,81,1322999983,62261.0
l47,47,507999985,63504.0
e93,93,1302999987,65047.0
e79,79,1302999986,65541.0
5783.0
e73,73,1326000000,60857.0
l48,48,514999998,62960.0
r10,10,1000000,64494.0
e79,79,1306999987,64854.0
5757.0
l63,63,527999991,60698.0
l47,47,524999994,61022.0
e93,93,1301999980,65055.0
e79,79,1294999975,65560.0
5748.0
e89,89,1308999980,63807.0
l55,55,514999999,63823.0
e79,79,1308999989,64139.0
5755.0
l57,57,530999986,60094.0
e77,77,1318999991,61801.0
e81,81,1327999991,62248.0
l47,47,507999983,63506.0
e93,93,1302999989,65045.0
e79,79,1302999984,65543.0
5790.0
l57,57,532999993,60085.0
l41,41,530999995,61447.0
r8,8,1000000,61813.0
l62,62,513999995,62080.0
e95,95,1307999993,63952.0
e93,93,1299999979,65457.0
e79,79,1295999980,65554.0
5747.0
l57,57,534000000,60077.0
e77,77,1318999985,61807.0
e81,81,1323999986,62257.0
l47,47,507999982,63507.0
e93,93,1302999985,65049.0
e79,79,1296999983,65550.0
5775.0
l57,57,532999995,60083.0
e77,77,1320999998,61792.0
e81,81,1323999985,62258.0
l47,47,507999987,63502.0
e93,93,1301999981,65054.0
e79,79,1294999974,65561.0
5751.0
r13,13,999998,62986.0
e95,95,1314999995,63029.0
e88,88,1311999997,63105.0
e90,90,1314999996,63357.0
e93,93,1306999994,63969.0
e79,79,1295999982,65552.0
5785.0
e73,73,1324999992,60866.0
e74,74,1323999992,61191.0
e79,79,1308999990,63305.0
5782.0
l63,63,527999985,60704.0
l58,58,521999987,61604.0
e87,87,1319999991,64246.0
r34,34,999998,64714.0
6711.0
e78,78,1298999975,67844.0
e93,93,1279999967,67899.0
10246.0
l65,65,500999974,65125.0
e101,101,1298999962,65234.0
l59,59,493999958,68072.0
e93,93,1277999961,69140.0
10259.0
l65,65,500999967,65132.0
e101,101,1299999971,65224.0
l59,59,494999960,68069.0
e93,93,1277999960,69141.0
10279.0
e89,89,1308999976,63811.0
e78,78,1304999989,66709.0
e93,93,1280999968,67897.0
10276.0
l57,57,532999990,60088.0
e77,77,1318999984,61808.0
l36,36,509999996,64131.0
e84,84,1310999997,64337.0
e96,96,1309999992,64671.0
l62,62,492999972,66029.0
e93,93,1287999974,66351.0
10272.0
r11,11,999981,62281.0
e76,76,1309999989,63116.0
r27,27,1000000,64031.0
e83,83,1325000000,64320.0
l62,62,503999990,64485.0
e93,93,1286999973,66353.0
10288.0
e89,89,1308999977,63810.0
e78,78,1304999990,66708.0
e93,93,1279999966,67900.0
10272.0
e78,78,1301999979,67837.0
e93,93,1279999963,67903.0
10288.0
l57,57,532999989,60089.0
l41,41,527999985,61460.0
e81,81,1312999981,65162.0
e70,70,1286999968,67046.0
e71,71,1261999959,70305.0
10639.0
l65,65,500999975,65124.0
e88,88,1288999965,65143.0
l41,41,505999970,65274.0
e70,70,1262999954,69981.0
e71,71,1267999961,70297.0
10656.0
l63,63,527999990,60699.0
l58,58,521999989,61602.0
e97,97,1301999977,65250.0
e86,86,1289999981,68797.0
e71,71,1278999965,69623.0
10629.0
e89,89,1309999984,63802.0
e99,99,1298999978,66042.0
e98,98,1268999961,69321.0
12312.0
e72,72,1278999964,70667.0
e98,98,1256999952,70775.0
12312.0
e72,72,1273999956,70680.0
e98,98,1256999951,70776.0
12277.0
