e89,89,1341999988,60413.0
l64,64,517999995,61949.0
l68,68,504999994,63110.0
3209.0
e89,89,1342999990,60410.0
l64,64,517999997,61947.0
l68,68,504999996,63108.0
3184.0
e89,89,1342999992,60408.0
l64,64,517999996,61948.0
l68,68,504999995,63109.0
3172.0
l68,68,545999998,60730.0
3184.0
e89,89,1341999989,60412.0
l64,64,518999999,61944.0
l68,68,504999997,63107.0
3188.0
l68,68,546000000,60728.0
3217.0
l68,68,545999999,60729.0
3217.0
e89,89,1342999997,60403.0
l64,64,519000000,61943.0
l68,68,504999993,63111.0
3217.0
e89,89,1342999999,60401.0
l64,64,518999998,61945.0
e69,69,1303999993,63118.0
3806.0
l39,39,529999986,62665.0
r29,29,1000000,63413.0
e92,92,1312999999,63859.0
4321.0
l39,39,528999979,62673.0
e90,90,1295999985,65207.0
5540.0
l39,39,527999976,62677.0
e90,90,1295999988,65204.0
5542.0
e89,89,1341999987,60414.0
l61,61,523999993,63071.0
e90,90,1301999995,64715.0
5540.0
e89,89,1342999994,60406.0
l61,61,521999992,63074.0
e90,90,1301999996,64714.0
5545.0
l39,39,529999988,62663.0
e90,90,1295999986,65206.0
5558.0
l39,39,526999972,62682.0
e90,90,1299999991,65197.0
5544.0
e89,89,1342999993,60407.0
l61,61,521999990,63076.0
e90,90,1301999994,64716.0
5531.0
l39,39,529999985,62666.0
e90,90,1296999989,65202.0
5522.0
l39,39,526999973,62681.0
e90,90,1295999987,65205.0
5551.0
e89,89,1341999986,60415.0
l61,61,524999995,63068.0
e90,90,1301999998,64712.0
5544.0
e89,89,1342999996,60404.0
l61,61,524999996,63067.0
e94,94,1304999993,64447.0
e72,72,1292999992,65490.0
e95,95,1287999990,65588.0
5623.0
r13,13,999999,64437.0
e95,95,1296999992,64500.0
5643.0
e97,97,1305999999,65696.0
6149.0
e97,97,1301999995,65704.0
6128.0
r22,22,999999,62361.0
e97,97,1300999994,65728.0
6131.0
r22,22,999998,62366.0
e97,97,1300999992,65730.0
6143.0
l62,62,499999979,65746.0
e76,76,1293999988,66820.0
7161.0
e84,84,1300999996,65501.0
r9,9,1000000,66470.0
e87,87,1291999984,66841.0
e76,76,1285999981,67030.0
7160.0
l62,62,499999974,65751.0
e76,76,1293999990,66818.0
7171.0
l62,62,499999977,65748.0
e76,76,1293999989,66819.0
7202.0
r26,26,999978,63962.0
7520.0
r26,26,999987,63777.0
7510.0
r26,26,999980,63932.0
7516.0
r26,26,999989,63772.0
7554.0
r26,26,999980,63929.0
7538.0
r26,26,999983,63802.0
7558.0
r26,26,999979,63955.0
7551.0
r26,26,999980,63954.0
7539.0
r26,26,999988,63773.0
7554.0
r26,26,999976,63859.0
7530.0
r26,26,999978,63840.0
7560.0
l62,62,499999982,65743.0
e98,98,1284999984,67888.0
e71,71,1286999977,68224.0
10623.0
l51,51,495999980,65236.0
l60,60,500999995,65692.0
l58,58,494999988,67419.0
e71,71,1294999988,67599.0
10641.0
l51,51,496999992,65223.0
e74,74,1262999967,70532.0
e82,82,1276999966,70564.0
l67,67,467999973,71634.0
11780.0
l62,62,499999981,65744.0
e98,98,1285999985,67886.0
l64,64,485999979,68104.0
e80,80,1256999958,71545.0
l68,68,461999968,72059.0
12861.0
l62,62,499999975,65750.0
e74,74,1260999957,70723.0
e82,82,1255999957,70824.0
13115.0
r2,2,999992,73324.0
14160.0
l39,39,529999987,62664.0
l52,52,499999996,66413.0
l36,36,494999991,67451.0
l41,41,474999979,68063.0
e94,94,1268999974,70430.0
e91,91,1269999981,70690.0
15407.0
e84,84,1300999994,65503.0
l66,66,480999978,68293.0
e99,99,1239999956,74036.0
e91,91,1247999960,74681.0
15437.0
e74,74,1248999952,73264.0
e80,80,1239999955,73807.0
e87,87,1231999952,74310.0
l49,49,419999951,75454.0
l60,60,407999952,77712.0
17965.0
