e80,80,1315999988,62859.0
e71,71,1312000000,63731.0
4225.0
e80,80,1315999985,62862.0
e71,71,1310999999,63733.0
4220.0
e88,88,1315000000,62772.0
l36,36,516000000,62872.0
l52,52,495000000,64999.0
5351.0
e80,80,1315999993,62854.0
l45,45,520999991,63290.0
e76,76,1309999991,63643.0
5532.0
e80,80,1315999994,62853.0
l45,45,520999992,63289.0
e76,76,1309999997,63637.0
5530.0
e80,80,1318000000,62845.0
l45,45,523999999,63279.0
e76,76,1312000000,63632.0
5550.0
e80,80,1315999987,62860.0
l45,45,522999993,63286.0
e76,76,1309999986,63648.0
5539.0
e80,80,1315999991,62856.0
l45,45,518999986,63297.0
e76,76,1309999990,63644.0
5537.0
e80,80,1315999984,62863.0
l45,45,515999985,63301.0
e76,76,1309999989,63645.0
5532.0
e80,80,1315999995,62852.0
l45,45,524000000,63278.0
e76,76,1309999995,63639.0
5537.0
e80,80,1316999999,62847.0
l45,45,522999994,63285.0
e76,76,1309999999,63635.0
5530.0
e80,80,1315999986,62861.0
l45,45,522999997,63282.0
e76,76,1309999994,63640.0
5516.0
e80,80,1316999996,62850.0
l45,45,522999995,63284.0
e76,76,1309999992,63642.0
5533.0
e80,80,1316999997,62849.0
e76,76,1289999985,65493.0
5556.0
e80,80,1316999998,62848.0
l45,45,515999984,63302.0
e76,76,1309999996,63638.0
5560.0
e80,80,1315999989,62858.0
l45,45,519999989,63293.0
e76,76,1309999993,63641.0
5522.0
e80,80,1315999992,62855.0
e76,76,1288999984,65495.0
5532.0
e80,80,1315999990,62857.0
l45,45,519999990,63292.0
e76,76,1309999987,63647.0
5561.0
e73,73,1287999979,65162.0
7333.0
e73,73,1287999982,65159.0
7351.0
e73,73,1287999980,65161.0
7369.0
e73,73,1288999987,65153.0
7343.0
e73,73,1287999983,65158.0
7362.0
e73,73,1288999984,65156.0
7334.0
e73,73,1288999988,65152.0
7355.0
e73,73,1288999990,65150.0
7360.0
e73,73,1288999989,65151.0
7375.0
l60,60,512999993,64541.0
e71,71,1295999993,65483.0
l66,66,515000000,65922.0
l52,52,486999986,66648.0
e82,82,1273999985,67036.0
e99,99,1275999983,67152.0
8389.0
l59,59,488999980,67618.0
e96,96,1284999993,67744.0
9433.0
l59,59,488999982,67616.0
e96,96,1284999991,67746.0
9425.0
l59,59,488999983,67615.0
e96,96,1284999992,67745.0
9446.0
l60,60,513999995,64538.0
r29,29,1000000,65034.0
l56,56,474999988,68138.0
9942.0
l60,60,513999996,64537.0
l49,49,476999983,67305.0
l56,56,465999979,69330.0
9934.0
l54,54,492999990,65252.0
e78,78,1290999981,67645.0
l56,56,472999987,68193.0
9936.0
e83,83,1282999982,69100.0
l61,61,463999965,70224.0
10768.0
l50,50,470999978,69608.0
e85,85,1289999991,69815.0
l61,61,464999975,69941.0
10794.0
l50,50,470999977,69609.0
e85,85,1284999983,69828.0
l61,61,465999976,69939.0
10792.0
l54,54,492999989,65253.0
l60,60,486999982,66017.0
l49,49,475999979,67310.0
e94,94,1262999966,69166.0
r31,31,999993,69481.0
l61,61,466999981,69553.0
10762.0
l45,45,479999980,68585.0
e97,97,1254999965,70070.0
l61,61,460999961,70242.0
10808.0
e83,83,1285999992,69087.0
l61,61,463999968,70221.0
10775.0
l59,59,488999979,67619.0
e94,94,1275999981,67676.0
r31,31,999994,69474.0
l61,61,466999980,69554.0
10779.0
l59,59,488999978,67620.0
e94,94,1275999980,67677.0
r31,31,999992,69482.0
l61,61,466999982,69552.0
10772.0
e83,83,1282999981,69101.0
l61,61,463999969,70220.0
10800.0
l45,45,478999975,68591.0
e97,97,1254999966,70069.0
l61,61,458999959,70246.0
10807.0
l45,45,478999968,68598.0
e97,97,1255999974,70060.0
l61,61,459999960,70244.0
10770.0
e83,83,1283999984,69097.0
l61,61,463999966,70223.0
10806.0
l50,50,470999979,69607.0
l36,36,466999981,69784.0
l48,48,470999978,71435.0
12110.0
l50,50,470999980,69606.0
e95,95,1265999979,69619.0
e72,72,1252999967,70759.0
e75,75,1238999956,73159.0
l53,53,432999959,73829.0
l51,51,443999959,74081.0
14524.0
l58,58,477999974,68773.0
l65,65,450999965,70276.0
l51,51,463999964,71548.0
14558.0
l58,58,437999953,72798.0
14603.0
