e84,84,1608999982,24537.69999992342
e91,91,1612999995,24628.099999922106
e81,81,1610999960,24700.59999992105
r4,4,9999982,24910.599999917995
r10,10,1999991,25578.79999990827
l52,52,803999999,25861.699999904155
27301.199999883207
e84,84,1608999955,24540.399999923382
e91,91,1606999967,24631.499999922056
e81,81,1610999961,24700.499999921052
r4,4,8999969,24911.999999917974
r10,10,1999963,25581.59999990823
l52,52,802999987,25862.999999904136
27301.299999883206
e84,84,1608999962,24539.699999923392
e91,91,1609999976,24630.299999922074
e81,81,1612999978,24698.59999992108
r4,4,9999996,24909.199999918015
r10,10,999957,25582.29999990822
l52,52,798999960,25866.09999990409
27301.399999883204
e84,84,1608999980,24537.89999992342
e91,91,1606999957,24632.49999992204
e81,81,1613999996,24696.699999921108
r4,4,9999976,24911.199999917986
r10,10,1999968,25581.099999908238
l52,52,799999963,25865.699999904096
27301.499999883203
e84,84,1608999974,24538.49999992341
e91,91,1609999977,24630.199999922075
e81,81,1613999993,24696.999999921103
r4,4,5999964,24912.799999917963
r10,10,1999987,25579.199999908265
l52,52,801999986,25863.199999904133
27301.5999998832
e84,84,1608999966,24539.299999923398
e91,91,1610999980,24629.79999992208
e81,81,1609999959,24700.799999921048
r4,4,9999972,24911.59999991798
r10,10,1999975,25580.399999908248
l52,52,800999983,25863.599999904127
27301.6999998832
e84,84,1610000000,24535.79999992345
e91,91,1609999973,24630.59999992207
e81,81,1613999997,24696.59999992111
r4,4,9999980,24910.799999917992
r10,10,1999973,25580.599999908245
l52,52,802999992,25862.499999904143
27301.7999998832
e84,84,1608999989,24536.99999992343
e91,91,1606999958,24632.399999922043
e81,81,1612999979,24698.49999992108
r4,4,9999975,24911.299999917985
r10,10,1999979,25579.999999908254
l52,52,800999974,25864.499999904114
27301.899999883197
e84,84,1608999968,24539.0999999234
e91,91,1606999965,24631.699999922053
e81,81,1611999973,24699.19999992107
r4,4,9999989,24909.899999918005
r10,10,1999989,25578.99999990827
l52,52,802999990,25862.69999990414
27301.999999883195
e84,84,1608999965,24539.399999923397
e91,91,1606999951,24633.099999922033
e81,81,1615000000,24696.199999921115
r4,4,9999987,24910.099999918002
r10,10,999956,25582.39999990822
l52,52,799999962,25865.799999904095
27302.099999883194
e84,84,1608999985,24537.399999923426
e91,91,1612999990,24628.5999999221
e81,81,1610999963,24700.299999921055
r4,4,5999951,24914.099999917944
r10,10,1999993,25578.599999908274
l52,52,800999980,25863.899999904123
27302.199999883193
e84,84,1608999981,24537.79999992342
e91,91,1606999956,24632.59999992204
e81,81,1609999958,24700.899999921046
r4,4,9999995,24909.299999918014
r10,10,1999992,25578.699999908273
l52,52,802999994,25862.299999904146
27302.29999988319
e84,84,1609999996,24536.199999923443
e91,91,1606999966,24631.599999922055
e81,81,1613999987,24697.599999921094
r4,4,5999956,24913.59999991795
r10,10,999953,25582.699999908215
l52,52,804000000,25861.599999904156
27302.39999988319
e84,84,1608999993,24536.599999923437
e91,91,1606999963,24631.89999992205
e81,81,1611999970,24699.499999921067
r4,4,9999985,24910.299999918
r10,10,1999974,25580.499999908247
l52,52,799999972,25864.79999990411
27302.499999883188
e84,84,1608999969,24538.999999923402
e91,91,1613999998,24627.69999992211
e81,81,1613999992,24697.0999999211
r4,4,9999983,24910.499999917996
r10,10,1999970,25580.89999990824
l52,52,802999991,25862.59999990414
27302.599999883187
e84,84,1608999984,24537.499999923424
e91,91,1611999986,24629.09999992209
e81,81,1613999981,24698.199999921086
r4,4,6999965,24912.599999917966
r10,10,1999978,25580.099999908252
l52,52,800999978,25864.09999990412
27302.699999883185
e84,84,1608999978,24538.099999923415
e91,91,1610999981,24629.699999922082
e81,81,1613999989,24697.399999921097
r4,4,5999953,24913.899999917947
r10,10,1999967,25581.199999908236
l52,52,799999968,25865.199999904104
27302.799999883184
e84,84,1608999963,24539.599999923394
e91,91,1611999985,24629.19999992209
e81,81,1613999983,24697.99999992109
r4,4,5999952,24913.999999917945
r10,10,1999985,25579.399999908263
l52,52,800999975,25864.399999904115
27302.899999883182
l47,47,816999996,24315.599999926653
e90,90,1619999978,24360.999999925993
e76,76,1604999953,25377.699999911198
l49,49,812999979,25691.999999906624
e96,96,1597999952,26255.999999898417
28636.699999863773
l47,47,816999971,24318.099999926617
e90,90,1617999961,24362.899999925965
e76,76,1605999993,25373.599999911257
l49,49,804999958,25694.89999990658
e96,96,1602999996,26251.099999898488
28636.79999986377
l47,47,816999974,24317.79999992662
e90,90,1617999956,24363.399999925958
e76,76,1604999957,25377.299999911203
l49,49,812999983,25691.59999990663
e96,96,1597999951,26256.099999898415
28636.89999986377
l47,47,816999973,24317.89999992662
e90,90,1619999980,24360.799999925996
e76,76,1605999983,25374.599999911243
l49,49,804999953,25695.399999906575
e96,96,1603000000,26250.699999898494
28636.99999986377
l47,47,816999989,24316.299999926643
e90,90,1617999962,24362.799999925966
e76,76,1605999984,25374.499999911244
l49,49,804999954,25695.299999906576
e96,96,1600999971,26253.79999989845
28637.099999863767
l47,47,816999988,24316.39999992664
e90,90,1619999974,24361.399999925987
e76,76,1605999988,25374.09999991125
l49,49,811999971,25692.89999990661
e96,96,1600999982,26252.699999898465
28637.199999863766
l47,47,816999991,24316.099999926646
e90,90,1616999955,24363.599999925955
e76,76,1605999968,25376.09999991122
l49,49,811999973,25692.699999906614
e96,96,1599999966,26254.39999989844
28637.299999863764
l47,47,816999984,24316.799999926636
e90,90,1619999984,24360.399999926
e76,76,1605999987,25374.19999991125
l49,49,813999988,25690.99999990664
e96,96,1601999988,26251.999999898475
28637.399999863763
l47,47,816999968,24318.399999926613
e90,90,1616999953,24363.799999925952
e76,76,1605999967,25376.19999991122
l49,49,813999990,25690.79999990664
e96,96,1602999999,26250.799999898492
28637.49999986376
l47,47,816999995,24315.69999992665
e90,90,1616999952,24363.89999992595
e76,76,1605999977,25375.199999911234
l49,49,812999981,25691.799999906627
e96,96,1600999975,26253.399999898455
28637.59999986376
l47,47,816999990,24316.199999926645
e90,90,1621999994,24359.399999926016
e76,76,1604999955,25377.4999999112
l49,49,809999962,25693.999999906595
e96,96,1600999969,26253.999999898446
28637.69999986376
l47,47,816999978,24317.399999926627
e90,90,1623000000,24358.699999926026
e76,76,1605999981,25374.79999991124
l49,49,811999970,25692.99999990661
e96,96,1597999962,26254.99999989843
28637.799999863757
l47,47,816999962,24318.999999926604
e90,90,1619999983,24360.499999926
e76,76,1605999979,25374.999999911237
l49,49,814000000,25689.799999906656
e96,96,1600999974,26253.499999898453
28637.899999863756
l47,47,816999959,24319.2999999266
e90,90,1619999975,24361.29999992599
e76,76,1605999976,25375.299999911233
l49,49,809999965,25693.6999999066
e96,96,1601999991,26251.69999989848
28637.999999863754
l47,47,816999983,24316.899999926634
e90,90,1617999959,24363.099999925962
e76,76,1604999951,25377.899999911195
l49,49,813999999,25689.899999906655
e96,96,1597999959,26255.299999898427
28638.099999863753
l47,47,816999972,24317.99999992662
e90,90,1621999992,24359.599999926013
e76,76,1605999996,25373.29999991126
l49,49,813999998,25689.999999906653
e96,96,1600999972,26253.69999989845
28638.19999986375
l47,47,816999993,24315.89999992665
e90,90,1621999991,24359.69999992601
e76,76,1604999952,25377.799999911196
l49,49,813999989,25690.89999990664
e96,96,1601999989,26251.899999898476
28638.29999986375
l47,47,816999951,24320.099999926588
e90,90,1622999998,24358.899999926023
e76,76,1605999998,25373.099999911265
l49,49,812999978,25692.099999906623
e96,96,1598999963,26254.799999898434
28638.39999986375
l47,47,816999964,24318.799999926607
e90,90,1618999971,24361.79999992598
e76,76,1606000000,25372.899999911268
l49,49,812999984,25691.49999990663
e96,96,1597999953,26255.899999898418
28638.499999863747
l47,47,816999981,24317.09999992663
e90,90,1618999969,24361.999999925978
e76,76,1605999980,25374.89999991124
l49,49,813999995,25690.29999990665
e96,96,1602999997,26250.99999989849
28638.599999863745
l47,47,816999985,24316.699999926637
e90,90,1621999993,24359.499999926014
e76,76,1605999975,25375.39999991123
l49,49,810999968,25693.299999906605
e96,96,1600999976,26253.299999898456
28638.699999863744
l47,47,816999980,24317.19999992663
e90,90,1617999960,24362.999999925963
e76,76,1604999954,25377.5999999112
l49,49,808999961,25694.199999906592
e96,96,1599999968,26254.199999898443
28638.799999863742
l47,47,816999960,24319.1999999266
e90,90,1616999954,24363.699999925953
e76,76,1605999995,25373.39999991126
l49,49,812999977,25692.19999990662
e96,96,1597999960,26255.19999989843
28638.89999986374
l47,47,816999969,24318.299999926614
e90,90,1617999966,24362.399999925972
e76,76,1605999992,25373.699999911256
l49,49,813999997,25690.09999990665
e96,96,1600999977,26253.199999898457
28638.99999986374
l47,47,816999999,24315.299999926658
e90,90,1620999990,24359.89999992601
e76,76,1605999963,25376.599999911214
l49,49,811999974,25692.599999906615
e96,96,1601999995,26251.299999898485
28639.099999863738
l47,47,816999952,24319.99999992659
e90,90,1619999979,24360.899999925994
e76,76,1605999970,25375.899999911224
l49,49,808999960,25694.29999990659
e96,96,1601999992,26251.59999989848
28639.199999863737
l47,47,816999977,24317.499999926626
e90,90,1621999995,24359.299999926017
e76,76,1605999978,25375.099999911235
l49,49,804999955,25695.199999906577
e96,96,1601999987,26252.099999898473
28639.299999863735
l47,47,817000000,24315.19999992666
e90,90,1619999985,24360.299999926003
e76,76,1604999959,25377.099999911206
l49,49,809999963,25693.899999906596
e96,96,1597999961,26255.09999989843
28639.399999863734
l47,47,816999965,24318.699999926608
e90,90,1618999972,24361.699999925982
e76,76,1605999991,25373.799999911254
l49,49,813999996,25690.19999990665
e96,96,1600999981,26252.799999898463
28639.499999863732
l47,47,816999976,24317.599999926624
e90,90,1619999986,24360.199999926004
e76,76,1605999973,25375.59999991123
l49,49,813999991,25690.699999906643
e96,96,1599999964,26254.599999898437
28639.59999986373
l47,47,816999953,24319.89999992659
e90,90,1619999988,24360.0
e76,76,1605999990,25373.899999911253
l49,49,803999951,25695.69999990657
e96,96,1600999985,26252.39999989847
28639.69999986373
l47,47,816999955,24319.699999926594
e90,90,1622999997,24358.99999992602
e76,76,1605999999,25372.999999911266
l49,49,812999976,25692.29999990662
e96,96,1600999983,26252.599999898466
28639.799999863728
