l44,44,812999985,25141.999999914628
25609.89999990782
l44,44,812999990,25141.499999914635
25609.999999907817
l44,44,812999986,25141.89999991463
25610.099999907816
l44,44,812999970,25143.499999914606
25610.199999907814
l44,44,811999953,25145.29999991458
25610.299999907813
l44,44,814000000,25140.39999991465
25610.39999990781
l44,44,811999954,25145.19999991458
25610.49999990781
l44,44,811999951,25145.499999914577
25610.59999990781
l44,44,812999963,25144.199999914596
25610.699999907807
l44,44,812999989,25141.599999914633
25610.799999907806
l44,44,812999974,25143.09999991461
25610.899999907804
l44,44,812999995,25140.999999914642
25610.999999907803
l44,44,812999979,25142.59999991462
25611.0999999078
l44,44,811999952,25145.399999914578
25611.1999999078
l44,44,812999973,25143.19999991461
25611.2999999078
l44,44,811999960,25144.59999991459
25611.399999907797
l44,44,812999981,25142.39999991462
25611.499999907795
l44,44,812999993,25141.19999991464
25611.599999907794
l44,44,812999987,25141.79999991463
25611.699999907793
l44,44,812999988,25141.699999914632
25611.79999990779
l44,44,811999956,25144.999999914584
25611.89999990779
l44,44,811999957,25144.899999914585
25611.999999907788
l44,44,812999968,25143.699999914603
25612.099999907787
l44,44,812999983,25142.199999914625
25612.199999907785
l44,44,812999975,25142.999999914613
25612.299999907784
l44,44,811999955,25145.099999914582
25612.399999907782
l44,44,812999980,25142.49999991462
25612.49999990778
l44,44,811999958,25144.799999914587
25612.59999990778
l44,44,813999999,25140.49999991465
25612.699999907778
l44,44,812999964,25144.099999914597
25612.799999907777
l44,44,812999965,25143.9999999146
25612.899999907775
l44,44,812999991,25141.399999914636
25612.999999907774
l44,44,812999998,25140.699999914646
25613.099999907772
l44,44,812999997,25140.799999914645
25613.19999990777
l44,44,812999962,25144.299999914594
25613.29999990777
l44,44,812999977,25142.799999914616
25613.399999907768
l44,44,812999982,25142.299999914623
25613.499999907766
l44,44,812999978,25142.699999914617
25613.599999907765
l44,44,812999976,25142.899999914614
25613.699999907763
l44,44,812999992,25141.299999914638
25613.799999907762
l44,44,812999984,25142.099999914626
25613.89999990776
l44,44,812999972,25143.29999991461
25613.99999990776
l44,44,811999959,25144.69999991459
25614.099999907758
l44,44,812999994,25141.09999991464
25614.199999907756
l44,44,812999967,25143.7999999146
25614.299999907755
l44,44,812999966,25143.8999999146
25614.399999907753
l44,44,811999961,25144.49999991459
25614.49999990775
l44,44,812999971,25143.399999914607
25614.59999990775
l44,44,812999969,25143.599999914604
25614.69999990775
l44,44,812999996,25140.899999914644
25614.799999907747
