l53,53,796999988,26032.699999901666
26504.199999894805
l53,53,795999958,26035.79999990162
26504.299999894803
l53,53,796999982,26033.299999901657
26504.399999894802
l53,53,795999965,26035.09999990163
26504.4999998948
l53,53,797999996,26031.79999990168
26504.5999998948
l53,53,796999984,26033.09999990166
26504.699999894798
l53,53,795999953,26036.299999901614
26504.799999894796
l53,53,794999951,26036.59999990161
26504.899999894795
l53,53,796999985,26032.99999990166
26504.999999894793
l53,53,798999999,26031.399999901685
26505.099999894792
l53,53,796999991,26032.39999990167
26505.19999989479
l53,53,796999975,26033.999999901647
26505.29999989479
l53,53,796999974,26034.099999901646
26505.399999894787
l53,53,796999969,26034.59999990164
26505.499999894786
l53,53,796999976,26033.89999990165
26505.599999894785
l53,53,796999986,26032.899999901663
26505.699999894783
l53,53,796999992,26032.299999901672
26505.79999989478
l53,53,795999960,26035.599999901624
26505.89999989478
l53,53,795999961,26035.499999901625
26505.99999989478
l53,53,796999971,26034.39999990164
26506.099999894777
l53,53,795999956,26035.999999901618
26506.199999894776
l53,53,794999952,26036.49999990161
26506.299999894774
l53,53,796999981,26033.399999901656
26506.399999894773
l53,53,796999973,26034.199999901644
26506.49999989477
l53,53,795999966,26034.999999901633
26506.59999989477
l53,53,795999959,26035.699999901623
26506.69999989477
l53,53,796999989,26032.599999901668
26506.799999894767
l53,53,796999995,26031.999999901676
26506.899999894766
l53,53,796999972,26034.299999901643
26506.999999894764
l53,53,796999990,26032.49999990167
26507.099999894763
l53,53,795999955,26036.099999901617
26507.19999989476
l53,53,799000000,26031.299999901687
26507.29999989476
l53,53,796999993,26032.199999901673
26507.39999989476
l53,53,796999977,26033.79999990165
26507.499999894757
l53,53,795999954,26036.199999901615
26507.599999894755
l53,53,796999980,26033.499999901655
26507.699999894754
l53,53,796999978,26033.69999990165
26507.799999894753
l53,53,796999987,26032.799999901665
26507.89999989475
l53,53,796999979,26033.599999901653
26507.99999989475
l53,53,795999957,26035.89999990162
26508.099999894748
l53,53,795999963,26035.29999990163
26508.199999894747
l53,53,797999997,26031.69999990168
26508.299999894745
l53,53,795999962,26035.399999901627
26508.399999894744
l53,53,796999970,26034.49999990164
26508.499999894742
l53,53,796999968,26034.699999901637
26508.59999989474
l53,53,797999998,26031.599999901682
26508.69999989474
l53,53,796999983,26033.19999990166
26508.799999894738
l53,53,795999964,26035.19999990163
26508.899999894737
l53,53,795999967,26034.899999901634
26508.999999894735
l53,53,796999994,26032.099999901675
26509.099999894734
