l39,39,816999981,24087.899999929967
l54,54,814999966,24138.299999929233
e70,70,1612999956,24223.299999927996
25030.899999916244
l39,39,817999995,24086.39999992999
l54,54,814999991,24135.79999992927
e70,70,1614999983,24220.39999992804
25030.999999916243
l39,39,816999984,24087.59999992997
l54,54,814999993,24135.599999929273
e70,70,1615999994,24219.199999928056
25031.09999991624
l39,39,814999958,24090.39999992993
l54,54,815000000,24134.899999929283
e70,70,1612999973,24221.59999992802
25031.19999991624
l39,39,814999966,24089.599999929942
l54,54,814999978,24137.09999992925
e70,70,1615999985,24220.099999928043
25031.29999991624
l39,39,816999976,24088.39999992996
l54,54,814999967,24138.199999929235
e70,70,1615999997,24218.89999992806
25031.399999916237
l39,39,814999957,24090.49999992993
l54,54,814999960,24138.899999929225
e70,70,1615999990,24219.59999992805
25031.499999916236
l39,39,816999971,24088.899999929952
l54,54,814999972,24137.699999929242
e70,70,1614999984,24220.29999992804
25031.599999916234
l39,39,814999955,24090.699999929926
l54,54,814999961,24138.799999929226
e70,70,1612999967,24222.199999928012
25031.699999916233
l39,39,814999960,24090.199999929933
l54,54,814999987,24136.199999929264
e70,70,1612999953,24223.599999927992
25031.79999991623
l39,39,818000000,24085.899999929996
l54,54,814999973,24137.599999929243
e70,70,1615999987,24219.899999928046
25031.89999991623
l39,39,814999963,24089.899999929938
l54,54,814999951,24139.79999992921
e70,70,1612999951,24223.79999992799
25031.99999991623
l39,39,817999994,24086.499999929987
l54,54,814999975,24137.399999929246
e70,70,1612999974,24221.499999928023
25032.099999916227
l39,39,817999998,24086.099999929993
l54,54,814999996,24135.299999929277
e70,70,1612999963,24222.599999928007
25032.199999916225
l39,39,814999962,24089.999999929936
l54,54,814999970,24137.89999992924
e70,70,1613999977,24221.09999992803
25032.299999916224
l39,39,814999961,24090.099999929935
l54,54,814999969,24137.999999929238
e70,70,1612999970,24221.899999928017
25032.399999916222
l39,39,816999982,24087.799999929968
l54,54,814999959,24138.999999929223
e70,70,1613999978,24220.99999992803
25032.49999991622
l39,39,814999952,24090.99999992992
l54,54,814999954,24139.499999929216
e70,70,1615999988,24219.799999928047
25032.59999991622
l39,39,816999974,24088.599999929957
l54,54,814999971,24137.79999992924
e70,70,1612999960,24222.899999928002
25032.699999916218
l39,39,816999975,24088.499999929958
l54,54,814999990,24135.89999992927
e70,70,1612999969,24221.999999928015
25032.799999916217
l39,39,814999951,24091.09999992992
l54,54,814999955,24139.399999929217
e70,70,1612999952,24223.69999992799
25032.899999916215
l39,39,816999972,24088.799999929954
l54,54,814999968,24138.099999929236
e70,70,1613999980,24220.799999928033
25032.999999916214
l39,39,816999977,24088.29999992996
l54,54,814999992,24135.69999992927
e70,70,1613999976,24221.199999928027
25033.099999916212
l39,39,817999989,24086.99999992998
l54,54,814999963,24138.59999992923
e70,70,1612999968,24222.099999928014
25033.19999991621
l39,39,814999953,24090.899999929923
l54,54,814999988,24136.099999929265
e70,70,1615999991,24219.49999992805
25033.29999991621
l39,39,816999978,24088.199999929962
l54,54,814999953,24139.599999929214
e70,70,1612999958,24223.099999928
25033.399999916208
l39,39,816999987,24087.299999929975
l54,54,814999965,24138.399999929232
e70,70,1615999992,24219.399999928053
25033.499999916206
l39,39,816999980,24087.999999929965
l54,54,814999989,24135.999999929267
e70,70,1615999995,24219.099999928058
25033.599999916205
l39,39,815999967,24089.399999929945
l54,54,814999982,24136.699999929257
e70,70,1612999975,24221.399999928024
25033.699999916204
l39,39,816999983,24087.69999992997
l54,54,814999998,24135.09999992928
e70,70,1613999981,24220.699999928034
25033.799999916202
l39,39,817999991,24086.799999929983
l54,54,814999994,24135.499999929274
e70,70,1615999986,24219.999999928044
25033.8999999162
l39,39,814999954,24090.799999929925
l54,54,814999952,24139.699999929213
e70,70,1615999989,24219.69999992805
25033.9999999162
l39,39,817999993,24086.599999929986
l54,54,814999986,24136.299999929262
e70,70,1612999964,24222.499999928008
25034.099999916198
l39,39,817999992,24086.699999929984
l54,54,814999985,24136.39999992926
e70,70,1612999954,24223.499999927993
25034.199999916196
l39,39,817999999,24085.999999929994
l54,54,814999984,24136.49999992926
e70,70,1615999999,24218.699999928063
25034.299999916195
l39,39,814999956,24090.599999929927
l54,54,814999962,24138.699999929227
e70,70,1612999966,24222.29999992801
25034.399999916193
l39,39,814999964,24089.79999992994
l54,54,814999976,24137.299999929248
e70,70,1613999979,24220.89999992803
25034.499999916192
l39,39,816999973,24088.699999929955
l54,54,814999956,24139.29999992922
e70,70,1612999961,24222.799999928004
25034.59999991619
l39,39,816999970,24088.99999992995
l54,54,814999957,24139.19999992922
e70,70,1612999959,24222.999999928
25034.69999991619
l39,39,816999979,24088.099999929964
l54,54,814999981,24136.799999929255
e70,70,1612999957,24223.199999927998
25034.799999916188
l39,39,816999988,24087.199999929977
l54,54,814999964,24138.49999992923
e70,70,1612999955,24223.399999927995
25034.899999916186
l39,39,817999997,24086.19999992999
l54,54,814999983,24136.599999929258
e70,70,1615999996,24218.99999992806
25034.999999916185
l39,39,814999965,24089.69999992994
l54,54,814999997,24135.19999992928
e70,70,1615999993,24219.299999928055
25035.099999916183
l39,39,814999959,24090.29999992993
l54,54,814999958,24139.09999992922
e70,70,1616000000,24218.599999928065
25035.19999991618
l39,39,817999996,24086.29999992999
l54,54,814999977,24137.19999992925
e70,70,1612999972,24221.69999992802
25035.29999991618
l39,39,816999968,24089.199999929948
l54,54,814999999,24134.99999992928
e70,70,1612999965,24222.39999992801
25035.39999991618
l39,39,816999986,24087.399999929974
l54,54,814999980,24136.899999929254
e70,70,1612999971,24221.79999992802
25035.499999916177
l39,39,816999969,24089.09999992995
l54,54,814999979,24136.999999929252
e70,70,1612999962,24222.699999928005
25035.599999916176
l39,39,817999990,24086.89999992998
l54,54,814999974,24137.499999929245
e70,70,1614999982,24220.499999928037
25035.699999916174
l39,39,816999985,24087.499999929973
l54,54,814999995,24135.399999929276
e70,70,1615999998,24218.799999928062
25035.799999916173
