# time  ID  size  fromHost  toHost  TTL  isResponse
120.0000 Hetero_flow1 1000000 l45 l49 n/a N 
240.0000 Hetero_flow2 1000000 e72 l59 n/a N 
360.0000 Hetero_flow3 1000000 e97 r29 n/a N 
480.0000 Hetero_flow4 1000000 r24 r30 n/a N 
600.0000 Hetero_flow5 1000000 e69 l40 n/a N 
720.0000 Hetero_flow6 1000000 r32 e85 n/a N 
840.0000 Hetero_flow7 1000000 l50 l37 n/a N 
960.0000 Hetero_flow8 1000000 e77 r28 n/a N 
1080.0000 Hetero_flow9 1000000 r34 l42 n/a N 
1200.0000 Hetero_flow10 1000000 l40 e90 n/a N 
1320.0000 Hetero_flow11 1000000 e100 r7 n/a N 
1440.0000 Hetero_flow12 1000000 r22 e92 n/a N 
1560.0000 Hetero_flow13 1000000 r33 l59 n/a N 
1680.0000 Hetero_flow14 1000000 e98 e82 n/a N 
1800.0000 Hetero_flow15 1000000 r14 l45 n/a N 
1920.0000 Hetero_flow16 1000000 l47 e71 n/a N 
2040.0000 Hetero_flow17 1000000 r13 l55 n/a N 
2160.0000 Hetero_flow18 1000000 r26 l58 n/a N 
2280.0000 Hetero_flow19 1000000 r3 e81 n/a N 
2400.0000 Hetero_flow20 1000000 r32 e72 n/a N 
2520.0000 Hetero_flow21 1000000 e72 e89 n/a N 
2640.0000 Hetero_flow22 1000000 r31 r7 n/a N 
2760.0000 Hetero_flow23 1000000 e70 l48 n/a N 
2880.0000 Hetero_flow24 1000000 e76 l37 n/a N 
3000.0000 Hetero_flow25 1000000 l43 r3 n/a N 
3120.0000 Hetero_flow26 1000000 e96 l55 n/a N 
3240.0000 Hetero_flow27 1000000 r14 r24 n/a N 
3360.0000 Hetero_flow28 1000000 r20 l67 n/a N 
3480.0000 Hetero_flow29 1000000 e90 e101 n/a N 
3600.0000 Hetero_flow30 1000000 r34 e75 n/a N 
3720.0000 Hetero_flow31 1000000 l66 r2 n/a N 
3840.0000 Hetero_flow32 1000000 l41 l37 n/a N 
3960.0000 Hetero_flow33 1000000 l35 e89 n/a N 
4080.0000 Hetero_flow34 1000000 l56 e78 n/a N 
4200.0000 Hetero_flow35 1000000 l54 e83 n/a N 
4320.0000 Hetero_flow36 1000000 l59 l61 n/a N 
4440.0000 Hetero_flow37 1000000 l44 e78 n/a N 
4560.0000 Hetero_flow38 1000000 l60 r15 n/a N 
4680.0000 Hetero_flow39 1000000 l47 r9 n/a N 
4800.0000 Hetero_flow40 1000000 e78 l59 n/a N 
4920.0000 Hetero_flow41 1000000 e93 e70 n/a N 
5040.0000 Hetero_flow42 1000000 l58 r11 n/a N 
5160.0000 Hetero_flow43 1000000 e97 l68 n/a N 
5280.0000 Hetero_flow44 1000000 r11 e96 n/a N 
5400.0000 Hetero_flow45 1000000 l50 e74 n/a N 
5520.0000 Hetero_flow46 1000000 l38 r13 n/a N 
5640.0000 Hetero_flow47 1000000 e89 r4 n/a N 
5760.0000 Hetero_flow48 1000000 e76 r18 n/a N 
5880.0000 Hetero_flow49 1000000 r3 l60 n/a N 
6000.0000 Hetero_flow50 1000000 l36 r16 n/a N 
6120.0000 Hetero_flow51 1000000 e91 r31 n/a N 
6240.0000 Hetero_flow52 1000000 r32 e92 n/a N 
6360.0000 Hetero_flow53 1000000 e71 r7 n/a N 
6480.0000 Hetero_flow54 1000000 r15 l54 n/a N 
6600.0000 Hetero_flow55 1000000 e93 r5 n/a N 
6720.0000 Hetero_flow56 1000000 l64 r28 n/a N 
6840.0000 Hetero_flow57 1000000 e95 l58 n/a N 
6960.0000 Hetero_flow58 1000000 r25 e84 n/a N 
7080.0000 Hetero_flow59 1000000 e79 e88 n/a N 
7200.0000 Hetero_flow60 1000000 e95 l58 n/a N 
7320.0000 Hetero_flow61 1000000 l42 e92 n/a N 
7440.0000 Hetero_flow62 1000000 l65 e87 n/a N 
7560.0000 Hetero_flow63 1000000 r21 e85 n/a N 
7680.0000 Hetero_flow64 1000000 e85 l47 n/a N 
7800.0000 Hetero_flow65 1000000 l60 l43 n/a N 
7920.0000 Hetero_flow66 1000000 l56 e80 n/a N 
8040.0000 Hetero_flow67 1000000 r10 e93 n/a N 
8160.0000 Hetero_flow68 1000000 r17 z0 n/a N 
8280.0000 Hetero_flow69 1000000 l40 l36 n/a N 
8400.0000 Hetero_flow70 1000000 r32 r16 n/a N 
8520.0000 Hetero_flow71 1000000 r6 r20 n/a N 
8640.0000 Hetero_flow72 1000000 l66 e85 n/a N 
8760.0000 Hetero_flow73 1000000 r31 l57 n/a N 
8880.0000 Hetero_flow74 1000000 r21 r22 n/a N 
9000.0000 Hetero_flow75 1000000 e99 r21 n/a N 
9120.0000 Hetero_flow76 1000000 e76 r10 n/a N 
9240.0000 Hetero_flow77 1000000 e99 e90 n/a N 
9360.0000 Hetero_flow78 1000000 l67 l39 n/a N 
9480.0000 Hetero_flow79 1000000 r9 r28 n/a N 
9600.0000 Hetero_flow80 1000000 l66 l36 n/a N 
9720.0000 Hetero_flow81 1000000 r7 e83 n/a N 
9840.0000 Hetero_flow82 1000000 r31 l52 n/a N 
9960.0000 Hetero_flow83 1000000 r9 r2 n/a N 
10080.0000 Hetero_flow84 1000000 r15 l38 n/a N 
10200.0000 Hetero_flow85 1000000 r17 r10 n/a N 
10320.0000 Hetero_flow86 1000000 l54 e85 n/a N 
10440.0000 Hetero_flow87 1000000 e100 e80 n/a N 
10560.0000 Hetero_flow88 1000000 e70 r19 n/a N 
10680.0000 Hetero_flow89 1000000 l59 r29 n/a N 
10800.0000 Hetero_flow90 1000000 r18 r5 n/a N 
10920.0000 Hetero_flow91 1000000 l53 r3 n/a N 
11040.0000 Hetero_flow92 1000000 l42 l44 n/a N 
11160.0000 Hetero_flow93 1000000 l42 e79 n/a N 
11280.0000 Hetero_flow94 1000000 l46 l41 n/a N 
11400.0000 Hetero_flow95 1000000 l63 e96 n/a N 
11520.0000 Hetero_flow96 1000000 l45 r15 n/a N 
11640.0000 Hetero_flow97 1000000 e97 l35 n/a N 
11760.0000 Hetero_flow98 1000000 l47 r28 n/a N 
11880.0000 Hetero_flow99 1000000 r17 r21 n/a N 
12000.0000 Hetero_flow100 1000000 e97 r10 n/a N 
12120.0000 Hetero_flow101 1000000 r27 l63 n/a N 
12240.0000 Hetero_flow102 1000000 e90 l52 n/a N 
12360.0000 Hetero_flow103 1000000 r22 l57 n/a N 
12480.0000 Hetero_flow104 1000000 e83 l51 n/a N 
12600.0000 Hetero_flow105 1000000 e99 e95 n/a N 
12720.0000 Hetero_flow106 1000000 l66 r15 n/a N 
12840.0000 Hetero_flow107 1000000 l67 r21 n/a N 
12960.0000 Hetero_flow108 1000000 l61 r8 n/a N 
13080.0000 Hetero_flow109 1000000 r3 l60 n/a N 
13200.0000 Hetero_flow110 1000000 e88 r7 n/a N 
13320.0000 Hetero_flow111 1000000 e80 l41 n/a N 
13440.0000 Hetero_flow112 1000000 r31 l46 n/a N 
13560.0000 Hetero_flow113 1000000 r26 r16 n/a N 
13680.0000 Hetero_flow114 1000000 l54 l68 n/a N 
13800.0000 Hetero_flow115 1000000 r21 l44 n/a N 
13920.0000 Hetero_flow116 1000000 r25 l57 n/a N 
14040.0000 Hetero_flow117 1000000 r27 l59 n/a N 
14160.0000 Hetero_flow118 1000000 l44 r30 n/a N 
14280.0000 Hetero_flow119 1000000 e94 e71 n/a N 
14400.0000 Hetero_flow120 1000000 e85 e100 n/a N 
14520.0000 Hetero_flow121 1000000 l40 r13 n/a N 
14640.0000 Hetero_flow122 1000000 e88 l46 n/a N 
14760.0000 Hetero_flow123 1000000 r24 e76 n/a N 
14880.0000 Hetero_flow124 1000000 e93 l45 n/a N 
15000.0000 Hetero_flow125 1000000 l68 e75 n/a N 
15120.0000 Hetero_flow126 1000000 e101 e77 n/a N 
15240.0000 Hetero_flow127 1000000 r17 e99 n/a N 
15360.0000 Hetero_flow128 1000000 l54 e99 n/a N 
15480.0000 Hetero_flow129 1000000 l66 e81 n/a N 
15600.0000 Hetero_flow130 1000000 e75 l68 n/a N 
15720.0000 Hetero_flow131 1000000 z0 l47 n/a N 
15840.0000 Hetero_flow132 1000000 l62 e75 n/a N 
15960.0000 Hetero_flow133 1000000 e89 r18 n/a N 
16080.0000 Hetero_flow134 1000000 l61 l66 n/a N 
16200.0000 Hetero_flow135 1000000 l47 r11 n/a N 
16320.0000 Hetero_flow136 1000000 l56 e77 n/a N 
16440.0000 Hetero_flow137 1000000 e70 l46 n/a N 
16560.0000 Hetero_flow138 1000000 e101 l36 n/a N 
16680.0000 Hetero_flow139 1000000 l42 l40 n/a N 
16800.0000 Hetero_flow140 1000000 r3 l51 n/a N 
16920.0000 Hetero_flow141 1000000 r11 r29 n/a N 
17040.0000 Hetero_flow142 1000000 e101 e78 n/a N 
17160.0000 Hetero_flow143 1000000 l43 x1 n/a N 
17280.0000 Hetero_flow144 1000000 r25 e100 n/a N 
17400.0000 Hetero_flow145 1000000 l39 l63 n/a N 
17520.0000 Hetero_flow146 1000000 l35 r3 n/a N 
17640.0000 Hetero_flow147 1000000 l48 r27 n/a N 
17760.0000 Hetero_flow148 1000000 r4 r33 n/a N 
17880.0000 Hetero_flow149 1000000 r26 r12 n/a N 
18000.0000 Hetero_flow150 1000000 r20 l64 n/a N 
18120.0000 Hetero_flow151 1000000 r18 l39 n/a N 
18240.0000 Hetero_flow152 1000000 l57 l51 n/a N 
18360.0000 Hetero_flow153 1000000 r30 l42 n/a N 
18480.0000 Hetero_flow154 1000000 r7 e93 n/a N 
18600.0000 Hetero_flow155 1000000 l66 e94 n/a N 
18720.0000 Hetero_flow156 1000000 e91 r34 n/a N 
18840.0000 Hetero_flow157 1000000 r15 r31 n/a N 
18960.0000 Hetero_flow158 1000000 r22 e84 n/a N 
19080.0000 Hetero_flow159 1000000 e77 r13 n/a N 
19200.0000 Hetero_flow160 1000000 r8 e81 n/a N 
19320.0000 Hetero_flow161 1000000 e69 e79 n/a N 
19440.0000 Hetero_flow162 1000000 l54 r11 n/a N 
19560.0000 Hetero_flow163 1000000 e79 r34 n/a N 
19680.0000 Hetero_flow164 1000000 r27 l36 n/a N 
19800.0000 Hetero_flow165 1000000 r33 l36 n/a N 
19920.0000 Hetero_flow166 1000000 e91 r6 n/a N 
20040.0000 Hetero_flow167 1000000 e86 l68 n/a N 
20160.0000 Hetero_flow168 1000000 r20 l68 n/a N 
20280.0000 Hetero_flow169 1000000 r30 l54 n/a N 
20400.0000 Hetero_flow170 1000000 e70 r5 n/a N 
20520.0000 Hetero_flow171 1000000 e85 e76 n/a N 
20640.0000 Hetero_flow172 1000000 r15 e75 n/a N 
20760.0000 Hetero_flow173 1000000 l44 l50 n/a N 
20880.0000 Hetero_flow174 1000000 l40 l59 n/a N 
21000.0000 Hetero_flow175 1000000 r30 e78 n/a N 
21120.0000 Hetero_flow176 1000000 l43 l59 n/a N 
21240.0000 Hetero_flow177 1000000 e75 r9 n/a N 
21360.0000 Hetero_flow178 1000000 e83 l36 n/a N 
21480.0000 Hetero_flow179 1000000 e96 z0 n/a N 
21600.0000 Hetero_flow180 1000000 l46 e80 n/a N 
21720.0000 Hetero_flow181 1000000 r6 l38 n/a N 
21840.0000 Hetero_flow182 1000000 r2 e76 n/a N 
21960.0000 Hetero_flow183 1000000 r9 r33 n/a N 
22080.0000 Hetero_flow184 1000000 e76 e100 n/a N 
22200.0000 Hetero_flow185 1000000 r25 l59 n/a N 
22320.0000 Hetero_flow186 1000000 r2 l58 n/a N 
22440.0000 Hetero_flow187 1000000 r18 z0 n/a N 
22560.0000 Hetero_flow188 1000000 r24 l59 n/a N 
22680.0000 Hetero_flow189 1000000 l55 e76 n/a N 
22800.0000 Hetero_flow190 1000000 l58 e75 n/a N 
22920.0000 Hetero_flow191 1000000 r23 r31 n/a N 
23040.0000 Hetero_flow192 1000000 r32 r14 n/a N 
23160.0000 Hetero_flow193 1000000 l66 r33 n/a N 
23280.0000 Hetero_flow194 1000000 r27 r19 n/a N 
23400.0000 Hetero_flow195 1000000 e71 r27 n/a N 
23520.0000 Hetero_flow196 1000000 l59 l50 n/a N 
23640.0000 Hetero_flow197 1000000 r33 e74 n/a N 
23760.0000 Hetero_flow198 1000000 e78 r19 n/a N 
23880.0000 Hetero_flow199 1000000 l68 r10 n/a N 
23999.6000 K_Msg:1_24000 1 z0 x1 n/a N 
23999.7000 K_Msg:2_24000 1 z0 x1 n/a N 
23999.8000 K_Msg:3_24000 1 z0 x1 n/a N 
23999.9000 K_Msg:4_24000 1 z0 x1 n/a N 
24000.0000 K_Msg:5_24000 1 z0 x1 n/a N 
24000.0000 Hetero_flow200 1000000 r19 r14 n/a N 
24000.0000 K_Msg:6_24000 1 z0 x1 n/a N 
24000.1000 K_Msg:7_24000 1 z0 x1 n/a N 
24000.2000 K_Msg:8_24000 1 z0 x1 n/a N 
24000.3000 K_Msg:9_24000 1 z0 x1 n/a N 
24000.4000 K_Msg:10_24000 1 z0 x1 n/a N 
24000.5000 K_Msg:11_24000 1 z0 x1 n/a N 
24000.6000 K_Msg:12_24001 1 z0 x1 n/a N 
24000.7000 K_Msg:13_24001 1 z0 x1 n/a N 
24000.8000 K_Msg:14_24001 1 z0 x1 n/a N 
24000.9000 K_Msg:15_24001 1 z0 x1 n/a N 
24001.0000 K_Msg:16_24001 1 z0 x1 n/a N 
24001.1000 K_Msg:17_24001 1 z0 x1 n/a N 
24001.2000 K_Msg:18_24001 1 z0 x1 n/a N 
24001.3000 K_Msg:19_24001 1 z0 x1 n/a N 
24001.4000 K_Msg:20_24001 1 z0 x1 n/a N 
24001.5000 K_Msg:21_24001 1 z0 x1 n/a N 
24001.6000 K_Msg:22_24002 1 z0 x1 n/a N 
24001.7000 K_Msg:23_24002 1 z0 x1 n/a N 
24001.8000 K_Msg:24_24002 1 z0 x1 n/a N 
24001.9000 K_Msg:25_24002 1 z0 x1 n/a N 
24002.0000 K_Msg:26_24002 1 z0 x1 n/a N 
24002.1000 K_Msg:27_24002 1 z0 x1 n/a N 
24002.2000 K_Msg:28_24002 1 z0 x1 n/a N 
24002.3000 K_Msg:29_24002 1 z0 x1 n/a N 
24002.4000 K_Msg:30_24002 1 z0 x1 n/a N 
24002.5000 K_Msg:31_24002 1 z0 x1 n/a N 
24002.6000 K_Msg:32_24003 1 z0 x1 n/a N 
24002.7000 K_Msg:33_24003 1 z0 x1 n/a N 
24002.8000 K_Msg:34_24003 1 z0 x1 n/a N 
24002.9000 K_Msg:35_24003 1 z0 x1 n/a N 
24003.0000 K_Msg:36_24003 1 z0 x1 n/a N 
24003.1000 K_Msg:37_24003 1 z0 x1 n/a N 
24003.2000 K_Msg:38_24003 1 z0 x1 n/a N 
24003.3000 K_Msg:39_24003 1 z0 x1 n/a N 
24003.4000 K_Msg:40_24003 1 z0 x1 n/a N 
24003.5000 K_Msg:41_24003 1 z0 x1 n/a N 
24003.6000 K_Msg:42_24004 1 z0 x1 n/a N 
24003.7000 K_Msg:43_24004 1 z0 x1 n/a N 
24003.8000 K_Msg:44_24004 1 z0 x1 n/a N 
24003.9000 K_Msg:45_24004 1 z0 x1 n/a N 
24004.0000 K_Msg:46_24004 1 z0 x1 n/a N 
24004.1000 K_Msg:47_24004 1 z0 x1 n/a N 
24004.2000 K_Msg:48_24004 1 z0 x1 n/a N 
24004.3000 K_Msg:49_24004 1 z0 x1 n/a N 
24004.4000 K_Msg:50_24004 1 z0 x1 n/a N 
24120.0000 Hetero_flow201 1000000 l59 e79 n/a N 
24240.0000 Hetero_flow202 1000000 r10 l42 n/a N 
24360.0000 Hetero_flow203 1000000 e90 r3 n/a N 
24480.0000 Hetero_flow204 1000000 e75 e80 n/a N 
24600.0000 Hetero_flow205 1000000 l36 r17 n/a N 
24720.0000 Hetero_flow206 1000000 r32 e92 n/a N 
24840.0000 Hetero_flow207 1000000 l46 e88 n/a N 
24960.0000 Hetero_flow208 1000000 l47 e82 n/a N 
25080.0000 Hetero_flow209 1000000 e99 e86 n/a N 
25200.0000 Hetero_flow210 1000000 r31 r30 n/a N 
25320.0000 Hetero_flow211 1000000 r17 e87 n/a N 
25440.0000 Hetero_flow212 1000000 e89 r15 n/a N 
25560.0000 Hetero_flow213 1000000 r28 l48 n/a N 
25680.0000 Hetero_flow214 1000000 e96 e85 n/a N 
25800.0000 Hetero_flow215 1000000 l65 r15 n/a N 
25920.0000 Hetero_flow216 1000000 r7 r30 n/a N 
26040.0000 Hetero_flow217 1000000 r3 e70 n/a N 
26160.0000 Hetero_flow218 1000000 r16 r2 n/a N 
26280.0000 Hetero_flow219 1000000 l41 l40 n/a N 
26400.0000 Hetero_flow220 1000000 e72 l68 n/a N 
26520.0000 Hetero_flow221 1000000 e78 e91 n/a N 
26640.0000 Hetero_flow222 1000000 e78 r5 n/a N 
26760.0000 Hetero_flow223 1000000 l61 e94 n/a N 
26880.0000 Hetero_flow224 1000000 r10 e100 n/a N 
27000.0000 Hetero_flow225 1000000 r10 l52 n/a N 
27120.0000 Hetero_flow226 1000000 r8 l57 n/a N 
27240.0000 Hetero_flow227 1000000 e72 l52 n/a N 
27360.0000 Hetero_flow228 1000000 r31 r22 n/a N 
27480.0000 Hetero_flow229 1000000 e84 r20 n/a N 
27600.0000 Hetero_flow230 1000000 l56 r12 n/a N 
27720.0000 Hetero_flow231 1000000 r2 l47 n/a N 
27840.0000 Hetero_flow232 1000000 l47 r18 n/a N 
27960.0000 Hetero_flow233 1000000 r22 l43 n/a N 
28080.0000 Hetero_flow234 1000000 r25 l43 n/a N 
28200.0000 Hetero_flow235 1000000 l53 l64 n/a N 
28320.0000 Hetero_flow236 1000000 l65 r23 n/a N 
28440.0000 Hetero_flow237 1000000 l48 e91 n/a N 
28560.0000 Hetero_flow238 1000000 r21 e71 n/a N 
28680.0000 Hetero_flow239 1000000 r7 r31 n/a N 
28800.0000 Hetero_flow240 1000000 l38 r7 n/a N 
28920.0000 Hetero_flow241 1000000 e100 r31 n/a N 
29040.0000 Hetero_flow242 1000000 e99 e87 n/a N 
29160.0000 Hetero_flow243 1000000 l56 e93 n/a N 
29280.0000 Hetero_flow244 1000000 r18 r20 n/a N 
29400.0000 Hetero_flow245 1000000 e99 r16 n/a N 
29520.0000 Hetero_flow246 1000000 r24 l65 n/a N 
29640.0000 Hetero_flow247 1000000 e101 e100 n/a N 
29760.0000 Hetero_flow248 1000000 r31 r15 n/a N 
29880.0000 Hetero_flow249 1000000 l56 e69 n/a N 
30000.0000 Hetero_flow250 1000000 r12 l53 n/a N 
