e90,90,1613999980,24135.999999929267
l52,52,807999992,24798.99999991962
l60,60,803999970,25004.39999991663
25595.899999908022
e90,90,1615999997,24134.099999929294
l52,52,807999997,24798.499999919626
l60,60,802999951,25006.3999999166
25595.99999990802
e90,90,1613999989,24135.09999992928
l52,52,807999991,24799.099999919617
l60,60,803999967,25004.699999916626
25596.09999990802
e90,90,1614999993,24134.599999929287
l52,52,808999999,24798.19999991963
l60,60,803999974,25003.999999916636
25596.199999908018
e90,90,1613999974,24136.599999929258
l52,52,806999963,24801.999999919575
l60,60,805999988,25002.39999991666
25596.299999908017
e90,90,1613999968,24137.19999992925
l52,52,805999959,24802.499999919568
l60,60,802999956,25005.899999916608
25596.399999908015
e90,90,1615999998,24133.999999929296
l52,52,807999990,24799.199999919616
l60,60,802999953,25006.199999916604
25596.499999908014
e90,90,1612999959,24138.199999929235
l52,52,806999968,24801.499999919582
l60,60,804999978,25003.499999916643
25596.599999908012
e90,90,1613999990,24134.99999992928
l52,52,805999952,24803.199999919558
l60,60,804999980,25003.299999916646
25596.69999990801
e90,90,1613999986,24135.399999929276
l52,52,807999986,24799.59999991961
l60,60,804999979,25003.399999916644
25596.79999990801
e90,90,1612999957,24138.399999929232
l52,52,805999954,24802.99999991956
l60,60,802999959,25005.599999916612
25596.899999908008
e90,90,1613999988,24135.19999992928
l52,52,806999965,24801.799999919578
l60,60,802999957,25005.79999991661
25596.999999908006
e90,90,1613999985,24135.499999929274
l52,52,805999957,24802.699999919565
l60,60,802999960,25005.499999916614
25597.099999908005
e90,90,1613999983,24135.69999992927
l52,52,807999976,24800.599999919596
l60,60,804999977,25003.59999991664
25597.199999908004
e90,90,1613999982,24135.79999992927
l52,52,805999956,24802.799999919564
l60,60,805999994,25001.799999916668
25597.299999908002
e90,90,1612999952,24138.899999929225
l52,52,807999996,24798.599999919625
l60,60,805999993,25001.899999916666
25597.399999908
e90,90,1612999951,24138.999999929223
l52,52,806999962,24802.099999919574
l60,60,805999990,25002.199999916662
25597.499999908
e90,90,1613999987,24135.299999929277
l52,52,807999989,24799.299999919614
l60,60,804999982,25003.09999991665
25597.599999907998
e90,90,1612999955,24138.59999992923
l52,52,807999979,24800.2999999196
l60,60,803999968,25004.599999916627
25597.699999907996
e90,90,1613999962,24137.79999992924
l52,52,806999971,24801.199999919587
l60,60,802999955,25005.999999916607
25597.799999907995
e90,90,1615999995,24134.29999992929
l52,52,805999955,24802.899999919562
l60,60,806999997,25001.399999916674
25597.899999907993
e90,90,1613999972,24136.799999929255
l52,52,806999970,24801.299999919585
l60,60,805999996,25001.59999991667
25597.999999907992
e90,90,1613999960,24137.999999929238
l52,52,807999982,24799.999999919604
l60,60,803999965,25004.899999916623
25598.09999990799
e90,90,1613999970,24136.999999929252
l52,52,807999987,24799.49999991961
l60,60,807999999,25001.099999916678
25598.19999990799
e90,90,1612999954,24138.699999929227
l52,52,807999978,24800.3999999196
l60,60,803999969,25004.49999991663
25598.299999907988
e90,90,1613999979,24136.099999929265
l52,52,807999998,24798.399999919628
l60,60,804999981,25003.199999916647
25598.399999907986
e90,90,1613999967,24137.299999929248
l52,52,806999966,24801.69999991958
l60,60,805999995,25001.69999991667
25598.499999907985
e90,90,1613999963,24137.699999929242
l52,52,806999969,24801.399999919584
l60,60,803999972,25004.199999916633
25598.599999907983
e90,90,1613999965,24137.499999929245
l52,52,807999988,24799.399999919613
l60,60,804999987,25002.599999916656
25598.69999990798
e90,90,1613999961,24137.89999992924
l52,52,807999993,24798.89999991962
l60,60,802999952,25006.299999916602
25598.79999990798
e90,90,1615999994,24134.39999992929
l52,52,805999953,24803.09999991956
l60,60,802999961,25005.399999916615
25598.89999990798
e90,90,1613999969,24137.09999992925
l52,52,807999994,24798.79999991962
l60,60,803999966,25004.799999916624
25598.999999907977
e90,90,1613999975,24136.49999992926
l52,52,807999995,24798.699999919623
l60,60,805999991,25002.099999916663
25599.099999907976
e90,90,1615999996,24134.199999929293
l52,52,806999961,24802.199999919572
l60,60,802999964,25005.09999991662
25599.199999907974
e90,90,1612999953,24138.799999929226
l52,52,807999974,24800.799999919593
l60,60,804999984,25002.89999991665
25599.299999907973
e90,90,1613999991,24134.899999929283
l52,52,807999981,24800.099999919603
l60,60,804999986,25002.699999916655
25599.39999990797
e90,90,1613999973,24136.699999929257
l52,52,807999973,24800.89999991959
l60,60,804999976,25003.69999991664
25599.49999990797
e90,90,1613999976,24136.39999992926
l52,52,807999972,24800.99999991959
l60,60,802999962,25005.299999916617
25599.59999990797
e90,90,1613999964,24137.599999929243
l52,52,805999958,24802.599999919566
l60,60,808000000,25000.99999991668
25599.699999907967
e90,90,1613999984,24135.599999929273
l52,52,807999975,24800.699999919594
l60,60,804999985,25002.799999916653
25599.799999907966
e90,90,1612999958,24138.299999929233
l52,52,807999977,24800.499999919597
l60,60,802999954,25006.099999916605
25599.899999907964
e90,90,1613999971,24136.899999929254
l52,52,806999960,24802.29999991957
l60,60,807999998,25001.199999916676
25599.999999907963
e90,90,1613999966,24137.399999929246
l52,52,806999967,24801.59999991958
l60,60,803999971,25004.29999991663
25600.09999990796
e90,90,1612999956,24138.49999992923
l52,52,805999951,24803.299999919556
l60,60,802999963,25005.19999991662
25600.19999990796
e90,90,1613999981,24135.89999992927
l52,52,806999964,24801.899999919577
l60,60,805999992,25001.999999916665
25600.29999990796
e90,90,1613999977,24136.299999929262
l52,52,807999984,24799.799999919607
l60,60,804999983,25002.99999991665
25600.399999907957
e90,90,1615999999,24133.899999929297
l52,52,809000000,24798.099999919632
l60,60,803999975,25003.899999916637
25600.499999907955
e90,90,1613999978,24136.199999929264
l52,52,807999980,24800.1999999196
l60,60,805999989,25002.29999991666
25600.599999907954
e90,90,1616000000,24133.7999999293
l52,52,807999983,24799.899999919606
l60,60,803999973,25004.099999916634
25600.699999907953
e90,90,1614999992,24134.699999929286
l52,52,807999985,24799.69999991961
l60,60,802999958,25005.69999991661
25600.79999990795
