e82,82,1600999974,25637.099999907423
l64,64,799999994,25718.699999906235
26986.399999887788
e82,82,1600999987,25635.79999990744
l64,64,799999982,25719.899999906218
26986.499999887787
e82,82,1600999958,25638.6999999074
l64,64,800999996,25718.39999990624
26986.599999887785
e82,82,1600999983,25636.199999907436
l64,64,800999998,25718.199999906243
26986.699999887784
e82,82,1600999959,25638.5999999074
l64,64,799999958,25722.299999906183
26986.799999887782
e82,82,1600999966,25637.89999990741
l64,64,799999967,25721.399999906196
26986.89999988778
e82,82,1600999984,25636.099999907437
l64,64,799999951,25722.999999906173
26986.99999988778
e82,82,1601000000,25634.49999990746
l64,64,799999965,25721.599999906193
26987.099999887778
e82,82,1600999996,25634.899999907455
l64,64,799999986,25719.499999906224
26987.199999887776
e82,82,1600999964,25638.09999990741
l64,64,799999955,25722.59999990618
26987.299999887775
e82,82,1600999993,25635.19999990745
l64,64,799999956,25722.49999990618
26987.399999887773
e82,82,1600999951,25639.39999990739
l64,64,801000000,25717.999999906246
26987.499999887772
e82,82,1600999998,25634.699999907458
l64,64,799999991,25718.99999990623
26987.59999988777
e82,82,1600999976,25636.899999907426
l64,64,799999978,25720.299999906212
26987.69999988777
e82,82,1600999957,25638.799999907398
l64,64,799999969,25721.1999999062
26987.799999887768
e82,82,1600999961,25638.399999907404
l64,64,799999961,25721.999999906187
26987.899999887766
e82,82,1600999994,25635.099999907452
l64,64,800999995,25718.49999990624
26987.999999887765
e82,82,1600999969,25637.599999907416
l64,64,799999962,25721.89999990619
26988.099999887763
e82,82,1600999992,25635.29999990745
l64,64,799999966,25721.499999906195
26988.19999988776
e82,82,1600999982,25636.299999907435
l64,64,799999970,25721.0999999062
26988.29999988776
e82,82,1600999978,25636.69999990743
l64,64,799999977,25720.39999990621
26988.39999988776
e82,82,1600999972,25637.29999990742
l64,64,799999980,25720.099999906215
26988.499999887757
e82,82,1600999980,25636.49999990743
l64,64,799999981,25719.999999906217
26988.599999887756
e82,82,1600999960,25638.499999907403
l64,64,799999957,25722.39999990618
26988.699999887755
e82,82,1600999953,25639.199999907392
l64,64,799999963,25721.79999990619
26988.799999887753
e82,82,1600999954,25639.099999907394
l64,64,799999983,25719.79999990622
26988.89999988775
e82,82,1600999965,25637.99999990741
l64,64,799999964,25721.69999990619
26988.99999988775
e82,82,1600999999,25634.59999990746
l64,64,799999984,25719.69999990622
26989.09999988775
e82,82,1600999970,25637.499999907417
l64,64,799999960,25722.099999906186
26989.199999887747
e82,82,1600999986,25635.89999990744
l64,64,799999971,25720.999999906202
26989.299999887746
e82,82,1600999967,25637.799999907413
l64,64,799999959,25722.199999906185
26989.399999887744
e82,82,1600999977,25636.799999907427
l64,64,799999992,25718.899999906233
26989.499999887743
e82,82,1600999991,25635.399999907448
l64,64,799999985,25719.599999906222
26989.59999988774
e82,82,1600999981,25636.399999907433
l64,64,799999974,25720.699999906206
26989.69999988774
e82,82,1600999975,25636.999999907424
l64,64,799999954,25722.699999906177
26989.79999988774
e82,82,1600999979,25636.59999990743
l64,64,799999989,25719.19999990623
26989.899999887737
e82,82,1600999968,25637.699999907414
l64,64,799999975,25720.599999906208
26989.999999887736
e82,82,1600999956,25638.899999907397
l64,64,799999973,25720.799999906205
26990.099999887734
e82,82,1600999962,25638.299999907405
l64,64,799999968,25721.299999906198
26990.199999887733
e82,82,1600999985,25635.99999990744
l64,64,799999953,25722.799999906176
26990.29999988773
e82,82,1600999990,25635.499999907446
l64,64,799999990,25719.09999990623
26990.39999988773
e82,82,1600999973,25637.19999990742
l64,64,800999997,25718.29999990624
26990.49999988773
e82,82,1600999989,25635.599999907445
l64,64,799999988,25719.299999906227
26990.599999887727
e82,82,1600999988,25635.699999907443
l64,64,799999979,25720.199999906214
26990.699999887725
e82,82,1600999963,25638.199999907407
l64,64,799999987,25719.399999906225
26990.799999887724
e82,82,1600999955,25638.999999907395
l64,64,800999999,25718.099999906244
26990.899999887723
e82,82,1600999995,25634.999999907453
l64,64,799999972,25720.899999906203
26990.99999988772
e82,82,1600999971,25637.39999990742
l64,64,799999976,25720.49999990621
26991.09999988772
e82,82,1600999997,25634.799999907456
l64,64,799999952,25722.899999906174
26991.199999887718
e82,82,1600999952,25639.29999990739
l64,64,799999993,25718.799999906234
26991.299999887717
