e79,79,1573999971,30474.199999837034
1919.0999999720734
e79,79,1576999983,30472.699999837056
1922.499999972024
e79,79,1574999980,30473.19999983705
1922.8999999720181
e79,79,1573999974,30473.89999983704
1921.1999999720429
e79,79,1578999987,30472.099999837064
1919.9999999720603
e79,79,1579999994,30471.299999837076
1919.8999999720618
e79,79,1577999984,30472.49999983706
1920.6999999720501
e79,79,1569999953,30476.399999837
1924.0999999720007
e79,79,1569999954,30476.299999837003
1924.2999999719977
e79,79,1569999952,30476.499999837
1919.8999999720618
e79,79,1579999991,30471.59999983707
1922.699999972021
e79,79,1579999996,30471.09999983708
1921.2999999720414
e79,79,1569999958,30475.89999983701
1921.9999999720312
e79,79,1570999965,30475.09999983702
1923.599999972008
e79,79,1578999988,30471.999999837066
1921.0999999720443
e79,79,1573999976,30473.69999983704
1923.9999999720021
e79,79,1578999989,30471.899999837067
1921.9999999720312
e79,79,1574999979,30473.299999837047
1924.699999971992
e79,79,1579999995,30471.199999837077
1921.7999999720341
e79,79,1573999975,30473.79999983704
1920.7999999720487
e79,79,1580999997,30470.899999837082
1924.1999999719992
e79,79,1570999966,30474.999999837022
1921.599999972037
e79,79,1573999977,30473.599999837043
1924.7999999719905
e79,79,1569999957,30475.999999837008
1925.4999999719803
e79,79,1573999972,30474.099999837035
1922.699999972021
e79,79,1578999990,30471.79999983707
1922.9999999720167
e79,79,1570999964,30475.19999983702
1924.0999999720007
e79,79,1579999993,30471.399999837075
1924.7999999719905
e79,79,1570999968,30474.799999837025
1923.799999972005
e79,79,1581000000,30470.599999837086
1925.9999998159074
e79,79,1569999955,30476.199999837005
1924.1999999719992
e79,79,1576999981,30472.899999837053
1925.099999971986
e79,79,1574999978,30473.399999837045
1923.0999999720152
e79,79,1577999986,30472.29999983706
1923.8999999720036
e79,79,1580999999,30470.699999837085
1922.5999999720225
e79,79,1569999951,30476.599999837
1926.3999999719672
e79,79,1570999962,30475.399999837016
1924.9999999719876
e79,79,1576999982,30472.799999837054
1925.5999999719788
e79,79,1569999956,30476.099999837006
1923.599999972008
e79,79,1569999959,30475.79999983701
1922.5999999720225
e79,79,1573999970,30474.299999837032
1926.7999999719614
e79,79,1569999961,30475.599999837013
1924.7999999719905
e79,79,1577999985,30472.39999983706
1925.799999971976
e79,79,1572999969,30474.49999983703
1923.0999999720152
e79,79,1570999967,30474.899999837024
1926.19999997197
e79,79,1580999998,30470.799999837083
1925.5999999719788
e79,79,1579999992,30471.499999837073
1927.6999999719483
e79,79,1569999960,30475.699999837012
1927.999999971944
e79,79,1570999963,30475.299999837018
1924.0999999720007
e79,79,1573999973,30473.999999837037
1926.19999997197
