e77,77,1568999961,30553.199999835884
e93,93,1571999971,30823.699999831948
l60,60,767999991,31152.499999827163
e97,97,1568999991,31363.59999982409
2931.5999999573432
e77,77,1568999957,30553.59999983588
e93,93,1569999953,30825.69999983192
l60,60,765999963,31155.49999982712
e97,97,1568999999,31362.799999824103
2932.5999999573287
e77,77,1568999980,30551.299999835912
e93,93,1573999998,30820.79999983199
l60,60,765999970,31154.79999982713
e97,97,1568999985,31364.199999824083
2934.3999999573025
e77,77,1568999990,30550.299999835926
e93,93,1572999981,30822.599999831964
l60,60,767999995,31152.09999982717
e97,97,1566999962,31366.699999824046
2935.8999999572807
e77,77,1568999962,30553.099999835886
e93,93,1573999993,30821.299999831983
l60,60,766999985,31153.199999827153
e97,97,1568999987,31363.999999824086
2932.3999999573316
e77,77,1568999995,30549.799999835934
e93,93,1574000000,30820.599999831993
l60,60,765999978,31153.99999982714
e97,97,1566999969,31365.999999824056
2933.399999957317
e77,77,1568999993,30549.99999983593
e93,93,1572999984,30822.29999983197
l60,60,766999981,31153.599999827147
e97,97,1564999955,31367.599999824033
2935.4999999572865
e77,77,1568999976,30551.699999835906
e93,93,1573999996,30820.999999831987
l60,60,767999993,31152.299999827166
e97,97,1566999975,31365.399999824065
2936.0999999572778
e77,77,1568999952,30554.09999983587
e93,93,1573999995,30821.099999831986
l60,60,767999999,31151.699999827175
e97,97,1568999990,31363.69999982409
2935.2999999572894
e77,77,1568999997,30549.599999835937
e93,93,1569999955,30825.49999983192
l60,60,767999997,31151.899999827172
e97,97,1569000000,31362.699999824104
2934.9999999572938
e77,77,1568999969,30552.399999835896
e93,93,1570999962,30824.699999831933
l60,60,766999982,31153.49999982715
e97,97,1564999956,31367.499999824035
2934.3999999573025
e77,77,1568999982,30551.099999835915
e93,93,1573999991,30821.49999983198
l60,60,767999996,31151.99999982717
e97,97,1563999951,31368.099999824026
2934.1999999573054
e77,77,1568999998,30549.499999835938
e93,93,1572999988,30821.899999831974
l60,60,767999992,31152.399999827165
e97,97,1568999986,31364.099999824084
2934.3999999573025
e77,77,1568999988,30550.499999835924
e93,93,1573999997,30820.89999983199
l60,60,765999971,31154.69999982713
e97,97,1565999958,31367.19999982404
2937.1999999572618
e77,77,1568999985,30550.79999983592
e93,93,1571999967,30824.099999831942
l60,60,765999972,31154.599999827133
e97,97,1568999996,31363.0999998241
2933.7999999573112
e77,77,1568999973,30551.9999998359
e93,93,1571999977,30823.099999831957
l60,60,765999975,31154.299999827137
e97,97,1568999997,31362.9999998241
2937.0999998011976
e77,77,1568999989,30550.399999835925
e93,93,1571999973,30823.49999983195
l60,60,766999983,31153.39999982715
e97,97,1568999983,31364.39999982408
2932.8999999573243
e77,77,1568999983,30550.999999835916
e93,93,1571999978,30822.999999831958
l60,60,765999954,31156.399999827107
e97,97,1564999957,31367.399999824036
2936.899999957266
e77,77,1568999964,30552.89999983589
e93,93,1571999974,30823.399999831952
l60,60,766999988,31152.899999827157
e97,97,1568999982,31364.49999982408
2937.2999999572603
e77,77,1568999965,30552.79999983589
e93,93,1571999975,30823.299999831954
l60,60,765999951,31156.699999827102
e97,97,1566999961,31366.799999824045
2934.1999999573054
e77,77,1568999966,30552.69999983589
e93,93,1568999951,30825.999999831914
l60,60,767999994,31152.199999827168
e97,97,1566999977,31365.199999824068
2936.5999999572705
e77,77,1568999960,30553.299999835883
e93,93,1572999982,30822.499999831965
l60,60,765999979,31153.899999827143
e97,97,1566999965,31366.39999982405
2933.599999957314
e77,77,1568999955,30553.799999835875
e93,93,1571999966,30824.19999983194
l60,60,765999955,31156.299999827108
e97,97,1566999980,31364.899999824072
2937.2999999572603
e77,77,1568999996,30549.699999835935
e93,93,1570999957,30825.199999831926
l60,60,765999967,31155.099999827125
e97,97,1568999984,31364.29999982408
2935.599999957285
e77,77,1568999971,30552.1999998359
e93,93,1571999968,30823.999999831944
l60,60,766999986,31153.099999827155
e97,97,1566999968,31366.099999824055
2938.0999999572487
e77,77,1568999986,30550.69999983592
e93,93,1570999959,30824.99999983193
l60,60,767999989,31152.69999982716
e97,97,1568999989,31363.79999982409
2937.2999999572603
e77,77,1568999991,30550.199999835928
e93,93,1571999976,30823.199999831955
l60,60,765999962,31155.599999827118
e97,97,1565999960,31366.999999824042
2935.399999957288
e77,77,1568999981,30551.199999835913
e93,93,1572999980,30822.699999831962
l60,60,768000000,31151.599999827176
e97,97,1567999981,31364.699999824075
2937.099999957263
e77,77,1568999959,30553.39999983588
e93,93,1572999987,30821.999999831973
l60,60,765999959,31155.899999827114
e97,97,1568999995,31363.199999824097
2935.4999999572865
e77,77,1568999963,30552.999999835887
e93,93,1570999956,30825.299999831925
l60,60,765999953,31156.499999827105
e97,97,1563999953,31367.89999982403
2935.0999999572923
e77,77,1568999956,30553.699999835877
e93,93,1573999992,30821.39999983198
l60,60,765999964,31155.39999982712
e97,97,1568999994,31363.299999824096
2937.99999995725
e77,77,1568999974,30551.899999835903
e93,93,1570999960,30824.89999983193
l60,60,765999957,31156.09999982711
e97,97,1566999967,31366.199999824054
2934.7999999572967
e77,77,1568999987,30550.599999835922
e93,93,1569999954,30825.59999983192
l60,60,766999987,31152.999999827156
e97,97,1566999963,31366.599999824048
2935.0999999572923
e77,77,1568999984,30550.899999835918
e93,93,1571999964,30824.399999831938
l60,60,765999965,31155.299999827123
e97,97,1566999971,31365.79999982406
2936.299999957275
e77,77,1568999999,30549.39999983594
e93,93,1570999958,30825.099999831928
l60,60,765999960,31155.799999827115
e97,97,1566999970,31365.899999824058
2937.399999957259
e77,77,1568999992,30550.09999983593
e93,93,1572999983,30822.399999831967
l60,60,765999977,31154.09999982714
e97,97,1566999976,31365.299999824067
2937.399999957259
e77,77,1568999958,30553.49999983588
e93,93,1573999994,30821.199999831984
l60,60,765999974,31154.399999827136
e97,97,1566999973,31365.599999824062
2938.2999999572457
e77,77,1568999972,30552.0999998359
e93,93,1570999961,30824.799999831932
l60,60,765999973,31154.499999827134
e97,97,1566999974,31365.499999824064
2937.1999999572618
e77,77,1568999970,30552.299999835897
e93,93,1573999990,30821.59999983198
l60,60,765999969,31154.89999982713
e97,97,1568999992,31363.499999824093
2939.799999957224
e77,77,1568999978,30551.49999983591
e93,93,1572999989,30821.799999831976
l60,60,765999976,31154.19999982714
e97,97,1566999978,31365.09999982407
2937.4999999572574
e77,77,1568999967,30552.599999835893
e93,93,1573999999,30820.69999983199
l60,60,765999966,31155.199999827124
e97,97,1568999993,31363.399999824094
2938.2999999572457
e77,77,1569000000,30549.29999983594
e93,93,1572999985,30822.19999983197
l60,60,767999990,31152.59999982716
e97,97,1568999998,31362.8999998241
2936.1999999572763
e77,77,1568999968,30552.499999835894
e93,93,1570999963,30824.599999831935
l60,60,765999956,31156.19999982711
e97,97,1563999952,31367.999999824027
2935.399999957288
e77,77,1568999977,30551.599999835908
e93,93,1571999972,30823.59999983195
l60,60,765999952,31156.599999827104
e97,97,1566999964,31366.49999982405
2936.0999999572778
e77,77,1568999954,30553.899999835874
e93,93,1571999979,30822.89999983196
l60,60,765999961,31155.699999827117
e97,97,1564999954,31367.69999982403
2939.6999999572254
e77,77,1568999994,30549.899999835932
e93,93,1571999969,30823.899999831945
l60,60,767999998,31151.799999827173
e97,97,1566999966,31366.299999824052
2938.2999999572457
e77,77,1568999979,30551.39999983591
e93,93,1572999986,30822.09999983197
l60,60,765999980,31153.799999827144
e97,97,1568999988,31363.899999824087
2935.999999957279
e77,77,1568999951,30554.19999983587
e93,93,1568999952,30825.899999831916
l60,60,765999968,31154.999999827127
e97,97,1566999972,31365.69999982406
2937.2999999572603
e77,77,1568999953,30553.999999835873
e93,93,1571999970,30823.799999831946
l60,60,766999984,31153.29999982715
e97,97,1565999959,31367.09999982404
2938.499999957243
e77,77,1568999975,30551.799999835905
e93,93,1571999965,30824.29999983194
l60,60,765999958,31155.999999827112
e97,97,1566999979,31364.99999982407
2940.699999957211
