e82,82,1565999989,30871.299999831255
e100,100,1564999996,31117.79999982767
e80,80,1562999988,31200.599999826463
l46,46,752999955,31326.899999824625
l47,47,756999964,32674.09999980502
2843.3999999586267
e82,82,1565999981,30872.099999831244
e100,100,1562999977,31119.899999827638
e80,80,1558999957,31204.099999826412
l46,46,752999952,31327.19999982462
l47,47,759999983,32671.899999805053
2843.3999999586267
e82,82,1565999992,30870.99999983126
e100,100,1564999993,31118.099999827664
e80,80,1560999970,31202.599999826434
l46,46,758999988,31322.999999824682
l47,47,756999962,32674.299999805018
2847.7999999585627
e82,82,1565999970,30873.199999831228
e100,100,1564999997,31117.69999982767
e80,80,1563999996,31199.699999826476
l46,46,758999995,31322.299999824692
l47,47,759999974,32672.79999980504
2844.4999999586107
e82,82,1565999979,30872.29999983124
e100,100,1562999979,31119.69999982764
e80,80,1560999977,31201.899999826444
l46,46,755999978,31324.299999824663
l47,47,761999993,32670.69999980507
2847.29999995857
e82,82,1565999986,30871.59999983125
e100,100,1562999966,31120.99999982762
e80,80,1564000000,31199.299999826482
l46,46,754999962,31325.99999982464
l47,47,762999994,32670.499999805073
2843.4999999586253
e82,82,1565999983,30871.899999831247
e100,100,1562999974,31120.199999827633
e80,80,1563999993,31199.999999826472
l46,46,756999983,31323.699999824672
l47,47,752999952,32675.699999804998
2843.799999958621
e82,82,1565999966,30873.59999983122
e100,100,1562999973,31120.299999827632
e80,80,1560999982,31201.39999982645
l46,46,754999972,31324.999999824653
l47,47,754999955,32675.199999805005
2846.199999958586
e82,82,1565999971,30873.09999983123
e100,100,1562999954,31122.199999827604
e80,80,1562999992,31200.19999982647
l46,46,754999966,31325.599999824644
l47,47,757999968,32673.59999980503
2845.499999958596
e82,82,1564999959,30874.39999983121
e100,100,1562999967,31120.899999827623
e80,80,1560999963,31203.299999826424
l46,46,752999953,31327.099999824623
l47,47,761999992,32670.79999980507
2845.799999958592
e82,82,1565999999,30870.29999983127
e100,100,1562999963,31121.299999827617
e80,80,1560999968,31202.79999982643
l46,46,755999979,31324.199999824665
l47,47,756999961,32674.399999805017
2845.3999999585976
e82,82,1566000000,30870.19999983127
e100,100,1562999953,31122.299999827603
e80,80,1560999979,31201.699999826447
l46,46,754999976,31324.59999982466
l47,47,761999991,32670.899999805068
2848.4999999585525
e82,82,1563999958,30874.599999831207
e100,100,1562999971,31120.49999982763
e80,80,1560999973,31202.29999982644
l46,46,758999994,31322.39999982469
l47,47,757999972,32673.199999805034
2845.299999958599
e82,82,1565999991,30871.099999831258
e100,100,1564999991,31118.29999982766
e80,80,1560999974,31202.19999982644
l46,46,752999960,31326.399999824633
l47,47,759999980,32672.19999980505
2847.7999999585627
e82,82,1565999980,30872.199999831242
e100,100,1563999988,31118.699999827655
e80,80,1558999958,31203.999999826414
l46,46,752999956,31326.799999824627
l47,47,760999989,32671.199999805063
2847.5999999585656
e82,82,1565999974,30872.799999831233
e100,100,1562999958,31121.79999982761
e80,80,1557999956,31204.29999982641
l46,46,754999975,31324.699999824657
l47,47,759999981,32672.09999980505
2848.199999958557
e82,82,1565999964,30873.79999983122
e100,100,1562999964,31121.19999982762
e80,80,1563999995,31199.799999826475
l46,46,761000000,31321.599999824703
l47,47,757999966,32673.799999805025
2848.6999999585496
e82,82,1565999976,30872.599999831236
e100,100,1563999987,31118.799999827654
e80,80,1562999991,31200.299999826468
l46,46,755999980,31324.099999824666
l47,47,760999987,32671.39999980506
2848.2999999585554
e82,82,1565999965,30873.69999983122
e100,100,1564999992,31118.199999827662
e80,80,1560999980,31201.59999982645
l46,46,754999973,31324.899999824655
l47,47,762999998,32670.09999980508
2847.699999958564
e82,82,1565999996,30870.599999831265
e100,100,1562999982,31119.399999827645
e80,80,1559999962,31203.49999982642
l46,46,760999997,31321.899999824698
l47,47,752999951,32675.799999804996
2847.8999999585612
e82,82,1565999990,30871.199999831257
e100,100,1562999961,31121.499999827614
e80,80,1560999975,31202.09999982644
l46,46,754999967,31325.499999824646
l47,47,756999958,32674.699999805012
2849.499999958538
e82,82,1563999955,30874.899999831203
e100,100,1562999955,31122.099999827606
e80,80,1560999971,31202.499999826436
l46,46,754999974,31324.799999824656
l47,47,760999984,32671.699999805056
2849.299999958541
e82,82,1563999952,30875.1999998312
e100,100,1562999956,31121.999999827607
e80,80,1559999960,31203.69999982642
l46,46,754999963,31325.89999982464
l47,47,763999999,32669.899999805082
2849.899999958532
e82,82,1565999995,30870.699999831264
e100,100,1562999962,31121.399999827616
e80,80,1563999998,31199.49999982648
l46,46,758999986,31323.19999982468
l47,47,762999997,32670.199999805078
2849.099999958544
e82,82,1564999962,30874.099999831215
e100,100,1562999983,31119.299999827646
e80,80,1562999990,31200.399999826466
l46,46,758999987,31323.09999982468
l47,47,756999959,32674.599999805014
2845.8999999585903
e82,82,1565999994,30870.799999831263
e100,100,1563999985,31118.99999982765
e80,80,1560999976,31201.999999826443
l46,46,759999996,31322.099999824695
l47,47,759999979,32672.299999805047
2847.29999995857
e82,82,1563999956,30874.799999831204
e100,100,1562999952,31122.3999998276
e80,80,1556999953,31204.699999826404
l46,46,756999984,31323.599999824673
l47,47,757999971,32673.299999805033
2848.9999999585452
e82,82,1564999961,30874.199999831213
e100,100,1562999965,31121.09999982762
e80,80,1560999972,31202.399999826437
l46,46,754999977,31324.49999982466
l47,47,757999969,32673.49999980503
2850.4999999585234
e82,82,1565999998,30870.39999983127
e100,100,1564999998,31117.59999982767
e80,80,1562999989,31200.499999826465
l46,46,754999964,31325.79999982464
l47,47,759999978,32672.399999805046
2845.8999999585903
e82,82,1563999951,30875.299999831197
e100,100,1564999990,31118.39999982766
e80,80,1556999954,31204.599999826405
l46,46,754999968,31325.399999824647
l47,47,759999977,32672.499999805044
2846.59999995858
e82,82,1565999993,30870.89999983126
e100,100,1562999980,31119.599999827642
e80,80,1560999966,31202.99999982643
l46,46,758999992,31322.599999824688
l47,47,756999965,32673.999999805023
2847.499999958567
e82,82,1564999960,30874.29999983121
e100,100,1562999951,31122.4999998276
e80,80,1560999965,31203.099999826427
l46,46,752999951,31327.29999982462
l47,47,762999996,32670.299999805076
2847.099999958573
e82,82,1563999953,30875.0999998312
e100,100,1564999989,31118.499999827658
e80,80,1556999952,31204.799999826402
l46,46,752999954,31326.999999824624
l47,47,759999975,32672.69999980504
2848.9999999585452
e82,82,1565999978,30872.39999983124
e100,100,1562999959,31121.69999982761
e80,80,1562999987,31200.699999826462
l46,46,752999959,31326.49999982463
l47,47,754999956,32675.099999805007
2849.5999999585365
e82,82,1565999977,30872.499999831238
e100,100,1562999957,31121.89999982761
e80,80,1556999955,31204.499999826407
l46,46,754999970,31325.19999982465
l47,47,759999976,32672.599999805043
2850.399999958525
e82,82,1563999957,30874.699999831206
e100,100,1564999994,31117.999999827665
e80,80,1556999951,31204.8999998264
l46,46,755999981,31323.999999824668
l47,47,760999988,32671.29999980506
2849.1999999585423
e82,82,1565999973,30872.899999831232
e100,100,1562999976,31119.999999827636
e80,80,1560999964,31203.199999826425
l46,46,760999998,31321.7999998247
l47,47,760999990,32671.099999805065
2850.8999999585176
e82,82,1565999984,30871.799999831248
e100,100,1565000000,31117.399999827674
e80,80,1559999961,31203.59999982642
l46,46,755999982,31323.89999982467
l47,47,759999982,32671.99999980505
2848.9999999585452
e82,82,1565999975,30872.699999831235
e100,100,1564999999,31117.499999827673
e80,80,1563999994,31199.899999826474
l46,46,752999958,31326.59999982463
l47,47,753999954,32675.399999805002
2851.1999998024476
e82,82,1565999982,30871.999999831245
e100,100,1563999986,31118.899999827652
e80,80,1563999997,31199.599999826478
l46,46,754999971,31325.09999982465
l47,47,752999953,32675.599999805
2849.499999958538
e82,82,1565999967,30873.499999831223
e100,100,1562999960,31121.599999827613
e80,80,1560999978,31201.799999826446
l46,46,758999989,31322.899999824684
l47,47,756999963,32674.19999980502
2849.3999999585394
e82,82,1565999985,30871.69999983125
e100,100,1562999975,31120.099999827635
e80,80,1560999969,31202.699999826433
l46,46,754999969,31325.29999982465
l47,47,757999967,32673.699999805027
2848.6999999585496
e82,82,1565999968,30873.399999831225
e100,100,1562999978,31119.79999982764
e80,80,1562999986,31200.79999982646
l46,46,758999993,31322.49999982469
l47,47,760999986,32671.49999980506
2847.7999999585627
e82,82,1565999969,30873.299999831226
e100,100,1562999984,31119.199999827648
e80,80,1560999967,31202.89999982643
l46,46,758999990,31322.799999824685
l47,47,765000000,32669.699999805085
2850.399999958525
e82,82,1565999972,30872.99999983123
e100,100,1562999970,31120.599999827627
e80,80,1562999985,31200.89999982646
l46,46,760999999,31321.6999998247
l47,47,756999960,32674.499999805015
2848.2999999585554
e82,82,1563999954,30874.9999998312
e100,100,1562999969,31120.699999827626
e80,80,1561999983,31201.199999826455
l46,46,756999985,31323.499999824675
l47,47,762999995,32670.399999805075
2849.699999958535
e82,82,1564999963,30873.999999831216
e100,100,1562999972,31120.39999982763
e80,80,1559999959,31203.799999826417
l46,46,752999961,31326.299999824634
l47,47,757999970,32673.39999980503
2848.399999958554
e82,82,1565999997,30870.499999831267
e100,100,1562999981,31119.499999827643
e80,80,1561999984,31201.099999826456
l46,46,752999957,31326.69999982463
l47,47,760999985,32671.599999805057
2849.7999999585336
e82,82,1565999988,30871.399999831254
e100,100,1562999968,31120.799999827625
e80,80,1563999999,31199.39999982648
l46,46,754999965,31325.699999824643
l47,47,758999973,32672.999999805037
2849.099999958544
e82,82,1565999987,30871.499999831252
e100,100,1564999995,31117.899999827667
e80,80,1560999981,31201.49999982645
l46,46,758999991,31322.699999824687
l47,47,755999957,32674.89999980501
2849.899999958532
