e85,85,1575999962,30402.099999838083
e69,69,1556999965,32171.599999812333
e89,89,1557999992,33237.39999979683
r17,17,999964,33903.69999978713
3972.799999942192
e85,85,1575999966,30401.69999983809
e69,69,1556999955,32172.59999981232
e93,93,1563999980,32307.99999981035
r17,17,999963,33718.39999978983
3976.7999999421336
e85,85,1575999978,30400.499999838106
e69,69,1556999959,32172.199999812325
e93,93,1563999988,32307.19999981036
r17,17,999964,33712.59999978991
3973.899999942176
e85,85,1575999981,30400.19999983811
e69,69,1556999971,32170.999999812342
e93,93,1563999974,32308.59999981034
r17,17,999957,33716.09999978986
3975.6999999421496
e85,85,1575999972,30401.099999838098
e69,69,1557999982,32169.79999981236
e93,93,1562999962,32309.89999981032
r17,17,999963,33717.09999978985
3976.0999999421438
e85,85,1575999996,30398.699999838132
e69,69,1556999964,32171.699999812332
e89,89,1551999953,33241.79999979676
r17,17,999965,33900.59999978718
3977.399999942125
e85,85,1575999976,30400.699999838103
e69,69,1556999961,32171.999999812328
e89,89,1556999983,33238.39999979681
r17,17,999963,33903.79999978713
3974.99999994216
e85,85,1575999953,30402.99999983807
e69,69,1557999988,32169.19999981237
e93,93,1563999997,32306.299999810373
r17,17,999959,33716.89999978985
3977.799999942119
e85,85,1575999961,30402.19999983808
e69,69,1557999990,32168.99999981237
e89,89,1554999961,33240.69999979678
r17,17,999966,33897.299999787225
3973.199999942186
e85,85,1575999987,30399.59999983812
e69,69,1556999975,32170.599999812348
e89,89,1552999956,33241.39999979677
r17,17,999965,33899.999999787186
3975.6999999421496
e85,85,1575999975,30400.799999838102
e69,69,1556999978,32170.299999812352
e93,93,1562999967,32309.399999810328
r17,17,999962,33713.4999997899
3975.599999942151
e85,85,1575999994,30398.89999983813
e69,69,1556999980,32170.099999812355
e89,89,1554999972,33239.699999796794
r17,17,999964,33900.799999787174
3976.899999942132
e85,85,1575999995,30398.79999983813
e69,69,1556999954,32172.699999812317
e93,93,1564000000,32305.999999810378
r17,17,999966,33711.49999978993
3976.0999999421438
e85,85,1575999965,30401.799999838087
e69,69,1556999963,32171.79999981233
e89,89,1554999974,33239.4999997968
r17,17,999965,33898.599999787206
3975.599999942151
e85,85,1575999951,30403.199999838067
e69,69,1557999989,32169.09999981237
e89,89,1554999966,33240.19999979679
r17,17,999961,33904.099999787126
3976.499999942138
e85,85,1575999980,30400.29999983811
e69,69,1556999962,32171.89999981233
e93,93,1563999984,32307.599999810354
r17,17,999962,33717.59999978984
3978.699999942106
e85,85,1575999958,30402.499999838077
e69,69,1557999992,32168.799999812374
e93,93,1563999975,32308.49999981034
r17,17,999966,33720.1999997898
3975.0999999421583
e85,85,1575999969,30401.399999838093
e69,69,1556999952,32172.899999812314
e89,89,1552999957,33241.29999979677
r17,17,999963,33902.699999787146
3975.6999999421496
e85,85,1575999977,30400.599999838105
e69,69,1557999998,32168.199999812383
e89,89,1551999952,33241.89999979676
r17,17,999962,33903.89999978713
3975.399999942154
e85,85,1575999988,30399.49999983812
e69,69,1557999997,32168.29999981238
e93,93,1563999981,32307.89999981035
r17,17,999965,33711.99999978992
3974.499999942167
e85,85,1575999974,30400.8999998381
e69,69,1556999976,32170.49999981235
e93,93,1563999985,32307.499999810356
r17,17,999970,33709.49999978996
3975.199999942157
e85,85,1575999992,30399.099999838127
e69,69,1557999999,32168.099999812384
e93,93,1563999999,32306.099999810376
r17,17,999963,33713.3999997899
3976.1999999421423
e85,85,1576000000,30398.29999983814
e69,69,1556999979,32170.199999812354
e89,89,1554999969,33239.99999979679
r17,17,999965,33903.499999787135
3975.0999999421583
e85,85,1575999985,30399.799999838116
e69,69,1556999977,32170.39999981235
e93,93,1563999989,32307.09999981036
r17,17,999964,33719.59999978981
3977.599999942122
e85,85,1575999991,30399.199999838125
e69,69,1556999973,32170.799999812345
e89,89,1554999979,33238.999999796804
r17,17,999964,33902.19999978715
3978.3999999421103
e85,85,1575999967,30401.59999983809
e69,69,1557999985,32169.499999812364
e93,93,1559999951,32311.2999998103
r17,17,999968,33710.49999978994
3978.7999999421045
e85,85,1575999973,30400.9999998381
e69,69,1556999970,32171.09999981234
e93,93,1563999970,32308.999999810334
r17,17,999958,33714.59999978988
3977.2999999421263
e85,85,1575999993,30398.999999838128
e69,69,1557999987,32169.299999812367
e93,93,1563999969,32309.099999810333
r17,17,999959,33714.499999789885
3978.899999942103
e85,85,1575999954,30402.89999983807
r2,2,999981,31469.899999822544
l66,66,754999957,32933.49999980125
l47,47,768999999,33291.99999979603
r17,17,999971,33362.599999795006
3975.2999999421554
e85,85,1575999970,30401.299999838095
e69,69,1557999993,32168.699999812376
e89,89,1555999982,33238.59999979681
r17,17,999964,33898.09999978721
3975.999999942145
e85,85,1575999971,30401.199999838096
r2,2,999997,31466.899999822588
l66,66,754999985,32930.69999980129
l47,47,758999974,33295.49999979598
r17,17,999972,33361.69999979502
3979.79999994209
e85,85,1575999956,30402.699999838074
e69,69,1556999974,32170.699999812347
e93,93,1563999977,32308.299999810344
r17,17,999964,33718.99999978982
3980.0999999420856
e85,85,1575999983,30399.999999838114
e69,69,1556999953,32172.799999812316
e89,89,1554999977,33239.1999997968
r17,17,999966,33896.19999978724
3976.9999999421307
e85,85,1575999990,30399.299999838124
e69,69,1556999969,32171.19999981234
e93,93,1563999992,32306.799999810366
r17,17,999967,33710.79999978994
3976.5999999421365
e85,85,1575999982,30400.099999838112
e69,69,1557999994,32168.599999812377
e93,93,1562999965,32309.599999810325
r17,17,999969,33709.699999789955
3980.1999997860185
e85,85,1575999952,30403.09999983807
e69,69,1557999996,32168.39999981238
e93,93,1563999993,32306.699999810367
r17,17,999961,33713.99999978989
3976.1999999421423
e85,85,1575999959,30402.39999983808
e69,69,1556999951,32172.999999812313
e93,93,1563999982,32307.79999981035
r17,17,999964,33719.39999978981
3979.4999999420943
e85,85,1575999986,30399.699999838118
e69,69,1556999956,32172.49999981232
e89,89,1554999976,33239.2999997968
r17,17,999965,33897.69999978722
3977.599999942122
e85,85,1575999968,30401.49999983809
e69,69,1557999984,32169.599999812363
e93,93,1560999957,32310.59999981031
r17,17,999960,33714.19999978989
3980.2999999420826
e85,85,1575999963,30401.999999838084
l38,38,762999965,31904.199999816225
l35,35,760999982,31984.29999981506
l67,67,761999994,32703.899999804587
4154.299999939551
e85,85,1575999979,30400.399999838108
l38,38,762999996,31901.09999981627
l35,35,760999973,31985.199999815046
l67,67,761999996,32703.69999980459
4152.499999939577
e85,85,1575999984,30399.899999838115
l38,38,762999985,31902.199999816254
l35,35,760999977,31984.79999981505
l67,67,760999984,32704.99999980457
4153.599999939561
e85,85,1575999999,30398.399999838137
l38,38,762999970,31903.699999816232
l35,35,758999958,31986.89999981502
l67,67,759999974,32706.099999804555
4152.9999999395695
e85,85,1575999960,30402.29999983808
l38,38,762999997,31900.99999981627
l35,35,760999986,31983.899999815065
l67,67,761999995,32703.79999980459
4151.59999993959
e85,85,1575999964,30401.899999838086
l38,38,762999972,31903.499999816235
l35,35,759999960,31986.599999815026
l67,67,754999953,32708.699999804518
4153.699999939559
e85,85,1575999997,30398.599999838134
l38,38,762999994,31901.299999816267
l35,35,760999978,31984.699999815053
l67,67,761999989,32704.39999980458
4154.399999939549
e85,85,1575999989,30399.399999838122
l38,38,762999956,31905.09999981621
l35,35,759999964,31986.19999981503
l67,67,761999992,32704.099999804585
4154.399999939549
e85,85,1575999957,30402.599999838076
l38,38,762999966,31904.099999816226
l35,35,760999985,31983.999999815063
l67,67,756999960,32707.79999980453
4152.399999939578
e85,85,1575999998,30398.499999838135
l38,38,762999977,31902.999999816242
l35,35,760999980,31984.499999815056
l67,67,758999966,32706.999999804542
4155.69999993953
e85,85,1575999955,30402.799999838073
l38,38,762999987,31901.999999816257
l35,35,760999981,31984.399999815058
l67,67,760999987,32704.699999804576
4155.599999939532
