r17,17,999970,30353.899999838784
e90,90,1576999988,30559.79999983579
e79,79,1563999990,31296.39999982507
l38,38,758999972,31792.099999817856
2131.599999968981
r17,17,999987,30350.09999983884
e90,90,1575999972,30561.499999835763
e79,79,1563999977,31297.69999982505
l38,38,759999998,31789.399999817895
2136.2999999689127
r17,17,999989,30349.599999838847
e90,90,1576999996,30558.9999998358
e79,79,1563999976,31297.79999982505
l38,38,759999985,31790.699999817876
2136.199999968914
r17,17,999975,30352.499999838805
e90,90,1576999993,30559.299999835795
e79,79,1563999986,31296.799999825063
l38,38,758999984,31790.899999817873
2133.799999968949
r17,17,999999,30348.399999838864
e90,90,1576999989,30559.69999983579
e79,79,1563999987,31296.699999825065
l38,38,758999971,31792.199999817854
2133.2999999689564
r17,17,999993,30348.999999838856
e90,90,1575999979,30560.799999835774
e79,79,1563999972,31298.199999825043
l38,38,758999975,31791.79999981786
2134.499999968939
r17,17,999969,30354.09999983878
e90,90,1575999985,30560.199999835782
e79,79,1563999980,31297.399999825055
l38,38,758999982,31791.09999981787
2134.9999999689317
r17,17,999981,30351.799999838815
e90,90,1575999983,30560.39999983578
e79,79,1563999975,31297.899999825047
l38,38,758999978,31791.499999817865
2134.0999999689448
r17,17,999982,30351.599999838818
e90,90,1576999995,30559.0999998358
e79,79,1563999974,31297.999999825046
l38,38,758999980,31791.299999817868
2132.899999968962
r17,17,999988,30349.799999838844
e90,90,1575999980,30560.699999835775
e79,79,1563999994,31295.999999825075
l38,38,758999981,31791.19999981787
2133.199999968958
r17,17,999994,30348.899999838857
e90,90,1576999997,30558.8999998358
e79,79,1563999978,31297.59999982505
l38,38,759999999,31789.299999817897
2134.0999999689448
r17,17,999971,30353.699999838787
e90,90,1575999973,30561.399999835765
e79,79,1563999989,31296.499999825068
l38,38,759999988,31790.39999981788
2134.3999999689404
r17,17,999991,30349.29999983885
e90,90,1575999984,30560.29999983578
e79,79,1563999997,31295.69999982508
l38,38,758999976,31791.69999981786
2136.49999996891
r17,17,999979,30352.09999983881
e90,90,1576999987,30559.899999835787
e79,79,1563999971,31298.29999982504
l38,38,759999990,31790.199999817884
2133.2999999689564
r17,17,999983,30351.299999838822
e90,90,1575999981,30560.599999835777
e79,79,1563999983,31297.09999982506
l38,38,759999989,31790.299999817882
2133.0999999689593
r17,17,999984,30350.899999838828
e90,90,1574999969,30561.899999835758
e79,79,1564000000,31295.399999825084
l38,38,759999992,31789.999999817886
2135.2999999689273
r17,17,999990,30349.49999983885
e90,90,1576999994,30559.199999835797
e79,79,1563999985,31296.899999825062
l38,38,759999986,31790.599999817878
2137.099999968901
r17,17,999976,30352.399999838806
e90,90,1575999977,30560.99999983577
e79,79,1563999998,31295.59999982508
l38,38,758999973,31791.999999817857
2136.199999968914
r17,17,999977,30352.299999838808
e90,90,1575999975,30561.199999835768
e79,79,1563999995,31295.899999825077
l38,38,759999994,31789.79999981789
2135.8999999689186
r17,17,999986,30350.19999983884
e90,90,1576999991,30559.499999835793
e79,79,1563999969,31298.49999982504
l38,38,758999970,31792.299999817853
2137.799999968891
r17,17,999972,30353.59999983879
e90,90,1575999976,30561.09999983577
e79,79,1563999982,31297.199999825058
l38,38,759999995,31789.69999981789
2134.499999968939
r17,17,1000000,30348.199999838867
e90,90,1576999992,30559.399999835794
e79,79,1563999988,31296.599999825066
l38,38,759999997,31789.499999817894
2134.699999968936
r17,17,999985,30350.399999838835
e90,90,1576999986,30559.999999835785
e79,79,1563999991,31296.29999982507
l38,38,759999991,31790.099999817885
2137.299999968898
r17,17,999992,30349.099999838854
e90,90,1574999970,30561.79999983576
e79,79,1563999993,31296.099999825074
l38,38,758999983,31790.999999817872
2136.899999968904
r17,17,999998,30348.499999838863
e90,90,1577999999,30558.599999835806
e79,79,1563999984,31296.99999982506
l38,38,759999996,31789.599999817892
2137.099999968901
r17,17,999997,30348.59999983886
e90,90,1575999982,30560.499999835778
e79,79,1563999999,31295.499999825082
l38,38,757999969,31792.49999981785
2137.4999999688953
r17,17,999980,30351.899999838814
e90,90,1576999998,30558.799999835803
e79,79,1563999973,31298.099999825045
l38,38,760000000,31789.199999817898
2138.699999968878
r17,17,999974,30352.8999998388
e90,90,1575999974,30561.299999835766
e79,79,1563999981,31297.299999825056
l38,38,758999979,31791.399999817866
2134.1999999689433
r17,17,999973,30353.49999983879
e90,90,1575999978,30560.899999835772
e79,79,1563999970,31298.39999982504
l38,38,759999993,31789.899999817888
2135.1999999689288
r17,17,999996,30348.69999983886
e90,90,1574999971,30561.69999983576
e79,79,1563999979,31297.499999825053
l38,38,758999974,31791.89999981786
2134.699999968936
r17,17,999978,30352.19999983881
e90,90,1576999990,30559.59999983579
e79,79,1563999992,31296.199999825072
l38,38,758999977,31791.599999817863
2137.299999968898
r17,17,999995,30348.79999983886
e90,90,1578000000,30558.499999835807
e79,79,1563999996,31295.799999825078
l38,38,759999987,31790.49999981788
2139.3999999688676
e76,76,1565999965,31170.799999826897
2774.4999999596293
e76,76,1565999993,31167.999999826938
2776.3999999596017
e76,76,1565999961,31171.19999982689
2778.499999959571
e76,76,1565999992,31168.099999826936
2777.699999959583
e76,76,1565999991,31168.199999826935
2777.89999995958
e76,76,1565999988,31168.49999982693
2775.899999959609
e76,76,1565999954,31171.89999982688
2775.3999999596163
e76,76,1565999963,31170.999999826894
2775.9999999596075
e76,76,1565999967,31170.5999998269
2776.999999959593
e76,76,1565999982,31169.09999982692
2779.3999998034924
e76,76,1565999971,31170.199999826906
2778.999999959564
e76,76,1565999995,31167.79999982694
2776.8999999595944
e76,76,1565999985,31168.799999826926
2779.599999959555
e76,76,1565999975,31169.79999982691
2779.0999999595624
e76,76,1565999997,31167.599999826944
2778.1999999595755
e76,76,1565999972,31170.099999826907
2777.0999999595915
e76,76,1565999956,31171.699999826884
2779.799999959552
e76,76,1565999969,31170.399999826903
2778.1999999595755
