e96,96,1562999964,31763.899999818266
l38,38,760999994,32205.59999981184
e76,76,1560000000,32517.5999998073
l49,49,749999963,32692.599999804752
l65,65,751999999,32750.799999803905
4095.6999999404034
e96,96,1562999974,31762.89999981828
l38,38,760999996,32205.39999981184
e76,76,1557999973,32520.499999807256
l49,49,749999967,32692.199999804758
l65,65,749999970,32753.89999980386
4094.5999999404194
e96,96,1562999976,31762.699999818284
l38,38,760999993,32205.699999811837
e76,76,1559999985,32519.099999807277
l49,49,749999982,32690.69999980478
l65,65,749999966,32754.299999803854
4095.1999999404106
e96,96,1562999988,31761.4999998183
l38,38,755999958,32209.69999981178
e76,76,1555999962,32521.799999807237
l49,49,749999976,32691.29999980477
l65,65,749999962,32754.69999980385
4093.599999940434
e96,96,1562999991,31761.199999818306
l38,38,755999963,32209.199999811786
e76,76,1555999964,32521.59999980724
l49,49,749999988,32690.09999980479
l65,65,749999963,32754.59999980385
4093.8999999404296
e96,96,1562999993,31760.99999981831
l38,38,759999972,32207.899999811805
e76,76,1559999987,32518.89999980728
l49,49,750999996,32689.1999998048
l65,65,749999958,32755.099999803842
4095.3999999404077
e96,96,1562999996,31760.699999818313
l38,38,759999979,32207.199999811815
e76,76,1555999959,32522.099999807233
l49,49,749999985,32690.399999804784
l65,65,749999968,32754.099999803857
4092.699999940447
e96,96,1562999987,31761.5999998183
l38,38,760999995,32205.49999981184
e76,76,1559999999,32517.699999807297
l49,49,749999992,32689.699999804794
l65,65,751999987,32751.999999803887
4091.6999999404616
e96,96,1562999959,31764.39999981826
l38,38,759999970,32208.099999811802
e76,76,1559999995,32518.09999980729
l49,49,750999997,32689.099999804803
l65,65,749999965,32754.399999803853
4094.699999940418
e96,96,1562999975,31762.799999818282
l38,38,759999969,32208.1999998118
e76,76,1558999977,32519.999999807264
l49,49,749999959,32692.999999804746
l65,65,751999989,32751.79999980389
4094.899999940415
e96,96,1562999961,31764.199999818262
l38,38,759999978,32207.299999811814
e76,76,1555999963,32521.69999980724
l49,49,750999998,32688.999999804804
l65,65,751999984,32752.299999803883
4096.499999940392
e96,96,1562999960,31764.29999981826
l38,38,759999980,32207.099999811817
e76,76,1555999969,32521.099999807248
l49,49,749999978,32691.099999804774
l65,65,749999960,32754.899999803845
4093.799999940431
e96,96,1562999962,31764.099999818263
l38,38,760999997,32205.299999811843
e76,76,1559999997,32517.899999807294
l49,49,749999962,32692.69999980475
l65,65,750999977,32753.09999980387
4093.399999940437
e96,96,1562999997,31760.599999818314
l38,38,759999977,32207.399999811812
e76,76,1555999967,32521.299999807245
l49,49,749999969,32691.99999980476
l65,65,749999959,32754.999999803844
4094.899999940415
e96,96,1562999984,31761.899999818295
l38,38,759999990,32206.09999981183
e76,76,1559999986,32518.999999807278
l49,49,749999971,32691.799999804764
l65,65,750999971,32753.699999803863
4094.2999999404237
e96,96,1562999972,31763.099999818278
l38,38,759999974,32207.699999811808
e76,76,1556999972,32520.699999807253
l49,49,749999974,32691.499999804768
l65,65,750999972,32753.599999803864
4093.399999940437
e96,96,1562999998,31760.499999818316
l38,38,759999976,32207.49999981181
e76,76,1559999983,32519.299999807274
l49,49,749999984,32690.499999804782
l65,65,751999985,32752.199999803885
4096.799999940387
e96,96,1562999977,31762.599999818285
l38,38,759999981,32206.99999981182
e76,76,1559999991,32518.499999807285
l49,49,749999966,32692.299999804756
l65,65,750999973,32753.499999803866
4097.099999940383
e96,96,1562999966,31763.69999981827
l38,38,760999998,32205.199999811844
e76,76,1559999992,32518.399999807287
l49,49,751000000,32688.799999804807
l65,65,751999993,32751.399999803896
4095.599999940405
e96,96,1562999978,31762.499999818287
l38,38,759999967,32208.399999811798
e76,76,1559999998,32517.799999807296
l49,49,749999994,32689.499999804797
l65,65,751999988,32751.89999980389
4096.199999940396
e96,96,1562999999,31760.399999818317
l38,38,759999992,32205.899999811834
e76,76,1559999989,32518.699999807282
l49,49,749999972,32691.699999804765
l65,65,751999997,32750.999999803902
4096.799999940387
e96,96,1562999983,31761.999999818294
l38,38,759999986,32206.499999811826
e76,76,1559999984,32519.199999807275
l49,49,749999983,32690.59999980478
l65,65,749999964,32754.49999980385
4093.1999999404397
e96,96,1562999968,31763.499999818272
l38,38,759999983,32206.79999981182
e76,76,1556999971,32520.799999807252
l49,49,749999989,32689.99999980479
l65,65,751999994,32751.299999803898
4093.999999940428
e96,96,1562999992,31761.099999818307
l38,38,758999964,32208.799999811792
e76,76,1555999961,32521.899999807236
l49,49,749999970,32691.899999804762
l65,65,750999975,32753.29999980387
4093.4999999404354
e96,96,1562999986,31761.6999998183
l38,38,758999965,32208.699999811794
e76,76,1557999974,32520.399999807258
l49,49,749999965,32692.399999804755
l65,65,751999996,32751.0999998039
4093.999999940428
e96,96,1562999969,31763.399999818273
l38,38,759999985,32206.599999811824
e76,76,1558999980,32519.699999807268
l49,49,749999973,32691.599999804766
l65,65,751999979,32752.799999803876
4097.899999784306
e96,96,1562999973,31762.99999981828
l38,38,755999961,32209.399999811783
e76,76,1559999990,32518.599999807284
l49,49,749999977,32691.199999804772
l65,65,751999982,32752.49999980388
4095.999999940399
e96,96,1562999963,31763.999999818265
l38,38,762000000,32204.89999981185
e76,76,1559999994,32518.19999980729
l49,49,749999987,32690.199999804787
l65,65,750999974,32753.399999803867
4095.8999999404004
e96,96,1562999979,31762.399999818288
l38,38,759999989,32206.19999981183
e76,76,1555999965,32521.49999980724
l49,49,749999960,32692.899999804747
l65,65,749999969,32753.99999980386
4095.599999940405
e96,96,1562999982,31762.099999818292
l38,38,760999999,32205.099999811846
e76,76,1558999978,32519.899999807265
l49,49,749999979,32690.999999804775
l65,65,751999992,32751.499999803895
4095.3999999404077
e96,96,1562999965,31763.799999818268
l38,38,759999968,32208.2999998118
e76,76,1556999970,32520.89999980725
l49,49,749999958,32693.099999804745
l65,65,749999961,32754.799999803847
4095.999999940399
e96,96,1562999990,31761.299999818304
l38,38,759999982,32206.89999981182
e76,76,1557999975,32520.29999980726
l49,49,749999986,32690.299999804785
l65,65,751999991,32751.599999803893
4098.899999940357
e96,96,1562999989,31761.399999818303
l38,38,755999962,32209.299999811785
e76,76,1559999981,32519.49999980727
l49,49,749999993,32689.599999804796
l65,65,751999983,32752.39999980388
4097.29999994038
e96,96,1563000000,31760.29999981832
l38,38,759999991,32205.999999811833
e76,76,1559999982,32519.399999807272
l49,49,749999961,32692.79999980475
l65,65,751999981,32752.59999980388
4095.599999940405
e96,96,1562999981,31762.19999981829
l38,38,759999975,32207.59999981181
e76,76,1555999958,32522.19999980723
l49,49,749999980,32690.899999804777
l65,65,751999978,32752.899999803874
4094.7999999404165
e96,96,1562999995,31760.79999981831
l38,38,759999971,32207.999999811804
e76,76,1559999988,32518.79999980728
l49,49,749999964,32692.499999804753
l65,65,751999980,32752.699999803877
4099.099999940354
e96,96,1562999971,31763.199999818276
l38,38,759999973,32207.799999811807
e76,76,1555999968,32521.199999807246
l49,49,749999968,32692.09999980476
l65,65,751999990,32751.699999803892
4095.299999940409
e96,96,1562999958,31764.499999818257
l38,38,759999987,32206.399999811827
e76,76,1557999976,32520.19999980726
l49,49,750999999,32688.899999804806
l65,65,751999998,32750.899999803903
4095.1999999404106
e96,96,1562999980,31762.29999981829
l38,38,759999966,32208.499999811796
e76,76,1559999996,32517.999999807293
l49,49,749999981,32690.799999804778
l65,65,750999976,32753.19999980387
4095.099999940412
e96,96,1562999967,31763.59999981827
l38,38,755999959,32209.59999981178
e76,76,1555999960,32521.999999807234
l49,49,750999995,32689.2999998048
l65,65,751999986,32752.099999803886
4098.999999940355
e96,96,1562999970,31763.299999818275
l38,38,759999984,32206.699999811823
e76,76,1555999966,32521.399999807243
l49,49,749999975,32691.39999980477
l65,65,751999995,32751.1999998039
4095.999999940399
e96,96,1562999994,31760.89999981831
l38,38,759999988,32206.29999981183
e76,76,1558999979,32519.799999807266
l49,49,749999990,32689.89999980479
l65,65,752000000,32750.699999803906
4098.799999940358
e96,96,1562999985,31761.799999818297
l38,38,755999960,32209.499999811782
e76,76,1559999993,32518.29999980729
l49,49,749999991,32689.799999804793
l65,65,749999967,32754.199999803855
4096.799999940387
r30,30,999978,31683.799999819432
l45,45,762999992,31697.09999981924
l44,44,755999977,32739.599999804068
e71,71,1552999956,33323.69999979557
e69,69,1546999961,33956.999999786356
e96,96,1548999954,34231.899999782356
r30,30,999957,36053.99999975584
6245.699999909117
r30,30,999957,31689.39999981935
l45,45,762999998,31696.499999819247
l44,44,755999974,32739.899999804064
e71,71,1552999965,33322.799999795585
e69,69,1552999995,33952.999999786414
e96,96,1551999957,34231.299999782364
r30,30,999964,36069.499999755615
6247.099999909096
r30,30,999968,31685.099999819413
l45,45,762999995,31696.799999819243
l44,44,752999952,32742.399999804027
e71,71,1552999957,33323.59999979557
e69,69,1548999969,33955.99999978637
e96,96,1549999956,34231.59999978236
r30,30,999960,36058.99999975577
6248.099999909082
r30,30,999999,31680.0
l45,45,762999962,31700.099999819195
l44,44,756999985,32738.69999980408
e71,71,1552999962,33323.09999979558
e69,69,1551999975,33955.099999786384
e96,96,1548999953,34231.999999782354
r30,30,999958,36051.39999975588
6247.999999909083
r30,30,999989,31681.699999819462
l45,45,762999994,31696.89999981924
l44,44,751999951,32742.599999804024
e71,71,1552999955,33323.79999979557
e69,69,1545999951,33958.09999978634
e96,96,1548999952,34232.09999978235
r30,30,999961,36050.59999975589
6248.999999909069
e92,92,1571999970,31022.299999829058
e78,78,1558999973,32336.899999809928
l50,50,765999976,33570.799999791976
r14,14,999969,34168.49999978328
l59,59,750999952,34524.2999997781
r8,8,999962,35215.49999976804
7201.799999895204
r30,30,999987,31681.89999981946
l45,45,762999972,31699.09999981921
l44,44,756999983,32738.899999804078
e71,71,1551999952,33324.199999795565
e69,69,1551999977,33954.89999978639
e96,96,1545999951,34232.49999978235
r7,7,999967,35678.499999761305
7695.099999888025
