e97,97,1799999960,24739.89999992048
e74,74,1799999955,25214.499999913573
1890.7999999724852
e97,97,1799999988,24737.09999992052
e74,74,1799999996,25210.399999913632
1888.0999999725245
e97,97,1799999951,24740.799999920466
e74,74,1799999954,25214.59999991357
1890.2999999724925
e97,97,1799999998,24736.099999920534
e74,74,1799999993,25210.699999913628
1890.2999999724925
e97,97,1799999970,24738.899999920493
e74,74,1799999997,25210.299999913634
1887.6999999725303
e97,97,1799999981,24737.79999992051
e74,74,1799999964,25213.599999913586
1887.999999972526
e97,97,1799999987,24737.199999920518
e74,74,1799999980,25211.99999991361
1891.8999999724692
e97,97,1799999972,24738.699999920496
e74,74,1799999985,25211.499999913616
1887.099999972539
e97,97,1799999995,24736.39999992053
e74,74,1799999970,25212.999999913594
1889.299999972507
e97,97,1799999968,24739.09999992049
e74,74,1799999999,25210.099999913637
1890.399999972491
e97,97,1799999997,24736.199999920533
e74,74,1799999979,25212.099999913607
1889.6999999725012
e97,97,1800000000,24735.899999920537
e74,74,1799999974,25212.5999999136
1888.2999999725216
e97,97,1799999956,24740.299999920473
e74,74,1799999952,25214.799999913568
1889.7999999724998
e97,97,1799999984,24737.499999920514
e74,74,1799999953,25214.69999991357
1892.2999999724634
e97,97,1799999955,24740.39999992047
e74,74,1799999957,25214.299999913575
1890.199999972494
e97,97,1799999991,24736.799999920524
e74,74,1799999976,25212.399999913603
1891.3999999724765
e97,97,1799999969,24738.999999920492
e74,74,1799999988,25211.19999991362
1888.5999999725173
e97,97,1799999966,24739.299999920488
e74,74,1799999987,25211.29999991362
1889.09999997251
e97,97,1799999993,24736.599999920527
e74,74,1799999968,25213.19999991359
1891.3999999724765
e97,97,1799999996,24736.29999992053
e74,74,1799999959,25214.09999991358
1892.0999999724663
e97,97,1799999992,24736.699999920525
e74,74,1799999956,25214.399999913574
1893.0999999724518
e97,97,1799999978,24738.099999920505
e74,74,1799999963,25213.699999913584
1892.9999999724532
e97,97,1799999986,24737.299999920517
e74,74,1799999962,25213.799999913583
1892.6999999724576
e97,97,1799999958,24740.099999920476
e74,74,1799999969,25213.099999913593
1891.3999999724765
e97,97,1799999976,24738.299999920502
e74,74,1799999982,25211.799999913612
1888.9999999725114
e97,97,1799999952,24740.699999920467
e74,74,1799999951,25214.899999913567
1889.5999999725027
e97,97,1799999985,24737.399999920515
e74,74,1799999995,25210.49999991363
1891.9999999724678
e97,97,1799999999,24735.999999920536
e74,74,1799999992,25210.799999913626
1892.4999999724605
e97,97,1799999994,24736.49999992053
e74,74,1800000000,25209.999999913638
1890.399999972491
e97,97,1799999959,24739.999999920477
e74,74,1799999965,25213.499999913587
1893.5999999724445
e97,97,1799999983,24737.599999920512
e74,74,1799999977,25212.299999913605
1893.2999999724489
e97,97,1799999962,24739.69999992048
e74,74,1799999975,25212.4999999136
1891.3999999724765
e97,97,1799999990,24736.899999920523
e74,74,1799999978,25212.199999913606
1891.5999999724736
e97,97,1799999989,24736.99999992052
e74,74,1799999973,25212.6999999136
1889.7999999724998
e97,97,1799999953,24740.59999992047
e74,74,1799999990,25210.999999913623
1892.599999972459
e97,97,1799999980,24737.899999920508
e74,74,1799999961,25213.89999991358
1890.199999972494
e97,97,1799999971,24738.799999920495
e74,74,1799999998,25210.199999913635
1893.9999999724387
e97,97,1799999973,24738.599999920498
e74,74,1799999967,25213.29999991359
1893.3999999724474
e97,97,1799999967,24739.19999992049
e74,74,1799999983,25211.699999913613
1891.8999999724692
e97,97,1799999965,24739.399999920486
e74,74,1799999958,25214.199999913577
1895.0999999724227
e97,97,1799999977,24738.199999920504
e74,74,1799999991,25210.899999913625
1891.7999999724707
e97,97,1799999954,24740.49999992047
e74,74,1799999986,25211.399999913618
1891.9999999724678
e97,97,1799999963,24739.599999920483
e74,74,1799999972,25212.799999913597
1893.0999999724518
e97,97,1799999975,24738.3999999205
e74,74,1799999994,25210.59999991363
1892.4999999724605
e97,97,1799999982,24737.69999992051
e74,74,1799999960,25213.99999991358
1894.9999999724241
e97,97,1799999974,24738.4999999205
e74,74,1799999971,25212.899999913596
1892.1999999724649
e97,97,1799999964,24739.499999920485
e74,74,1799999981,25211.89999991361
1893.8999999724401
e97,97,1799999979,24737.999999920507
e74,74,1799999984,25211.599999913615
1891.5999999724736
e97,97,1799999961,24739.79999992048
e74,74,1799999989,25211.099999913622
1891.5999999724736
e97,97,1799999957,24740.199999920475
e74,74,1799999966,25213.39999991359
1893.8999999724401
