r5,5,200000000,24223.79999992799
e99,99,1799999976,24261.799999927436
r28,28,199999985,24452.999999924654
e84,84,1799999976,24470.099999924405
r16,16,199999993,24665.099999921567
l53,53,999999995,25274.3999999127
1275.1999999814434
r5,5,199999991,24224.699999927976
e99,99,1799999968,24262.599999927425
r16,16,199999962,25249.199999913068
l53,53,999999981,25275.79999991268
1278.999999981388
r5,5,199999957,24228.099999927927
e99,99,1799999983,24261.099999927446
r28,28,199999951,24456.399999924604
e84,84,1799999982,24469.499999924414
r16,16,199999974,24666.99999992154
l53,53,999999954,25278.49999991264
1274.9999999814463
r5,5,199999968,24226.999999927943
e99,99,1799999959,24263.49999992741
r28,28,199999969,24454.59999992463
e84,84,1799999988,24468.899999924422
r16,16,199999980,24666.39999992155
l53,53,999999972,25276.699999912667
1278.4999999813954
r5,5,199999970,24226.799999927945
e99,99,1799999964,24262.99999992742
r28,28,199999996,24451.89999992467
e84,84,1799999990,24468.699999924425
r16,16,199999979,24666.499999921547
l53,53,999999999,25273.999999912707
1278.2999999813983
r5,5,199999988,24224.99999992797
e99,99,1799999982,24261.199999927445
r16,16,199999954,25249.999999913056
l53,53,999999989,25274.999999912692
1275.5999999814376
r5,5,199999973,24226.49999992795
e99,99,1799999986,24260.79999992745
r28,28,199999960,24455.499999924617
e84,84,1799999992,24468.49999992443
r16,16,199999977,24666.699999921544
l53,53,999999963,25277.599999912654
1276.399999981426
r5,5,199999984,24225.399999927966
e99,99,1799999957,24263.69999992741
r28,28,199999989,24452.59999992466
e84,84,1799999995,24468.199999924433
r16,16,199999995,24664.89999992157
l53,53,999999996,25274.299999912702
1280.099999981372
r5,5,199999951,24228.699999927918
e99,99,1799999958,24263.59999992741
r28,28,199999999,24451.599999924674
e84,84,1799999979,24469.79999992441
r16,16,199999972,24667.199999921537
l53,53,999999965,25277.399999912657
1278.799999981391
r5,5,199999997,24224.099999927985
e99,99,1799999999,24259.49999992747
r28,28,199999998,24451.699999924673
e84,84,1799999986,24469.09999992442
r16,16,199999997,24664.699999921573
l53,53,999999951,25278.799999912637
1279.899999981375
r5,5,199999974,24226.39999992795
e99,99,1799999966,24262.79999992742
r16,16,199999969,25248.499999913078
l53,53,999999980,25275.89999991268
1277.3999999814114
r5,5,199999990,24224.799999927975
e99,99,1799999963,24263.099999927417
r28,28,199999984,24453.099999924652
e84,84,1799999978,24469.899999924408
r16,16,199999996,24664.79999992157
l53,53,999999973,25276.59999991267
1279.5999999813794
r5,5,199999953,24228.49999992792
e99,99,1799999992,24260.19999992746
r28,28,199999987,24452.799999924657
e84,84,1799999974,24470.299999924402
r16,16,199999999,24664.499999921576
l53,53,999999960,25277.89999991265
1279.4999999813808
r5,5,199999982,24225.599999927963
e99,99,1799999979,24261.49999992744
r28,28,199999954,24456.09999992461
e84,84,1799999977,24469.999999924406
r16,16,199999987,24665.69999992156
l53,53,999999982,25275.699999912682
1277.899999981404
r5,5,199999993,24224.49999992798
e99,99,1799999998,24259.599999927468
r16,16,199999957,25249.69999991306
l53,53,999999968,25277.09999991266
1276.399999981426
r5,5,199999978,24225.999999927957
e99,99,1799999970,24262.399999927427
r28,28,199999990,24452.49999992466
e84,84,1799999984,24469.299999924417
r16,16,199999985,24665.899999921556
l53,53,999999992,25274.699999912697
1280.1999999813706
r5,5,199999999,24223.899999927988
e99,99,1799999951,24264.2999999274
r28,28,199999966,24454.899999924626
e84,84,1799999985,24469.199999924418
r16,16,200000000,24664.399999921578
l53,53,999999990,25274.899999912694
1280.3999999813677
r5,5,199999959,24227.89999992793
e99,99,1799999990,24260.399999927457
r16,16,199999966,25248.799999913073
l53,53,999999958,25278.099999912647
1278.1999999813997
r5,5,199999956,24228.199999927925
e99,99,1799999996,24259.799999927465
r28,28,199999973,24454.199999924636
e84,84,1799999981,24469.599999924412
r16,16,199999981,24666.29999992155
l53,53,999999986,25275.299999912688
1278.8999999813896
r5,5,199999983,24225.499999927964
e99,99,1799999953,24264.099999927403
r16,16,199999968,25248.599999913076
l53,53,999999975,25276.39999991267
1277.3999999814114
r5,5,199999963,24227.499999927935
e99,99,1799999980,24261.399999927442
r28,28,199999995,24451.99999992467
e84,84,1799999998,24467.899999924437
r16,16,199999988,24665.59999992156
l53,53,999999969,25276.999999912663
1279.699999981378
r5,5,199999986,24225.19999992797
e99,99,1800000000,24259.39999992747
r16,16,199999965,25248.899999913072
l53,53,999999978,25276.099999912676
1277.699999981407
r5,5,199999954,24228.399999927922
e99,99,1799999971,24262.29999992743
r28,28,200000000,24451.499999924676
e84,84,1800000000,24467.69999992444
r16,16,199999975,24666.89999992154
l53,53,999999974,25276.49999991267
1280.5999999813648
r5,5,199999966,24227.19999992794
e99,99,1799999989,24260.499999927455
r16,16,199999953,25250.099999913054
l53,53,999999991,25274.799999912695
1277.5999999814085
r5,5,199999996,24224.199999927983
e99,99,1799999977,24261.699999927438
r16,16,199999952,25250.199999913053
l53,53,999999976,25276.299999912673
1279.899999981375
r5,5,199999972,24226.59999992795
e99,99,1799999973,24262.09999992743
r28,28,199999957,24455.799999924613
e84,84,1799999987,24468.99999992442
r16,16,199999978,24666.599999921546
l53,53,999999987,25275.19999991269
1278.6999999813925
r5,5,199999971,24226.699999927947
e99,99,1799999984,24260.999999927448
r16,16,199999961,25249.299999913066
l53,53,999999984,25275.499999912685
1277.0999999814157
r5,5,199999995,24224.299999927982
e99,99,1799999975,24261.899999927435
r16,16,199999960,25249.399999913065
l53,53,999999977,25276.199999912675
1281.9999999813444
r5,5,199999967,24227.09999992794
e99,99,1799999972,24262.19999992743
r16,16,199999958,25249.59999991306
l53,53,999999956,25278.299999912644
1280.8999999813605
r5,5,199999964,24227.399999927937
e99,99,1799999988,24260.599999927454
r28,28,199999956,24455.89999992461
e84,84,1799999980,24469.69999992441
r16,16,199999971,24667.299999921535
l53,53,999999955,25278.399999912643
1277.7999999814056
r5,5,199999975,24226.299999927953
e99,99,1799999954,24263.999999927404
r28,28,199999955,24455.99999992461
e84,84,1799999996,24468.099999924434
r16,16,199999986,24665.799999921557
l53,53,999999953,25278.59999991264
1279.899999981375
r5,5,199999955,24228.299999927924
e99,99,1799999969,24262.499999927426
r28,28,199999988,24452.69999992466
e84,84,1799999983,24469.399999924415
r16,16,199999976,24666.799999921543
l53,53,999999961,25277.79999991265
1280.099999981372
r5,5,199999987,24225.09999992797
e99,99,1799999985,24260.89999992745
r16,16,199999967,25248.699999913075
l53,53,999999979,25275.999999912678
1279.4999999813808
r5,5,199999965,24227.29999992794
e99,99,1799999960,24263.399999927413
r28,28,199999977,24453.799999924642
e84,84,1799999975,24470.199999924404
r16,16,199999989,24665.49999992156
l53,53,999999957,25278.199999912646
1280.6999999813634
r5,5,199999998,24223.999999927986
e99,99,1799999987,24260.699999927452
r28,28,199999982,24453.29999992465
e84,84,1799999989,24468.799999924424
r16,16,199999998,24664.599999921575
l53,53,999999966,25277.29999991266
1279.2999999813837
r5,5,199999981,24225.69999992796
e99,99,1799999961,24263.299999927414
r28,28,199999994,24452.099999924667
e84,84,1799999972,24470.4999999244
r16,16,199999992,24665.199999921566
l53,53,999999993,25274.599999912698
1279.5999999813794
r5,5,199999952,24228.59999992792
e99,99,1799999967,24262.699999927423
r16,16,199999956,25249.79999991306
l53,53,999999998,25274.099999912705
1280.2999999813692
r5,5,199999961,24227.699999927932
e99,99,1799999978,24261.59999992744
r28,28,199999976,24453.89999992464
e84,84,1799999991,24468.599999924427
r16,16,199999990,24665.399999921563
l53,53,999999985,25275.399999912686
1281.4999999813517
r5,5,199999958,24227.999999927928
e99,99,1799999993,24260.09999992746
r16,16,199999970,25248.39999991308
l53,53,999999959,25277.99999991265
1278.3999999813968
r5,5,199999979,24225.89999992796
e99,99,1799999965,24262.89999992742
r28,28,199999993,24452.199999924665
e84,84,1799999999,24467.79999992444
r16,16,199999984,24665.999999921554
l53,53,999999988,25275.09999991269
1279.899999981375
r5,5,199999985,24225.299999927967
e99,99,1799999962,24263.199999927416
r16,16,199999959,25249.499999913063
l53,53,999999964,25277.499999912656
1279.3999999813823
r5,5,199999980,24225.79999992796
e99,99,1799999991,24260.299999927458
r28,28,199999968,24454.69999992463
e84,84,1799999997,24467.999999924436
r16,16,199999991,24665.299999921564
l53,53,999999962,25277.699999912653
1280.8999999813605
r5,5,199999994,24224.39999992798
e99,99,1799999994,24259.999999927462
r28,28,199999974,24454.099999924638
e84,84,1799999971,24470.599999924398
r16,16,199999983,24666.099999921553
l53,53,999999967,25277.19999991266
1281.7999999813474
r5,5,199999960,24227.79999992793
e99,99,1799999981,24261.299999927443
r16,16,199999955,25249.899999913057
l53,53,1000000000,25273.899999912708
1281.5999999813503
r5,5,199999962,24227.599999927934
e99,99,1799999952,24264.1999999274
r28,28,199999997,24451.79999992467
e84,84,1799999994,24468.29999992443
r16,16,199999973,24667.09999992154
l53,53,999999971,25276.799999912666
1280.099999981372
r5,5,199999989,24224.899999927973
e99,99,1799999956,24263.799999927407
r28,28,199999965,24454.999999924625
e84,84,1799999993,24468.39999992443
r16,16,199999994,24664.99999992157
l53,53,999999952,25278.69999991264
1283.0999999813284
r5,5,199999976,24226.199999927954
e99,99,1799999997,24259.699999927467
r16,16,199999964,25248.99999991307
l53,53,999999997,25274.199999912704
1279.2999999813837
r5,5,199999977,24226.099999927956
e99,99,1799999955,24263.899999927406
r28,28,199999979,24453.599999924645
e84,84,1799999973,24470.3999999244
r16,16,199999982,24666.19999992155
l53,53,999999970,25276.899999912664
1283.7999999813183
r5,5,199999992,24224.599999927977
e99,99,1799999995,24259.899999927464
r16,16,199999951,25250.29999991305
l53,53,999999983,25275.599999912683
1281.9999999813444
r5,5,199999969,24226.899999927944
e99,99,1799999974,24261.999999927433
r16,16,199999963,25249.09999991307
l53,53,999999994,25274.4999999127
1284.0999999813139
