3999999  Hetero10
3999999  Hetero11
5882351  Hetero12
19999999  Hetero13
19999999  Hetero14
3999999  Hetero15
35999999  Hetero16
4081631  Hetero17
3999999  Hetero18
3999999  Hetero19
3999999  Hetero1
35999999  Hetero20
3999999  Hetero21
3999999  Hetero22
35999999  Hetero23
19999999  Hetero24
3999999  Hetero25
3999999  Hetero2
3999999  Hetero3
3999999  Hetero4
3999999  Hetero5
3999999  Hetero6
3999999  Hetero7
3999999  Hetero8
35999999  Hetero9
