l43,43,999999989,24039.59999993067
l58,58,999999988,24118.399999929523
l54,54,999999993,24377.499999925752
r33,33,199999998,24601.0999999225
e92,92,1799999989,24638.399999921956
e86,86,1799999992,24973.49999991708
1601.299999976698
l43,43,999999993,24039.199999930675
l58,58,999999951,24122.09999992947
l54,54,999999981,24378.699999925735
r33,33,199999951,24605.79999992243
e92,92,1799999975,24639.799999921936
e86,86,1799999987,24973.999999917072
1600.6999999767067
l43,43,999999980,24040.499999930656
l58,58,999999981,24119.099999929513
l54,54,999999994,24377.399999925754
r33,33,199999964,24604.49999992245
e92,92,1799999971,24640.19999992193
e86,86,1799999973,24975.399999917052
1601.6999999766922
l43,43,999999996,24038.89999993068
l58,58,999999962,24120.999999929485
l54,54,999999970,24379.79999992572
r33,33,199999975,24603.399999922465
e92,92,1799999987,24638.599999921953
e86,86,1799999982,24974.499999917065
1597.3999999767548
l43,43,999999964,24042.099999930633
l58,58,999999995,24117.699999929533
l54,54,999999971,24379.69999992572
r33,33,199999985,24602.39999992248
e92,92,1799999970,24640.29999992193
e86,86,1799999977,24974.999999917058
1600.5999999767082
l43,43,999999999,24038.599999930684
l58,58,999999956,24121.599999929476
l54,54,999999964,24380.39999992571
r33,33,199999999,24600.9999999225
e92,92,1799999962,24641.099999921917
e86,86,1799999959,24976.79999991703
1598.4999999767388
l43,43,999999985,24039.999999930664
l58,58,999999958,24121.39999992948
l54,54,999999953,24381.499999925694
r33,33,199999986,24602.29999992248
e92,92,1799999994,24637.899999921963
e86,86,1799999997,24972.999999917087
1599.1999999767286
l43,43,999999960,24042.499999930627
l58,58,999999987,24118.49999992952
l54,54,999999977,24379.09999992573
r33,33,199999974,24603.499999922464
e92,92,1799999985,24638.79999992195
e86,86,1799999979,24974.79999991706
1602.0999999766864
l43,43,999999997,24038.79999993068
l58,58,999999992,24117.99999992953
l54,54,999999962,24380.599999925707
r33,33,199999961,24604.799999922445
e92,92,1799999983,24638.999999921947
e86,86,1799999960,24976.699999917033
1598.9999999767315
l43,43,999999954,24043.09999993062
l58,58,999999965,24120.69999992949
l54,54,999999987,24378.099999925744
r33,33,199999952,24605.69999992243
e92,92,1800000000,24637.299999921972
e86,86,1799999986,24974.09999991707
1601.9999999766878
l43,43,999999979,24040.599999930655
l58,58,999999977,24119.499999929507
l54,54,999999952,24381.599999925693
r33,33,199999969,24603.999999922456
e92,92,1799999999,24637.39999992197
e86,86,1799999968,24975.899999917045
1600.8999999767038
l43,43,999999975,24040.99999993065
l58,58,999999990,24118.199999929526
l54,54,999999996,24377.199999925757
r33,33,199999960,24604.899999922443
e92,92,1799999953,24641.999999921904
e86,86,1799999963,24976.399999917037
1600.8999999767038
l43,43,999999969,24041.59999993064
l58,58,999999985,24118.69999992952
l54,54,999999980,24378.799999925734
r33,33,199999982,24602.699999922475
e92,92,1799999968,24640.499999921925
e86,86,1799999976,24975.099999917056
1598.9999999767315
l43,43,999999991,24039.399999930672
l58,58,999999973,24119.8999999295
l54,54,1000000000,24376.799999925763
r33,33,199999955,24605.399999922436
e92,92,1799999980,24639.299999921943
e86,86,1799999954,24977.299999917024
1600.9999999767024
l43,43,1000000000,24038.499999930686
l58,58,999999975,24119.699999929504
l54,54,999999969,24379.899999925718
r33,33,199999988,24602.099999922484
e92,92,1799999974,24639.899999921934
e86,86,1799999994,24973.299999917082
1599.2999999767271
l43,43,999999987,24039.799999930667
l58,58,999999984,24118.799999929517
l54,54,999999959,24380.899999925703
r33,33,199999962,24604.699999922446
e92,92,1799999955,24641.799999921906
e86,86,1799999971,24975.59999991705
1598.7999999767344
l43,43,999999952,24043.299999930616
l58,58,999999978,24119.39999992951
l54,54,999999982,24378.599999925736
r33,33,199999991,24601.79999992249
e92,92,1799999963,24640.999999921918
e86,86,1799999991,24973.599999917078
1599.1999999767286
l43,43,999999970,24041.499999930642
l58,58,999999994,24117.79999992953
l54,54,999999974,24379.399999925725
r33,33,199999967,24604.199999922454
e92,92,1799999981,24639.199999921944
e86,86,1799999970,24975.699999917048
1601.9999999766878
l43,43,999999983,24040.19999993066
l58,58,999999998,24117.399999929537
l54,54,999999956,24381.1999999257
r33,33,199999989,24601.999999922486
l37,37,999999985,24655.099999921713
r8,8,199999981,24999.4999999167
l39,39,999999971,25044.599999916045
2165.0999999684936
l43,43,999999995,24038.99999993068
l58,58,999999953,24121.899999929472
l54,54,999999979,24378.899999925732
r33,33,199999958,24605.09999992244
l37,37,999999987,24654.899999921716
r8,8,199999994,24998.19999991672
l39,39,999999985,25043.199999916065
2162.799999968527
l43,43,999999966,24041.899999930636
l58,58,999999961,24121.099999929484
l54,54,999999973,24379.499999925723
r33,33,199999995,24601.399999922494
l37,37,1000000000,24653.599999921735
r8,8,199999995,24998.09999991672
l39,39,999999963,25045.399999916033
2163.29999996852
l43,43,999999962,24042.29999993063
l58,58,999999991,24118.099999929527
l54,54,999999951,24381.69999992569
r28,28,199999952,24572.499999922915
e70,70,1799999985,24682.499999921314
l37,37,999999952,24729.699999920627
r8,8,199999970,25000.599999916685
l39,39,999999962,25045.49999991603
2166.1999999684776
l43,43,999999971,24041.399999930643
l58,58,999999971,24120.099999929498
l54,54,999999960,24380.799999925704
r33,33,199999987,24602.199999922483
l37,37,999999973,24656.299999921695
r8,8,199999954,25002.199999916662
l39,39,999999978,25043.899999916055
2163.699999968514
l43,43,999999994,24039.099999930677
l58,58,999999960,24121.199999929482
l54,54,999999992,24377.59999992575
r33,33,199999984,24602.49999992248
l37,37,999999963,24657.29999992168
r8,8,200000000,24997.59999991673
l39,39,999999988,25042.89999991607
2162.999999968524
l43,43,999999958,24042.699999930624
l58,58,999999996,24117.599999929535
l54,54,999999983,24378.499999925738
r33,33,199999971,24603.79999992246
l37,37,999999979,24655.699999921704
r8,8,199999964,25001.199999916676
l39,39,999999997,25041.999999916083
2166.8999999684675
l43,43,999999957,24042.799999930623
l58,58,999999963,24120.899999929487
l54,54,999999976,24379.199999925728
r33,33,199999978,24603.09999992247
l37,37,999999972,24656.399999921694
r8,8,199999997,24997.899999916724
l39,39,999999987,25042.99999991607
2164.8999999684966
l43,43,999999976,24040.89999993065
l58,58,999999986,24118.59999992952
l54,54,999999984,24378.39999992574
r33,33,199999980,24602.899999922472
l37,37,999999962,24657.39999992168
r8,8,199999962,25001.399999916674
l39,39,999999982,25043.49999991606
2167.199999968463
l43,43,999999965,24041.999999930635
l58,58,999999954,24121.799999929473
l54,54,999999961,24380.699999925706
r33,33,199999979,24602.99999992247
l37,37,999999964,24657.199999921682
r8,8,199999986,24998.99999991671
l39,39,999999983,25043.399999916062
2166.8999999684675
l43,43,999999967,24041.799999930638
l58,58,999999983,24118.899999929516
l54,54,999999990,24377.799999925748
r33,33,199999994,24601.499999922493
l37,37,999999970,24656.59999992169
r8,8,199999987,24998.89999991671
l39,39,999999955,25046.19999991602
2165.699999968485
l43,43,999999977,24040.799999930652
l58,58,999999993,24117.89999992953
l54,54,999999966,24380.199999925713
r33,33,199999976,24603.299999922467
l37,37,999999995,24654.099999921727
r8,8,199999955,25002.099999916663
l39,39,999999984,25043.299999916064
2167.899999968453
l43,43,999999963,24042.19999993063
l58,58,999999957,24121.499999929478
l54,54,999999998,24376.99999992576
r33,33,199999992,24601.69999992249
l37,37,999999980,24655.599999921706
r8,8,199999976,24999.999999916694
l39,39,999999957,25045.999999916025
2167.899999968453
l43,43,999999986,24039.899999930665
l58,58,999999976,24119.599999929505
l54,54,999999986,24378.199999925742
r33,33,199999963,24604.599999922448
l37,37,999999990,24654.59999992172
r8,8,199999992,24998.399999916717
l39,39,999999969,25044.799999916042
2166.099999968479
l43,43,999999982,24040.29999993066
l58,58,999999966,24120.59999992949
l54,54,999999967,24380.099999925715
r33,33,200000000,24600.8999999225
l37,37,999999969,24656.69999992169
r8,8,199999959,25001.69999991667
l39,39,999999974,25044.29999991605
2165.7999999684835
l43,43,999999956,24042.89999993062
l58,58,999999979,24119.29999992951
l54,54,999999985,24378.29999992574
r33,33,199999956,24605.299999922438
l37,37,999999955,24658.09999992167
r8,8,199999974,25000.19999991669
l39,39,999999967,25044.99999991604
2164.2999999685053
l43,43,999999992,24039.299999930674
l58,58,999999952,24121.99999992947
l54,54,999999954,24381.399999925696
r33,33,199999990,24601.899999922487
l37,37,999999960,24657.599999921676
r8,8,199999999,24997.699999916727
l39,39,999999972,25044.499999916046
2166.799999968469
l43,43,999999984,24040.099999930662
l58,58,999999974,24119.799999929503
l54,54,999999965,24380.29999992571
r33,33,199999966,24604.299999922452
l37,37,999999994,24654.199999921726
r8,8,199999957,25001.899999916666
l39,39,999999998,25041.899999916084
2165.9999999684806
l43,43,999999973,24041.199999930646
l58,58,999999980,24119.19999992951
l54,54,999999999,24376.89999992576
r33,33,199999983,24602.599999922477
l37,37,999999959,24657.699999921675
r8,8,199999958,25001.799999916668
l39,39,999999993,25042.399999916077
2167.199999968463
l43,43,999999974,24041.099999930648
l58,58,999999959,24121.29999992948
l54,54,999999988,24377.999999925745
r33,33,199999970,24603.899999922458
l37,37,999999988,24654.799999921717
r8,8,199999979,24999.6999999167
l39,39,999999996,25042.09999991608
2168.499999968444
l43,43,999999990,24039.49999993067
l58,58,999999967,24120.499999929492
l54,54,999999963,24380.49999992571
r33,33,199999968,24604.099999922455
l37,37,999999958,24657.799999921674
r8,8,199999953,25002.29999991666
l39,39,999999976,25044.099999916052
2166.8999999684675
l43,43,999999978,24040.699999930654
l58,58,999999970,24120.199999929497
l54,54,999999995,24377.299999925755
r33,33,199999993,24601.59999992249
l37,37,999999976,24655.9999999217
r8,8,199999966,25000.99999991668
l39,39,999999953,25046.39999991602
2168.999999968437
l43,43,999999951,24043.399999930614
l58,58,999999968,24120.399999929494
l54,54,999999968,24379.999999925716
r33,33,199999996,24601.299999922496
l37,37,999999999,24653.699999921733
r8,8,199999996,24997.999999916723
l39,39,999999994,25042.29999991608
2167.4999999684587
l43,43,999999988,24039.699999930668
l58,58,999999999,24117.29999992954
l54,54,999999958,24380.9999999257
r33,33,199999981,24602.799999922474
l37,37,999999956,24657.99999992167
r8,8,199999985,24999.099999916707
l39,39,999999956,25046.099999916023
2169.399999968431
l43,43,999999961,24042.39999993063
l58,58,999999964,24120.799999929488
l54,54,999999957,24381.0999999257
r33,33,199999972,24603.69999992246
l37,37,999999966,24656.999999921685
r8,8,199999972,25000.399999916688
l39,39,999999964,25045.299999916035
2167.39999996846
l43,43,999999968,24041.69999993064
l58,58,999999969,24120.299999929495
l54,54,999999978,24378.99999992573
r33,33,199999973,24603.599999922462
l37,37,999999954,24658.199999921668
r8,8,199999965,25001.099999916678
l39,39,999999965,25045.199999916036
2165.3999999684893
l43,43,999999955,24042.99999993062
l58,58,999999982,24118.999999929514
l54,54,999999955,24381.299999925697
r33,33,199999965,24604.39999992245
l37,37,999999971,24656.499999921693
r8,8,199999960,25001.59999991667
l39,39,999999975,25044.19999991605
2165.9999999684806
l43,43,999999998,24038.699999930683
l58,58,999999989,24118.299999929524
l54,54,999999991,24377.69999992575
r33,33,199999953,24605.599999922433
l37,37,999999998,24653.79999992173
r8,8,199999961,25001.499999916672
l39,39,999999954,25046.29999991602
2168.1999999684485
l43,43,999999959,24042.599999930626
l58,58,1000000000,24117.19999992954
l54,54,999999972,24379.599999925722
r33,33,199999977,24603.199999922468
l37,37,999999975,24656.0999999217
r8,8,199999991,24998.499999916716
l39,39,999999958,25045.899999916026
2165.3999999684893
l43,43,999999972,24041.299999930645
l58,58,999999955,24121.699999929475
l54,54,999999975,24379.299999925726
r33,33,199999957,24605.19999992244
l37,37,999999997,24653.89999992173
r8,8,199999998,24997.799999916726
l39,39,999999968,25044.89999991604
2166.4999999684733
l43,43,999999981,24040.399999930658
l58,58,999999997,24117.499999929536
l54,54,999999989,24377.899999925747
r33,33,199999954,24605.499999922435
l37,37,999999984,24655.19999992171
r8,8,199999990,24998.599999916714
l39,39,999999979,25043.799999916057
2166.999999968466
l43,43,999999953,24043.199999930617
l58,58,999999972,24119.9999999295
l54,54,999999997,24377.09999992576
r33,33,199999959,24604.999999922442
l37,37,999999977,24655.8999999217
r8,8,199999967,25000.89999991668
l39,39,999999952,25046.499999916017
2167.699999968456
