e80,80,1799999985,25508.1999999093
r12,12,199999953,25745.699999905843
3262.599999952523
e80,80,1799999962,25510.499999909265
r12,12,199999990,25741.999999905896
3264.6999999524924
e80,80,1799999997,25506.999999909316
r12,12,199999964,25744.59999990586
3263.2999999525127
e80,80,1799999958,25510.89999990926
r12,12,199999951,25745.89999990584
3265.899999952475
e80,80,1799999967,25509.999999909272
r12,12,199999989,25742.099999905895
3265.7999999524764
e80,80,1799999987,25507.9999999093
r12,12,199999961,25744.899999905854
3267.7999999524473
e80,80,1799999971,25509.59999990928
r12,12,199999992,25741.7999999059
3265.899999952475
e80,80,1800000000,25506.69999990932
r12,12,199999997,25741.299999905907
3264.8999999524895
e80,80,1799999956,25511.099999909256
r12,12,199999977,25743.299999905877
3265.4999999524807
e80,80,1799999961,25510.599999909264
r12,12,199999967,25744.299999905863
3267.4999999524516
e80,80,1799999979,25508.79999990929
r12,12,199999993,25741.6999999059
3266.6999999524633
e80,80,1799999994,25507.29999990931
r12,12,199999970,25743.999999905867
3266.1999999524705
e80,80,1799999954,25511.299999909254
r12,12,199999987,25742.299999905892
3267.399999952453
e80,80,1799999983,25508.399999909296
r12,12,199999994,25741.599999905902
3264.999999952488
e80,80,1799999968,25509.899999909274
r12,12,199999957,25745.29999990585
3267.399999952453
e80,80,1799999989,25507.799999909304
r12,12,199999980,25742.999999905882
3266.999999952459
e80,80,1799999996,25507.099999909315
r12,12,199999981,25742.899999905883
3267.9999999524443
e80,80,1799999975,25509.199999909284
r12,12,199999983,25742.699999905886
3268.5999999524356
e80,80,1799999973,25509.39999990928
r12,12,199999976,25743.399999905876
3266.6999999524633
e80,80,1799999988,25507.899999909303
r12,12,199999963,25744.699999905857
3268.699999952434
e80,80,1799999963,25510.399999909267
r12,12,199999966,25744.39999990586
3264.3999999524967
e80,80,1799999951,25511.59999990925
r12,12,199999998,25741.199999905908
3266.1999999524705
e80,80,1799999981,25508.599999909293
r12,12,200000000,25740.99999990591
3268.699999952434
e80,80,1799999953,25511.399999909252
r12,12,199999971,25743.89999990587
3265.7999999524764
e80,80,1799999969,25509.799999909275
r12,12,199999988,25742.199999905893
3264.8999999524895
e80,80,1799999977,25508.999999909287
r12,12,199999974,25743.599999905873
3265.7999999524764
e80,80,1799999998,25506.899999909318
r12,12,199999978,25743.19999990588
3266.999999952459
e80,80,1799999993,25507.39999990931
r12,12,199999968,25744.199999905864
3266.299999952469
e80,80,1799999959,25510.79999990926
r12,12,199999956,25745.399999905847
3265.699999952478
e80,80,1799999960,25510.699999909262
r12,12,199999995,25741.499999905904
3266.6999999524633
e80,80,1799999999,25506.79999990932
r12,12,199999954,25745.599999905844
3267.9999999524443
e80,80,1799999978,25508.89999990929
r12,12,199999955,25745.499999905845
3266.299999952469
e80,80,1799999974,25509.299999909283
r12,12,199999985,25742.49999990589
3266.5999999524647
e80,80,1799999964,25510.299999909268
r12,12,199999984,25742.599999905888
3266.299999952469
e80,80,1799999982,25508.499999909294
r12,12,199999982,25742.799999905885
3269.4999999524225
e80,80,1799999976,25509.099999909286
r12,12,199999986,25742.39999990589
3267.399999952453
e80,80,1799999972,25509.49999990928
r12,12,199999962,25744.799999905856
3266.299999952469
e80,80,1799999966,25510.09999990927
r12,12,199999996,25741.399999905905
3270.3999999524094
e80,80,1799999970,25509.699999909277
r12,12,199999959,25745.09999990585
3268.29999995244
e80,80,1799999991,25507.599999909307
r12,12,199999973,25743.69999990587
3269.0999999524283
e80,80,1799999955,25511.199999909255
r12,12,199999991,25741.899999905898
3268.29999995244
e80,80,1799999952,25511.49999990925
r12,12,199999979,25743.09999990588
3271.199999952398
e80,80,1799999986,25508.0999999093
r12,12,199999972,25743.79999990587
3270.499999952408
e80,80,1799999990,25507.699999909306
r12,12,199999965,25744.49999990586
3270.1999999524123
e80,80,1799999965,25510.19999990927
r12,12,199999952,25745.79999990584
3267.199999952456
e80,80,1799999957,25510.999999909258
r12,12,199999958,25745.19999990585
3268.499999952437
e80,80,1799999995,25507.199999909313
r12,12,199999975,25743.499999905875
3271.599999952392
e80,80,1799999984,25508.299999909297
r12,12,199999999,25741.09999990591
3269.4999999524225
e80,80,1799999992,25507.49999990931
r12,12,199999969,25744.099999905866
3271.999999952386
e80,80,1799999980,25508.69999990929
r12,12,199999960,25744.999999905853
3270.699999952405
