r4,4,200000000,24366.09999992592
r27,27,199999995,24530.699999923523
l52,52,999999981,24945.39999991749
r28,28,199999997,24948.899999917438
l62,62,999999983,26183.999999899464
2395.699999965138
r4,4,199999958,24370.299999925857
r27,27,199999971,24533.09999992349
l52,52,999999996,24943.89999991751
r28,28,199999983,24950.299999917417
l62,62,999999966,26185.69999989944
2392.9999999651773
e71,71,1799999987,24137.299999929248
e83,83,1799999991,24281.39999992715
l35,35,999999982,24754.99999992026
l62,62,999999998,24758.39999992021
2392.8999999651787
r4,4,199999989,24367.199999925902
r27,27,199999981,24532.099999923503
l52,52,999999994,24944.099999917507
r28,28,199999963,24952.299999917388
l62,62,999999977,26184.599999899456
2395.3999999651423
r4,4,199999980,24368.09999992589
r27,27,199999955,24534.699999923465
l52,52,999999980,24945.499999917487
r28,28,199999970,24951.5999999174
l62,62,999999960,26186.29999989943
2392.9999999651773
e71,71,1799999999,24136.099999929265
e83,83,1799999957,24284.7999999271
l35,35,999999990,24754.19999992027
l62,62,999999992,24758.9999999202
2396.6999999651234
r4,4,199999955,24370.599999925853
r27,27,199999993,24530.89999992352
l52,52,999999972,24946.299999917475
r28,28,199999982,24950.399999917416
l62,62,999999971,26185.199999899447
2396.999999965119
r4,4,199999960,24370.09999992586
r27,27,199999998,24530.399999923528
l52,52,999999956,24947.899999917452
r28,28,199999951,24953.49999991737
l62,62,999999953,26186.99999989942
2393.1999999651744
r4,4,199999964,24369.699999925866
r27,27,199999983,24531.899999923506
l52,52,999999959,24947.599999917456
r28,28,199999959,24952.699999917382
l62,62,999999973,26184.99999989945
2395.3999999651423
r4,4,199999979,24368.199999925888
r27,27,199999972,24532.99999992349
l52,52,999999988,24944.6999999175
r28,28,199999986,24949.99999991742
l62,62,999999978,26184.499999899457
2393.299999965173
r4,4,199999984,24367.699999925895
r27,27,199999960,24534.199999923472
l52,52,999999964,24947.099999917464
r28,28,199999958,24952.79999991738
l62,62,999999969,26185.399999899444
2396.2999999651292
e71,71,1800000000,24135.999999929267
e83,83,1799999980,24282.499999927135
l35,35,999999961,24757.09999992023
l62,62,999999994,24758.799999920204
2397.9999999651045
r4,4,199999968,24369.29999992587
r27,27,199999994,24530.79999992352
l52,52,999999970,24946.499999917472
r28,28,199999955,24953.099999917376
l62,62,999999959,26186.39999989943
2395.5999999651394
e71,71,1799999984,24137.599999929243
e83,83,1799999970,24283.49999992712
l35,35,999999989,24754.29999992027
l62,62,999999988,24759.399999920195
2397.5999999651103
r4,4,199999973,24368.79999992588
r27,27,199999988,24531.399999923513
l52,52,999999993,24944.199999917506
r28,28,199999988,24949.799999917424
l62,62,999999982,26184.099999899463
2396.8999999651205
r4,4,199999997,24366.399999925914
r27,27,199999962,24533.999999923475
l52,52,999999957,24947.799999917454
r28,28,199999999,24948.69999991744
l62,62,999999952,26187.09999989942
2395.299999965144
r4,4,199999983,24367.799999925894
r27,27,199999989,24531.299999923514
l52,52,999999960,24947.499999917458
r28,28,199999967,24951.899999917394
l62,62,999999979,26184.39999989946
2398.099999965103
r4,4,199999970,24369.099999925875
r27,27,199999986,24531.59999992351
l52,52,999999969,24946.59999991747
r28,28,199999962,24952.399999917387
l62,62,999999965,26185.79999989944
2395.899999965135
r4,4,199999994,24366.69999992591
r27,27,199999953,24534.899999923462
l52,52,999999991,24944.399999917503
r28,28,199999953,24953.299999917373
l62,62,999999967,26185.59999989944
2395.699999965138
r4,4,199999971,24368.999999925876
r27,27,199999999,24530.29999992353
l52,52,999999973,24946.199999917477
r28,28,199999973,24951.299999917403
l62,62,999999954,26186.899999899422
2394.999999965148
e71,71,1799999965,24139.499999929216
e83,83,1799999951,24285.399999927093
l35,35,999999967,24756.499999920237
l62,62,999999999,24758.29999992021
2395.699999965138
e71,71,1799999994,24136.599999929258
e83,83,1799999955,24284.9999999271
l35,35,999999955,24757.69999992022
l62,62,999999996,24758.599999920207
2395.0999999651467
r4,4,199999954,24370.69999992585
r27,27,199999987,24531.49999992351
l52,52,999999954,24948.09999991745
r28,28,199999975,24951.099999917406
l62,62,999999964,26185.899999899437
2395.499999965141
r4,4,199999951,24370.999999925847
r27,27,199999957,24534.499999923468
l52,52,999999961,24947.39999991746
r28,28,199999964,24952.19999991739
l62,62,999999958,26186.499999899428
2397.899999965106
r4,4,199999982,24367.899999925892
r27,27,199999956,24534.599999923466
l52,52,999999958,24947.699999917455
r28,28,199999990,24949.599999917427
l62,62,999999984,26183.899999899466
2394.6999999651525
r4,4,199999966,24369.49999992587
r27,27,199999982,24531.999999923504
l52,52,999999977,24945.799999917483
r28,28,199999965,24952.09999991739
l62,62,999999981,26184.19999989946
2398.4999999650972
e71,71,1799999952,24140.799999929197
e83,83,1799999973,24283.199999927125
l35,35,999999984,24754.799999920262
l62,62,999999989,24759.299999920197
2397.5999999651103
r4,4,199999990,24367.099999925904
r27,27,199999951,24535.09999992346
l52,52,999999971,24946.399999917474
r28,28,200000000,24948.599999917442
l62,62,999999972,26185.09999989945
2399.2999999650856
e71,71,1799999997,24136.299999929262
e83,83,1799999989,24281.599999927148
l35,35,999999956,24757.59999992022
l62,62,1000000000,24758.199999920213
2399.7999999650783
r4,4,199999981,24367.99999992589
r27,27,199999984,24531.799999923507
l52,52,999999974,24946.09999991748
r28,28,199999974,24951.199999917404
l62,62,999999963,26185.999999899435
2398.099999965103
r4,4,199999992,24366.899999925907
r27,27,199999973,24532.89999992349
l52,52,999999984,24945.099999917493
r28,28,199999961,24952.499999917385
l62,62,999999975,26184.799999899453
2395.7999999651365
r4,4,199999974,24368.69999992588
r27,27,199999969,24533.299999923485
l52,52,999999951,24948.399999917445
r28,28,199999971,24951.4999999174
l62,62,999999970,26185.299999899446
2399.199999965087
e71,71,1799999974,24138.59999992923
e83,83,1799999971,24283.399999927122
l35,35,999999953,24757.899999920217
l62,62,999999987,24759.499999920194
2396.399999965128
r4,4,199999969,24369.199999925873
r27,27,199999974,24532.799999923493
l52,52,999999955,24947.99999991745
r28,28,199999991,24949.49999991743
l62,62,999999955,26186.799999899424
2399.0999999650885
e71,71,1799999969,24139.09999992922
e83,83,1799999992,24281.299999927152
l35,35,999999979,24755.299999920255
l62,62,999999986,24759.599999920192
2397.899999965106
r4,4,199999988,24367.2999999259
r27,27,199999985,24531.69999992351
l52,52,999999987,24944.799999917497
r28,28,199999994,24949.199999917433
l62,62,999999968,26185.499999899443
2396.8999999651205
e71,71,1799999983,24137.699999929242
e83,83,1799999983,24282.19999992714
l35,35,999999987,24754.499999920266
l62,62,999999990,24759.199999920198
2398.3999999650987
r4,4,199999995,24366.59999992591
r27,27,199999966,24533.59999992348
l52,52,999999978,24945.699999917484
r28,28,199999957,24952.89999991738
l62,62,999999962,26186.099999899434
2397.199999965116
e71,71,1799999951,24140.899999929195
e83,83,1799999987,24281.799999927145
l35,35,999999981,24755.099999920258
l62,62,999999993,24758.899999920202
2400.8999999650623
r4,4,199999952,24370.89999992585
r27,27,199999996,24530.599999923525
l52,52,999999966,24946.899999917467
r28,28,199999984,24950.19999991742
l62,62,999999980,26184.29999989946
2396.099999965132
e71,71,1799999991,24136.899999929254
e83,83,1799999986,24281.899999927144
l35,35,999999954,24757.79999992022
l62,62,999999995,24758.699999920205
2398.2999999651
r4,4,199999963,24369.799999925865
r27,27,199999992,24530.99999992352
l52,52,999999979,24945.599999917486
r28,28,199999996,24948.999999917436
l62,62,999999961,26186.199999899432
2399.4999999650827
e71,71,1799999955,24140.4999999292
e83,83,1799999966,24283.899999927115
l35,35,999999974,24755.799999920248
l62,62,999999985,24759.69999992019
2398.1999999651016
e71,71,1799999979,24138.099999929236
e83,83,1799999974,24283.099999927126
l35,35,999999962,24756.99999992023
l62,62,999999997,24758.49999992021
2397.899999965106
e71,71,1799999961,24139.89999992921
e83,83,1799999954,24285.099999927097
l35,35,999999998,24753.399999920282
l62,62,999999991,24759.0999999202
2400.299999965071
r4,4,199999975,24368.599999925882
r27,27,199999954,24534.799999923463
l52,52,999999968,24946.69999991747
r28,28,199999992,24949.39999991743
l62,62,999999957,26186.599999899427
2401.2999999650565
r4,4,199999999,24366.199999925917
r27,27,199999977,24532.499999923497
l52,52,999999975,24945.99999991748
r28,28,199999976,24950.999999917407
l62,62,999999976,26184.699999899454
2398.6999999650943
r4,4,199999972,24368.899999925878
r27,27,199999963,24533.899999923477
l52,52,999999962,24947.29999991746
r28,28,199999978,24950.79999991741
l62,62,999999974,26184.89999989945
2399.599999965081
r4,4,199999978,24368.299999925886
r27,27,199999980,24532.1999999235
l52,52,999999976,24945.89999991748
r28,28,199999995,24949.099999917435
l62,62,999999951,26187.199999899418
2399.4999999650827
r4,4,199999965,24369.599999925867
r27,27,199999990,24531.199999923516
l52,52,999999965,24946.999999917465
r28,28,199999977,24950.89999991741
l62,62,999999956,26186.699999899425
2401.599999965052
