r31,31,199999984,24321.599999926566
e95,95,1799999994,24428.699999925007
e96,96,1799999969,25682.799999906758
2553.9999999628344
r31,31,199999966,24323.39999992654
e95,95,1799999960,24432.099999924958
e96,96,1799999962,25683.499999906748
2555.0999999628184
r31,31,199999977,24322.299999926556
e95,95,1799999953,24432.799999924948
e96,96,1799999961,25683.599999906746
2556.099999962804
r31,31,199999992,24320.799999926578
e95,95,1799999968,24431.29999992497
e96,96,1799999984,25681.29999990678
2553.7999999628373
r31,31,199999980,24321.99999992656
e95,95,1799999980,24430.099999924987
e96,96,1799999997,25679.9999999068
2552.8999999628504
r31,31,199999973,24322.69999992655
e95,95,1799999964,24431.699999924964
e96,96,1799999980,25681.699999906774
2553.699999962839
r31,31,199999956,24324.399999926525
e95,95,1799999989,24429.199999925
e96,96,1799999957,25683.99999990674
2552.3999999628577
r31,31,199999953,24324.69999992652
e95,95,1799999993,24428.799999925006
e96,96,1799999971,25682.59999990676
2553.7999999628373
r31,31,199999975,24322.499999926553
e95,95,1799999987,24429.399999924997
e96,96,1799999977,25681.99999990677
2555.199999962817
r31,31,199999985,24321.499999926567
e95,95,1799999992,24428.899999925005
e96,96,1799999985,25681.19999990678
2554.1999999628315
r31,31,199999999,24320.099999926588
e95,95,1799999951,24432.999999924945
e96,96,1799999999,25679.7999999068
2555.0999999628184
r31,31,199999955,24324.499999926524
e95,95,1799999972,24430.899999924975
e96,96,1799999965,25683.199999906752
2552.4999999628562
r31,31,199999958,24324.199999926528
e95,95,1799999970,24431.099999924973
e96,96,1799999989,25680.799999906787
2557.399999962785
r31,31,199999957,24324.299999926527
e95,95,1799999965,24431.599999924965
e96,96,1799999982,25681.499999906777
2555.199999962817
r31,31,199999990,24320.999999926575
e95,95,1799999969,24431.19999992497
e96,96,1799999992,25680.49999990679
2553.4999999628417
r31,31,199999971,24322.899999926547
e95,95,1799999978,24430.299999924984
e96,96,1799999986,25681.099999906783
2556.299999962801
r31,31,199999995,24320.499999926582
e95,95,1799999976,24430.49999992498
e96,96,1799999973,25682.399999906764
2556.099999962804
r31,31,199999991,24320.899999926576
e95,95,1799999983,24429.79999992499
e96,96,1799999981,25681.599999906775
2554.3999999628286
r31,31,199999954,24324.599999926522
e95,95,1799999973,24430.799999924977
e96,96,1799999995,25680.199999906796
2557.399999962785
r31,31,199999997,24320.299999926585
e95,95,1799999991,24428.999999925003
e96,96,1799999991,25680.59999990679
2557.399999962785
r31,31,199999964,24323.599999926537
e95,95,1799999997,24428.39999992501
e96,96,1799999993,25680.399999906793
2555.799999962808
r31,31,199999972,24322.79999992655
e95,95,1799999958,24432.299999924955
e96,96,1799999975,25682.199999906767
2553.9999999628344
r31,31,199999986,24321.39999992657
e95,95,1799999998,24428.299999925013
e96,96,1799999972,25682.499999906762
2557.2999999627864
r31,31,199999970,24322.999999926546
e95,95,1799999982,24429.89999992499
e96,96,1799999959,25683.799999906743
2557.199999962788
r31,31,199999974,24322.59999992655
e95,95,1799999990,24429.099999925
e96,96,1799999974,25682.299999906765
2558.3999999627704
r31,31,199999996,24320.399999926583
e95,95,1799999981,24429.99999992499
e96,96,1799999967,25682.999999906755
2556.7999999627937
r31,31,199999981,24321.89999992656
e95,95,1799999963,24431.799999924962
e96,96,1799999976,25682.099999906768
2555.599999962811
r31,31,199999962,24323.799999926534
e95,95,1799999961,24431.99999992496
e96,96,1799999963,25683.39999990675
2554.3999999628286
r31,31,199999982,24321.799999926563
e95,95,1799999955,24432.59999992495
e96,96,1799999956,25684.09999990674
2559.09999996276
r31,31,199999988,24321.19999992657
e95,95,1799999977,24430.399999924983
e96,96,1799999996,25680.099999906797
2554.499999962827
r31,31,199999987,24321.29999992657
e95,95,1799999988,24429.299999925
e96,96,1799999954,25684.299999906736
2554.99999996282
r31,31,199999976,24322.399999926554
e95,95,1799999959,24432.199999924957
e96,96,1799999966,25683.099999906754
2558.7999999627646
r31,31,199999961,24323.899999926532
e95,95,1799999996,24428.49999992501
e96,96,1799999955,25684.199999906738
2558.499999962769
r31,31,199999994,24320.59999992658
e95,95,1799999967,24431.399999924968
e96,96,1799999988,25680.899999906786
2558.499999962769
r31,31,199999968,24323.199999926543
e95,95,1799999956,24432.499999924952
e96,96,1799999979,25681.799999906772
2559.4999999627544
r31,31,199999960,24323.99999992653
e95,95,1799999974,24430.69999992498
e96,96,1799999970,25682.69999990676
2556.099999962804
r31,31,199999969,24323.099999926544
e95,95,1799999952,24432.899999924946
e96,96,1799999994,25680.299999906794
2555.9999999628053
r31,31,199999951,24324.899999926518
e95,95,1799999971,24430.999999924974
e96,96,1799999964,25683.29999990675
2557.0999999627893
r31,31,199999979,24322.09999992656
e95,95,1799999986,24429.499999924996
e96,96,1799999952,25684.499999906733
2558.3999999627704
r31,31,199999963,24323.699999926535
e95,95,1799999957,24432.399999924954
e96,96,1799999998,25679.8999999068
2555.399999962814
r31,31,199999993,24320.69999992658
e95,95,1799999984,24429.699999924993
e96,96,1799999978,25681.89999990677
2559.399999962756
r31,31,199999967,24323.29999992654
e95,95,1799999999,24428.199999925015
e96,96,1799999960,25683.699999906745
2556.299999962801
r31,31,200000000,24319.99999992659
e95,95,1799999979,24430.199999924986
e96,96,1799999983,25681.39999990678
2557.799999962779
r31,31,199999983,24321.699999926564
e95,95,1799999962,24431.89999992496
e96,96,1799999951,25684.59999990673
2556.5999999627966
r31,31,199999989,24321.099999926573
e95,95,1799999954,24432.69999992495
e96,96,1799999968,25682.899999906756
2560.199999962744
r31,31,199999965,24323.49999992654
e95,95,1799999985,24429.599999924994
e96,96,1800000000,25679.699999906803
2557.399999962785
r31,31,199999978,24322.199999926557
e95,95,1799999995,24428.59999992501
e96,96,1799999953,25684.399999906735
2557.399999962785
r31,31,199999998,24320.199999926586
e95,95,1799999975,24430.59999992498
e96,96,1799999958,25683.899999906742
2559.399999962756
r31,31,199999952,24324.79999992652
e95,95,1799999966,24431.499999924967
e96,96,1799999987,25680.999999906784
2558.9999999627616
r31,31,199999959,24324.09999992653
e95,95,1800000000,24428.099999925016
e96,96,1799999990,25680.69999990679
2558.5999999627675
