3679999  Hetero10
3759999  Hetero11
3559999  Hetero12
3599999  Hetero13
35699999  Hetero14
3599999  Hetero15
3739999  Hetero16
3619999  Hetero17
3639999  Hetero18
3679999  Hetero19
3579999  Hetero1
4066665  Hetero20
3719999  Hetero21
14153842  Hetero22
3839999  Hetero23
3599999  Hetero24
19759999  Hetero25
3719999  Hetero2
3459999  Hetero3
11933330  Hetero4
3791665  Hetero5
20312498  Hetero6
3679999  Hetero7
3899999  Hetero8
3759999  Hetero9
