e79,79,1792000000,2961.399999998402
l36,36,989999998,3174.0999999982087
r6,6,179999967,4954.800000000494
5232.900000001506
e79,79,1790999977,2963.7999999984
l36,36,988999951,3178.8999999982043
r6,6,179999960,4955.500000000497
5233.000000001506
e79,79,1790999983,2963.1999999984005
l36,36,988999966,3177.3999999982057
r6,6,181999997,4951.600000000482
5233.1000000015065
e79,79,1791999998,2961.599999998402
l36,36,989999997,3174.1999999982086
r6,6,179999956,4955.900000000498
5233.200000001507
e79,79,1790999952,2966.2999999983977
l36,36,988999960,3177.999999998205
r6,6,181999991,4952.200000000485
5233.300000001507
e79,79,1790999961,2965.3999999983985
l36,36,988999970,3176.999999998206
r6,6,179999952,4956.3000000004995
5233.400000001508
e79,79,1790999968,2964.699999998399
l36,36,989999982,3175.699999998207
r6,6,180999982,4953.200000000488
5233.500000001508
e79,79,1790999972,2964.2999999983995
l36,36,988999962,3177.7999999982053
r6,6,179999966,4954.900000000494
5233.600000001508
e79,79,1790999978,2963.6999999984
l36,36,988999953,3178.6999999982045
r6,6,179999975,4954.000000000491
5233.700000001509
e79,79,1790999982,2963.2999999984004
l36,36,989999992,3174.699999998208
r6,6,179999951,4956.4000000005
5233.800000001509
e79,79,1790999985,2962.9999999984007
l36,36,989999996,3174.2999999982085
r6,6,179999963,4955.2000000004955
5233.900000001509
e79,79,1791999997,2961.699999998402
l36,36,989999985,3175.3999999982075
r6,6,179999962,4955.300000000496
5234.00000000151
e79,79,1790999963,2965.1999999983987
l36,36,988999977,3176.2999999982067
r6,6,181999995,4951.800000000483
5234.10000000151
e79,79,1790999953,2966.1999999983977
l36,36,988999952,3178.7999999982044
r6,6,181999988,4952.500000000486
5234.2000000015105
e79,79,1790999976,2963.8999999984
l36,36,989999994,3174.4999999982083
r6,6,180999981,4953.300000000489
5234.300000001511
e79,79,1790999956,2965.899999998398
l36,36,988999974,3176.5999999982064
r6,6,179999964,4955.100000000495
5234.400000001511
e79,79,1790999970,2964.4999999983993
l36,36,988999968,3177.199999998206
r6,6,179999974,4954.1000000004915
5234.500000001512
e79,79,1790999984,2963.0999999984006
l36,36,988999979,3176.099999998207
r6,6,180999984,4953.0000000004875
5234.600000001512
e79,79,1790999989,2962.599999998401
l36,36,989999999,3173.9999999982088
r6,6,181999996,4951.700000000483
5234.700000001512
e79,79,1791999995,2961.8999999984017
l36,36,989999991,3174.799999998208
r6,6,179999957,4955.800000000498
5234.800000001513
e79,79,1790999954,2966.099999998398
l36,36,988999975,3176.4999999982065
r6,6,180999983,4953.100000000488
5234.900000001513
e79,79,1790999958,2965.699999998398
l36,36,988999955,3178.4999999982047
r6,6,179999953,4956.200000000499
5235.000000001513
e79,79,1791999996,2961.7999999984017
l36,36,988999967,3177.2999999982057
r6,6,180999979,4953.500000000489
5235.100000001514
e79,79,1790999979,2963.5999999984
l36,36,988999965,3177.4999999982056
r6,6,179999955,4956.000000000498
5235.200000001514
e79,79,1790999964,2965.0999999983987
l36,36,989999983,3175.5999999982073
r6,6,179999968,4954.700000000494
5235.3000000015145
e79,79,1790999960,2965.4999999983984
l36,36,989999995,3174.3999999982084
r6,6,181999998,4951.500000000482
5235.400000001515
e79,79,1790999967,2964.799999998399
l36,36,988999971,3176.899999998206
r6,6,179999971,4954.400000000493
5235.500000001515
e79,79,1791999993,2962.0999999984015
l36,36,988999973,3176.6999999982063
r6,6,181999993,4952.000000000484
5235.600000001516
e79,79,1790999987,2962.799999998401
l36,36,988999958,3178.199999998205
r6,6,180999978,4953.60000000049
5235.700000001516
e79,79,1790999955,2965.999999998398
l36,36,989999986,3175.2999999982076
r6,6,179999954,4956.100000000499
5235.800000001516
e79,79,1790999965,2964.999999998399
l36,36,988999976,3176.3999999982066
r6,6,182000000,4951.300000000481
5235.900000001517
e79,79,1790999988,2962.699999998401
l36,36,989999989,3174.999999998208
r6,6,181999994,4951.9000000004835
5236.000000001517
e79,79,1790999973,2964.1999999983996
l36,36,988999964,3177.5999999982055
r6,6,179999976,4953.900000000491
5236.100000001517
e79,79,1790999962,2965.2999999983986
l36,36,988999956,3178.3999999982047
r6,6,179999959,4955.600000000497
5236.200000001518
e79,79,1790999975,2963.9999999983997
l36,36,989999993,3174.599999998208
r6,6,181999985,4952.800000000487
5236.300000001518
e79,79,1791999999,2961.499999998402
l36,36,988999954,3178.5999999982046
r6,6,180999977,4953.70000000049
5236.4000000015185
e79,79,1791999991,2962.2999999984013
l36,36,988999959,3178.099999998205
r6,6,181999992,4952.100000000484
5236.500000001519
e79,79,1790999981,2963.3999999984003
l36,36,988999969,3177.099999998206
r6,6,179999969,4954.600000000493
5236.600000001519
e79,79,1790999966,2964.899999998399
l36,36,988999978,3176.1999999982067
r6,6,179999973,4954.200000000492
5236.70000000152
e79,79,1790999971,2964.3999999983994
l36,36,988999963,3177.6999999982054
r6,6,179999970,4954.500000000493
5236.80000000152
e79,79,1790999951,2966.3999999983976
l36,36,989999981,3175.799999998207
r6,6,181999999,4951.400000000482
5236.90000000152
e79,79,1790999974,2964.0999999983997
l36,36,988999972,3176.799999998206
r6,6,179999961,4955.400000000496
5237.000000001521
e79,79,1791999994,2961.9999999984016
l36,36,989999987,3175.1999999982077
r6,6,181999990,4952.300000000485
5237.100000001521
e79,79,1790999980,2963.4999999984
l36,36,989999990,3174.899999998208
r6,6,181999989,4952.400000000485
5237.200000001521
e79,79,1791999990,2962.399999998401
l36,36,990000000,3173.899999998209
r6,6,179999958,4955.700000000497
5237.300000001522
e79,79,1790999959,2965.5999999983983
l36,36,989999988,3175.0999999982077
r6,6,180999980,4953.400000000489
5237.400000001522
e79,79,1790999986,2962.8999999984007
l36,36,988999961,3177.899999998205
r6,6,179999965,4955.000000000495
5237.5000000015225
e79,79,1791999992,2962.1999999984014
l36,36,988999957,3178.299999998205
r6,6,181999987,4952.600000000486
5237.600000001523
e79,79,1790999957,2965.799999998398
l36,36,989999980,3175.899999998207
r6,6,181999986,4952.700000000486
5237.700000001523
e79,79,1790999969,2964.599999998399
l36,36,989999984,3175.4999999982074
r6,6,179999972,4954.300000000492
5237.800000001524
