r30,30,186999968,2932.4999999984284
l35,35,985999952,3209.099999998177
l68,68,985999965,3231.899999998156
3910.499999997539
r30,30,186999977,2931.599999998429
l35,35,992999977,3205.8999999981797
l68,68,991999996,3228.1999999981595
3910.599999997539
r30,30,186999983,2930.9999999984298
l35,35,991999971,3206.599999998179
l68,68,989999970,3230.999999998157
3910.6999999975387
r30,30,186999952,2934.099999998427
l35,35,985999953,3208.999999998177
l68,68,989999971,3230.899999998157
3910.7999999975386
r30,30,186999976,2931.699999998429
l35,35,986999954,3208.799999998177
l68,68,991999997,3228.0999999981595
3910.8999999975385
r30,30,186999960,2933.2999999984277
l35,35,986999955,3208.699999998177
l68,68,990999983,3229.599999998158
3910.9999999975385
r30,30,186999971,2932.1999999984287
l35,35,995999985,3204.7999999981807
l68,68,985999968,3231.5999999981564
3911.0999999975384
r30,30,186999963,2932.999999998428
l35,35,991999966,3207.0999999981786
l68,68,985999955,3232.899999998155
3911.1999999975383
r30,30,186999989,2930.3999999984303
l35,35,992999975,3206.0999999981796
l68,68,989999974,3230.5999999981573
3911.299999997538
r30,30,186999996,2929.699999998431
l35,35,991999969,3206.799999998179
l68,68,991999986,3229.1999999981585
3911.399999997538
r30,30,186999988,2930.49999999843
l35,35,996999998,3203.399999998182
l68,68,985999958,3232.5999999981555
3911.499999997538
r30,30,186999973,2931.999999998429
l35,35,992999979,3205.69999999818
l68,68,985999957,3232.6999999981554
3911.599999997538
r30,30,186999978,2931.4999999984293
l35,35,991999967,3206.9999999981787
l68,68,985999966,3231.799999998156
3911.699999997538
r30,30,186999970,2932.2999999984286
l35,35,996999990,3204.1999999981813
l68,68,985999969,3231.4999999981565
3911.7999999975377
r30,30,186999993,2929.9999999984307
l35,35,985999951,3209.1999999981767
l68,68,989999975,3230.4999999981574
3911.8999999975376
r30,30,186999980,2931.2999999984295
l35,35,989999958,3208.0999999981777
l68,68,985999951,3233.299999998155
3911.9999999975375
r30,30,186999982,2931.0999999984297
l35,35,987999956,3208.4999999981774
l68,68,994000000,3227.59999999816
3912.0999999975375
r30,30,186999984,2930.89999999843
l35,35,996999992,3203.9999999981815
l68,68,985999954,3232.999999998155
3912.1999999975374
r30,30,186999999,2929.399999998431
l35,35,991999963,3207.3999999981784
l68,68,985999964,3231.999999998156
3912.2999999975373
r30,30,186999957,2933.5999999984274
l35,35,996999989,3204.299999998181
l68,68,990999984,3229.4999999981583
3912.399999997537
r30,30,186999991,2930.1999999984305
l35,35,994999983,3205.0999999981805
l68,68,989999978,3230.1999999981576
3912.499999997537
r30,30,186999961,2933.1999999984278
l35,35,991999965,3207.1999999981786
l68,68,989999972,3230.799999998157
3912.599999997537
r30,30,186999955,2933.799999998427
l35,35,996999991,3204.0999999981814
l68,68,985999961,3232.2999999981557
3912.699999997537
r30,30,186999992,2930.0999999984306
l35,35,989999960,3207.899999998178
l68,68,985999953,3233.099999998155
3912.799999997537
r30,30,186999953,2933.999999998427
l35,35,993999981,3205.39999999818
l68,68,991999990,3228.799999998159
3912.8999999975367
r30,30,186999959,2933.3999999984276
l35,35,992999980,3205.59999999818
l68,68,989999980,3229.999999998158
3912.9999999975366
r30,30,186999998,2929.499999998431
l35,35,996999999,3203.299999998182
l68,68,991999992,3228.599999998159
3913.0999999975365
r30,30,186999987,2930.59999999843
l35,35,996999996,3203.599999998182
l68,68,985999952,3233.199999998155
3913.1999999975365
r30,30,186999990,2930.2999999984304
l35,35,989999959,3207.999999998178
l68,68,989999976,3230.3999999981575
3913.2999999975364
r30,30,186999986,2930.69999999843
l35,35,991999974,3206.2999999981794
l68,68,985999962,3232.199999998156
3913.3999999975363
r30,30,186999994,2929.8999999984308
l35,35,992999976,3205.9999999981796
l68,68,989999977,3230.2999999981575
3913.499999997536
r30,30,186999962,2933.099999998428
l35,35,996999994,3203.7999999981816
l68,68,991999985,3229.2999999981585
3913.599999997536
r30,30,186999972,2932.0999999984288
l35,35,996999997,3203.499999998182
l68,68,991999988,3228.9999999981587
3913.699999997536
r30,30,186999975,2931.799999998429
l35,35,991999973,3206.3999999981793
l68,68,989999979,3230.0999999981577
3913.799999997536
r30,30,186999995,2929.799999998431
l35,35,996999995,3203.6999999981817
l68,68,985999963,3232.099999998156
3913.899999997536
r30,30,186999964,2932.899999998428
l35,35,1000000000,3202.8999999981825
l68,68,991999989,3228.899999998159
3913.9999999975357
r30,30,186999965,2932.799999998428
l35,35,996999993,3203.8999999981816
l68,68,991999987,3229.0999999981586
3914.0999999975356
r30,30,186999954,2933.899999998427
l35,35,991999968,3206.899999998179
l68,68,991999993,3228.499999998159
3914.1999999975355
r30,30,186999974,2931.899999998429
l35,35,995999986,3204.699999998181
l68,68,985999959,3232.4999999981555
3914.2999999975355
r30,30,186999997,2929.599999998431
l35,35,991999962,3207.4999999981783
l68,68,991999995,3228.2999999981594
3914.3999999975354
r30,30,186999979,2931.3999999984294
l35,35,992999978,3205.79999999818
l68,68,989999973,3230.699999998157
3914.4999999975353
r30,30,186999985,2930.79999999843
l35,35,994999984,3204.9999999981806
l68,68,993999999,3227.69999999816
3914.599999997535
r30,30,186999951,2934.199999998427
l35,35,995999987,3204.599999998181
l68,68,993999998,3227.79999999816
3914.699999997535
r30,30,186999981,2931.1999999984296
l35,35,991999972,3206.499999998179
l68,68,989999981,3229.899999998158
3914.799999997535
r30,30,186999969,2932.3999999984285
l35,35,989999957,3208.1999999981776
l68,68,989999982,3229.799999998158
3914.899999997535
r30,30,186999967,2932.5999999984283
l35,35,994999982,3205.1999999981804
l68,68,991999991,3228.699999998159
3914.999999997535
r30,30,187000000,2929.2999999984313
l35,35,989999961,3207.799999998178
l68,68,985999967,3231.6999999981563
3915.0999999975347
r30,30,186999958,2933.4999999984275
l35,35,991999970,3206.699999998179
l68,68,985999960,3232.3999999981556
3915.1999999975346
r30,30,186999956,2933.6999999984273
l35,35,996999988,3204.399999998181
l68,68,991999994,3228.3999999981593
3915.2999999975345
r30,30,186999966,2932.699999998428
l35,35,991999964,3207.2999999981785
l68,68,985999956,3232.7999999981553
3915.3999999975345
