l65,65,991999974,2652.499999998683
l47,47,987999985,2804.499999998545
e76,76,1785999978,3005.399999998362
4531.499999998954
l65,65,991999968,2653.0999999986825
l47,47,987999961,2806.8999999985426
e76,76,1789999997,3003.099999998364
4531.599999998954
l65,65,991999981,2651.7999999986837
l47,47,987999974,2805.599999998544
e76,76,1786999983,3004.7999999983626
4531.699999998955
l65,65,991999992,2650.6999999986847
l47,47,987999982,2804.7999999985445
e76,76,1785999976,3005.599999998362
4531.799999998955
l65,65,991999963,2653.599999998682
l47,47,987999958,2807.1999999985424
e76,76,1786999985,3004.599999998363
4531.8999999989555
l65,65,991999975,2652.399999998683
l47,47,987999998,2803.199999998546
e76,76,1786999986,3004.499999998363
4531.999999998956
l65,65,991999990,2650.8999999986845
l47,47,987999954,2807.599999998542
e76,76,1789999992,3003.5999999983637
4532.099999998956
l65,65,991999965,2653.3999999986822
l47,47,987999967,2806.299999998543
e76,76,1788999989,3003.9999999983634
4532.199999998957
l65,65,991999998,2650.0999999986852
l47,47,987999975,2805.499999998544
e76,76,1784999951,3008.1999999983595
4532.299999998957
l65,65,991999991,2650.7999999986846
l47,47,987999989,2804.099999998545
e76,76,1784999970,3006.2999999983613
4532.399999998957
l65,65,991999960,2653.899999998682
l47,47,987999977,2805.299999998544
e76,76,1784999965,3006.799999998361
4532.499999998958
l65,65,991999999,2649.9999999986853
l47,47,987999968,2806.1999999985433
e76,76,1785999980,3005.1999999983623
4532.599999998958
l65,65,991999962,2653.699999998682
l47,47,987999997,2803.299999998546
e76,76,1790000000,3002.7999999983645
4532.699999998958
l65,65,991999977,2652.1999999986833
l47,47,987999973,2805.6999999985437
e76,76,1785999975,3005.699999998362
4532.799999998959
l65,65,991999961,2653.799999998682
l47,47,987999960,2806.9999999985425
e76,76,1784999957,3007.59999999836
4532.899999998959
l65,65,991999978,2652.0999999986834
l47,47,987999983,2804.6999999985446
e76,76,1785999973,3005.8999999983616
4532.9999999989595
l65,65,991999967,2653.1999999986824
l47,47,987999993,2803.6999999985455
e76,76,1789999999,3002.8999999983644
4533.09999999896
l65,65,991999989,2650.9999999986844
l47,47,987999980,2804.9999999985444
e76,76,1784999966,3006.699999998361
4533.19999999896
l65,65,991999951,2654.799999998681
l47,47,987999981,2804.8999999985444
e76,76,1784999967,3006.599999998361
4533.299999998961
l65,65,991999983,2651.599999998684
l47,47,987999969,2806.0999999985434
e76,76,1784999956,3007.69999999836
4533.399999998961
l65,65,991999979,2651.9999999986835
l47,47,987999953,2807.699999998542
e76,76,1784999963,3006.9999999983606
4533.499999998961
l65,65,991999985,2651.399999998684
l47,47,987999994,2803.5999999985456
e76,76,1787999988,3004.199999998363
4533.599999998962
l65,65,991999994,2650.499999998685
l47,47,987999976,2805.399999998544
e76,76,1789999995,3003.299999998364
4533.699999998962
l65,65,991999957,2654.1999999986815
l47,47,987999978,2805.199999998544
e76,76,1784999959,3007.3999999983603
4533.799999998962
l65,65,991999953,2654.599999998681
l47,47,987999995,2803.4999999985457
e76,76,1785999977,3005.499999998362
4533.899999998963
l65,65,991999986,2651.299999998684
l47,47,987999987,2804.299999998545
e76,76,1784999968,3006.499999998361
4533.999999998963
l65,65,991999958,2654.0999999986816
l47,47,987999996,2803.399999998546
e76,76,1784999961,3007.1999999983605
4534.0999999989635
l65,65,991999976,2652.2999999986832
l47,47,987999972,2805.7999999985436
e76,76,1784999954,3007.89999999836
4534.199999998964
l65,65,991999993,2650.599999998685
l47,47,988000000,2802.999999998546
e76,76,1784999971,3006.1999999983614
4534.299999998964
l65,65,991999964,2653.499999998682
l47,47,987999962,2806.7999999985427
e76,76,1785999974,3005.7999999983617
4534.399999998965
l65,65,991999980,2651.8999999986836
l47,47,987999956,2807.399999998542
e76,76,1784999958,3007.49999999836
4534.499999998965
l65,65,991999955,2654.3999999986813
l47,47,987999957,2807.2999999985423
e76,76,1788999990,3003.8999999983635
4534.599999998965
l65,65,991999959,2653.9999999986817
l47,47,987999951,2807.8999999985417
e76,76,1784999969,3006.399999998361
4534.699999998966
l65,65,991999970,2652.8999999986827
l47,47,987999971,2805.8999999985435
e76,76,1784999953,3007.9999999983597
4534.799999998966
l65,65,991999984,2651.499999998684
l47,47,987999988,2804.199999998545
e76,76,1789999998,3002.9999999983643
4534.899999998966
l65,65,991999972,2652.699999998683
l47,47,987999984,2804.5999999985447
e76,76,1789999991,3003.6999999983636
4534.999999998967
l65,65,991999969,2652.9999999986826
l47,47,987999964,2806.599999998543
e76,76,1784999960,3007.2999999983604
4535.099999998967
l65,65,991999988,2651.0999999986843
l47,47,987999966,2806.399999998543
e76,76,1786999984,3004.6999999983627
4535.1999999989675
l65,65,991999982,2651.699999998684
l47,47,987999990,2803.9999999985453
e76,76,1785999981,3005.0999999983624
4535.299999998968
l65,65,991999973,2652.599999998683
l47,47,987999965,2806.499999998543
e76,76,1789999996,3003.199999998364
4535.399999998968
l65,65,991999987,2651.1999999986842
l47,47,987999999,2803.099999998546
e76,76,1785999972,3005.9999999983615
4535.499999998969
l65,65,991999996,2650.299999998685
l47,47,987999992,2803.7999999985454
e76,76,1786999982,3004.8999999983625
4535.599999998969
l65,65,991999971,2652.799999998683
l47,47,987999963,2806.699999998543
e76,76,1784999962,3007.0999999983605
4535.699999998969
l65,65,991999952,2654.699999998681
l47,47,987999991,2803.8999999985454
e76,76,1784999964,3006.8999999983607
4535.79999999897
l65,65,992000000,2649.8999999986854
l47,47,987999952,2807.799999998542
e76,76,1789999994,3003.399999998364
4535.89999999897
l65,65,991999995,2650.399999998685
l47,47,987999979,2805.0999999985443
e76,76,1784999952,3008.0999999983596
4535.99999999897
l65,65,991999956,2654.2999999986814
l47,47,987999970,2805.9999999985434
e76,76,1785999979,3005.299999998362
4536.099999998971
l65,65,991999997,2650.199999998685
l47,47,987999959,2807.0999999985424
e76,76,1787999987,3004.299999998363
4536.199999998971
l65,65,991999954,2654.4999999986812
l47,47,987999986,2804.399999998545
e76,76,1789999993,3003.499999998364
4536.2999999989715
l65,65,991999966,2653.2999999986823
l47,47,987999955,2807.499999998542
e76,76,1784999955,3007.79999999836
4536.399999998972
