l68,68,991999991,2811.099999998539
r4,4,188999955,2922.5999999984374
l65,65,987999999,3088.099999998287
r6,6,180999966,4038.099999997423
r30,30,178999991,4047.599999997414
4279.399999998037
l68,68,992999998,2810.2999999985395
r4,4,190999983,2919.59999999844
l65,65,987999960,3091.9999999982833
r6,6,180999957,4038.999999997422
r30,30,178999980,4048.699999997413
4279.499999998037
l68,68,989999976,2812.7999999985373
r4,4,188999974,2920.699999998439
l65,65,987999990,3088.999999998286
r6,6,180999969,4037.799999997423
r30,30,178999960,4050.6999999974114
4279.599999998038
l68,68,989999978,2812.5999999985374
r4,4,188999968,2921.2999999984386
l65,65,987999955,3092.499999998283
r6,6,180999954,4039.2999999974218
r30,30,178999997,4046.9999999974148
4279.699999998038
l68,68,987999959,2814.6999999985355
r4,4,188999973,2920.799999998439
l65,65,987999961,3091.8999999982834
r6,6,180999994,4035.2999999974254
r30,30,178999996,4047.0999999974147
4279.799999998038
l68,68,988999964,2814.099999998536
r4,4,189999980,2919.9999999984398
l65,65,987999970,3090.9999999982842
r6,6,180999999,4034.799999997426
r30,30,178999979,4048.799999997413
4279.899999998039
l68,68,991999994,2810.799999998539
r4,4,188999972,2920.899999998439
l65,65,987999998,3088.199999998287
r6,6,180999993,4035.3999999974253
r30,30,178999959,4050.7999999974113
4279.999999998039
l68,68,987999954,2815.199999998535
r4,4,188999960,2922.099999998438
l65,65,987999982,3089.7999999982853
r6,6,180999968,4037.899999997423
r30,30,178999998,4046.899999997415
4280.0999999980395
l68,68,990999983,2811.999999998538
r4,4,193999993,2918.2999999984413
l65,65,987999989,3089.099999998286
r6,6,180999988,4035.899999997425
r30,30,178999952,4051.4999999974107
4280.19999999804
l68,68,990999982,2812.099999998538
r4,4,190999985,2919.3999999984403
l65,65,987999977,3090.299999998285
r6,6,180999970,4037.699999997423
r30,30,178999954,4051.299999997411
4280.29999999804
l68,68,991999997,2810.4999999985394
r4,4,191999986,2919.1999999984405
l65,65,987999967,3091.299999998284
r6,6,180999959,4038.799999997422
r30,30,178999972,4049.4999999974125
4280.399999998041
l68,68,988999963,2814.199999998536
r4,4,187999951,2923.099999998437
l65,65,987999973,3090.6999999982845
r6,6,180999981,4036.599999997424
r30,30,178999969,4049.799999997412
4280.499999998041
l68,68,989999973,2813.099999998537
r4,4,193999991,2918.499999998441
l65,65,987999995,3088.4999999982865
r6,6,180999989,4035.799999997425
r30,30,178999995,4047.1999999974146
4280.599999998041
l68,68,987999955,2815.099999998535
r4,4,193999994,2918.1999999984414
l65,65,987999992,3088.7999999982862
r6,6,180999953,4039.3999999974217
r30,30,178999986,4048.0999999974138
4280.699999998042
l68,68,993000000,2810.0999999985397
r4,4,190999981,2919.79999999844
l65,65,987999983,3089.6999999982854
r6,6,180999992,4035.499999997425
r30,30,178999957,4050.999999997411
4280.799999998042
l68,68,989999974,2812.999999998537
r4,4,188999963,2921.799999998438
l65,65,987999979,3090.099999998285
r6,6,181000000,4034.699999997426
r30,30,178999956,4051.099999997411
4280.899999998042
l68,68,990999984,2811.899999998538
r4,4,188999961,2921.999999998438
l65,65,987999994,3088.5999999982864
r6,6,180999965,4038.1999999974228
r30,30,178999962,4050.4999999974116
4280.999999998043
l68,68,987999953,2815.299999998535
r4,4,187999954,2922.799999998437
l65,65,987999952,3092.7999999982826
r6,6,180999952,4039.4999999974216
r30,30,178999989,4047.799999997414
4281.099999998043
l68,68,987999952,2815.399999998535
r4,4,188999970,2921.0999999984388
l65,65,987999976,3090.399999998285
r6,6,180999996,4035.0999999974256
r30,30,178999974,4049.2999999974127
4281.1999999980435
l68,68,991999995,2810.699999998539
r4,4,188999967,2921.3999999984385
l65,65,987999959,3092.0999999982832
r6,6,180999962,4038.4999999974225
r30,30,178999990,4047.699999997414
4281.299999998044
l68,68,989999972,2813.199999998537
r4,4,188999956,2922.4999999984375
l65,65,987999981,3089.8999999982852
r6,6,180999983,4036.3999999974244
r30,30,179000000,4046.699999997415
4281.399999998044
l68,68,990999980,2812.2999999985377
r4,4,188999969,2921.1999999984387
l65,65,987999975,3090.4999999982847
r6,6,180999980,4036.699999997424
r30,30,178999963,4050.3999999974117
4281.499999998045
l68,68,989999977,2812.6999999985374
r4,4,189999979,2920.0999999984397
l65,65,987999968,3091.199999998284
r6,6,180999985,4036.1999999974246
r30,30,178999975,4049.1999999974128
4281.599999998045
l68,68,989999965,2813.8999999985363
r4,4,189999977,2920.2999999984395
l65,65,987999962,3091.7999999982835
r6,6,180999960,4038.6999999974223
r30,30,178999966,4050.099999997412
4281.699999998045
l68,68,989999975,2812.899999998537
r4,4,189999978,2920.1999999984396
l65,65,987999988,3089.199999998286
r6,6,180999976,4037.0999999974238
r30,30,178999951,4051.5999999974106
4281.799999998046
l68,68,990999981,2812.199999998538
r4,4,188999966,2921.4999999984384
l65,65,987999985,3089.4999999982856
r6,6,180999971,4037.5999999974233
r30,30,178999964,4050.2999999974118
4281.899999998046
l68,68,989999969,2813.4999999985366
r4,4,193999997,2917.8999999984417
l65,65,987999954,3092.599999998283
r6,6,180999979,4036.799999997424
r30,30,178999968,4049.899999997412
4281.999999998046
l68,68,991999987,2811.4999999985384
r4,4,189999975,2920.4999999984393
l65,65,987999964,3091.5999999982837
r6,6,180999990,4035.699999997425
r30,30,178999982,4048.4999999974134
4282.099999998047
l68,68,987999956,2814.9999999985353
r4,4,192999989,2918.799999998441
l65,65,987999980,3089.999999998285
r6,6,180999998,4034.8999999974258
r30,30,178999977,4048.999999997413
4282.199999998047
l68,68,989999971,2813.299999998537
r4,4,189999976,2920.3999999984394
l65,65,988000000,3087.999999998287
r6,6,180999978,4036.899999997424
r30,30,178999953,4051.3999999974108
4282.2999999980475
l68,68,989999966,2813.7999999985364
r4,4,193999998,2917.7999999984418
l65,65,987999958,3092.199999998283
r6,6,180999982,4036.4999999974243
r30,30,178999955,4051.199999997411
4282.399999998048
l68,68,992999999,2810.1999999985396
r4,4,191999988,2918.9999999984407
l65,65,987999997,3088.2999999982867
r6,6,180999961,4038.5999999974224
r30,30,178999961,4050.5999999974115
4282.499999998048
l68,68,988999962,2814.299999998536
r4,4,188999971,2920.999999998439
l65,65,987999956,3092.399999998283
r6,6,180999955,4039.199999997422
r30,30,178999958,4050.899999997411
4282.599999998049
l68,68,991999990,2811.1999999985387
r4,4,188999962,2921.899999998438
l65,65,987999972,3090.7999999982844
r6,6,180999963,4038.3999999974226
r30,30,178999970,4049.6999999974123
4282.699999998049
l68,68,989999979,2812.4999999985375
r4,4,188999964,2921.699999998438
l65,65,987999991,3088.899999998286
r6,6,180999956,4039.099999997422
r30,30,178999978,4048.899999997413
4282.799999998049
l68,68,991999996,2810.5999999985393
r4,4,192999990,2918.699999998441
l65,65,987999974,3090.5999999982846
r6,6,180999975,4037.1999999974237
r30,30,178999976,4049.099999997413
4282.89999999805
l68,68,987999951,2815.499999998535
r4,4,191999987,2919.0999999984406
l65,65,987999966,3091.399999998284
r6,6,180999967,4037.999999997423
r30,30,178999985,4048.1999999974137
4282.99999999805
l68,68,991999992,2810.999999998539
r4,4,194000000,2917.599999998442
l65,65,987999963,3091.6999999982836
r6,6,180999972,4037.4999999974234
r30,30,178999987,4047.999999997414
4283.09999999805
l68,68,989999968,2813.5999999985365
r4,4,187999952,2922.999999998437
l65,65,987999996,3088.3999999982866
r6,6,180999991,4035.599999997425
r30,30,178999973,4049.3999999974126
4283.199999998051
l68,68,988999961,2814.399999998536
r4,4,187999953,2922.899999998437
l65,65,987999986,3089.3999999982857
r6,6,180999958,4038.899999997422
r30,30,178999967,4049.999999997412
4283.299999998051
l68,68,987999957,2814.8999999985353
r4,4,188999959,2922.1999999984378
l65,65,987999984,3089.5999999982855
r6,6,180999977,4036.999999997424
r30,30,178999994,4047.2999999974145
4283.3999999980515
l68,68,989999967,2813.6999999985364
r4,4,188999958,2922.2999999984377
l65,65,987999957,3092.299999998283
r6,6,180999973,4037.3999999974235
r30,30,178999971,4049.5999999974124
4283.499999998052
l68,68,991999993,2810.899999998539
r4,4,193999996,2917.9999999984416
l65,65,987999993,3088.6999999982863
r6,6,180999984,4036.2999999974245
r30,30,178999999,4046.799999997415
4283.599999998052
l68,68,991999988,2811.3999999985385
r4,4,193999995,2918.0999999984415
l65,65,987999953,3092.6999999982827
r6,6,180999995,4035.1999999974255
r30,30,178999965,4050.199999997412
4283.699999998053
l68,68,989999970,2813.3999999985367
r4,4,190999984,2919.49999999844
l65,65,987999965,3091.499999998284
r6,6,180999974,4037.2999999974236
r30,30,178999993,4047.3999999974144
4283.799999998053
l68,68,990999985,2811.799999998538
r4,4,188999965,2921.5999999984383
l65,65,987999969,3091.099999998284
r6,6,180999997,4034.9999999974257
r30,30,178999983,4048.3999999974135
4283.899999998053
l68,68,991999989,2811.2999999985386
r4,4,190999982,2919.69999999844
l65,65,987999978,3090.199999998285
r6,6,180999951,4039.5999999974215
r30,30,178999984,4048.2999999974136
4283.999999998054
l68,68,987999958,2814.7999999985354
r4,4,193999999,2917.699999998442
l65,65,987999951,3092.8999999982825
r6,6,180999987,4035.9999999974248
r30,30,178999992,4047.4999999974143
4284.099999998054
l68,68,987999960,2814.5999999985356
r4,4,193999992,2918.399999998441
l65,65,987999971,3090.8999999982843
r6,6,180999986,4036.0999999974247
r30,30,178999981,4048.5999999974133
4284.199999998054
l68,68,991999986,2811.5999999985384
r4,4,188999957,2922.3999999984376
l65,65,987999987,3089.299999998286
r6,6,180999964,4038.2999999974227
r30,30,178999988,4047.899999997414
4284.299999998055
