l66,66,976999957,4050.5999999974115
r7,7,174999964,4305.899999998133
4524.599999998929
l66,66,976999961,4050.199999997412
l56,56,975999986,4285.499999998059
r7,7,179999999,4286.899999998064
4524.699999998929
l66,66,976999952,4051.099999997411
r7,7,176999969,4305.199999998131
4524.79999999893
l66,66,976999983,4047.999999997414
l56,56,975999980,4286.099999998061
r7,7,178999989,4287.999999998068
4524.89999999893
l66,66,976999988,4047.4999999974143
l56,56,976999993,4284.699999998056
r7,7,176999974,4289.699999998074
4524.99999999893
l66,66,976999954,4050.899999997411
r7,7,176999968,4305.299999998131
4525.099999998931
l66,66,976999973,4048.999999997413
r7,7,173999959,4306.4999999981355
4525.199999998931
l66,66,976999955,4050.7999999974113
l56,56,977999997,4284.199999998054
r7,7,179999995,4287.299999998066
4525.2999999989315
l66,66,976999974,4048.899999997413
r7,7,174999962,4306.099999998134
4525.399999998932
l66,66,976999990,4047.2999999974145
l56,56,975999988,4285.299999998058
r7,7,178999988,4288.099999998069
4525.499999998932
l66,66,976999964,4049.899999997412
l56,56,975999978,4286.299999998062
r7,7,177999978,4289.199999998073
4525.599999998933
l66,66,976999970,4049.2999999974127
r7,7,173999957,4306.699999998136
4525.699999998933
l66,66,976999965,4049.799999997412
r7,7,172999951,4307.399999998139
4525.799999998933
l66,66,976999976,4048.699999997413
r7,7,176999966,4305.499999998132
4525.899999998934
l66,66,976999978,4048.4999999974134
l56,56,975999984,4285.69999999806
r7,7,179999996,4287.199999998065
4525.999999998934
l66,66,976999953,4050.999999997411
r7,7,173999960,4306.399999998135
4526.099999998934
l66,66,976999969,4049.3999999974126
l56,56,975999976,4286.499999998063
r7,7,177999980,4288.999999998072
4526.199999998935
l66,66,976999982,4048.0999999974138
l56,56,975999983,4285.79999999806
r7,7,177999983,4288.699999998071
4526.299999998935
l66,66,976999991,4047.1999999974146
l56,56,976999992,4284.799999998057
r7,7,179999994,4287.399999998066
4526.3999999989355
l66,66,976999980,4048.2999999974136
l56,56,975999979,4286.199999998062
r7,7,178999991,4287.7999999980675
4526.499999998936
l66,66,976999959,4050.3999999974117
l56,56,975999987,4285.399999998059
r7,7,177999982,4288.799999998071
4526.599999998936
l66,66,976999984,4047.899999997414
r7,7,176999970,4305.09999999813
4526.699999998937
l66,66,976999958,4050.4999999974116
r7,7,172999954,4307.099999998138
4526.799999998937
l66,66,976999999,4046.3999999974153
l56,56,975999985,4285.5999999980595
r7,7,178999990,4287.899999998068
4526.899999998937
l66,66,976999995,4046.799999997415
r7,7,174999961,4306.199999998134
4526.999999998938
l66,66,976999993,4046.9999999974148
r7,7,172999956,4306.899999998137
4527.099999998938
l66,66,976999979,4048.3999999974135
r7,7,172999955,4306.999999998137
4527.199999998938
l66,66,976999981,4048.1999999974137
r7,7,172999953,4307.199999998138
4527.299999998939
l66,66,976999972,4049.099999997413
l56,56,975999974,4286.6999999980635
r7,7,178999992,4287.699999998067
4527.399999998939
l66,66,976999966,4049.6999999974123
l56,56,975999977,4286.399999998062
r7,7,176999977,4289.399999998073
4527.4999999989395
l66,66,976999986,4047.699999997414
r7,7,174999963,4305.999999998134
4527.59999999894
l66,66,976999967,4049.5999999974124
l56,56,976999994,4284.599999998056
r7,7,176999975,4289.599999998074
4527.69999999894
l66,66,976999994,4046.899999997415
l56,56,975999982,4285.899999998061
r7,7,177999987,4288.299999998069
4527.799999998941
l66,66,976999992,4047.0999999974147
r7,7,174999965,4305.799999998133
4527.899999998941
l66,66,976999956,4050.6999999974114
r7,7,173999958,4306.599999998136
4527.999999998941
l66,66,976999960,4050.2999999974118
l56,56,976999996,4284.399999998055
r7,7,177999985,4288.49999999807
4528.099999998942
l66,66,976999996,4046.699999997415
l56,56,976999989,4285.099999998058
r7,7,176999976,4289.499999998074
4528.199999998942
l66,66,976999989,4047.3999999974144
r7,7,176999973,4304.799999998129
4528.299999998942
l66,66,976999998,4046.499999997415
l56,56,976999991,4284.899999998057
r7,7,179999998,4286.999999998065
4528.399999998943
l66,66,976999951,4051.199999997411
l56,56,975999981,4285.999999998061
r7,7,177999981,4288.8999999980715
4528.499999998943
l66,66,976999971,4049.1999999974128
l56,56,976999990,4284.999999998057
r7,7,177999979,4289.099999998072
4528.5999999989435
l66,66,976999987,4047.599999997414
r7,7,176999967,4305.3999999981315
4528.699999998944
l66,66,976999985,4047.799999997414
l56,56,975999975,4286.599999998063
r7,7,177999986,4288.39999999807
4528.799999998944
l66,66,976999977,4048.5999999974133
l56,56,976999995,4284.4999999980555
r7,7,180000000,4286.799999998064
4528.899999998945
l66,66,976999968,4049.4999999974125
r7,7,176999971,4304.99999999813
4528.999999998945
l66,66,976999975,4048.799999997413
l56,56,977999998,4284.099999998054
r7,7,177999984,4288.59999999807
4529.099999998945
l66,66,977000000,4046.2999999974154
l56,56,979000000,4283.799999998053
r7,7,178999993,4287.599999998067
4529.199999998946
l66,66,976999963,4049.999999997412
r7,7,176999972,4304.89999999813
4529.299999998946
l66,66,976999997,4046.599999997415
l56,56,978999999,4283.899999998053
r7,7,179999997,4287.099999998065
4529.399999998946
l66,66,976999962,4050.099999997412
r7,7,172999952,4307.299999998138
4529.499999998947
