e72,72,1796999998,2473.199999998846
r33,33,184999973,2884.1999999984723
l68,68,987999984,4540.299999998986
e90,90,1778999985,4675.99999999948
e91,91,1776999987,4702.399999999576
l62,62,978999969,4988.600000000617
e74,74,1772999951,5115.100000001077
6202.300000005032
e72,72,1791999971,2476.399999998843
l38,38,985999959,2876.4999999984793
r33,33,183999969,2884.799999998472
l68,68,987999988,4539.899999998985
e90,90,1777999976,4676.999999999483
e91,91,1772999962,4705.299999999586
l62,62,981999975,4987.700000000614
e74,74,1779999999,5109.600000001057
6202.400000005033
e72,72,1791999954,2478.0999999988417
l38,38,985999980,2874.3999999984812
r33,33,183999953,2886.3999999984703
l68,68,985999972,4541.699999998991
e90,90,1775999971,4677.699999999486
e91,91,1775999979,4703.299999999579
l62,62,985999992,4985.600000000606
e74,74,1773999961,5114.000000001073
6202.500000005033
e72,72,1792999973,2476.0999999988435
r33,33,186999991,2882.199999998474
l68,68,982999962,4542.999999998996
e90,90,1777999983,4676.299999999481
e91,91,1776999989,4702.199999999575
l62,62,983999980,4987.000000000611
e74,74,1773999956,5114.500000001075
6202.6000000050335
e72,72,1792999979,2475.499999998844
l38,38,985999985,2873.8999999984817
r33,33,183999960,2885.699999998471
l68,68,988999996,4538.999999998981
e90,90,1775999960,4678.79999999949
e91,91,1771999953,4706.29999999959
l62,62,983999983,4986.70000000061
e74,74,1776999984,5111.400000001064
6202.700000005034
e72,72,1792999991,2474.299999998845
r33,33,186999981,2883.1999999984732
l68,68,982999963,4542.899999998996
e90,90,1777999977,4676.899999999483
e91,91,1773999973,4704.099999999582
l62,62,978999970,4988.500000000617
e74,74,1772999952,5115.000000001077
6202.800000005034
e72,72,1792999992,2474.199999998845
r33,33,186999992,2882.0999999984742
l68,68,987999994,4539.2999999989825
e90,90,1779999988,4675.599999999478
e91,91,1773999969,4704.499999999583
l62,62,983999982,4986.80000000061
e74,74,1776999986,5111.200000001063
6202.900000005035
e72,72,1791999962,2477.2999999988424
r33,33,186999995,2881.7999999984745
l68,68,979999953,4544.199999999
e90,90,1775999973,4677.499999999485
e91,91,1772999957,4705.799999999588
l62,62,975999960,4989.800000000621
e74,74,1776999985,5111.300000001063
6203.000000005035
e72,72,1791999955,2477.9999999988418
r33,33,186999989,2882.399999998474
l68,68,982999964,4542.799999998995
e90,90,1774999952,4679.699999999493
e91,91,1772999963,4705.199999999586
l62,62,988000000,4984.600000000602
e74,74,1779999997,5109.800000001058
6203.100000005035
e72,72,1791999969,2476.599999998843
r33,33,186999996,2881.6999999984746
l68,68,987999990,4539.699999998984
e90,90,1775999967,4678.099999999487
e91,91,1773999971,4704.299999999583
l62,62,986999994,4985.300000000605
e74,74,1773999968,5113.300000001071
6203.200000005036
e72,72,1792999980,2475.399999998844
l38,38,985999957,2876.699999998479
r33,33,183999951,2886.59999999847
l68,68,986999978,4540.999999998989
e90,90,1782999999,4674.199999999473
e91,91,1771999954,4706.19999999959
l62,62,983999979,4987.1000000006115
e74,74,1775999979,5112.000000001066
6203.300000005036
e72,72,1791999953,2478.1999999988416
l38,38,985999999,2872.499999998483
r33,33,183999963,2885.3999999984712
l68,68,983999968,4542.299999998993
e90,90,1773999951,4679.899999999494
e91,91,1771999952,4706.39999999959
l62,62,972999952,4990.900000000625
e74,74,1777999989,5110.800000001062
6203.400000005036
e72,72,1791999956,2477.899999998842
r33,33,184999976,2883.8999999984726
l68,68,989999997,4538.799999998981
e90,90,1776999974,4677.2999999994845
e91,91,1775999977,4703.49999999958
l62,62,983999981,4986.900000000611
e74,74,1775999977,5112.200000001067
6203.500000005037
e72,72,1791999968,2476.699999998843
l38,38,985999963,2876.0999999984797
r33,33,183999962,2885.499999998471
l68,68,979999952,4544.299999999001
e90,90,1777999975,4677.099999999484
e91,91,1776999990,4702.099999999575
l62,62,976999962,4989.50000000062
e74,74,1775999976,5112.300000001067
6203.600000005037
e72,72,1791999957,2477.799999998842
l38,38,985999967,2875.69999999848
r33,33,183999959,2885.799999998471
l68,68,982999966,4542.5999999989945
e90,90,1775999955,4679.299999999492
e91,91,1772999965,4704.999999999585
l62,62,983999985,4986.500000000609
e74,74,1773999969,5113.20000000107
6203.7000000050375
e72,72,1791999972,2476.2999999988433
l38,38,985999995,2872.8999999984826
r33,33,183999956,2886.0999999984706
l68,68,982999965,4542.699999998995
e90,90,1779999989,4675.499999999478
e91,91,1776999988,4702.299999999575
l62,62,974999956,4990.300000000623
e74,74,1773999962,5113.900000001073
6203.800000005038
e72,72,1792999993,2474.0999999988453
r33,33,186999982,2883.0999999984733
l68,68,982999967,4542.499999998994
e90,90,1777999981,4676.499999999482
e91,91,1773999967,4704.699999999584
l62,62,987999996,4985.000000000604
e74,74,1775999983,5111.6000000010645
6203.900000005038
e72,72,1792999994,2473.9999999988454
l38,38,985999960,2876.3999999984794
r33,33,183999957,2885.9999999984707
l68,68,981999960,4543.299999998997
e90,90,1775999956,4679.199999999491
e91,91,1776999986,4702.499999999576
l62,62,987999997,4984.9000000006035
e74,74,1777999991,5110.600000001061
6204.000000005039
e72,72,1797000000,2472.9999999988463
r33,33,186999984,2882.8999999984735
l68,68,980999955,4543.899999998999
e90,90,1775999968,4677.999999999487
e91,91,1772999955,4705.999999999589
l62,62,983999989,4986.100000000608
e74,74,1777999992,5110.5000000010605
6204.100000005039
e72,72,1792999978,2475.599999998844
r33,33,186999977,2883.599999998473
l68,68,987999993,4539.399999998983
e90,90,1779999986,4675.799999999479
e91,91,1777000000,4701.099999999571
l62,62,972999951,4991.000000000626
e74,74,1775999972,5112.7000000010685
6204.200000005039
e72,72,1792999983,2475.0999999988444
l38,38,985999979,2874.499999998481
r33,33,183999967,2884.9999999984716
l68,68,986999982,4540.599999998987
e90,90,1774999954,4679.4999999994925
e91,91,1776999994,4701.699999999573
l62,62,972999954,4990.700000000625
e74,74,1779999998,5109.700000001058
6204.30000000504
e72,72,1796999999,2473.099999998846
r33,33,186999990,2882.299999998474
l68,68,987999986,4540.099999998985
e90,90,1775999969,4677.899999999487
e91,91,1776999995,4701.599999999573
l62,62,976999965,4989.200000000619
e74,74,1780000000,5109.500000001057
6204.40000000504
e72,72,1792999976,2475.7999999988438
l38,38,985999984,2873.9999999984816
r33,33,184999971,2884.499999998472
l68,68,980999954,4543.999999999
e90,90,1780999992,4675.0999999994765
e91,91,1773999968,4704.599999999584
l62,62,987999999,4984.700000000603
e74,74,1773999965,5113.600000001072
6204.50000000504
e72,72,1792999990,2474.399999998845
r33,33,184999974,2884.0999999984724
l68,68,987999992,4539.499999998983
e90,90,1780999993,4674.999999999476
e91,91,1776999982,4702.899999999578
l62,62,978999971,4988.400000000616
e74,74,1775999973,5112.600000001068
6204.600000005041
e72,72,1792999982,2475.1999999988443
r33,33,186999994,2881.8999999984744
l68,68,987999991,4539.599999998984
e90,90,1775999966,4678.199999999488
e91,91,1776999981,4702.999999999578
l62,62,976999963,4989.40000000062
e74,74,1775999975,5112.400000001067
6204.700000005041
e72,72,1792999977,2475.699999998844
r33,33,186999978,2883.499999998473
l68,68,986999980,4540.799999998988
e90,90,1779999987,4675.699999999479
e91,91,1772999956,4705.8999999995885
l62,62,983999976,4987.400000000613
e74,74,1773999960,5114.100000001074
6204.8000000050415
e72,72,1796999997,2473.299999998846
l38,38,985999989,2873.499999998482
r33,33,183999954,2886.2999999984704
l68,68,990999999,4538.49999999898
e90,90,1775999963,4678.499999999489
e91,91,1773999972,4704.199999999582
l62,62,983999977,4987.300000000612
e74,74,1775999980,5111.900000001066
6204.900000005042
e72,72,1792999974,2475.9999999988436
l38,38,985999997,2872.699999998483
r33,33,183999966,2885.0999999984715
l68,68,990999998,4538.59999999898
e90,90,1775999964,4678.3999999994885
e91,91,1772999961,4705.399999999587
l62,62,976999966,4989.100000000619
e74,74,1773999964,5113.700000001072
6205.000000005042
e72,72,1792999984,2474.9999999988445
r33,33,186999987,2882.599999998474
l68,68,988999995,4539.099999998982
e90,90,1778999984,4676.09999999948
e91,91,1776999983,4702.799999999577
l62,62,972999953,4990.800000000625
e74,74,1775999970,5112.900000001069
6205.100000005043
e72,72,1791999960,2477.499999998842
r33,33,184999972,2884.2999999984722
l68,68,991000000,4538.399999998979
e90,90,1782999997,4674.399999999474
e91,91,1776999998,4701.299999999572
l62,62,983999986,4986.400000000609
e74,74,1775999974,5112.500000001068
6205.200000005043
e72,72,1790999952,2478.3999999988414
r33,33,186999997,2881.5999999984747
l68,68,979999951,4544.399999999001
e90,90,1775999961,4678.69999999949
e91,91,1774999976,4703.6999999995805
l62,62,986999995,4985.200000000605
e74,74,1773999959,5114.200000001074
6205.300000005043
e72,72,1790999951,2478.4999999988413
r33,33,186999998,2881.499999998475
l68,68,985999976,4541.29999999899
e90,90,1780999995,4674.799999999475
e91,91,1776999997,4701.399999999572
l62,62,977999967,4988.900000000618
e74,74,1773999957,5114.400000001075
6205.400000005044
e72,72,1791999958,2477.699999998842
r33,33,186999986,2882.6999999984737
l68,68,986999979,4540.899999998988
e90,90,1777999979,4676.699999999482
e91,91,1773999970,4704.399999999583
l62,62,987999998,4984.800000000603
e74,74,1775999978,5112.100000001066
6205.500000005044
e72,72,1791999965,2476.9999999988427
l38,38,985999954,2876.999999998479
r33,33,183999964,2885.2999999984713
l68,68,980999957,4543.6999999989985
e90,90,1775999958,4678.999999999491
e91,91,1776999984,4702.699999999577
l62,62,974999958,4990.1000000006225
e74,74,1773999955,5114.600000001075
6205.600000005044
e72,72,1792999986,2474.7999999988447
r33,33,186999993,2881.9999999984743
l68,68,980999956,4543.799999998999
e90,90,1775999957,4679.099999999491
e91,91,1772999958,4705.699999999588
l62,62,980999973,4988.000000000615
e74,74,1773999958,5114.300000001074
6205.700000005045
e72,72,1791999961,2477.3999999988423
r33,33,186999979,2883.399999998473
l68,68,985999975,4541.39999999899
e90,90,1777999978,4676.799999999483
e91,91,1776999999,4701.199999999571
l62,62,975999961,4989.700000000621
e74,74,1775999971,5112.800000001069
6205.800000005045
e72,72,1792999987,2474.6999999988448
r33,33,186999999,2881.399999998475
l68,68,986999977,4541.099999998989
e90,90,1774999953,4679.599999999493
e91,91,1772999960,4705.499999999587
l62,62,976999964,4989.30000000062
e74,74,1773999953,5114.800000001076
6205.9000000050455
e72,72,1791999964,2477.0999999988426
r33,33,187000000,2881.299999998475
l68,68,987999985,4540.199999998986
e90,90,1777999982,4676.399999999481
e91,91,1776999996,4701.4999999995725
l62,62,974999959,4990.000000000622
e74,74,1773999963,5113.8000000010725
6206.000000005046
e72,72,1792999981,2475.299999998844
l38,38,986000000,2872.399999998483
r33,33,183999965,2885.1999999984714
l68,68,985999971,4541.799999998992
e90,90,1783000000,4674.099999999473
e91,91,1776999992,4701.899999999574
l62,62,980999974,4987.900000000614
e74,74,1778999994,5110.200000001059
6206.100000005046
e72,72,1791999963,2477.1999999988425
l38,38,985999988,2873.599999998482
r33,33,183999961,2885.599999998471
l68,68,985999973,4541.599999998991
e90,90,1780999991,4675.199999999477
e91,91,1771999951,4706.499999999591
l62,62,983999991,4985.900000000607
e74,74,1779999996,5109.900000001058
6206.200000005047
e72,72,1792999989,2474.499999998845
r33,33,186999988,2882.499999998474
l68,68,984999969,4542.099999998993
e90,90,1780999996,4674.699999999475
e91,91,1775999978,4703.399999999579
l62,62,983999978,4987.200000000612
e74,74,1775999982,5111.700000001065
6206.300000005047
e72,72,1795999996,2473.499999998846
l38,38,985999966,2875.79999999848
r33,33,183999955,2886.1999999984705
l68,68,984999970,4541.999999998992
e90,90,1775999962,4678.599999999489
e91,91,1776999993,4701.799999999574
l62,62,974999957,4990.200000000623
e74,74,1776999988,5111.000000001062
6206.400000005047
e72,72,1795999995,2473.5999999988458
r33,33,186999983,2882.9999999984734
l68,68,980999958,4543.599999998998
e90,90,1775999965,4678.299999999488
e91,91,1776999980,4703.099999999578
l62,62,983999988,4986.200000000608
e74,74,1779999995,5110.000000001059
6206.500000005048
e72,72,1791999967,2476.799999998843
l38,38,985999952,2877.1999999984787
r33,33,183999968,2884.8999999984717
l68,68,980999959,4543.499999998998
e90,90,1782999998,4674.299999999474
e91,91,1772999966,4704.899999999585
l62,62,983999984,4986.60000000061
e74,74,1777999993,5110.40000000106
6206.600000005048
e72,72,1792999975,2475.8999999988437
l38,38,985999994,2872.9999999984825
r33,33,183999958,2885.899999998471
l68,68,986999983,4540.499999998987
e90,90,1775999972,4677.599999999486
e91,91,1773999974,4703.999999999582
l62,62,973999955,4990.500000000624
e74,74,1777999990,5110.700000001061
6206.700000005048
e72,72,1792999988,2474.599999998845
l38,38,985999998,2872.599999998483
r33,33,184999970,2884.599999998472
l68,68,987999989,4539.799999998984
e90,90,1780999994,4674.899999999476
e91,91,1772999964,4705.099999999586
l62,62,983999987,4986.300000000609
e74,74,1776999987,5111.100000001063
6206.800000005049
e72,72,1791999959,2477.599999998842
r33,33,184999975,2883.9999999984725
l68,68,985999974,4541.4999999989905
e90,90,1780999990,4675.299999999477
e91,91,1776999985,4702.5999999995765
l62,62,979999972,4988.200000000616
e74,74,1773999954,5114.700000001076
6206.900000005049
e72,72,1792999985,2474.8999999988446
r33,33,186999980,2883.299999998473
l68,68,987999987,4539.999999998985
e90,90,1777999980,4676.599999999482
e91,91,1772999959,4705.599999999587
l62,62,983999990,4986.0000000006075
e74,74,1773999967,5113.400000001071
6207.0000000050495
e72,72,1791999966,2476.8999999988428
r33,33,186999985,2882.7999999984736
l68,68,986999981,4540.699999998988
e90,90,1775999959,4678.89999999949
e91,91,1773999975,4703.899999999581
l62,62,985999993,4985.500000000606
e74,74,1773999966,5113.500000001071
6207.10000000505
e72,72,1791999970,2476.499999998843
l38,38,985999976,2874.799999998481
r33,33,183999952,2886.4999999984702
l68,68,981999961,4543.199999998997
e90,90,1775999970,4677.799999999486
e91,91,1776999991,4701.999999999574
l62,62,978999968,4988.700000000617
e74,74,1775999981,5111.800000001065
6207.20000000505
