r94,94,999999996,6.0
r99,99,999999997,17.0
r19,19,999999998,722.0
r15,15,999999995,1056.0
1567.0
r94,94,999999998,4.0
r99,99,1000000000,14.0
r19,19,999999999,721.0
r15,15,999999997,1054.0
1568.0
r42,42,999999987,332.0
r11,11,999999994,568.0
r93,93,999999993,708.0
r33,33,999999996,995.0
r70,70,999999998,1092.0
r15,15,999999992,1271.0
1569.0
r42,42,999999994,325.0
r11,11,999999993,569.0
r93,93,999999991,710.0
r70,70,999999990,1242.0
r15,15,999999991,1272.0
1570.0
r94,94,999999999,3.0
r99,99,999999996,18.0
r19,19,999999996,724.0
r15,15,1000000000,1051.0
1571.0
r42,42,999999985,334.0
r11,11,999999998,564.0
r93,93,999999995,706.0
r70,70,999999991,1241.0
r15,15,999999989,1274.0
1572.0
r42,42,999999988,331.0
r11,11,999999999,563.0
r93,93,999999996,705.0
r70,70,999999994,1238.0
r15,15,999999988,1275.0
1573.0
r42,42,999999998,321.0
r11,11,999999992,570.0
r93,93,999999994,707.0
r70,70,999999993,1239.0
r15,15,999999993,1270.0
1574.0
r94,94,1000000000,2.0
r99,99,999999998,16.0
r19,19,999999995,725.0
r15,15,999999999,1052.0
r59,59,999999999,1509.0
1730.0
r42,42,999999992,327.0
r11,11,999999991,571.0
r93,93,999999999,702.0
r33,33,999999995,996.0
r70,70,999999996,1094.0
r15,15,999999994,1269.0
r59,59,999999998,1510.0
1731.0
r42,42,999999996,323.0
r11,11,1000000000,562.0
r30,30,999999992,971.0
1821.0
r94,94,999999995,7.0
r99,99,999999995,19.0
r19,19,999999997,723.0
r30,30,999999986,1551.0
1822.0
r42,42,999999989,330.0
r11,11,999999995,567.0
r93,93,999999992,709.0
r33,33,999999994,997.0
r27,27,1000000000,1055.0
r30,30,999999987,1227.0
1823.0
r42,42,999999997,322.0
r28,28,999999992,525.0
r11,11,999999990,730.0
r30,30,999999998,965.0
1824.0
r94,94,999999997,5.0
r99,99,999999999,15.0
r19,19,1000000000,720.0
r30,30,999999985,1552.0
1825.0
r42,42,999999991,328.0
r28,28,1000000000,517.0
r27,27,999999987,1216.0
r30,30,999999990,1224.0
1826.0
r42,42,1000000000,319.0
r28,28,999999996,521.0
r27,27,999999989,1214.0
r30,30,999999989,1225.0
1827.0
r42,42,999999999,320.0
r45,45,1000000000,676.0
r49,49,999999994,1084.0
2131.0
r42,42,999999986,333.0
r50,50,999999992,1054.0
r17,17,999999994,1473.0
r80,80,999999999,1558.0
r61,61,999999983,2011.0
2482.0
r8,8,999999996,637.0
r19,19,999999968,2042.0
r69,69,999999974,2422.0
r11,11,999999978,2832.0
3074.0
r8,8,999999993,640.0
r19,19,999999969,2041.0
r69,69,999999972,2424.0
r11,11,999999970,2840.0
3075.0
r101,101,999999997,1467.0
r17,17,999999978,1775.0
r32,32,999999980,1908.0
r83,83,999999981,2044.0
r69,69,999999983,2317.0
r11,11,999999968,2842.0
3076.0
r8,8,999999982,651.0
r19,19,999999965,2045.0
r69,69,999999971,2425.0
r11,11,999999969,2841.0
3077.0
r101,101,999999984,1480.0
r19,19,999999975,1717.0
r69,69,999999969,2427.0
r11,11,999999983,2827.0
3078.0
r101,101,999999985,1479.0
r19,19,999999979,1713.0
r69,69,999999968,2428.0
r11,11,999999972,2838.0
3079.0
r101,101,999999992,1472.0
r19,19,999999974,1718.0
r69,69,999999976,2420.0
r11,11,999999973,2837.0
3080.0
r101,101,999999983,1481.0
r39,39,999999973,1990.0
r69,69,999999966,2554.0
r11,11,999999981,2829.0
3081.0
r101,101,999999991,1473.0
r19,19,999999977,1715.0
r69,69,999999967,2429.0
r11,11,999999980,2830.0
3082.0
r101,101,999999982,1482.0
r9,9,999999990,1551.0
r2,2,999999992,1867.0
r69,69,999999995,2055.0
r11,11,999999977,2833.0
3083.0
r8,8,999999998,635.0
r19,19,999999966,2044.0
r69,69,999999973,2423.0
r11,11,999999974,2836.0
3084.0
r101,101,999999990,1474.0
r19,19,999999971,1721.0
r69,69,999999970,2426.0
r11,11,999999965,2845.0
3085.0
r101,101,999999999,1465.0
r17,17,999999975,1778.0
r32,32,999999985,1903.0
r83,83,999999977,2048.0
r69,69,999999980,2320.0
r11,11,999999967,2843.0
3086.0
r101,101,999999988,1476.0
r17,17,999999976,1777.0
r32,32,999999987,1901.0
r83,83,999999982,2043.0
r69,69,999999979,2321.0
r11,11,999999979,2831.0
3087.0
r101,101,999999994,1470.0
r19,19,999999972,1720.0
r69,69,999999975,2421.0
r11,11,999999982,2828.0
3088.0
r101,101,999999993,1471.0
r17,17,999999974,1779.0
r32,32,999999986,1902.0
r83,83,999999979,2046.0
r69,69,999999981,2319.0
r11,11,999999975,2835.0
3089.0
r101,101,999999996,1468.0
r17,17,999999980,1773.0
r32,32,999999989,1899.0
r83,83,999999978,2047.0
r69,69,999999984,2316.0
r11,11,999999966,2844.0
3090.0
r92,92,999999983,1392.0
r82,82,999999975,2488.0
3427.0
r92,92,999999994,1381.0
r82,82,999999973,2490.0
3428.0
r21,21,999999979,1875.0
r28,28,999999972,2928.0
r82,82,999999958,3228.0
3429.0
r92,92,999999993,1382.0
r82,82,999999974,2489.0
3430.0
r92,92,999999987,1388.0
r82,82,999999980,2483.0
3431.0
r92,92,999999991,1384.0
r82,82,999999979,2484.0
3432.0
r21,21,999999970,1884.0
r28,28,999999976,2924.0
r82,82,999999960,3226.0
3433.0
r75,75,999999984,1518.0
r82,82,999999965,2565.0
3434.0
r76,76,999999988,1833.0
r9,9,999999985,2072.0
r15,15,999999984,2443.0
3660.0
r76,76,999999992,1829.0
r9,9,999999983,2074.0
r15,15,999999976,2451.0
3661.0
r76,76,999999997,1824.0
r9,9,999999989,2068.0
r15,15,999999981,2446.0
3662.0
r76,76,999999994,1827.0
r3,3,999999961,3559.0
r69,69,999999957,3795.0
4077.0
r8,8,999999984,649.0
r48,48,999999980,2642.0
r25,25,999999974,3025.0
r76,76,999999968,3412.0
r3,3,999999963,3557.0
r69,69,999999956,3796.0
4078.0
r21,21,999999971,1883.0
r39,39,999999958,2978.0
4140.0
