r59,59,1000000000,563.0
r82,82,999999997,949.0
r37,37,999999996,1203.0
r86,86,1000000000,1309.0
r69,69,999999997,1350.0
1907.0
r59,59,999999997,566.0
r82,82,999999996,950.0
r37,37,1000000000,1199.0
r86,86,999999995,1314.0
r69,69,999999993,1354.0
1908.0
r59,59,999999984,579.0
r82,82,999999986,960.0
r37,37,999999991,1208.0
r86,86,999999993,1316.0
r69,69,999999996,1351.0
1909.0
r59,59,999999982,581.0
r82,82,999999999,947.0
r37,37,999999990,1209.0
r86,86,999999998,1311.0
r69,69,999999998,1349.0
1910.0
r59,59,999999986,577.0
r82,82,999999998,948.0
r37,37,999999999,1200.0
r86,86,999999996,1313.0
r69,69,999999994,1353.0
1911.0
r59,59,999999989,574.0
r82,82,999999989,957.0
r37,37,999999995,1204.0
r86,86,999999994,1315.0
r69,69,999999999,1348.0
1912.0
r59,59,999999987,576.0
r82,82,999999988,958.0
r37,37,999999994,1205.0
2174.0
r59,59,999999991,572.0
r82,82,999999992,954.0
r37,37,999999993,1206.0
2175.0
r59,59,999999985,578.0
r82,82,999999994,952.0
r37,37,999999998,1201.0
2176.0
r59,59,999999998,565.0
r82,82,999999991,955.0
r37,37,999999989,1210.0
2177.0
r59,59,999999994,569.0
r82,82,999999990,956.0
r37,37,999999992,1207.0
2178.0
r59,59,999999983,580.0
r82,82,1000000000,946.0
r37,37,999999997,1202.0
2179.0
r58,58,999999981,855.0
r4,4,999999999,1456.0
r95,95,999999993,1894.0
r21,21,999999998,1987.0
2370.0
r58,58,999999984,852.0
r4,4,1000000000,1455.0
r95,95,999999992,1895.0
r21,21,999999996,1989.0
2371.0
r52,52,999999987,2444.0
3758.0
r52,52,999999981,2450.0
3759.0
r52,52,999999982,2449.0
3760.0
r52,52,999999986,2445.0
3761.0
r58,58,999999993,843.0
r57,57,999999993,1095.0
r52,52,999999963,2603.0
3762.0
r59,59,999999990,573.0
r6,6,999999997,2195.0
r52,52,999999970,2594.0
3763.0
r52,52,999999985,2446.0
3764.0
r52,52,999999973,2458.0
3765.0
r29,29,999999991,1846.0
r30,30,999999985,2136.0
r57,57,999999974,2232.0
r6,6,999999979,2590.0
r52,52,999999967,2597.0
3766.0
r52,52,999999988,2443.0
3767.0
r52,52,999999972,2459.0
3768.0
r52,52,999999979,2452.0
r24,24,999999990,3037.0
r20,20,999999972,3155.0
4009.0
r20,20,999999994,2342.0
4010.0
r20,20,999999986,2350.0
4011.0
r58,58,999999989,847.0
r98,98,999999996,1408.0
r55,55,999999982,2587.0
r74,74,999999978,3528.0
r20,20,999999969,3768.0
4012.0
r20,20,999999991,2345.0
4013.0
r58,58,999999992,844.0
r57,57,999999997,1091.0
r52,52,999999964,2602.0
r24,24,999999993,3034.0
r20,20,999999974,3153.0
4014.0
r20,20,999999987,2349.0
4015.0
r20,20,999999996,2340.0
4016.0
r36,36,1000000000,1817.0
r28,28,999999994,2159.0
r86,86,999999963,3665.0
4415.0
r58,58,999999997,839.0
r98,98,999999991,1413.0
r55,55,999999998,2077.0
r25,25,999999987,2082.0
r73,73,999999999,2397.0
r77,77,999999983,2553.0
r86,86,999999981,2853.0
4416.0
r58,58,999999998,838.0
r98,98,999999998,1406.0
r55,55,1000000000,2075.0
r25,25,999999986,2083.0
r73,73,999999987,2409.0
r77,77,999999985,2551.0
r86,86,999999982,2852.0
4417.0
r44,44,999999967,3418.0
r56,56,999999974,3550.0
r86,86,999999970,3574.0
4418.0
r59,59,999999995,568.0
r82,82,999999993,953.0
r68,68,999999990,1166.0
r15,15,999999997,2179.0
r90,90,999999996,2346.0
r86,86,999999985,2550.0
4419.0
r58,58,999999982,854.0
r56,56,999999996,2084.0
r86,86,999999973,3571.0
4420.0
r52,52,999999976,2455.0
r24,24,999999992,3035.0
r20,20,999999975,3152.0
r35,35,999999996,3756.0
r74,74,999999975,3764.0
r86,86,999999958,3813.0
4421.0
r44,44,999999962,3423.0
r56,56,999999970,3554.0
r86,86,999999976,3568.0
4422.0
r59,59,999999999,564.0
r25,25,999999997,1352.0
r92,92,999999996,1660.0
r86,86,999999986,1802.0
4423.0
r36,36,999999984,1833.0
r28,28,999999995,2158.0
r86,86,999999965,3663.0
4424.0
r44,44,999999964,3421.0
r56,56,999999973,3551.0
r86,86,999999978,3566.0
4425.0
r58,58,999999996,840.0
r98,98,999999997,1407.0
r10,10,999999999,2479.0
r33,33,999999989,2487.0
r77,77,999999981,2781.0
r86,86,999999983,2851.0
4426.0
r58,58,999999985,851.0
r57,57,999999999,1089.0
r6,6,999999981,2588.0
r44,44,999999976,3398.0
r56,56,999999972,3552.0
r86,86,999999972,3572.0
4427.0
r29,29,999999982,1855.0
r30,30,999999986,2135.0
r57,57,999999986,2220.0
r13,13,999999983,2349.0
r84,84,999999959,3559.0
r45,45,999999982,3828.0
r34,34,999999958,4283.0
4475.0
r29,29,999999990,1847.0
r30,30,999999984,2137.0
r57,57,999999975,2231.0
r34,34,999999967,3526.0
4476.0
r20,20,999999989,2347.0
r84,84,999999989,2930.0
r45,45,999999976,3834.0
r34,34,999999957,4284.0
4477.0
r6,6,999999956,3381.0
r46,46,999999953,4144.0
r34,34,999999951,4655.0
5198.0
