r63,63,999999987,520.0
r15,15,999999990,887.0
r89,89,999999997,1169.0
r61,61,999999983,1504.0
1973.0
r29,29,999999985,1093.0
r89,89,999999984,1253.0
r61,61,999999984,1503.0
1974.0
r63,63,999999988,519.0
r20,20,999999994,785.0
r25,25,999999997,873.0
r65,65,999999996,956.0
r73,73,999999996,1050.0
r61,61,999999999,1214.0
1975.0
r63,63,999999999,508.0
r20,20,999999999,780.0
r25,25,1000000000,870.0
r65,65,999999999,953.0
r73,73,999999999,1047.0
r61,61,999999996,1217.0
1976.0
r63,63,999999983,524.0
r20,20,1000000000,779.0
r25,25,999999996,874.0
r65,65,999999998,954.0
r73,73,999999995,1051.0
r61,61,1000000000,1213.0
1977.0
r29,29,999999987,1091.0
r89,89,999999986,1251.0
r61,61,999999992,1495.0
1978.0
r29,29,999999988,1090.0
r89,89,999999981,1256.0
r61,61,999999990,1497.0
1979.0
r63,63,999999992,515.0
r20,20,999999997,782.0
r25,25,999999995,875.0
r65,65,999999997,955.0
r73,73,999999997,1049.0
r61,61,999999997,1216.0
1980.0
r63,63,999999991,516.0
r15,15,999999996,881.0
r89,89,999999993,1173.0
r61,61,999999991,1496.0
1981.0
r63,63,999999993,514.0
r20,20,999999995,784.0
r25,25,999999994,876.0
r65,65,1000000000,952.0
r73,73,1000000000,1046.0
r61,61,999999995,1218.0
1982.0
r63,63,999999989,518.0
r15,15,999999999,878.0
r89,89,999999995,1171.0
r61,61,999999982,1505.0
1983.0
r29,29,999999995,1083.0
r89,89,999999989,1248.0
r61,61,999999987,1500.0
1984.0
r63,63,999999985,522.0
r20,20,999999996,783.0
r25,25,999999998,872.0
r65,65,999999994,958.0
r73,73,999999994,1052.0
r61,61,999999998,1215.0
1985.0
r29,29,999999999,1079.0
r89,89,999999987,1250.0
r61,61,999999988,1499.0
1986.0
r29,29,999999989,1089.0
r89,89,999999988,1249.0
r61,61,999999986,1501.0
1987.0
r63,63,999999990,517.0
r20,20,999999998,781.0
r25,25,999999999,871.0
r65,65,999999995,957.0
r73,73,999999998,1048.0
r61,61,999999994,1219.0
1988.0
r19,19,999999987,243.0
r69,69,999999999,508.0
r89,89,999999980,1349.0
r61,61,999999985,1502.0
1989.0
r29,29,999999992,1086.0
r89,89,999999983,1254.0
r61,61,999999993,1494.0
1990.0
r66,66,999999985,755.0
r53,53,999999992,1685.0
r25,25,999999993,1699.0
r91,91,999999989,1791.0
r2,2,999999983,1874.0
1991.0
r19,19,1000000000,230.0
r62,62,999999994,549.0
r21,21,999999995,1273.0
r91,91,999999993,1483.0
r2,2,999999986,1871.0
1992.0
r66,66,999999993,747.0
r53,53,999999998,1679.0
r25,25,999999991,1701.0
r2,2,999999999,1837.0
1993.0
r62,62,999999982,561.0
r21,21,999999998,1270.0
r91,91,999999991,1485.0
r2,2,999999989,1868.0
1994.0
r19,19,999999989,241.0
r62,62,999999989,554.0
r21,21,999999994,1274.0
r91,91,999999992,1484.0
r2,2,999999987,1870.0
1995.0
r62,62,999999983,560.0
r21,21,999999997,1271.0
r91,91,999999995,1481.0
r25,25,999999989,1800.0
r2,2,999999994,1842.0
1996.0
r66,66,999999988,752.0
r53,53,999999996,1681.0
r25,25,999999992,1700.0
r2,2,999999997,1839.0
1997.0
r63,63,999999994,513.0
r46,46,1000000000,975.0
r52,52,999999993,1156.0
r39,39,999999999,1229.0
r99,99,999999998,1298.0
r101,101,999999997,1455.0
r83,83,999999997,1599.0
r36,36,999999996,1683.0
r6,6,999999998,1835.0
r49,49,999999994,1959.0
2014.0
r19,19,999999991,239.0
r62,62,999999993,550.0
r21,21,999999993,1275.0
r91,91,999999998,1478.0
r2,2,999999984,1873.0
r49,49,999999987,2003.0
2015.0
r63,63,999999996,511.0
r49,49,999999996,1126.0
2016.0
r66,66,999999996,744.0
r17,17,999999982,1376.0
r8,8,999999982,1533.0
r84,84,999999981,1815.0
2063.0
r66,66,1000000000,740.0
r17,17,1000000000,1358.0
r8,8,999999995,1520.0
r84,84,999999989,1807.0
2064.0
r66,66,999999989,751.0
r17,17,999999984,1374.0
r8,8,999999989,1526.0
r84,84,999999974,1822.0
2065.0
r66,66,999999983,757.0
r17,17,999999991,1367.0
r8,8,999999991,1524.0
r84,84,999999975,1821.0
2066.0
r66,66,999999991,749.0
r17,17,999999998,1360.0
r8,8,999999990,1525.0
r84,84,999999976,1820.0
2067.0
r66,66,999999997,743.0
r17,17,999999995,1363.0
r8,8,999999981,1534.0
r84,84,999999987,1809.0
2068.0
r66,66,999999987,753.0
r17,17,999999987,1371.0
r8,8,999999988,1527.0
r84,84,999999977,1819.0
2069.0
r55,55,999999982,798.0
r35,35,1000000000,1636.0
2312.0
r55,55,999999993,787.0
r35,35,999999994,1642.0
2313.0
r45,45,999999974,2330.0
3131.0
r29,29,999999997,1081.0
r89,89,999999990,1247.0
r61,61,999999989,1498.0
r45,45,999999985,1732.0
3132.0
r4,4,999999978,1933.0
r72,72,999999984,2415.0
r45,45,999999961,3050.0
3133.0
r19,19,999999992,238.0
r62,62,999999999,544.0
r21,21,999999996,1272.0
r91,91,999999994,1482.0
r38,38,999999989,1890.0
r90,90,999999993,2035.0
r45,45,999999967,2932.0
3134.0
r19,19,999999995,235.0
r90,90,999999980,2847.0
r45,45,999999966,2933.0
3135.0
r45,45,999999978,2326.0
3136.0
r29,29,999999996,1082.0
r28,28,999999993,1182.0
r90,90,999999972,2887.0
r45,45,999999965,2934.0
3137.0
r29,29,999999986,1092.0
r89,89,999999982,1255.0
r23,23,999999989,1737.0
r48,48,999999969,2990.0
3359.0
r19,19,999999986,244.0
r62,62,999999997,546.0
r79,79,999999999,1629.0
r24,24,999999995,1900.0
r48,48,999999990,1961.0
3360.0
r51,51,999999976,2372.0
r92,92,999999968,2966.0
r28,28,999999956,3426.0
r81,81,999999965,3468.0
r49,49,999999966,3535.0
r16,16,999999954,3677.0
r40,40,999999953,3856.0
4186.0
r55,55,999999969,2793.0
r53,53,999999961,3372.0
r40,40,999999955,3712.0
4187.0
r27,27,999999981,2216.0
r22,22,999999978,2304.0
r37,37,999999975,2838.0
r98,98,999999965,3039.0
4609.0
r51,51,999999978,2370.0
r99,99,999999974,2558.0
r7,7,999999967,3506.0
r89,89,999999956,3543.0
r98,98,999999953,3630.0
4610.0
