r66,66,999999996,6.0
r82,82,999999999,274.0
1240.0
r66,66,1000000000,2.0
r82,82,999999998,275.0
1241.0
r66,66,999999998,4.0
r82,82,1000000000,273.0
1242.0
r66,66,999999990,12.0
r29,29,999999999,1294.0
r48,48,999999997,1491.0
1578.0
r51,51,999999986,487.0
r30,30,1000000000,765.0
r29,29,999999986,1485.0
r48,48,999999998,1490.0
1579.0
r66,66,999999991,11.0
r29,29,999999991,1302.0
r48,48,1000000000,1488.0
1580.0
r66,66,999999995,7.0
r29,29,999999993,1300.0
r48,48,999999995,1493.0
1581.0
r66,66,999999992,10.0
r29,29,999999996,1297.0
r48,48,999999999,1489.0
1582.0
r51,51,999999998,475.0
r32,32,999999992,675.0
r28,28,999999992,1401.0
1878.0
r66,66,999999997,5.0
r101,101,1000000000,129.0
r97,97,999999997,340.0
r88,88,999999997,630.0
r87,87,999999994,657.0
r15,15,999999994,724.0
r40,40,999999993,844.0
r28,28,999999990,1656.0
1879.0
r51,51,999999994,479.0
r32,32,999999994,673.0
r28,28,999999999,1394.0
1880.0
r51,51,999999992,481.0
r32,32,999999996,671.0
r28,28,999999994,1399.0
1881.0
r66,66,999999994,8.0
r101,101,999999997,132.0
r97,97,1000000000,337.0
r88,88,999999993,634.0
r83,83,999999995,640.0
r87,87,999999998,647.0
r15,15,999999997,721.0
r40,40,999999994,843.0
r28,28,999999986,1660.0
1882.0
r51,51,999999990,483.0
r32,32,999999998,669.0
r28,28,999999995,1398.0
1883.0
r51,51,999999997,476.0
r32,32,999999993,674.0
r28,28,1000000000,1393.0
1884.0
r51,51,999999985,488.0
r32,32,999999995,672.0
r28,28,999999997,1396.0
1885.0
r66,66,999999988,14.0
r101,101,999999998,131.0
r97,97,999999995,342.0
r88,88,999999996,631.0
r83,83,999999999,636.0
r87,87,999999997,648.0
r15,15,999999996,722.0
r40,40,999999997,840.0
r28,28,999999987,1659.0
1886.0
r51,51,1000000000,473.0
r32,32,1000000000,667.0
r28,28,999999993,1400.0
1887.0
r51,51,999999989,484.0
r32,32,999999999,668.0
r28,28,999999998,1395.0
1888.0
r51,51,999999988,485.0
r32,32,999999997,670.0
r28,28,999999996,1397.0
1889.0
r57,57,999999984,1469.0
r43,43,999999988,1536.0
2740.0
r98,98,999999981,1450.0
r43,43,999999993,1526.0
2741.0
r51,51,999999999,474.0
r30,30,999999994,771.0
r93,93,999999990,1247.0
r14,14,999999996,1277.0
r2,2,999999993,1489.0
r43,43,999999981,1653.0
2742.0
r98,98,999999979,1452.0
r43,43,999999992,1527.0
2743.0
r98,98,999999975,1456.0
r43,43,999999995,1524.0
2744.0
r57,57,999999979,1474.0
r43,43,999999985,1539.0
2745.0
r98,98,999999986,1445.0
r43,43,999999994,1525.0
2746.0
r57,57,999999981,1472.0
r43,43,999999987,1537.0
2747.0
r98,98,999999978,1453.0
r43,43,999999997,1522.0
2748.0
r21,21,999999994,653.0
r18,18,999999997,1244.0
r50,50,999999984,1653.0
r31,31,999999987,1859.0
r60,60,999999993,2175.0
2755.0
r57,57,999999975,1478.0
r38,38,999999980,1853.0
r12,12,999999986,2095.0
r60,60,999999975,2465.0
2756.0
r21,21,999999993,654.0
r18,18,999999994,1247.0
r50,50,999999990,1647.0
r31,31,999999986,1860.0
r60,60,999999988,2180.0
2757.0
r66,66,999999993,9.0
r4,4,999999977,1501.0
r72,72,999999980,1632.0
r12,12,999999979,2198.0
r60,60,999999979,2461.0
2758.0
r51,51,999999996,477.0
r4,4,999999986,1393.0
r72,72,999999981,1631.0
r12,12,999999981,2196.0
r60,60,999999980,2460.0
2759.0
r21,21,999999989,658.0
r18,18,999999999,1242.0
r64,64,999999991,1415.0
r60,60,999999985,2334.0
2760.0
r51,51,999999995,478.0
r101,101,999999988,1105.0
r72,72,999999986,1417.0
r8,8,999999994,1462.0
r38,38,999999985,1758.0
r12,12,999999988,2093.0
r60,60,999999974,2466.0
2761.0
r57,57,999999985,1468.0
r91,91,999999982,1557.0
r52,52,999999991,1832.0
r62,62,999999979,2157.0
r92,92,999999980,2243.0
3485.0
r49,49,999999997,397.0
r15,15,999999979,2125.0
r99,99,999999990,2254.0
r74,74,999999995,2380.0
r40,40,999999978,2432.0
r68,68,999999982,2505.0
r35,35,999999977,2710.0
r72,72,999999969,2882.0
r45,45,999999969,3262.0
r93,93,999999973,3506.0
3914.0
r68,68,999999962,2603.0
r35,35,999999956,2731.0
r72,72,999999968,2883.0
r45,45,999999956,3373.0
r93,93,999999967,3512.0
3915.0
r68,68,999999963,2602.0
r43,43,999999973,2914.0
r72,72,999999965,2985.0
r45,45,999999957,3372.0
r93,93,999999972,3507.0
3916.0
r36,36,999999970,2335.0
r46,46,999999956,3619.0
r93,93,999999952,3756.0
3917.0
r21,21,999999982,665.0
r22,22,1000000000,1165.0
r85,85,999999983,1624.0
r93,93,999999986,3051.0
3918.0
r40,40,999999963,2832.0
r61,61,999999982,2914.0
r81,81,999999973,2992.0
r93,93,999999957,3619.0
3919.0
r40,40,999999959,2836.0
r61,61,999999981,2915.0
r81,81,999999970,2995.0
r93,93,999999958,3618.0
3920.0
r21,21,999999995,652.0
r22,22,999999998,1167.0
r85,85,999999986,1621.0
r40,40,999999967,2469.0
r61,61,999999983,2913.0
r81,81,999999969,2996.0
r93,93,999999959,3617.0
3921.0
r49,49,999999990,404.0
r15,15,999999977,2127.0
r70,70,999999971,2188.0
r91,91,999999966,2572.0
r54,54,999999978,2706.0
r4,4,999999961,3232.0
r45,45,999999972,3259.0
r93,93,999999970,3509.0
3922.0
r21,21,999999987,660.0
r22,22,999999991,1174.0
r83,83,999999983,1461.0
r81,81,999999985,1888.0
r93,93,999999962,3614.0
3923.0
r21,21,999999984,663.0
r22,22,999999994,1171.0
r85,85,999999981,1626.0
r93,93,999999984,3053.0
3924.0
r21,21,999999992,655.0
r22,22,999999999,1166.0
r85,85,999999982,1625.0
r93,93,999999980,3057.0
3925.0
