r55,55,999999998,292.0
r18,18,999999988,407.0
r39,39,999999997,694.0
r12,12,999999996,773.0
r8,8,999999999,900.0
r66,66,1000000000,1327.0
r85,85,999999998,1390.0
1727.0
r55,55,999999988,302.0
r18,18,999999993,402.0
r39,39,999999995,696.0
r12,12,1000000000,769.0
r8,8,999999997,902.0
r66,66,999999996,1331.0
r85,85,999999997,1391.0
1728.0
r35,35,999999988,48.0
r20,20,999999997,610.0
r85,85,999999991,1653.0
1729.0
r35,35,999999991,45.0
r20,20,999999987,620.0
r85,85,999999994,1650.0
1730.0
r35,35,999999983,53.0
r20,20,999999984,623.0
r85,85,999999988,1656.0
1731.0
r35,35,999999999,37.0
r20,20,999999989,618.0
r85,85,999999993,1651.0
1732.0
r35,35,999999987,49.0
r20,20,999999993,614.0
r85,85,999999990,1654.0
1733.0
r55,55,999999989,301.0
r18,18,999999992,403.0
r39,39,999999998,693.0
r12,12,999999997,772.0
r8,8,999999995,904.0
r66,66,999999999,1328.0
r85,85,999999996,1392.0
1734.0
r35,35,999999992,44.0
r20,20,999999988,619.0
r85,85,999999987,1657.0
1735.0
r55,55,999999992,298.0
r18,18,999999995,400.0
r39,39,999999996,695.0
r12,12,999999998,771.0
r8,8,999999996,903.0
r66,66,999999998,1329.0
r85,85,999999999,1389.0
1736.0
r35,35,999999996,40.0
r20,20,999999991,616.0
r85,85,999999989,1655.0
1737.0
r35,35,999999995,41.0
r20,20,999999996,611.0
r85,85,999999992,1652.0
1738.0
r55,55,999999997,293.0
r18,18,999999986,409.0
r39,39,1000000000,691.0
r12,12,999999999,770.0
r8,8,999999998,901.0
r66,66,999999995,1332.0
r85,85,999999995,1393.0
1739.0
r55,55,999999987,303.0
r3,3,999999996,647.0
r9,9,999999994,939.0
r89,89,999999989,1186.0
2006.0
r55,55,999999994,296.0
r45,45,999999994,584.0
r41,41,999999994,718.0
r48,48,999999994,1467.0
r89,89,999999978,1477.0
2007.0
r35,35,999999993,43.0
r20,20,999999990,617.0
r89,89,1000000000,697.0
2008.0
r55,55,999999983,307.0
r3,3,1000000000,643.0
r9,9,999999997,936.0
r89,89,999999987,1188.0
2009.0
r55,55,999999986,304.0
r3,3,999999993,650.0
r9,9,999999993,940.0
r89,89,999999986,1189.0
2010.0
r35,35,1000000000,36.0
r58,58,999999989,1123.0
r32,32,999999992,1280.0
r89,89,999999983,1364.0
2011.0
r55,55,999999999,291.0
r45,45,999999996,582.0
r41,41,999999993,719.0
r48,48,999999993,1468.0
r89,89,999999979,1476.0
2012.0
r35,35,999999994,42.0
r20,20,999999995,612.0
r89,89,999999994,703.0
2013.0
r35,35,999999990,46.0
r20,20,999999992,615.0
r89,89,999999996,701.0
2014.0
r55,55,1000000000,290.0
r3,3,999999992,651.0
r9,9,999999998,935.0
r89,89,999999990,1185.0
2015.0
r55,55,999999996,294.0
r3,3,999999995,648.0
r57,57,999999992,1078.0
r41,41,999999988,1338.0
r48,48,999999995,1466.0
r89,89,999999980,1475.0
2016.0
r55,55,999999985,305.0
r45,45,999999988,590.0
r41,41,999999998,714.0
r48,48,1000000000,1461.0
r89,89,999999981,1474.0
2017.0
r61,61,999999986,1445.0
r16,16,999999977,2040.0
2851.0
r34,34,999999985,369.0
r2,2,999999992,1228.0
r60,60,999999980,1752.0
r61,61,999999964,1775.0
r16,16,999999983,2034.0
2852.0
r55,55,999999995,295.0
r45,45,999999990,588.0
r96,96,999999996,1315.0
r16,16,999999993,1462.0
2853.0
r34,34,999999994,360.0
r2,2,999999994,857.0
r60,60,999999973,1759.0
r61,61,999999963,1776.0
r16,16,999999980,2037.0
2854.0
r35,35,999999998,38.0
r13,13,999999997,1093.0
r76,76,1000000000,1132.0
r61,61,999999999,1161.0
r16,16,999999984,2033.0
2855.0
r61,61,999999982,1449.0
r16,16,999999981,2036.0
2856.0
r34,34,999999990,364.0
r2,2,999999983,1237.0
r60,60,999999981,1751.0
r77,77,999999985,1971.0
r16,16,999999975,2862.0
2903.0
r34,34,999999982,372.0
r2,2,999999999,852.0
r60,60,999999977,1755.0
r77,77,999999987,1969.0
r16,16,999999976,2861.0
2904.0
r55,55,999999990,300.0
r45,45,999999998,580.0
r96,96,999999995,1316.0
r16,16,999999992,1463.0
2905.0
r61,61,999999975,1456.0
r87,87,999999984,1624.0
r73,73,999999989,2051.0
r9,9,999999983,2391.0
r22,22,999999965,2799.0
2924.0
r35,35,999999985,51.0
r27,27,999999993,1339.0
r49,49,999999996,1492.0
r59,59,1000000000,1582.0
r67,67,999999989,1980.0
r8,8,999999987,2290.0
r22,22,999999972,2487.0
2925.0
r61,61,999999981,1450.0
r87,87,999999978,1630.0
r73,73,999999988,2052.0
r9,9,999999982,2392.0
r22,22,999999964,2800.0
2926.0
r24,24,999999984,1654.0
r20,20,999999980,2076.0
r85,85,999999976,2162.0
r27,27,999999971,2482.0
r22,22,999999968,2569.0
2927.0
r52,52,1000000000,1316.0
r99,99,999999995,1597.0
r48,48,999999986,1713.0
r79,79,999999982,2363.0
r32,32,999999962,3115.0
3568.0
r99,99,999999987,1873.0
r32,32,999999959,3546.0
3569.0
r52,52,999999999,1317.0
r99,99,999999991,1601.0
r32,32,999999960,3545.0
3570.0
r52,52,999999998,1318.0
r99,99,999999992,1600.0
r48,48,999999984,1715.0
r79,79,999999983,2362.0
r32,32,999999961,3116.0
3571.0
r24,24,999999987,1651.0
r64,64,999999995,1780.0
r21,21,999999978,1919.0
r56,56,999999976,2113.0
r33,33,999999974,2601.0
r32,32,999999968,3044.0
3572.0
r34,34,999999983,371.0
r80,80,999999983,566.0
r33,33,999999971,2806.0
r32,32,999999965,3047.0
3573.0
r52,52,999999994,1322.0
r32,32,999999958,4085.0
4145.0
r24,24,1000000000,1638.0
r72,72,999999973,2157.0
r22,22,999999960,3221.0
r61,61,999999958,3585.0
4463.0
r38,38,999999952,3807.0
r39,39,999999965,3883.0
5162.0
r38,38,999999951,3808.0
r39,39,999999966,3882.0
5163.0
r24,24,999999988,1650.0
r41,41,999999964,3201.0
r39,39,999999978,3687.0
5164.0
r99,99,999999974,1886.0
r11,11,999999979,2482.0
r37,37,999999979,2681.0
5612.0
