r13,13,1000000000,2.0
r17,17,999999998,558.0
r63,63,999999996,799.0
1236.0
r13,13,999999998,4.0
r17,17,1000000000,556.0
r63,63,999999999,796.0
1237.0
r13,13,999999999,3.0
r17,17,999999999,557.0
r63,63,1000000000,795.0
1238.0
r13,13,999999997,5.0
r17,17,999999996,560.0
r63,63,999999998,797.0
1239.0
r13,13,999999996,6.0
r17,17,999999997,559.0
r63,63,999999997,798.0
1240.0
r65,65,999999995,321.0
r43,43,999999998,347.0
r81,81,999999998,1033.0
1426.0
r65,65,999999993,323.0
r81,81,999999991,1217.0
1427.0
r65,65,999999997,319.0
r43,43,999999995,350.0
r81,81,1000000000,1031.0
1428.0
r65,65,999999994,322.0
r81,81,999999992,1216.0
1429.0
r65,65,999999989,327.0
r81,81,999999994,1214.0
1430.0
r65,65,1000000000,316.0
r43,43,999999999,346.0
r81,81,999999997,1034.0
1431.0
r65,65,999999998,318.0
r81,81,999999990,1218.0
1432.0
r43,43,999999984,379.0
r81,81,999999999,1032.0
1433.0
r65,65,999999988,328.0
r81,81,999999995,1213.0
1434.0
r43,43,999999986,377.0
r32,32,999999995,981.0
r62,62,999999998,1136.0
r20,20,999999995,1158.0
r54,54,999999999,1453.0
1819.0
r65,65,999999996,320.0
r43,43,999999992,353.0
r32,32,999999992,984.0
r62,62,999999995,1139.0
r20,20,999999993,1160.0
r54,54,999999993,1459.0
1820.0
r43,43,999999987,376.0
r32,32,999999998,978.0
r62,62,999999993,1141.0
r20,20,999999997,1156.0
r54,54,999999992,1460.0
1821.0
r65,65,999999986,330.0
r43,43,999999994,351.0
r32,32,999999997,979.0
r62,62,999999994,1140.0
r20,20,1000000000,1153.0
r54,54,999999994,1458.0
1822.0
r43,43,999999988,375.0
r64,64,999999993,855.0
r56,56,999999998,956.0
2045.0
r94,94,999999999,527.0
r16,16,1000000000,1140.0
r93,93,999999990,1981.0
2235.0
r94,94,999999996,530.0
r22,22,999999999,785.0
r93,93,999999998,1732.0
2236.0
r94,94,999999995,531.0
r16,16,999999995,1145.0
r93,93,999999991,1980.0
2237.0
r94,94,999999997,529.0
r22,22,999999997,787.0
r93,93,1000000000,1730.0
2238.0
r94,94,1000000000,526.0
r22,22,999999998,786.0
r93,93,999999996,1734.0
2239.0
r91,91,1000000000,973.0
r13,13,999999995,1324.0
2475.0
r91,91,999999997,976.0
r13,13,999999987,1332.0
2476.0
r91,91,999999995,978.0
r13,13,999999988,1331.0
2477.0
r91,91,999999991,982.0
r13,13,999999992,1327.0
2478.0
r65,65,999999999,317.0
r4,4,999999982,1420.0
r99,99,999999992,1592.0
r19,19,999999993,1733.0
2503.0
r40,40,999999993,878.0
r18,18,999999977,1432.0
r83,83,999999996,1498.0
r53,53,999999986,1692.0
r72,72,999999973,2416.0
2572.0
r40,40,999999999,872.0
r18,18,999999982,1427.0
r83,83,999999995,1499.0
r53,53,999999985,1693.0
r72,72,999999974,2415.0
2573.0
r40,40,999999987,884.0
r50,50,999999994,1275.0
r92,92,999999990,1453.0
r80,80,999999967,2438.0
r72,72,999999966,2441.0
2574.0
r40,40,999999988,883.0
r50,50,999999999,1270.0
r80,80,999999992,1372.0
r72,72,999999968,2426.0
2575.0
r91,91,999999998,975.0
r96,96,999999992,1242.0
r50,50,999999985,1312.0
r92,92,999999984,1459.0
r80,80,999999966,2439.0
r72,72,999999967,2440.0
2576.0
r40,40,999999985,886.0
r18,18,999999974,1435.0
r83,83,999999997,1497.0
r53,53,999999982,1696.0
r72,72,999999971,2418.0
2577.0
r91,91,999999987,986.0
r48,48,999999972,2080.0
r24,24,999999987,2124.0
r47,47,999999969,2280.0
r72,72,999999965,2665.0
r26,26,999999987,2886.0
r55,55,999999961,3199.0
3289.0
r38,38,999999973,1915.0
r65,65,999999971,2140.0
r55,55,999999974,2981.0
3290.0
r18,18,999999955,2224.0
r5,5,999999975,2450.0
r55,55,999999988,2517.0
3291.0
r18,18,999999953,2226.0
r5,5,999999977,2448.0
r55,55,999999984,2521.0
3292.0
r18,18,999999959,2220.0
r5,5,999999981,2444.0
r55,55,999999981,2524.0
3293.0
r38,38,999999969,1919.0
r64,64,999999959,3500.0
r55,55,999999958,3545.0
r42,42,999999961,3768.0
r20,20,999999963,3870.0
4309.0
r38,38,999999971,1917.0
r65,65,999999970,2141.0
r20,20,999999972,2829.0
4310.0
r38,38,999999970,1918.0
r65,65,999999969,2142.0
r53,53,999999974,2489.0
r36,36,999999951,4801.0
4828.0
r50,50,999999960,2839.0
r36,36,999999968,3628.0
4829.0
r83,83,999999953,3706.0
r53,53,999999958,3750.0
r36,36,999999953,4799.0
4830.0
r83,83,999999954,3705.0
r53,53,999999952,3756.0
r36,36,999999954,4798.0
4831.0
r50,50,999999967,2832.0
r99,99,999999959,3570.0
r54,54,999999956,3686.0
r66,66,999999963,3865.0
r36,36,999999963,4236.0
4832.0
r50,50,999999959,2840.0
r99,99,999999962,3567.0
r54,54,999999955,3687.0
r66,66,999999959,3869.0
r36,36,999999960,4239.0
4833.0
r50,50,999999968,2831.0
r36,36,999999971,3625.0
4834.0
r50,50,999999962,2837.0
r99,99,999999960,3569.0
r54,54,999999954,3688.0
r66,66,999999960,3868.0
r36,36,999999956,4243.0
4835.0
