r16,16,998999990,793.0
l65,65,198999991,954.0
1301.0
r16,16,998999983,800.0
l65,65,198999996,949.0
1302.0
r16,16,998999993,790.0
l65,65,198999986,959.0
1303.0
r16,16,999000000,783.0
l65,65,198999989,956.0
1304.0
r16,16,998999992,791.0
l65,65,198999987,958.0
1305.0
r16,16,998999987,796.0
l65,65,198999992,953.0
1306.0
r16,16,998999997,786.0
l65,65,199999999,942.0
1307.0
r16,16,998999986,797.0
l65,65,200000000,941.0
1308.0
r16,16,998999982,801.0
l65,65,198999995,950.0
1309.0
r16,16,998999991,792.0
l65,65,199999998,943.0
1310.0
r16,16,998999988,795.0
l65,65,198999988,957.0
r34,34,997999975,1245.0
e72,72,1796999987,1352.0
1650.0
r16,16,998999998,785.0
l65,65,198999994,951.0
r34,34,998999979,1237.0
e72,72,1796999982,1357.0
1651.0
r13,13,1000000000,559.0
r34,34,999999980,842.0
e72,72,1796999989,1350.0
1652.0
r34,34,999999983,350.0
e72,72,1796999992,1347.0
1653.0
r13,13,999999990,569.0
r5,5,999999990,588.0
r15,15,998999990,1239.0
l49,49,199999995,1303.0
e72,72,1797999994,1327.0
1654.0
r13,13,999999987,572.0
r5,5,999999998,580.0
r15,15,998999992,1237.0
l49,49,200000000,1298.0
e72,72,1798999998,1319.0
1655.0
r34,34,999999986,347.0
e72,72,1796999990,1349.0
1656.0
r34,34,999999992,341.0
e72,72,1796999991,1348.0
1657.0
r34,34,1000000000,333.0
e72,72,1796999983,1356.0
1658.0
r34,34,999999988,345.0
e72,72,1796999984,1355.0
1659.0
r34,34,999999981,352.0
r13,13,999999976,837.0
r5,5,998999982,1589.0
e95,95,1799999992,1725.0
1783.0
r34,34,999999999,334.0
r13,13,999999982,831.0
r5,5,998999978,1593.0
e95,95,1799999990,1727.0
1784.0
r13,13,999999984,575.0
r5,5,999999997,581.0
e95,95,1799999986,1731.0
1785.0
r13,13,999999989,570.0
r5,5,999999996,582.0
e95,95,1799999996,1721.0
1786.0
r13,13,999999996,563.0
r5,5,998999979,1592.0
e95,95,1799999997,1720.0
1787.0
r34,34,999999991,342.0
r13,13,999999971,841.0
e83,83,1799999998,973.0
e81,81,1798999996,1538.0
l64,64,199999997,1583.0
2029.0
r34,34,999999982,351.0
r13,13,999999972,840.0
e83,83,1799999997,974.0
e81,81,1798999990,1544.0
l64,64,200000000,1580.0
2030.0
r13,13,999999994,565.0
e83,83,1799999996,975.0
e81,81,1799000000,1534.0
l64,64,199999999,1581.0
2031.0
e96,96,1799999989,300.0
e79,79,1799999991,1413.0
2851.0
r16,16,998999989,794.0
e93,93,1800000000,815.0
e71,71,1798999997,882.0
r35,35,999999999,1064.0
e74,74,1798999997,1672.0
e79,79,1797999970,2085.0
2852.0
e96,96,1799999999,290.0
e79,79,1799999983,1421.0
2853.0
e96,96,1799999990,299.0
e79,79,1799999996,1408.0
2854.0
e96,96,1799999997,292.0
e79,79,1799999993,1411.0
2855.0
e96,96,1799999991,298.0
e79,79,1800000000,1404.0
2856.0
r13,13,999999993,566.0
e96,96,1799999977,1185.0
e79,79,1799999987,1417.0
2857.0
e96,96,1799999986,303.0
e79,79,1799999994,1410.0
2858.0
e96,96,1799999993,296.0
e79,79,1799999998,1406.0
2859.0
e96,96,1799999988,301.0
e79,79,1799999980,1424.0
2860.0
r16,16,998999996,787.0
l65,65,198999993,952.0
e97,97,1799000000,1073.0
r3,3,999000000,1260.0
r32,32,997999990,1377.0
l57,57,196999987,2830.0
2874.0
r13,13,999999983,576.0
e83,83,1799999989,982.0
r17,17,999999987,1416.0
l57,57,197999995,1739.0
2875.0
r20,20,999999991,181.0
l63,63,199999992,1856.0
r9,9,998999991,2519.0
r15,15,995999973,4068.0
4139.0
r7,7,997999991,2756.0
r8,8,995999967,3026.0
e69,69,1795999971,3088.0
r15,15,997999977,3685.0
4140.0
r6,6,995999985,2690.0
e72,72,1795999977,2791.0
r2,2,995999965,4454.0
4653.0
r7,7,997999981,2765.0
l48,48,195999970,4405.0
4891.0
r7,7,997999969,3001.0
e85,85,1790999957,5021.0
5575.0
l44,44,194999976,4025.0
e85,85,1793999961,4329.0
5576.0
r7,7,996999957,3017.0
e85,85,1789999954,5028.0
5577.0
r7,7,997999982,2764.0
e85,85,1790999955,5023.0
5578.0
r26,26,996999975,2644.0
e87,87,1795999983,3093.0
r15,15,991999956,4929.0
6350.0
