l40,40,199999993,365.0
l55,55,199999993,725.0
r22,22,999000000,1068.0
1998.0
l40,40,199999994,364.0
l55,55,199999995,723.0
r22,22,998999998,1070.0
1999.0
l40,40,199999986,372.0
l55,55,199999989,729.0
r22,22,998999994,1074.0
2000.0
l40,40,199999997,361.0
l55,55,199999999,720.0
r22,22,998999999,1069.0
2001.0
l40,40,199999999,360.0
l55,55,199999996,722.0
r22,22,998999995,1073.0
2002.0
l40,40,199999989,369.0
l55,55,199999997,721.0
r22,22,998999997,1071.0
2003.0
l40,40,199999984,374.0
l55,55,200000000,719.0
r22,22,998999991,1077.0
2004.0
l40,40,200000000,359.0
l55,55,199999992,726.0
r22,22,998999993,1075.0
2005.0
l40,40,199999982,376.0
l55,55,199999998,720.0
r22,22,998999996,1072.0
2006.0
l40,40,199999983,375.0
l55,55,199999994,724.0
r22,22,998999992,1076.0
2007.0
r2,2,999999986,781.0
l61,61,197000000,1603.0
l50,50,196999988,2194.0
2249.0
r2,2,999999988,779.0
l61,61,196999997,1606.0
l50,50,196999987,2195.0
2250.0
l40,40,199999992,366.0
l54,54,200000000,531.0
l43,43,199999996,1152.0
l61,61,196999991,1984.0
l50,50,196999985,2197.0
2251.0
r2,2,999999981,786.0
r16,16,997999982,894.0
l63,63,198999997,1176.0
l67,67,197999998,1372.0
r7,7,998000000,1636.0
l43,43,198999987,1653.0
l61,61,196999993,1982.0
l50,50,196999983,2199.0
2252.0
r30,30,999999992,250.0
l56,56,197999996,1217.0
l50,50,197999994,1700.0
2253.0
r30,30,1000000000,242.0
l56,56,197999993,1220.0
l50,50,198000000,1694.0
2254.0
r30,30,999999998,244.0
l56,56,197999997,1216.0
l50,50,197999997,1697.0
2255.0
r30,30,999999994,248.0
l56,56,197999998,1215.0
l50,50,197999996,1698.0
2256.0
r2,2,999999985,782.0
r16,16,997999998,878.0
l63,63,198999999,1174.0
l67,67,197999999,1371.0
l61,61,196999988,2105.0
l50,50,196999986,2196.0
2257.0
e81,81,1799999998,866.0
l58,58,199999995,1041.0
l56,56,196999990,1443.0
l50,50,197999998,1696.0
2258.0
r2,2,999999980,787.0
r16,16,997999988,888.0
l63,63,200000000,1169.0
l67,67,198000000,1370.0
l61,61,196999987,2106.0
l50,50,196999989,2193.0
2259.0
r30,30,999999993,249.0
l56,56,197999999,1214.0
l50,50,197999995,1699.0
2260.0
r30,30,999999997,245.0
e79,79,1799999998,710.0
r29,29,999999996,1050.0
l53,53,197999994,1848.0
l50,50,196999991,1951.0
2261.0
l40,40,199999990,368.0
e70,70,1799999994,457.0
r2,2,999999998,653.0
l61,61,196999996,1607.0
l50,50,196999984,2198.0
2262.0
r2,2,999999990,777.0
r16,16,997999992,884.0
l68,68,198999989,2253.0
2513.0
l40,40,199999985,373.0
e70,70,1799999997,454.0
l68,68,198999998,1179.0
2514.0
r2,2,999999991,776.0
e70,70,1799999985,1115.0
l68,68,199000000,1177.0
2515.0
r2,2,999999992,775.0
r16,16,997999987,889.0
l68,68,198999983,2259.0
2516.0
r2,2,999999983,784.0
r16,16,997999984,892.0
l68,68,198999984,2258.0
2517.0
r2,2,999999993,774.0
r16,16,997999995,881.0
l68,68,197999982,2264.0
2518.0
e87,87,1799999984,269.0
r27,27,999999990,889.0
e83,83,1798000000,1345.0
e72,72,1797999982,1795.0
l68,68,198999990,1833.0
2519.0
r2,2,999999989,778.0
e70,70,1799999993,1107.0
l68,68,198999997,1180.0
2520.0
l40,40,199999996,362.0
e72,72,1797999989,1195.0
l68,68,198999991,1832.0
2520.0
r2,2,999999982,785.0
r16,16,997999980,896.0
l68,68,197999980,2266.0
2521.0
r30,30,999999991,251.0
r20,20,999999998,409.0
r18,18,998999996,672.0
r29,29,998999993,1267.0
l53,53,197999996,1846.0
l68,68,197999968,2399.0
2522.0
r2,2,999999984,783.0
r16,16,997999996,880.0
l68,68,197999978,2268.0
2523.0
r33,33,999999999,648.0
l62,62,194999980,1900.0
e72,72,1796999974,1975.0
l55,55,198999975,2428.0
2744.0
l40,40,199999988,370.0
l55,55,194999969,2662.0
2745.0
e87,87,1799999990,263.0
r13,13,999999992,917.0
r33,33,998999991,1182.0
l62,62,194999978,1902.0
e72,72,1796999972,1977.0
l55,55,198999976,2427.0
2746.0
r23,23,999999996,948.0
r24,24,998999987,1338.0
l57,57,199999997,2440.0
3366.0
r23,23,999999993,951.0
r24,24,998999991,1334.0
l57,57,199999994,2443.0
3367.0
e81,81,1799999990,874.0
l58,58,199999996,1040.0
l42,42,198999986,1451.0
e69,69,1796999997,1596.0
3654.0
r23,23,999999995,949.0
e96,96,1799999985,2022.0
r28,28,997999979,2743.0
l41,41,194999977,3019.0
5013.0
r23,23,999999994,950.0
r4,4,999999993,1197.0
l67,67,197999990,2323.0
e81,81,1797999964,3134.0
l39,39,195999966,3231.0
l41,41,193999960,3653.0
5014.0
r23,23,999999992,952.0
e96,96,1799999988,2019.0
r28,28,997999976,2746.0
e72,72,1792999957,3027.0
l41,41,194999969,3031.0
5015.0
e91,91,1795999991,1665.0
r18,18,995999966,4407.0
e83,83,1789999954,4921.0
5035.0
l54,54,199999991,1179.0
r21,21,993999955,3652.0
r18,18,992999962,4475.0
e83,83,1789999955,4920.0
5036.0
e91,91,1795999992,1664.0
r6,6,998999997,2056.0
e84,84,1799999988,2671.0
l48,48,197999985,2951.0
r8,8,997999961,3776.0
6089.0
r22,22,993999961,3485.0
l66,66,185999953,5736.0
e73,73,1787999954,6820.0
6833.0
r22,22,993999966,3480.0
l66,66,185999952,5737.0
l52,52,181999951,6842.0
6858.0
