r9,9,999999998,383.0
l42,42,199999997,897.0
l56,56,199999996,968.0
1008.0
r9,9,1000000000,381.0
l42,42,199999993,901.0
l56,56,199999997,967.0
1009.0
r9,9,999999992,389.0
l42,42,199999991,903.0
l56,56,199999993,971.0
1010.0
r9,9,999999997,384.0
l42,42,199999998,896.0
l56,56,199999992,972.0
1011.0
r9,9,999999989,392.0
l42,42,199999999,895.0
l56,56,199999998,966.0
1012.0
r9,9,999999987,394.0
l42,42,199999990,904.0
l56,56,199999990,974.0
1013.0
r9,9,999999993,388.0
l42,42,199999994,900.0
l56,56,199999991,973.0
1014.0
r9,9,999999996,385.0
l42,42,200000000,894.0
l56,56,200000000,964.0
1015.0
r9,9,999999986,395.0
l42,42,199999995,899.0
1098.0
r9,9,999999988,393.0
l42,42,199999996,898.0
1099.0
r9,9,999999983,398.0
l42,42,199999992,902.0
1100.0
r9,9,999999995,386.0
e74,74,1799999984,794.0
r22,22,999999999,906.0
r2,2,999999998,953.0
1462.0
r9,9,999999990,391.0
e74,74,1800000000,778.0
r22,22,999999992,913.0
r2,2,999999997,954.0
1463.0
r9,9,999999994,387.0
e74,74,1799999989,789.0
r22,22,999999998,907.0
r2,2,999999994,957.0
1464.0
r10,10,999999999,112.0
l43,43,198999993,706.0
l39,39,199999994,1346.0
e93,93,1798999995,1625.0
2392.0
r10,10,999999982,129.0
l43,43,198999994,705.0
l39,39,199999996,1344.0
e93,93,1798999999,1621.0
2393.0
r10,10,999999994,117.0
l43,43,198999986,713.0
l39,39,199999995,1345.0
e93,93,1799000000,1620.0
2394.0
r10,10,999999998,113.0
l43,43,198999988,711.0
l39,39,199999997,1343.0
e93,93,1798999994,1626.0
2395.0
r10,10,999999987,124.0
l43,43,198999998,701.0
l39,39,199999991,1349.0
e93,93,1798999997,1623.0
2396.0
r10,10,999999990,121.0
l43,43,198999999,700.0
l52,52,199999996,911.0
r27,27,999999997,1230.0
r18,18,998999994,1535.0
l60,60,197999989,2065.0
2579.0
r10,10,999999981,130.0
e77,77,1799999992,801.0
l60,60,197999979,2372.0
2580.0
r10,10,999999986,125.0
l43,43,198999992,707.0
l52,52,199999999,908.0
r27,27,999999995,1232.0
r18,18,998999991,1538.0
l60,60,197999990,2064.0
2581.0
r10,10,999999992,119.0
l43,43,198999987,712.0
l52,52,199999997,910.0
r27,27,999999999,1228.0
r18,18,998999995,1534.0
l60,60,197999993,2061.0
2582.0
r10,10,999999983,128.0
e77,77,1799999993,800.0
l60,60,197999980,2371.0
2583.0
r10,10,999999996,115.0
e77,77,1799999999,794.0
l60,60,197999986,2365.0
2584.0
r9,9,999999984,397.0
e69,69,1799000000,981.0
l41,41,197999999,1315.0
e77,77,1797999988,1449.0
l60,60,197999982,2369.0
2585.0
r9,9,999999991,390.0
e100,100,1799999999,696.0
e101,101,1799999996,768.0
r30,30,999999993,1219.0
r11,11,999999994,1405.0
l64,64,198999998,1671.0
r15,15,998999993,2054.0
r18,18,997999986,2081.0
e77,77,1796999978,2184.0
l60,60,197999978,2373.0
2586.0
r10,10,999999993,118.0
l43,43,198999990,709.0
l52,52,200000000,907.0
r27,27,1000000000,1227.0
r18,18,998999998,1531.0
l60,60,197999988,2066.0
2587.0
r9,9,999999999,382.0
e100,100,1799999995,700.0
e101,101,1799999998,766.0
r30,30,999999999,1213.0
e75,75,1798999993,2330.0
l37,37,196999985,2577.0
l46,46,197999985,2728.0
e73,73,1795999979,2929.0
2935.0
e100,100,1799999970,1136.0
e95,95,1794999990,3346.0
3764.0
e100,100,1799999971,1135.0
e95,95,1794999986,3350.0
3765.0
e100,100,1799999976,1055.0
e95,95,1794999995,3341.0
3766.0
e100,100,1799999978,1053.0
e95,95,1794999989,3347.0
3767.0
e100,100,1799999987,1044.0
e95,95,1794999992,3344.0
3768.0
e100,100,1799999963,1143.0
e71,71,1800000000,1375.0
l36,36,194999981,3169.0
3934.0
e100,100,1799999983,1048.0
e71,71,1798999997,1382.0
l36,36,194999982,3168.0
3935.0
e100,100,1799999975,1056.0
e71,71,1798999998,1381.0
l36,36,193999979,3175.0
3936.0
r10,10,996999973,2567.0
r4,4,998999977,4499.0
4633.0
r10,10,996999971,2569.0
l49,49,198999986,3660.0
e74,74,1798999977,3915.0
e98,98,1792999973,4489.0
r4,4,998999976,4583.0
4634.0
e100,100,1799999984,1047.0
r34,34,998999990,1789.0
e74,74,1799999980,2827.0
e98,98,1792999971,4491.0
r4,4,998999975,4584.0
4635.0
r31,31,998999989,2389.0
l46,46,193999966,3051.0
e99,99,1790999970,3651.0
e71,71,1794999991,4250.0
r9,9,992999974,4615.0
4879.0
e100,100,1799999960,1146.0
e78,78,1798999996,2597.0
e81,81,1793999981,3140.0
r9,9,994999979,3456.0
4880.0
l51,51,196999981,3212.0
l50,50,189999973,5257.0
5332.0
r19,19,999999989,798.0
l54,54,200000000,1212.0
e90,90,1799999998,1246.0
l59,59,199999990,1573.0
l38,38,196999990,1997.0
r11,11,994999973,3171.0
l56,56,192999970,3626.0
r9,9,989999969,4995.0
e69,69,1790999973,5890.0
5981.0
e100,100,1799999985,1046.0
r34,34,998999981,1798.0
e72,72,1797999992,2019.0
l58,58,190999974,3684.0
l51,51,196999970,3711.0
e97,97,1790999964,5427.0
r9,9,988999963,5639.0
e69,69,1790999971,5892.0
5982.0
e83,83,1799999989,2229.0
l47,47,198999989,2856.0
l38,38,190999971,3947.0
r11,11,988999968,5769.0
6126.0
r10,10,996999967,2573.0
r19,19,999999974,3039.0
r16,16,995999975,3456.0
l38,38,188999962,4442.0
r11,11,987999966,5775.0
6127.0
e100,100,1799999973,1058.0
e76,76,1797999986,2696.0
l59,59,197999975,2961.0
r15,15,992999972,3147.0
r32,32,994999992,4070.0
l54,54,183999956,6731.0
6899.0
e100,100,1799999953,1153.0
e76,76,1797999985,2697.0
l59,59,197999976,2960.0
r15,15,992999973,3146.0
l54,54,193999968,4635.0
6900.0
