l41,41,199999984,448.0
e96,96,1799999997,578.0
l53,53,199999998,1106.0
1432.0
l41,41,199999995,437.0
e96,96,1799999993,582.0
l53,53,199999997,1107.0
1433.0
l41,41,199999998,434.0
e96,96,1799999994,581.0
l53,53,199999996,1108.0
1434.0
l41,41,199999999,433.0
e96,96,1799999999,576.0
l53,53,200000000,1104.0
1435.0
l41,41,199999997,435.0
e96,96,1799999992,583.0
l53,53,199999995,1109.0
1436.0
l41,41,199999985,447.0
e96,96,1800000000,575.0
l53,53,199999993,1111.0
1437.0
l41,41,199999992,440.0
e96,96,1799999996,579.0
l53,53,199999994,1110.0
1438.0
l41,41,199999989,443.0
e96,96,1799999998,577.0
l53,53,199999999,1105.0
1439.0
l65,65,198999989,883.0
e91,91,1798999992,1272.0
e73,73,1798999995,1807.0
1886.0
l65,65,198999988,884.0
e91,91,1798999997,1267.0
e73,73,1798999993,1809.0
1887.0
e95,95,1799999987,828.0
r14,14,999999996,1215.0
e91,91,1798999985,1393.0
e73,73,1798999994,1808.0
1888.0
e83,83,1799999987,1043.0
l64,64,199999999,1427.0
e100,100,1794999989,2558.0
2750.0
e83,83,1799999992,1038.0
l68,68,200000000,1989.0
r6,6,998999994,2021.0
l64,64,196999994,2359.0
e100,100,1794999991,2556.0
2751.0
e95,95,1799999994,821.0
l58,58,199999999,1208.0
r14,14,999999999,1210.0
e91,91,1798999989,1389.0
e82,82,1798999995,1694.0
l61,61,198999996,1787.0
l56,56,195999999,1870.0
l63,63,199000000,1913.0
e100,100,1794999998,2243.0
2752.0
e83,83,1799999998,1032.0
l64,64,199999998,1428.0
e100,100,1794999993,2554.0
2753.0
e83,83,1799999989,1041.0
l68,68,199999998,1991.0
r6,6,998999993,2022.0
l64,64,196999995,2358.0
e100,100,1794999990,2557.0
2754.0
e83,83,1799999997,1033.0
l68,68,199999992,1997.0
r6,6,998999997,2018.0
l64,64,196999991,2362.0
e100,100,1794999992,2555.0
2755.0
l65,65,198999999,873.0
e91,91,1798999991,1273.0
e82,82,1798999993,1696.0
l61,61,198999997,1786.0
l56,56,194999995,1878.0
l63,63,198999999,1914.0
e100,100,1794999999,2242.0
2756.0
l47,47,193999990,2558.0
3013.0
l47,47,193999991,2557.0
3014.0
l47,47,193999988,2560.0
3015.0
l47,47,193999992,2556.0
3016.0
e83,83,1799999995,1035.0
r35,35,998999994,1174.0
l53,53,197999983,2069.0
3061.0
r35,35,998999984,1310.0
l53,53,197999990,2062.0
3062.0
r35,35,998999985,1309.0
l53,53,197999992,2060.0
3063.0
e83,83,1799999993,1037.0
r35,35,999000000,1168.0
l53,53,197999986,2066.0
3064.0
r35,35,998999987,1307.0
l53,53,197999982,2070.0
3065.0
e83,83,1800000000,1030.0
r35,35,998999999,1169.0
l53,53,197999991,2061.0
3066.0
r35,35,998999989,1305.0
l53,53,197999989,2063.0
3067.0
r35,35,998999992,1302.0
l53,53,197999987,2065.0
3068.0
l65,65,198999992,880.0
e97,97,1792999990,2518.0
3150.0
l65,65,198999998,874.0
e97,97,1792999986,2521.0
3151.0
l65,65,198999993,879.0
e97,97,1792999981,2526.0
3152.0
l65,65,198999996,876.0
e97,97,1792999984,2523.0
3153.0
e95,95,1799999990,825.0
r25,25,1000000000,924.0
l65,65,198999979,1290.0
e97,97,1792999985,2522.0
3154.0
e95,95,1799999995,820.0
e97,97,1797999998,1011.0
3155.0
e95,95,1799999992,823.0
r25,25,999999994,930.0
l65,65,198999978,1291.0
e97,97,1792999979,2528.0
3156.0
l41,41,199999981,451.0
l55,55,199999999,2016.0
e78,78,1793999979,3302.0
3312.0
l41,41,199999983,449.0
l55,55,199999998,2017.0
e78,78,1793999982,3299.0
3313.0
r10,10,999999988,1118.0
e81,81,1797999997,1243.0
l39,39,198999998,1361.0
e85,85,1796999998,1491.0
e71,71,1795999993,1845.0
3528.0
l41,41,199999986,446.0
r10,10,999999973,1292.0
e87,87,1792999970,2434.0
3732.0
r10,10,999999998,1108.0
l66,66,197999992,1809.0
e87,87,1796999995,1903.0
3733.0
l41,41,199999996,436.0
r10,10,999999983,1282.0
l66,66,197999989,1812.0
e87,87,1796999989,1909.0
3734.0
r10,10,999999994,1112.0
e81,81,1797999998,1242.0
l39,39,200000000,1355.0
l66,66,198999999,1425.0
e87,87,1796999988,1910.0
3735.0
r10,10,999999995,1111.0
e87,87,1791999965,2443.0
3736.0
l41,41,200000000,432.0
r10,10,999999977,1288.0
e87,87,1792999972,2432.0
3737.0
e85,85,1796999990,1859.0
l38,38,196999986,2344.0
r15,15,993999977,3552.0
5190.0
r33,33,997999976,2772.0
r15,15,993999974,3614.0
5191.0
l58,58,199999985,1701.0
l41,41,199999962,2839.0
r26,26,996999982,2916.0
l48,48,187999956,4698.0
r24,24,990999968,5436.0
5745.0
e85,85,1796999989,1860.0
r24,24,994999975,4346.0
5746.0
