l42,42,199999992,327.0
r11,11,999999991,571.0
e93,93,1799999999,702.0
r33,33,999999995,996.0
e70,70,1799999996,1094.0
r15,15,998999993,1274.0
1567.0
e94,94,1799999997,5.0
e99,99,1799999999,15.0
r19,19,1000000000,720.0
r15,15,999999998,1053.0
1568.0
l42,42,199999994,325.0
r11,11,999999993,569.0
e93,93,1799999991,710.0
e70,70,1798999993,1243.0
r15,15,998999990,1277.0
1569.0
l42,42,199999998,321.0
r11,11,999999992,570.0
e93,93,1799999994,707.0
e70,70,1798999990,1246.0
r15,15,999999994,1269.0
1570.0
e94,94,1800000000,2.0
e99,99,1799999998,16.0
r19,19,999999995,724.0
r15,15,999999999,1052.0
1571.0
l42,42,199999996,323.0
r11,11,1000000000,562.0
e93,93,1799999998,703.0
r33,33,999999997,994.0
e70,70,1799999997,1093.0
r15,15,998999989,1278.0
1572.0
l42,42,199999987,332.0
r11,11,999999994,568.0
e93,93,1799999993,708.0
r33,33,999999996,995.0
e70,70,1799999998,1092.0
r15,15,998999988,1279.0
1573.0
e94,94,1799999996,6.0
e99,99,1799999997,17.0
r19,19,999999998,721.0
r15,15,999999995,1056.0
1574.0
e94,94,1799999999,3.0
e99,99,1799999996,18.0
r19,19,999999997,722.0
r30,30,999999984,1553.0
1821.0
e94,94,1799999995,7.0
e99,99,1799999995,19.0
r19,19,999999996,723.0
r30,30,999999986,1551.0
1822.0
l42,42,199999985,334.0
r11,11,999999998,564.0
r30,30,999999999,964.0
1823.0
l42,42,199999989,330.0
r11,11,999999995,567.0
e93,93,1799999992,709.0
r33,33,999999994,997.0
r27,27,1000000000,1055.0
r30,30,999999987,1227.0
1824.0
l42,42,199999990,329.0
r11,11,999999996,566.0
r30,30,999999997,966.0
1825.0
l42,42,199999988,331.0
r11,11,999999999,563.0
r30,30,1000000000,963.0
1826.0
l42,42,199999997,322.0
r28,28,999999992,525.0
r11,11,999999990,734.0
r30,30,999999998,965.0
1827.0
l42,42,200000000,319.0
r28,28,999999996,521.0
r27,27,999999989,1214.0
r30,30,999999989,1225.0
1828.0
l42,42,199999991,328.0
r28,28,1000000000,517.0
r27,27,999999987,1216.0
r30,30,999999990,1224.0
1829.0
l42,42,199999986,333.0
r20,20,998999993,1558.0
r17,17,997999993,1630.0
l61,61,195999983,1685.0
1846.0
l42,42,199999999,320.0
r20,20,998999992,1559.0
r17,17,997999994,1629.0
l61,61,196999986,1678.0
1847.0
e101,101,1798999989,1479.0
l39,39,196999987,1989.0
e69,69,1796999978,2555.0
r11,11,995999979,2831.0
3073.0
r8,8,999999983,650.0
r19,19,999999970,2043.0
e69,69,1797999987,2422.0
r11,11,993999974,2844.0
3074.0
e101,101,1798999996,1472.0
r19,19,999999979,1719.0
e69,69,1797999988,2421.0
r11,11,995999982,2828.0
3075.0
e101,101,1798999995,1473.0
r19,19,999999982,1716.0
e69,69,1797999985,2424.0
r11,11,994999978,2836.0
3076.0
e101,101,1798999997,1471.0
l39,39,198999990,1978.0
e69,69,1796999976,2557.0
r11,11,993999975,2843.0
3077.0
e101,101,1798999990,1478.0
r19,19,999999978,1720.0
e69,69,1797999981,2428.0
r11,11,995999983,2827.0
3078.0
e101,101,1798999991,1477.0
r19,19,999999983,1715.0
e69,69,1797999986,2423.0
r11,11,993999976,2842.0
3079.0
e101,101,1798999999,1469.0
r19,19,999999976,1722.0
e69,69,1797999989,2420.0
r11,11,995999980,2830.0
3080.0
e101,101,1798999994,1474.0
r19,19,999999980,1718.0
e69,69,1797999980,2429.0
r11,11,995999981,2829.0
3081.0
e92,92,1799999986,1389.0
e82,82,1797999978,2490.0
3427.0
e101,101,1798999992,1476.0
r18,18,999999981,2710.0
e82,82,1793999975,2802.0
3428.0
e92,92,1799999983,1392.0
e82,82,1798999980,2484.0
3429.0
e92,92,1799999987,1388.0
e82,82,1797999977,2491.0
3430.0
e92,92,1799999984,1391.0
e82,82,1798999981,2483.0
3431.0
e85,85,1799999997,1155.0
l56,56,196999984,1922.0
e89,89,1794999978,2392.0
r15,15,995999980,2903.0
3659.0
e76,76,1797999996,1834.0
r9,9,998999988,2074.0
r15,15,998999987,2449.0
3660.0
e92,92,1799999991,1384.0
l41,41,199999985,1687.0
r27,27,999999972,1832.0
r15,15,992999976,3077.0
3661.0
e92,92,1799999992,1383.0
l41,41,199999977,1695.0
r27,27,999999985,1819.0
r15,15,992999972,3081.0
3662.0
e101,101,1799000000,1468.0
r3,3,995999985,3165.0
e69,69,1795999970,3799.0
4077.0
e75,75,1798999985,1519.0
r20,20,995999980,3198.0
l39,39,194999969,3593.0
4140.0
r21,21,993999975,1879.0
l39,39,194999971,2980.0
4141.0
e75,75,1798999979,1525.0
r20,20,995999979,3199.0
l39,39,193999965,3600.0
4142.0
e75,75,1798999983,1521.0
r20,20,995999974,3204.0
l39,39,193999963,3602.0
4143.0
r21,21,992999969,1889.0
l39,39,194999970,2981.0
4144.0
e92,92,1799999994,1381.0
e82,82,1791999971,3459.0
e71,71,1793999965,4304.0
r15,15,990999969,4569.0
4747.0
r5,5,992999974,3278.0
e69,69,1786999963,4552.0
r12,12,989999968,5665.0
5794.0
e78,78,1795999969,4167.0
5880.0
e78,78,1795999967,4169.0
5881.0
e78,78,1795999970,4166.0
5882.0
r8,8,999999995,638.0
e78,78,1797999978,3376.0
5883.0
r21,21,992999972,1886.0
e76,76,1788999964,4554.0
6121.0
