r18,18,999999996,177.0
r17,17,999999998,326.0
l68,68,199000000,486.0
e72,72,1797999998,541.0
1190.0
r18,18,999999994,179.0
r17,17,1000000000,324.0
l68,68,198999997,489.0
e72,72,1797999997,542.0
1191.0
r18,18,999999997,176.0
e86,86,1799999999,439.0
e72,72,1797999996,984.0
1192.0
r18,18,999999993,180.0
r17,17,999999997,327.0
l68,68,198999999,487.0
e72,72,1797999999,540.0
1193.0
r18,18,999999992,181.0
r17,17,999999999,325.0
l68,68,198999998,488.0
e72,72,1799000000,535.0
1194.0
r18,18,1000000000,173.0
l60,60,199999996,332.0
l45,45,198999996,626.0
l47,47,198999997,923.0
1945.0
r18,18,999999998,175.0
l60,60,199999992,336.0
l45,45,198999998,624.0
l47,47,199000000,920.0
1946.0
r18,18,999999999,174.0
l60,60,199999991,337.0
l45,45,198999997,625.0
l47,47,198999998,922.0
1947.0
l67,67,199999996,454.0
r21,21,998999987,1030.0
e97,97,1797999996,1200.0
l47,47,198999988,1522.0
1948.0
l67,67,199999986,464.0
r21,21,998999988,1029.0
e97,97,1797999990,1206.0
l47,47,198999989,1521.0
1949.0
r18,18,999999995,178.0
l60,60,199999995,333.0
l45,45,198999994,628.0
l47,47,198999996,924.0
1950.0
l67,67,199999984,466.0
r21,21,998999992,1025.0
e97,97,1797999993,1203.0
l47,47,198999990,1520.0
1951.0
r18,18,999999991,182.0
l60,60,199999994,334.0
l45,45,198999995,627.0
l47,47,198999999,921.0
1952.0
l67,67,199999997,453.0
r21,21,998999989,1028.0
e97,97,1797999994,1202.0
l39,39,198999994,1799.0
r20,20,998999990,2164.0
2303.0
l67,67,199999990,460.0
r21,21,998999991,1026.0
l42,42,198999991,1144.0
e95,95,1799999999,1214.0
l49,49,198999990,1776.0
r11,11,998999989,1878.0
r20,20,993999986,2220.0
2304.0
l67,67,199999994,456.0
r21,21,998999990,1027.0
e97,97,1797999998,1199.0
l39,39,198999996,1797.0
r20,20,996999987,2175.0
2305.0
l67,67,199999989,461.0
e84,84,1798999998,669.0
e92,92,1799999997,1190.0
r5,5,997999984,1691.0
e86,86,1796999988,2473.0
l49,49,195999983,2668.0
r9,9,994999983,3282.0
3449.0
l67,67,199999991,459.0
e84,84,1799000000,667.0
l68,68,197999993,1094.0
l46,46,198999998,1550.0
l64,64,198999985,1952.0
r9,9,997999988,2127.0
3450.0
l67,67,199999999,451.0
e84,84,1798999996,671.0
l68,68,197999995,1092.0
l46,46,199000000,1548.0
l64,64,198999986,1951.0
r3,3,997999984,2311.0
3479.0
l67,67,199999982,468.0
e84,84,1798999997,670.0
l63,63,198999992,1623.0
e88,88,1798999993,2001.0
l64,64,198999983,2146.0
r3,3,997999983,2312.0
3480.0
e86,86,1791999978,3546.0
4337.0
e86,86,1791999979,3545.0
4338.0
e86,86,1791999980,3544.0
4339.0
e86,86,1791999977,3547.0
4340.0
e75,75,1796999983,2367.0
r35,35,996999982,2774.0
e72,72,1786999979,4263.0
l65,65,194999981,4381.0
4485.0
e76,76,1796999970,2249.0
e74,74,1792999977,3644.0
l49,49,189999978,3912.0
r35,35,991999979,3980.0
e72,72,1787999980,4258.0
l65,65,193999980,4386.0
4486.0
e76,76,1796999977,2242.0
l60,60,196999990,2702.0
l49,49,191999980,3328.0
r35,35,991999978,3981.0
e72,72,1786999978,4264.0
l65,65,192999979,4391.0
4487.0
e75,75,1796999976,2374.0
r35,35,997999985,2767.0
e72,72,1786999977,4265.0
l65,65,192999978,4392.0
4488.0
l67,67,199999988,462.0
r27,27,997999986,2360.0
r23,23,997999991,3122.0
4538.0
l67,67,199999995,455.0
r27,27,997999982,2364.0
r23,23,996999986,3131.0
4539.0
e76,76,1796999966,2253.0
l60,60,196999989,2703.0
l49,49,190999979,3333.0
r35,35,991999980,3979.0
e72,72,1786999976,4266.0
4834.0
l67,67,199999985,465.0
l40,40,197999987,2781.0
e78,78,1788999978,3905.0
e72,72,1786999975,4497.0
4835.0
e76,76,1786999960,4327.0
5392.0
e76,76,1796999973,2246.0
5393.0
e76,76,1796999968,2251.0
5394.0
l64,64,184999958,4930.0
e76,76,1786999958,4956.0
5395.0
e76,76,1796999979,2240.0
5396.0
e76,76,1796999972,2247.0
5397.0
e76,76,1796999980,2239.0
5398.0
e76,76,1796999971,2248.0
5399.0
e76,76,1788999961,4318.0
5400.0
l64,64,184999967,4921.0
e76,76,1786999956,4958.0
5401.0
e76,76,1796999976,2243.0
5402.0
e76,76,1796999965,2254.0
5403.0
e76,76,1796999982,2237.0
5404.0
e76,76,1796999969,2250.0
5405.0
e76,76,1796999978,2241.0
5406.0
e80,80,1793999982,3579.0
5793.0
e87,87,1796999971,2502.0
l58,58,195999981,3750.0
l51,51,191999978,3823.0
e90,90,1785999976,3879.0
r19,19,989999972,4905.0
r5,5,982999961,6046.0
r23,23,979999961,6305.0
e79,79,1784999974,6583.0
6912.0
