l58,58,1000000,150063.0
e79,79,616999999,150786.0
1713.0
l58,58,999999,150068.0
e79,79,620000000,150782.0
1717.0
l58,58,999998,150070.0
e79,79,614999998,150789.0
1684.0
r32,32,1000000,150508.0
l45,45,1000000,151288.0
e99,99,574999998,152180.0
e74,74,589999997,152236.0
2973.0
l60,60,1000000,152416.0
4127.0
l60,60,999998,152424.0
4124.0
l60,60,999997,152429.0
4154.0
l60,60,999999,152418.0
4154.0
e100,100,605999997,152270.0
4396.0
l57,57,999999,152558.0
e72,72,582999997,154060.0
e85,85,584999998,154385.0
e100,100,560999994,156462.0
6855.0
l61,61,999998,150826.0
e95,95,596999997,151821.0
e85,85,576999997,155338.0
e100,100,560999991,156465.0
6824.0
l39,39,999999,152137.0
e85,85,571999993,156124.0
e100,100,560999990,156466.0
6833.0
l39,39,999998,152143.0
e85,85,572999994,156122.0
e100,100,560999989,156467.0
6829.0
l61,61,999999,150819.0
e95,95,596999996,151822.0
e85,85,575999995,155341.0
e100,100,561999995,156460.0
6834.0
l39,39,1000000,152133.0
e85,85,571999992,156125.0
e100,100,560999993,156463.0
6844.0
l61,61,1000000,150818.0
e95,95,596999994,151824.0
e85,85,576999996,155339.0
e100,100,560999992,156464.0
6851.0
l57,57,999998,152561.0
6954.0
l65,65,999992,156245.0
e93,93,551999983,156560.0
8059.0
l65,65,999993,156242.0
e93,93,551999982,156561.0
8045.0
l65,65,999999,155153.0
e93,93,551999984,156559.0
8060.0
l65,65,999998,155155.0
e93,93,551999981,156562.0
8056.0
l65,65,999996,155159.0
e93,93,551999980,156563.0
8040.0
l65,65,999994,156240.0
e93,93,551999979,156564.0
8025.0
r9,9,999999,158348.0
8784.0
r15,15,1000000,155943.0
e72,72,559999991,156011.0
e69,69,563999992,156349.0
e74,74,543999989,158996.0
9179.0
r7,7,1000000,160978.0
12458.0
e71,71,541999984,160182.0
e88,88,520999979,162609.0
15653.0
e71,71,542999990,160175.0
e88,88,522999981,162605.0
15682.0
e71,71,542999989,160176.0
e88,88,520999978,162610.0
15684.0
e71,71,542999987,160178.0
e88,88,524999982,162602.0
15682.0
e94,94,511999970,163565.0
e89,89,531999981,163960.0
e73,73,511999974,164746.0
e87,87,507999978,164978.0
e71,71,503999970,165266.0
e76,76,503999975,165510.0
16256.0
e71,71,542999986,160179.0
e76,76,499999973,165516.0
16254.0
e79,79,536999984,162313.0
e83,83,546999980,162629.0
e91,91,530999979,163066.0
e76,76,525999984,163743.0
16257.0
e95,95,545999987,159569.0
e69,69,524999980,163927.0
e99,99,517999976,164245.0
e76,76,490999972,166005.0
16246.0
e73,73,525999983,163075.0
e81,81,528999982,163714.0
e74,74,519999980,164152.0
16528.0
e75,75,539999985,162135.0
18519.0
e75,75,539999982,162138.0
18555.0
r34,34,999998,164076.0
e98,98,492999970,165988.0
e75,75,495999966,167400.0
18532.0
e75,75,539999980,162140.0
18524.0
e94,94,515999980,163551.0
20264.0
e94,94,514999974,163558.0
20241.0
