l43,43,999999,151743.0
l63,63,1000000,152921.0
4397.0
l43,43,999997,151748.0
e87,87,602999997,151959.0
e84,84,597999997,152174.0
e95,95,592999998,153081.0
l41,41,1000000,153760.0
6352.0
r11,11,1000000,152897.0
l36,36,1000000,152992.0
7075.0
r5,5,1000000,151207.0
l36,36,999999,156735.0
7090.0
e99,99,584999982,152294.0
e77,77,625999999,153673.0
7120.0
e99,99,585999993,152282.0
e77,77,624999998,153675.0
7092.0
e99,99,585999990,152285.0
e77,77,619999994,153684.0
7087.0
e99,99,585999998,152277.0
e77,77,620999996,153681.0
7116.0
e99,99,584999986,152290.0
e77,77,608999992,153697.0
7132.0
e99,99,585999995,152280.0
e77,77,621999997,153679.0
7132.0
e99,99,585999992,152283.0
e77,77,620999995,153682.0
7135.0
e99,99,584999984,152292.0
e77,77,616999993,153688.0
7138.0
e99,99,585999991,152284.0
e77,77,627000000,153671.0
7103.0
e99,99,585999989,152286.0
e73,73,582999993,156845.0
8326.0
e99,99,584999985,152291.0
e95,95,578999993,155239.0
e71,71,562999993,156381.0
e73,73,565999983,157702.0
8283.0
l45,45,999999,150659.0
e88,88,608000000,151903.0
e73,73,591000000,154320.0
8320.0
l43,43,999996,151750.0
e87,87,603999998,151957.0
e73,73,554999979,158084.0
8300.0
e99,99,584999987,152289.0
e73,73,575999988,156857.0
8314.0
r2,2,1000000,155515.0
e73,73,563999981,158018.0
8299.0
e99,99,585999997,152278.0
e73,73,575999987,156858.0
8290.0
e99,99,585999999,152276.0
e95,95,573999989,155248.0
e71,71,561999990,156385.0
e73,73,567999985,157698.0
8299.0
l43,43,1000000,151742.0
e87,87,606000000,151953.0
e73,73,560999980,158077.0
8287.0
r13,13,1000000,152541.0
e71,71,556999989,156788.0
e73,73,566999984,157700.0
8304.0
e99,99,584999983,152293.0
e73,73,575999989,156856.0
8331.0
l43,43,999998,151747.0
l37,37,1000000,152627.0
e96,96,611000000,153017.0
e74,74,596000000,154868.0
e71,71,577999998,155029.0
e73,73,565999982,157703.0
8311.0
e99,99,585999994,152281.0
e95,95,578999996,155236.0
e71,71,561999991,156384.0
e74,74,561999994,157538.0
e73,73,531999976,160072.0
10725.0
e99,99,585999988,152287.0
r21,21,1000000,155370.0
10964.0
e71,71,556999986,157873.0
r14,14,1000000,158050.0
l35,35,999999,158164.0
11403.0
l53,53,1000000,150770.0
e94,94,598999997,151086.0
e85,85,579999995,157582.0
e70,70,569999998,158265.0
e90,90,557999989,158827.0
l35,35,999998,159961.0
11402.0
l53,53,999998,150779.0
e97,97,597000000,152685.0
e80,80,578999998,156383.0
e77,77,562999987,158262.0
e73,73,526999975,161533.0
11494.0
e82,82,539999982,158924.0
r3,3,999999,161673.0
12181.0
e81,81,560999992,157773.0
e79,79,523999975,162123.0
12867.0
e82,82,539999978,158928.0
e72,72,558999988,159067.0
e79,79,542999984,162072.0
12873.0
e71,71,555999985,157875.0
e87,87,564999987,159351.0
e85,85,554999984,159717.0
e79,79,516999970,162345.0
12860.0
e81,81,559999989,157777.0
e79,79,528999978,162115.0
12866.0
e82,82,539999981,158925.0
13596.0
e82,82,538999974,158933.0
13570.0
e82,82,539999983,158923.0
13603.0
e82,82,539999980,158926.0
13568.0
e82,82,539999977,158929.0
13589.0
e83,83,563999994,159493.0
e73,73,516999969,162247.0
e69,69,541999979,162333.0
14017.0
e82,82,539999975,158931.0
l39,39,999988,161283.0
e94,94,539999980,165030.0
16031.0
e71,71,555999981,157879.0
l57,57,999999,161216.0
16812.0
e83,83,557999970,160070.0
e78,78,560999980,162271.0
18349.0
e70,70,507999963,164525.0
l67,67,999985,165411.0
l64,64,999986,167423.0
20351.0
e79,79,478999965,166433.0
21075.0
e79,79,478999961,166437.0
21078.0
e79,79,478999962,166436.0
21085.0
e83,83,558999974,160065.0
e73,73,516999972,162244.0
21716.0
l46,46,999993,166423.0
e92,92,493999960,171317.0
21893.0
