e82,82,610999998,151684.0
l53,53,999999,153508.0
4435.0
e82,82,608999989,151695.0
l53,53,1000000,153507.0
4474.0
e82,82,608999990,151694.0
e83,83,585999996,154028.0
e99,99,568999994,154300.0
5742.0
e82,82,609999994,151689.0
e83,83,585999998,154026.0
e99,99,568999993,154301.0
5751.0
r31,31,999997,152969.0
e99,99,567999992,155553.0
5775.0
e82,82,608999991,151693.0
e71,71,615999997,153008.0
e91,91,589999993,153723.0
e99,99,576999997,154147.0
5743.0
e71,71,613999993,153090.0
e91,91,593999997,153715.0
e99,99,575999996,154149.0
5774.0
e82,82,609999992,151691.0
e71,71,615999999,153006.0
e91,91,593999998,153714.0
e99,99,573999995,154152.0
5757.0
e71,71,611999991,153094.0
e91,91,590999995,153720.0
e99,99,576999999,154145.0
5747.0
e71,71,612999992,153092.0
e91,91,592999996,153717.0
e99,99,576999998,154146.0
5772.0
e82,82,608999984,151700.0
l48,48,1000000,155529.0
9324.0
r8,8,999999,151534.0
l57,57,999998,154433.0
e72,72,576000000,154629.0
e69,69,556999997,157142.0
l48,48,999998,158573.0
9335.0
e99,99,555999985,158502.0
l36,36,999998,158956.0
10159.0
e99,99,554999979,158509.0
l36,36,999996,158962.0
10147.0
l54,54,999998,155380.0
e99,99,560999990,156815.0
l36,36,999997,158960.0
10140.0
e82,82,610999996,151686.0
e83,83,581999988,154040.0
e101,101,570999999,156379.0
e89,89,578000000,157813.0
10223.0
e82,82,608999985,151699.0
e71,71,615999998,153007.0
e89,89,565999989,158470.0
10246.0
e71,71,615999994,153087.0
e89,89,570999998,158456.0
10231.0
l54,54,999999,155378.0
e99,99,559999988,156818.0
13190.0
e99,99,555999983,158504.0
13189.0
e99,99,554999980,158508.0
13191.0
l54,54,999997,155381.0
e99,99,560999989,156816.0
13185.0
e80,80,552999988,158419.0
e69,69,532999979,159316.0
e99,99,541999975,161098.0
13165.0
e99,99,554999981,158507.0
13176.0
e80,80,552999985,158422.0
e69,69,532999982,159313.0
e99,99,541999976,161097.0
13193.0
e99,99,555999986,158501.0
13172.0
l54,54,999996,155389.0
e99,99,560999991,156814.0
13163.0
e87,87,569999982,158555.0
13750.0
e87,87,570999986,158550.0
13733.0
e87,87,571999998,157485.0
13742.0
e87,87,570999995,157489.0
13759.0
e87,87,569999984,158553.0
13772.0
e87,87,570999990,157494.0
13774.0
e87,87,569999981,158556.0
13780.0
e80,80,552999983,158424.0
e87,87,563999970,158988.0
13767.0
l45,45,1000000,158044.0
e78,78,558999986,159970.0
l56,56,999994,164322.0
14786.0
e80,80,552999987,158420.0
e69,69,532999983,159312.0
e101,101,550999993,159915.0
e78,78,549999981,160757.0
l56,56,999996,164314.0
14813.0
r18,18,1000000,158686.0
15065.0
r10,10,999998,157596.0
e77,77,535999985,162812.0
r21,21,1000000,163053.0
r32,32,999998,164794.0
15193.0
e87,87,569999979,158558.0
e84,84,547999983,162370.0
e89,89,535999980,162848.0
e81,81,519999977,164988.0
15314.0
e87,87,569999985,158552.0
e84,84,543999979,162378.0
e89,89,529999978,162856.0
e81,81,521999979,164984.0
15361.0
e100,100,505999963,164721.0
16068.0
e87,87,569999973,158564.0
e96,96,550999990,162305.0
e100,100,513999978,164499.0
16055.0
e100,100,507999969,164713.0
16076.0
e100,100,500999962,164948.0
16053.0
e100,100,498999960,164952.0
16064.0
e100,100,498999959,164953.0
16056.0
e87,87,570999987,158549.0
e96,96,547999984,162314.0
e100,100,508999971,164511.0
16083.0
e87,87,570999997,157487.0
e85,85,542999977,163798.0
e99,99,514999972,165445.0
e100,100,482999953,165448.0
16068.0
e80,80,551999978,158430.0
e69,69,530999974,159323.0
l48,48,999985,164864.0
18214.0
