e81,81,589000000,152131.0
3149.0
l41,41,1000000,152661.0
e81,81,584999997,152860.0
3123.0
l41,41,999999,152662.0
e81,81,584999998,152859.0
3156.0
e81,81,588999999,152132.0
3146.0
e72,72,612999998,150481.0
l45,45,1000000,150809.0
e89,89,572999998,152650.0
4160.0
r15,15,999999,150608.0
4301.0
r15,15,1000000,150605.0
4278.0
e72,72,613000000,150479.0
l43,43,1000000,151464.0
5023.0
e99,99,594999994,150908.0
e76,76,585999989,151777.0
e70,70,581999997,152801.0
e93,93,593999997,153289.0
e86,86,575999986,153705.0
e73,73,590999999,154232.0
5376.0
e86,86,605999998,152011.0
e73,73,587999998,154236.0
5376.0
e71,71,595999997,151566.0
e79,79,587999985,151692.0
e93,93,586999995,153808.0
l42,42,1000000,154033.0
e73,73,584999997,154335.0
5355.0
r16,16,999998,150897.0
e73,73,591000000,153461.0
5347.0
e72,72,612999994,150485.0
e93,93,611999999,151889.0
l42,42,999999,154034.0
e73,73,584999996,154336.0
5346.0
l45,45,999996,154022.0
5985.0
l45,45,999997,154019.0
5992.0
l37,37,999998,150587.0
e83,83,597999998,154749.0
l45,45,999995,155862.0
5978.0
e99,99,593999989,150914.0
6014.0
e99,99,594999999,150903.0
6022.0
e99,99,595000000,150902.0
6026.0
e99,99,594999991,150911.0
6005.0
e99,99,594999992,150910.0
6008.0
e99,99,594999998,150904.0
6010.0
e99,99,594999990,150912.0
5988.0
e99,99,594999996,150906.0
6022.0
e99,99,593999986,150917.0
6000.0
e99,99,594999997,150905.0
6010.0
e99,99,593999987,150916.0
6017.0
e71,71,594999995,151569.0
e79,79,587999991,151686.0
6552.0
e71,71,592999989,151577.0
e79,79,587999986,151691.0
6562.0
l37,37,999997,150588.0
e85,85,593999991,155003.0
l68,68,999999,155112.0
l67,67,1000000,155512.0
e79,79,572999980,156085.0
6553.0
e71,71,593999990,151575.0
e79,79,587999987,151690.0
6569.0
e79,79,591999999,151241.0
6547.0
e71,71,592999988,151578.0
e79,79,587999989,151688.0
6555.0
e71,71,594999991,151573.0
e79,79,587999988,151689.0
6554.0
e71,71,594999992,151572.0
e79,79,587999984,151693.0
6551.0
e79,79,591999998,151242.0
6541.0
r16,16,1000000,150890.0
l66,66,999999,154536.0
e97,97,569999998,154929.0
7215.0
l46,46,999994,154922.0
7434.0
e82,82,584999993,154758.0
e75,75,572999980,155692.0
8626.0
e98,98,568999987,156232.0
e72,72,579999988,156731.0
e75,75,566999968,157698.0
8625.0
e72,72,612999995,150484.0
e75,75,590999993,153452.0
8634.0
e82,82,586999998,154751.0
e75,75,572999981,155691.0
8598.0
e72,72,578999985,157304.0
e75,75,565999967,157700.0
8606.0
e91,91,583999990,152037.0
l40,40,999999,154742.0
e71,71,576999985,155451.0
e75,75,582999989,155538.0
8604.0
e82,82,584999992,154759.0
e75,75,572999985,155687.0
8615.0
e91,91,584999994,152032.0
e86,86,556999972,156618.0
11563.0
e91,91,583999987,152040.0
e86,86,555999965,156626.0
11609.0
e86,86,605999997,152012.0
11568.0
e91,91,583999989,152038.0
e86,86,555999968,156623.0
11597.0
e88,88,544999966,159823.0
13413.0
