r25,25,1000000,151036.0
r15,15,1000000,151355.0
e99,99,600000000,151426.0
e96,96,582999999,153197.0
3372.0
l54,54,999998,151393.0
e99,99,594999998,152384.0
e96,96,584000000,153195.0
3371.0
e94,94,612999990,150284.0
e70,70,631000000,151753.0
l44,44,1000000,152016.0
e84,84,597000000,152495.0
e99,99,588999997,152533.0
e96,96,581999998,153199.0
3398.0
r28,28,1000000,150647.0
l59,59,1000000,151904.0
e78,78,591000000,152042.0
3708.0
e94,94,612999996,150278.0
4171.0
e94,94,611999985,150290.0
4157.0
e94,94,612999994,150280.0
4159.0
e94,94,611999984,150291.0
4182.0
e94,94,612999992,150282.0
4169.0
e94,94,612999993,150281.0
4205.0
e94,94,611999983,150292.0
4188.0
e94,94,612999989,150285.0
4206.0
e94,94,611999986,150289.0
4170.0
e94,94,614000000,150273.0
4200.0
e94,94,613999998,150275.0
4200.0
e94,94,611999987,150288.0
4189.0
e94,94,612999995,150279.0
4195.0
e94,94,613999999,150274.0
4207.0
e94,94,612999988,150286.0
4207.0
e94,94,612999991,150283.0
4179.0
e80,80,593999993,153235.0
4397.0
e80,80,593999992,153236.0
4387.0
e80,80,594999995,153232.0
4370.0
e80,80,592999988,153241.0
4365.0
e80,80,592999991,153238.0
4365.0
e80,80,592999987,153242.0
4376.0
e80,80,596999997,153228.0
4397.0
e80,80,592999986,153243.0
4370.0
l36,36,1000000,152000.0
e81,81,585999997,154100.0
4978.0
r23,23,1000000,150521.0
e81,81,589000000,151778.0
4990.0
e101,101,620999995,151639.0
e79,79,565999985,154682.0
e95,95,584999992,154839.0
5161.0
r28,28,999999,150651.0
e95,95,603000000,152063.0
5147.0
r20,20,1000000,152949.0
l52,52,1000000,154619.0
e83,83,577000000,154748.0
l60,60,1000000,155436.0
5983.0
r16,16,1000000,153096.0
e88,88,570999987,156153.0
6482.0
e101,101,620999996,151638.0
l45,45,999999,154536.0
e85,85,589999993,154902.0
e88,88,573999989,155364.0
6453.0
l68,68,999988,152392.0
e97,97,596999999,153400.0
e99,99,583999996,153438.0
7101.0
e69,69,582999998,154291.0
9335.0
e69,69,582999997,154292.0
9319.0
e69,69,581999996,154294.0
9332.0
l68,68,999986,152407.0
e78,78,576999995,153955.0
e97,97,583999991,155556.0
9468.0
l54,54,999996,151401.0
e73,73,595999997,151510.0
l43,43,1000000,156922.0
e83,83,557999994,157266.0
e70,70,568999989,157780.0
10707.0
e101,101,611999994,153512.0
e79,79,565999984,154683.0
e84,84,552999980,158666.0
l42,42,999997,159223.0
10802.0
e76,76,594999995,155808.0
e90,90,577999991,156637.0
e94,94,560999966,158042.0
e91,91,556999975,159548.0
e71,71,546999968,159692.0
11876.0
l61,61,999998,155044.0
e76,76,591999989,157067.0
13099.0
e101,101,623999998,151633.0
e76,76,565999971,158696.0
13087.0
e76,76,594999993,155810.0
13121.0
l68,68,999993,152376.0
17882.0
l68,68,999995,152365.0
17884.0
e94,94,574999972,157024.0
e85,85,553999969,158059.0
e91,91,518999956,163262.0
r19,19,999996,164224.0
l60,60,999984,165489.0
e99,99,502999957,165970.0
18396.0
e101,101,530999966,163593.0
l48,48,999982,166159.0
e88,88,479999951,168270.0
e85,85,495999951,168732.0
19337.0
