l48,48,1000000,150761.0
e101,101,603999999,151917.0
e83,83,599999996,152156.0
2626.0
l48,48,999998,150771.0
e101,101,605000000,151915.0
e83,83,599999997,152155.0
2611.0
r6,6,1000000,150879.0
e83,83,619000000,151084.0
2623.0
e81,81,619999995,150514.0
e70,70,605000000,150938.0
l55,55,1000000,151041.0
e97,97,600000000,151783.0
e83,83,614999998,152033.0
2615.0
l48,48,999999,150764.0
e101,101,599999998,151922.0
e97,97,589999996,151960.0
e83,83,616999999,152030.0
2601.0
e81,81,619999996,150513.0
e71,71,591999999,152054.0
l41,41,1000000,152669.0
2787.0
e100,100,595999994,153138.0
l35,35,1000000,153265.0
3706.0
e81,81,621000000,150508.0
e70,70,603999995,150944.0
r18,18,1000000,153745.0
e88,88,610000000,154020.0
5708.0
e73,73,583999999,153700.0
l56,56,999999,154665.0
e87,87,587999986,154673.0
5783.0
e87,87,617999992,150505.0
5778.0
l43,43,999998,151016.0
e87,87,595999988,154430.0
5794.0
e80,80,582999990,154549.0
l54,54,999999,155001.0
e87,87,579999984,155399.0
5779.0
e87,87,617999995,150502.0
5756.0
e87,87,618999999,150497.0
5791.0
e87,87,618999997,150499.0
5803.0
e87,87,619000000,150496.0
5764.0
l43,43,999999,151012.0
e87,87,595999987,154431.0
5769.0
e81,81,619999990,150519.0
l54,54,1000000,153915.0
e87,87,579999985,155398.0
5797.0
e87,87,617999994,150503.0
5772.0
l43,43,999996,151019.0
e87,87,596999989,154428.0
5789.0
e81,81,619999998,150511.0
e80,80,583999997,153545.0
l54,54,999998,155038.0
e87,87,577999983,155402.0
5763.0
e87,87,618999998,150498.0
5767.0
e100,100,596000000,153132.0
e97,97,580999989,153344.0
l40,40,999996,153708.0
6104.0
e81,81,619999992,150517.0
e70,70,604999999,150939.0
6240.0
e81,81,620999999,150509.0
e86,86,598999993,152343.0
e75,75,591999997,154345.0
e70,70,576999990,155044.0
6196.0
e81,81,619999993,150516.0
e86,86,604000000,152331.0
e75,75,591999998,154344.0
e70,70,577999991,155042.0
6232.0
e81,81,619999994,150515.0
l64,64,1000000,151867.0
e90,90,596999999,153450.0
e70,70,586999992,153817.0
6230.0
e81,81,616999988,150524.0
e70,70,603999998,150941.0
6240.0
e100,100,595999998,153134.0
e97,97,582999992,153339.0
l37,37,1000000,156221.0
e80,80,560999975,156337.0
6337.0
r3,3,1000000,155132.0
e80,80,562999976,156304.0
6336.0
e81,81,616999987,150525.0
e80,80,582999991,153552.0
6352.0
e73,73,582999983,153717.0
6776.0
e73,73,583999990,153709.0
6761.0
e73,73,583999987,153712.0
6767.0
r23,23,1000000,153569.0
e73,73,578999982,155722.0
6759.0
e73,73,582999986,153714.0
6785.0
e73,73,583999998,153701.0
6759.0
e73,73,583999991,153708.0
6786.0
e93,93,557999977,157002.0
7453.0
e93,93,558999980,156998.0
7427.0
e93,93,559999982,156995.0
7432.0
e93,93,557999974,157005.0
7467.0
e93,93,557999970,157009.0
7442.0
e101,101,583999981,153957.0
8762.0
e99,99,582999994,153689.0
e92,92,585999993,156273.0
8788.0
e95,95,592999997,153888.0
e99,99,572999983,157028.0
11886.0
e99,99,582999989,153694.0
11877.0
e71,71,579999974,153468.0
l42,42,999999,153959.0
e81,81,559999981,157377.0
12303.0
e71,71,579999976,153466.0
e97,97,535999973,158800.0
e81,81,529999963,161080.0
12327.0
l60,60,999993,157444.0
r25,25,999992,165523.0
18125.0
