e88,88,592999961,150287.0
l41,41,1000000,150411.0
3902.0
e88,88,592999956,150292.0
l41,41,999998,150425.0
3907.0
e88,88,595999982,150263.0
l41,41,999999,150418.0
3866.0
e88,88,599999998,150243.0
r32,32,1000000,150397.0
e77,77,611000000,150770.0
e97,97,594999995,153811.0
5628.0
e88,88,592999968,150280.0
e77,77,609999995,152152.0
e97,97,594999993,153813.0
5639.0
l55,55,999998,152592.0
e97,97,603000000,153036.0
5616.0
e88,88,592999972,150276.0
e77,77,609999996,152151.0
e97,97,599999997,153804.0
5648.0
l55,55,999999,152590.0
e97,97,602999999,153037.0
5627.0
e88,88,592999965,150283.0
e77,77,609999998,152149.0
e97,97,599999996,153805.0
5638.0
e78,78,591000000,152889.0
e96,96,589999999,153093.0
e82,82,589999999,153375.0
e97,97,591999992,154429.0
5660.0
l62,62,1000000,152504.0
l55,55,1000000,152549.0
e97,97,602999998,153038.0
5658.0
e88,88,592999952,150296.0
e77,77,609999997,152150.0
e97,97,594999994,153812.0
5648.0
e88,88,592999963,150285.0
e79,79,600999993,153204.0
6464.0
e88,88,597999987,150256.0
r10,10,1000000,150732.0
e79,79,596999986,153342.0
6489.0
e88,88,592999970,150278.0
e79,79,601999997,153199.0
6462.0
e88,88,593999979,150268.0
e79,79,600999992,153205.0
6472.0
e88,88,592999977,150271.0
e79,79,599999990,153208.0
6467.0
e88,88,592999969,150279.0
e79,79,601999998,153198.0
6504.0
e88,88,592999975,150273.0
e79,79,599999991,153207.0
6482.0
e88,88,593999980,150267.0
e79,79,600999994,153203.0
6498.0
e88,88,598999995,150247.0
e79,79,598999989,153210.0
6481.0
e88,88,592999962,150286.0
e79,79,600999995,153202.0
6487.0
e88,88,597999990,150253.0
e79,79,598999987,153212.0
6513.0
e88,88,598999993,150249.0
e79,79,598999988,153211.0
6478.0
e88,88,592999966,150282.0
l46,46,999998,151440.0
e95,95,613999997,151643.0
e100,100,589999999,151674.0
6928.0
e78,78,590999999,152890.0
e89,89,604000000,153220.0
l42,42,999999,156144.0
e72,72,569999992,156582.0
7410.0
l62,62,999998,152512.0
e98,98,584999999,154350.0
e73,73,567999986,156423.0
e87,87,568999992,156585.0
7893.0
e69,69,603999985,153351.0
e96,96,575999992,154386.0
l57,57,999998,156510.0
e87,87,554999983,157675.0
7890.0
e69,69,606999992,153341.0
e96,96,575999994,154384.0
l57,57,999996,156517.0
e87,87,554999984,157674.0
7856.0
e83,83,614999997,152800.0
e69,69,622999997,153220.0
e90,90,591999998,154981.0
e87,87,561999985,156919.0
7879.0
e88,88,599999996,150245.0
e75,75,590999988,155823.0
10021.0
e88,88,598999994,150248.0
e78,78,572999983,157452.0
e75,75,567999964,159140.0
10009.0
e88,88,592999951,150297.0
e75,75,590999983,155828.0
10028.0
e75,75,571999970,158913.0
10015.0
e88,88,597999989,150254.0
e76,76,589999990,155160.0
r6,6,1000000,157287.0
e75,75,554999963,159423.0
9995.0
e95,95,584999992,152065.0
e74,74,590999992,154356.0
e93,93,602000000,155274.0
e75,75,585999978,157542.0
10014.0
e75,75,571999973,158910.0
10013.0
e69,69,605999987,153347.0
e90,90,591999999,154980.0
e78,78,578999987,155643.0
e75,75,570999966,159135.0
10032.0
e75,75,570999968,158916.0
10002.0
e88,88,599999999,150242.0
e78,78,562999973,159122.0
e75,75,568999965,159138.0
9993.0
e88,88,592999958,150290.0
e75,75,591999990,155820.0
10025.0
e75,75,571999969,158914.0
10008.0
e88,88,596999983,150261.0
e75,75,590999985,155826.0
10018.0
e95,95,585999995,152061.0
e74,74,591999993,154354.0
e91,91,568999979,159824.0
10157.0
e95,95,584999985,152072.0
e74,74,594999994,154350.0
e91,91,568999976,159827.0
10153.0
e83,83,611999991,152809.0
e91,91,577999986,156200.0
10117.0
e92,92,583999976,156071.0
e69,69,527999956,159021.0
e86,86,518999961,160100.0
10898.0
e92,92,580999967,156083.0
e69,69,532999962,159010.0
e86,86,524999970,160085.0
10912.0
e92,92,572999951,156107.0
e69,69,531999959,159014.0
e75,75,545999960,160516.0
13275.0
e92,92,576999960,156094.0
e97,97,550999984,160351.0
e77,77,511999960,165976.0
16238.0
