l48,48,999999,151095.0
r20,20,1000000,155354.0
e88,88,566000000,156153.0
7914.0
l45,45,1000000,151461.0
10792.0
l45,45,999998,151469.0
10783.0
l45,45,999999,151465.0
10767.0
l48,48,1000000,151092.0
e74,74,542999997,160061.0
l45,45,999996,160406.0
10773.0
e81,81,566999997,156577.0
l45,45,999997,158927.0
10766.0
e93,93,537999988,159498.0
l67,67,1000000,159599.0
11215.0
e83,83,575999991,155435.0
l67,67,999999,159645.0
11220.0
l41,41,999996,160765.0
e69,69,543999993,161453.0
11598.0
l41,41,999998,155758.0
e69,69,548999995,161446.0
11588.0
l35,35,1000000,155290.0
e69,69,551999997,160928.0
11595.0
l35,35,999999,155292.0
e69,69,550999996,160930.0
11597.0
l41,41,999999,155751.0
e69,69,548999994,161447.0
11578.0
l41,41,999997,160751.0
e69,69,543999992,161454.0
11618.0
e83,83,576999996,155429.0
e87,87,572000000,156023.0
e76,76,578000000,156264.0
e80,80,548999998,159325.0
r14,14,999999,160318.0
e69,69,552999999,160794.0
11583.0
l54,54,1000000,154719.0
e76,76,572999994,156800.0
e98,98,548999997,158971.0
l35,35,999997,161619.0
11742.0
e81,81,567000000,156574.0
l52,52,999998,158629.0
e100,100,559999998,160839.0
11822.0
r10,10,1000000,161608.0
e93,93,521999976,162313.0
l53,53,999995,162551.0
e85,85,554999997,163308.0
13366.0
e70,70,540999997,159746.0
e93,93,536999985,160231.0
l53,53,999997,162549.0
e85,85,553999995,163311.0
13404.0
e97,97,561999993,158759.0
e85,85,557999998,162534.0
13395.0
e83,83,575999988,155438.0
e78,78,561999994,160192.0
13469.0
e83,83,579000000,155423.0
e87,87,568999996,156030.0
e78,78,576999997,157561.0
13467.0
r12,12,1000000,159324.0
e83,83,569999985,159481.0
e78,78,559999993,160195.0
13504.0
l62,62,999999,160846.0
e78,78,545999984,162563.0
13475.0
e83,83,576999998,155427.0
e87,87,568999997,156029.0
e78,78,581000000,157554.0
13483.0
e83,83,575999992,155434.0
e78,78,561999995,160191.0
13512.0
e93,93,537999989,159497.0
e83,83,566999983,159667.0
e78,78,558999991,160198.0
13512.0
e83,83,575999987,155439.0
e78,78,559999992,160196.0
13470.0
e83,83,575999994,155432.0
e78,78,556999989,160202.0
13519.0
e97,97,562999999,158752.0
e95,95,506999976,164294.0
14612.0
e96,96,566999994,160692.0
e72,72,522999991,163995.0
e95,95,511999985,164227.0
14618.0
e81,81,566999999,156575.0
l52,52,999999,158621.0
l43,43,999999,163109.0
e97,97,517999981,164109.0
e95,95,503999975,164298.0
14625.0
l55,55,999999,159344.0
e90,90,518999986,163572.0
e97,97,522999986,163885.0
e95,95,508999978,164290.0
14627.0
e96,96,566999991,160695.0
e72,72,522999992,163994.0
e95,95,513999986,164224.0
14614.0
e96,96,566999990,160696.0
e72,72,521999987,164000.0
e95,95,511999983,164229.0
14603.0
e93,93,537999987,159499.0
l57,57,999999,161856.0
17296.0
e93,93,540000000,159484.0
18252.0
e93,93,537999986,159500.0
18254.0
e93,93,538999991,159494.0
18250.0
l36,36,999998,160144.0
e93,93,487999964,168152.0
18231.0
e96,96,566999993,160693.0
l67,67,999996,165348.0
e93,93,494999967,166306.0
18263.0
e70,70,540999998,159745.0
e93,93,528999979,160245.0
18242.0
l56,56,999992,167702.0
e94,94,492999979,168232.0
18251.0
l35,35,999992,164637.0
e96,96,549999988,165893.0
18938.0
e76,76,546999988,162487.0
e85,85,529999984,165097.0
e100,100,504999980,167438.0
19263.0
e83,83,575999989,155437.0
e87,87,477999969,170572.0
21594.0
e71,71,507999975,165473.0
e87,87,452999958,171552.0
21591.0
e71,71,479999961,171042.0
e87,87,451999957,171554.0
21630.0
