e72,72,1800000000,267.0
l46,46,199999998,619.0
r33,33,999999998,822.0
l38,38,199999998,1052.0
1140.0
e72,72,1799999999,268.0
l46,46,199999999,618.0
r33,33,999999999,821.0
l38,38,200000000,1050.0
1141.0
e72,72,1799999997,270.0
l46,46,200000000,617.0
r33,33,1000000000,820.0
l38,38,199999999,1051.0
1142.0
e72,72,1799999998,269.0
l46,46,199999997,620.0
r33,33,999999997,823.0
l38,38,199999997,1053.0
1143.0
e80,80,1799999996,1018.0
r10,10,999999995,1084.0
l43,43,199999996,1100.0
1837.0
e80,80,1799999995,1019.0
r10,10,999999997,1082.0
l43,43,199999997,1099.0
1838.0
e80,80,1799999989,1025.0
r10,10,999999994,1085.0
l43,43,199999995,1101.0
1839.0
e80,80,1799999984,1030.0
r10,10,1000000000,1079.0
l43,43,199999998,1098.0
1840.0
e80,80,1799999992,1022.0
r10,10,999999996,1083.0
l43,43,199999999,1097.0
1841.0
e80,80,1800000000,1014.0
r10,10,999999999,1080.0
l43,43,199999994,1102.0
1842.0
e80,80,1799999982,1032.0
r10,10,999999998,1081.0
l43,43,200000000,1096.0
1843.0
r30,30,999999988,1215.0
r21,21,999999986,1678.0
1961.0
r25,25,999999989,335.0
r21,21,1000000000,1035.0
1962.0
r25,25,999999995,329.0
r21,21,999999994,1041.0
1963.0
r30,30,999999996,1207.0
r21,21,999999988,1676.0
1964.0
r25,25,999999991,333.0
r21,21,999999995,1040.0
1965.0
r30,30,999999991,1212.0
r21,21,999999989,1675.0
1966.0
r30,30,999999984,1219.0
r21,21,999999987,1677.0
1967.0
r25,25,999999978,346.0
r21,21,999999996,1039.0
1968.0
r25,25,999999985,339.0
r21,21,999999998,1037.0
1969.0
r25,25,999999994,330.0
r21,21,999999991,1044.0
1970.0
l58,58,199999997,790.0
e84,84,1799999999,1224.0
l53,53,200000000,1256.0
r4,4,999999997,1321.0
r29,29,999999993,1389.0
2218.0
l58,58,199999983,804.0
e84,84,1799999990,1233.0
l53,53,199999993,1263.0
r4,4,999999998,1320.0
r29,29,999999996,1386.0
2219.0
l58,58,199999994,793.0
e84,84,1799999996,1227.0
l53,53,199999990,1266.0
r4,4,999999996,1322.0
r29,29,999999992,1390.0
2220.0
l58,58,199999986,801.0
e84,84,1799999991,1232.0
l53,53,199999992,1264.0
r4,4,999999993,1325.0
r29,29,999999990,1392.0
2221.0
l58,58,199999984,803.0
e84,84,1799999992,1231.0
l53,53,199999998,1258.0
r4,4,999999994,1324.0
r29,29,999999994,1388.0
2222.0
r30,30,999999994,1209.0
l65,65,199999978,1637.0
l38,38,199999975,2056.0
2342.0
r25,25,999999981,343.0
e75,75,1799999989,1118.0
l38,38,199999988,1595.0
2343.0
l65,65,199999993,1404.0
l38,38,199999978,2053.0
2344.0
r30,30,999999995,1208.0
l65,65,199999984,1631.0
l38,38,199999983,2048.0
2345.0
e80,80,1799999987,1027.0
l38,38,199999996,1333.0
2346.0
l58,58,199999982,805.0
e84,84,1800000000,1223.0
l53,53,199999996,1260.0
r6,6,999999991,1668.0
l61,61,199999990,1706.0
l38,38,199999970,2304.0
2347.0
e80,80,1799999999,1015.0
l38,38,199999994,1335.0
2348.0
l65,65,199999994,1403.0
l38,38,199999974,2057.0
2349.0
l65,65,199999992,1405.0
l38,38,199999982,2049.0
2350.0
e80,80,1799999990,1024.0
e79,79,1799999989,1958.0
l38,38,199999966,2326.0
2351.0
e80,80,1799999997,1017.0
l38,38,199999993,1336.0
2352.0
r30,30,999999986,1217.0
l65,65,199999974,1641.0
l38,38,199999973,2058.0
2353.0
e95,95,1800000000,774.0
l37,37,199999990,1255.0
2473.0
e95,95,1799999995,779.0
l37,37,199999991,1254.0
2474.0
e80,80,1799999988,1026.0
e100,100,1799999983,2447.0
2781.0
l58,58,199999998,789.0
r3,3,999999989,869.0
r31,31,999999992,1829.0
e100,100,1799999988,1953.0
2782.0
e80,80,1799999993,1021.0
e100,100,1799999979,2451.0
2783.0
r25,25,999999996,328.0
e77,77,1799999992,1546.0
e76,76,1799999995,1835.0
r15,15,999999980,1947.0
r18,18,999999993,2010.0
r6,6,999999965,2943.0
3397.0
r22,22,999999971,2397.0
r7,7,999999958,2728.0
r4,4,999999963,2865.0
r32,32,999999970,2895.0
e76,76,1799999969,2981.0
r26,26,999999979,3099.0
r6,6,999999958,3356.0
3398.0
r11,11,999999982,1524.0
r30,30,999999970,2674.0
r33,33,999999957,3333.0
3572.0
r11,11,999999988,1518.0
r30,30,999999971,2673.0
r33,33,999999958,3332.0
3573.0
r11,11,999999996,1510.0
r30,30,999999968,2676.0
r33,33,999999959,3331.0
3574.0
r11,11,999999987,1519.0
r30,30,999999969,2675.0
r33,33,999999960,3330.0
3575.0
r25,25,999999953,4094.0
r9,9,999999951,4376.0
l67,67,199999953,4412.0
l45,45,199999951,4722.0
4950.0
