r22,22,999999998,246.0
e91,91,1799999993,404.0
l60,60,199999994,1218.0
l65,65,199999995,1316.0
2023.0
r22,22,999999993,251.0
l65,65,199999982,1737.0
2024.0
r22,22,999999983,261.0
l65,65,199999984,1735.0
2025.0
r22,22,999999987,257.0
e91,91,1800000000,397.0
l60,60,199999997,1215.0
l65,65,199999994,1317.0
2026.0
r22,22,999999989,255.0
l65,65,199999988,1731.0
2027.0
r22,22,999999991,253.0
l65,65,199999981,1738.0
2028.0
r22,22,999999984,260.0
l65,65,199999990,1729.0
2029.0
r22,22,999999985,259.0
l65,65,199999989,1730.0
2030.0
r22,22,999999990,254.0
l65,65,199999983,1736.0
2031.0
r23,23,999999982,563.0
e96,96,1799999996,883.0
l60,60,200000000,888.0
l65,65,199999997,1314.0
2032.0
r22,22,999999986,258.0
l65,65,199999980,1739.0
2033.0
r22,22,999999997,247.0
l65,65,199999986,1733.0
2034.0
r23,23,999999972,573.0
e96,96,1799999994,885.0
l60,60,199999999,889.0
l65,65,199999999,1312.0
2035.0
r22,22,999999995,249.0
l65,65,199999991,1728.0
2036.0
r23,23,999999997,459.0
r18,18,999999993,694.0
e90,90,1799999995,747.0
e84,84,1800000000,948.0
l60,60,199999998,990.0
l65,65,199999998,1313.0
2037.0
r22,22,999999992,252.0
l65,65,199999993,1726.0
2038.0
l43,43,199999982,906.0
e91,91,1799999974,1647.0
l48,48,199999974,1705.0
l52,52,199999990,1848.0
l37,37,199999976,2406.0
3051.0
r23,23,999999984,561.0
r18,18,999999995,692.0
r28,28,999999987,1271.0
l37,37,199999987,2166.0
3052.0
r22,22,999999988,256.0
l37,37,199999999,812.0
3053.0
l43,43,199999989,899.0
e91,91,1799999967,1654.0
l48,48,199999989,1690.0
l52,52,199999992,1846.0
l37,37,199999978,2404.0
3054.0
e92,92,1799999984,932.0
r5,5,999999997,994.0
r19,19,999999998,1489.0
e90,90,1799999982,1915.0
r28,28,999999982,1941.0
l37,37,199999991,2162.0
3055.0
l43,43,199999983,905.0
e72,72,1799999997,1021.0
e91,91,1799999977,1212.0
l48,48,199999983,1696.0
l52,52,199999987,1851.0
l37,37,199999981,2401.0
3056.0
r9,9,999999976,2018.0
3186.0
r22,22,1000000000,244.0
e74,74,1799999986,1464.0
r14,14,999999993,1603.0
l49,49,199999995,1611.0
r9,9,999999971,2055.0
3187.0
r9,9,999999980,2014.0
3188.0
r9,9,999999981,2013.0
3189.0
r23,23,999999981,564.0
r10,10,999999992,1275.0
r5,5,999999988,1368.0
r14,14,999999998,1532.0
l49,49,199999998,1584.0
r9,9,999999972,2054.0
3190.0
r9,9,999999986,2008.0
3191.0
e90,90,1799999998,691.0
r13,13,999999997,787.0
l67,67,199999992,950.0
l40,40,199999993,1670.0
r9,9,999999970,2245.0
3192.0
e92,92,1799999997,919.0
r5,5,999999998,993.0
r14,14,999999999,1531.0
l49,49,200000000,1582.0
r9,9,999999975,2051.0
3193.0
r23,23,999999977,568.0
r10,10,999999995,1272.0
r5,5,999999994,1362.0
r14,14,1000000000,1530.0
l49,49,199999999,1583.0
r9,9,999999973,2053.0
3194.0
l43,43,199999978,910.0
r27,27,999999989,1550.0
r9,9,999999991,1935.0
3195.0
r9,9,999999985,2009.0
3196.0
r9,9,999999983,2011.0
3197.0
r23,23,999999985,471.0
r18,18,999999999,688.0
e90,90,1799999992,750.0
r13,13,999999993,791.0
l43,43,199999990,869.0
e70,70,1799999992,1074.0
r3,3,999999996,1519.0
e74,74,1799999978,1596.0
r14,14,999999990,1606.0
l49,49,199999993,1613.0
r9,9,999999974,2052.0
3198.0
r9,9,999999989,2005.0
3199.0
r9,9,999999978,2016.0
3200.0
r9,9,999999988,2006.0
3201.0
r22,22,999999996,248.0
e97,97,1799999994,613.0
r11,11,999999997,1114.0
r27,27,999999991,1478.0
r9,9,999999993,1933.0
3202.0
e84,84,1799999979,2782.0
3385.0
e84,84,1799999969,2792.0
3386.0
r23,23,999999973,572.0
r18,18,1000000000,687.0
e90,90,1799999989,753.0
e95,95,1799999991,1047.0
r28,28,999999992,1087.0
e84,84,1799999996,1167.0
3387.0
e84,84,1799999978,2783.0
3388.0
r31,31,999999994,1373.0
l39,39,199999982,2006.0
l46,46,199999964,2443.0
r3,3,999999962,2908.0
r28,28,999999960,3080.0
e84,84,1799999965,3185.0
3389.0
e84,84,1799999980,2781.0
3390.0
r23,23,999999980,565.0
r26,26,999999997,1320.0
e84,84,1799999989,1540.0
3391.0
e84,84,1799999975,2786.0
3392.0
e84,84,1799999972,2789.0
3393.0
r23,23,999999987,469.0
e96,96,1800000000,879.0
r28,28,999999994,970.0
e84,84,1799999994,1169.0
3394.0
r18,18,999999979,3226.0
r31,31,999999955,3313.0
e98,98,1799999954,3370.0
e90,90,1799999951,3960.0
e81,81,1799999954,4458.0
5081.0
