r20,20,999999991,328.0
e87,87,1800000000,902.0
r16,16,1000000000,934.0
r2,2,999999999,1479.0
r15,15,1000000000,2140.0
e86,86,1799999995,2342.0
r13,13,999999995,2375.0
2523.0
l58,58,199999995,1249.0
r10,10,999999991,1367.0
l50,50,199999995,1517.0
e72,72,1799999996,1589.0
l56,56,200000000,1789.0
r13,13,999999990,2427.0
2524.0
l58,58,199999993,1251.0
r10,10,999999992,1366.0
l50,50,199999998,1514.0
e72,72,1799999994,1591.0
l56,56,199999992,1797.0
r13,13,999999992,2425.0
2525.0
r20,20,999999998,321.0
e87,87,1799999999,903.0
l48,48,199999994,1270.0
r5,5,999999992,1448.0
e85,85,1799999997,1458.0
r13,13,999999999,1859.0
2526.0
r20,20,999999995,324.0
e87,87,1799999994,908.0
l48,48,199999992,1272.0
r5,5,999999993,1447.0
e85,85,1799999998,1457.0
r13,13,999999996,1862.0
2527.0
r20,20,999999999,320.0
e87,87,1799999996,906.0
r16,16,999999997,937.0
r2,2,999999994,1484.0
r15,15,999999996,2144.0
e86,86,1799999999,2338.0
r13,13,999999994,2376.0
2528.0
r20,20,999999997,322.0
e87,87,1799999992,910.0
r16,16,999999999,935.0
r2,2,999999993,1485.0
l56,56,199999990,2350.0
r13,13,999999991,2426.0
2529.0
r20,20,999999992,327.0
e87,87,1799999993,909.0
l48,48,199999995,1269.0
r5,5,999999995,1445.0
e85,85,1800000000,1455.0
r13,13,999999997,1861.0
2530.0
r20,20,999999993,326.0
e87,87,1799999995,907.0
l48,48,200000000,1264.0
r5,5,999999997,1443.0
e85,85,1799999996,1459.0
r13,13,999999998,1860.0
2531.0
r20,20,999999994,325.0
e87,87,1799999998,904.0
l48,48,199999999,1265.0
r5,5,999999996,1444.0
e85,85,1799999999,1456.0
r13,13,1000000000,1858.0
2532.0
r20,20,999999989,330.0
e87,87,1799999997,905.0
r16,16,999999992,942.0
r2,2,999999998,1480.0
r15,15,999999999,2141.0
e86,86,1799999998,2339.0
r13,13,999999993,2377.0
2533.0
r20,20,999999990,329.0
e100,100,1799999988,2240.0
r5,5,999999989,2258.0
2830.0
l58,58,199999984,1260.0
r10,10,999999993,1365.0
l50,50,199999993,1519.0
e95,95,1799999998,1819.0
e94,94,1799999993,1935.0
e100,100,1799999999,2015.0
r5,5,999999990,2257.0
2831.0
r20,20,1000000000,319.0
e100,100,1799999986,2242.0
r5,5,999999986,2261.0
2832.0
r20,20,999999996,323.0
e100,100,1799999987,2241.0
r5,5,999999988,2259.0
2833.0
l58,58,199999982,1262.0
r10,10,999999990,1368.0
l61,61,199999987,3154.0
3255.0
l48,48,199999986,1498.0
l64,64,199999988,2207.0
e95,95,1799999988,2363.0
l61,61,199999981,3163.0
3256.0
l58,58,199999983,1261.0
r10,10,999999989,1369.0
l61,61,199999990,3151.0
3257.0
l48,48,199999987,1497.0
l64,64,199999987,2208.0
e95,95,1799999981,2370.0
l61,61,199999983,3161.0
3258.0
l48,48,199999984,1500.0
l64,64,199999979,2216.0
e95,95,1799999982,2369.0
l61,61,199999982,3162.0
3259.0
l48,48,199999982,1502.0
l64,64,199999980,2215.0
e95,95,1799999985,2366.0
l61,61,199999984,3160.0
3260.0
e88,88,1799999993,1358.0
r3,3,999999987,2202.0
l49,49,199999985,2322.0
e74,74,1799999991,2544.0
e98,98,1799999989,2557.0
l44,44,199999987,3037.0
l52,52,199999988,3135.0
3459.0
l48,48,199999988,1496.0
r3,3,999999997,1601.0
l49,49,199999984,2323.0
e74,74,1799999995,2540.0
e98,98,1799999987,2559.0
l44,44,199999986,3038.0
l52,52,199999987,3136.0
3460.0
e88,88,1799999995,1356.0
r3,3,999999989,2200.0
l49,49,199999983,2324.0
e74,74,1799999996,2539.0
e98,98,1799999993,2553.0
l44,44,199999988,3036.0
l52,52,199999986,3137.0
3461.0
e101,101,1799999978,2747.0
e91,91,1799999960,3924.0
4102.0
e81,81,1799999979,2810.0
r34,34,999999981,3078.0
e74,74,1799999980,3250.0
e91,91,1799999967,3561.0
4103.0
e90,90,1799999983,2773.0
l39,39,199999982,2836.0
l36,36,199999972,3236.0
r7,7,999999969,3676.0
e91,91,1799999964,3897.0
4104.0
e90,90,1799999980,2776.0
e81,81,1799999990,2792.0
r34,34,999999980,3079.0
e74,74,1799999985,3245.0
e91,91,1799999972,3556.0
4105.0
e81,81,1799999983,2806.0
r34,34,999999982,3077.0
e74,74,1799999975,3255.0
e91,91,1799999975,3553.0
4106.0
e81,81,1799999972,2817.0
r34,34,999999977,3082.0
e74,74,1799999977,3253.0
e91,91,1799999973,3555.0
4107.0
e90,90,1799999985,2771.0
l39,39,199999977,2841.0
l36,36,199999968,3240.0
r7,7,999999972,3673.0
e91,91,1799999965,3896.0
4108.0
e90,90,1799999982,2774.0
l39,39,199999980,2838.0
l36,36,199999965,3243.0
r7,7,999999971,3674.0
e91,91,1799999963,3898.0
4109.0
e101,101,1799999989,2736.0
e91,91,1799999961,3923.0
4110.0
e81,81,1799999970,2819.0
r34,34,999999975,3084.0
e74,74,1799999978,3252.0
e91,91,1799999969,3559.0
4111.0
l48,48,199999989,1495.0
e91,91,1799999989,2472.0
4112.0
e88,88,1799999991,1360.0
r3,3,999999990,2199.0
l40,40,199999980,2976.0
e91,91,1799999966,3628.0
4113.0
l48,48,199999991,1493.0
e91,91,1799999988,2473.0
4114.0
l48,48,199999990,1494.0
e91,91,1799999982,2479.0
4115.0
l48,48,199999985,1499.0
e91,91,1799999980,2481.0
4116.0
e90,90,1799999977,2779.0
e81,81,1799999993,2789.0
r34,34,999999976,3083.0
e74,74,1799999982,3248.0
e91,91,1799999974,3554.0
4117.0
e81,81,1799999966,2823.0
r34,34,999999978,3081.0
e74,74,1799999972,3258.0
e91,91,1799999968,3560.0
4118.0
l50,50,199999973,3681.0
r35,35,999999954,4203.0
4537.0
r35,35,999999962,3220.0
4538.0
r35,35,999999975,3207.0
4539.0
r35,35,999999963,3219.0
4540.0
r35,35,999999964,3218.0
4541.0
r35,35,999999974,3208.0
4542.0
r35,35,999999968,3214.0
4543.0
l50,50,199999966,3688.0
r35,35,999999952,4205.0
4544.0
r35,35,999999970,3212.0
4545.0
