l41,41,199999984,448.0
e96,96,1799999997,578.0
l53,53,199999998,1106.0
1432.0
l41,41,199999995,437.0
e96,96,1799999993,582.0
l53,53,199999997,1107.0
1433.0
l41,41,199999998,434.0
e96,96,1799999994,581.0
l53,53,199999996,1108.0
1434.0
l41,41,199999999,433.0
e96,96,1799999999,576.0
l53,53,200000000,1104.0
1435.0
l41,41,199999997,435.0
e96,96,1799999992,583.0
l53,53,199999995,1109.0
1436.0
l41,41,199999985,447.0
e96,96,1800000000,575.0
l53,53,199999993,1111.0
1437.0
l41,41,199999992,440.0
e96,96,1799999996,579.0
l53,53,199999994,1110.0
1438.0
l41,41,199999989,443.0
e96,96,1799999998,577.0
l53,53,199999999,1105.0
1439.0
e95,95,1799999993,822.0
r14,14,999999992,1219.0
e91,91,1799999982,1396.0
e73,73,1799999994,1801.0
1887.0
e95,95,1799999987,828.0
r14,14,999999996,1215.0
e91,91,1799999985,1393.0
e73,73,1799999987,1808.0
1888.0
e95,95,1799999994,821.0
e97,97,1799999996,1013.0
l65,65,199999983,1095.0
e91,91,1799999994,1270.0
e73,73,1799999986,1809.0
1889.0
l65,65,199999999,873.0
e91,91,1799999997,1267.0
e73,73,1799999989,1806.0
1890.0
e95,95,1799999992,823.0
r14,14,999999993,1218.0
e91,91,1799999987,1391.0
e73,73,1799999990,1805.0
1891.0
l65,65,199999988,884.0
e91,91,1799999999,1265.0
e73,73,1799999993,1802.0
1892.0
l65,65,199999989,883.0
e91,91,1799999993,1271.0
e73,73,1799999988,1807.0
1893.0
e95,95,1799999997,818.0
l58,58,200000000,1207.0
r14,14,1000000000,1209.0
e91,91,1799999981,1397.0
e73,73,1799999991,1804.0
1894.0
e95,95,1799999990,825.0
r14,14,999999994,1217.0
e91,91,1799999983,1395.0
e73,73,1799999995,1800.0
1895.0
e95,95,1799999995,820.0
r14,14,999999991,1220.0
e91,91,1799999989,1389.0
e73,73,1799999992,1803.0
1896.0
e83,83,1799999995,1035.0
l68,68,199999997,1992.0
r6,6,999999995,2015.0
l64,64,199999982,2359.0
e100,100,1799999973,2564.0
2750.0
e85,85,1799999986,1848.0
l38,38,199999988,2335.0
l45,45,199999976,2376.0
l64,64,199999976,2512.0
e100,100,1799999975,2562.0
2751.0
e83,83,1799999997,1033.0
l68,68,199999992,1997.0
r6,6,999999992,2018.0
l64,64,199999981,2360.0
e100,100,1799999974,2563.0
2752.0
e95,95,1799999985,830.0
e97,97,1799999999,1010.0
e100,100,1799999982,2283.0
2753.0
l65,65,199999998,874.0
r25,25,999999979,1302.0
r24,24,999999997,1349.0
e100,100,1800000000,1391.0
2754.0
e95,95,1799999986,829.0
r25,25,999999992,932.0
r24,24,999999995,1351.0
e100,100,1799999997,1394.0
2755.0
l65,65,200000000,872.0
r25,25,999999978,1303.0
r24,24,999999996,1350.0
e100,100,1799999993,1398.0
2756.0
r35,35,999999982,1308.0
e97,97,1799999974,2241.0
e100,100,1799999983,2282.0
2757.0
r35,35,999999976,1314.0
e97,97,1799999978,2237.0
e100,100,1799999980,2285.0
2758.0
l65,65,199999986,886.0
r25,25,999999986,1295.0
r24,24,999999999,1347.0
e100,100,1799999992,1399.0
2759.0
l47,47,199999975,2553.0
3013.0
l47,47,199999984,2544.0
3014.0
l47,47,199999976,2552.0
3015.0
l47,47,199999985,2543.0
3016.0
l47,47,199999982,2546.0
3017.0
l47,47,199999974,2554.0
3018.0
l47,47,199999970,2558.0
3019.0
l47,47,199999980,2548.0
3020.0
l47,47,199999973,2555.0
3021.0
l47,47,199999977,2551.0
3022.0
l47,47,199999978,2550.0
3023.0
e83,83,1799999998,1032.0
r35,35,999999996,1172.0
l53,53,199999989,2070.0
3061.0
l59,59,199999986,1769.0
l65,65,199999969,2068.0
e97,97,1799999964,2504.0
3151.0
r10,10,999999990,1116.0
e81,81,1799999999,1241.0
e77,77,1799999995,1411.0
r16,16,999999994,1453.0
r4,4,999999998,1604.0
e82,82,1799999981,2059.0
e97,97,1799999979,2092.0
3152.0
e83,83,1799999987,1043.0
r35,35,999999998,1170.0
e97,97,1799999973,2242.0
3153.0
r10,10,999999994,1112.0
e81,81,1799999998,1242.0
e77,77,1799999993,1413.0
r16,16,999999995,1452.0
e82,82,1799999988,1819.0
e97,97,1799999983,2088.0
3154.0
r10,10,999999988,1118.0
e81,81,1799999997,1243.0
e77,77,1799999994,1412.0
r16,16,999999993,1454.0
r4,4,999999993,1609.0
e82,82,1799999982,2058.0
e97,97,1799999980,2091.0
3155.0
l65,65,199999993,879.0
e91,91,1799999991,1273.0
e82,82,1799999992,1698.0
e97,97,1799999988,2083.0
3156.0
l41,41,199999981,451.0
r10,10,999999974,1291.0
l66,66,199999985,1802.0
e74,74,1799999990,2120.0
e95,95,1799999978,2135.0
r3,3,999999974,2698.0
r25,25,999999971,2822.0
e78,78,1799999971,2855.0
3312.0
r21,21,999999975,2026.0
r30,30,999999986,2041.0
r13,13,999999977,2693.0
e78,78,1799999960,3001.0
3313.0
e71,71,1799999987,1835.0
r6,6,999999981,2388.0
e78,78,1799999980,2605.0
3314.0
e71,71,1799999989,1833.0
3528.0
