l56,56,199999999,173.0
r19,19,999999994,286.0
l62,62,199999994,378.0
e69,69,1799999999,801.0
1261.0
l56,56,199999990,182.0
r19,19,999999991,289.0
l62,62,199999996,376.0
e69,69,1800000000,800.0
1262.0
l56,56,199999998,174.0
r19,19,999999988,292.0
l62,62,199999990,382.0
e69,69,1799999997,803.0
1263.0
l56,56,200000000,172.0
r19,19,999999989,291.0
l62,62,200000000,372.0
e69,69,1799999998,802.0
1264.0
l56,56,199999992,180.0
r19,19,999999995,285.0
l62,62,199999991,381.0
e69,69,1799999995,805.0
1265.0
l56,56,199999997,175.0
r19,19,999999993,287.0
l62,62,199999998,374.0
e69,69,1799999996,804.0
1266.0
l36,36,199999991,158.0
r33,33,999999996,257.0
e81,81,1799999995,314.0
e85,85,1799999995,873.0
2115.0
r14,14,999999979,599.0
e85,85,1799999987,1060.0
2116.0
r14,14,999999973,605.0
e99,99,1799999991,783.0
e72,72,1799999992,1337.0
r19,19,999999986,1624.0
2796.0
l43,43,199999994,878.0
r19,19,999999972,2396.0
2797.0
l43,43,199999986,886.0
r19,19,999999970,2398.0
2798.0
l56,56,199999988,184.0
r19,19,999999999,281.0
2799.0
l56,56,199999996,176.0
r19,19,999999990,290.0
2800.0
l36,36,199999989,160.0
r19,19,999999975,1831.0
2801.0
l56,56,199999995,177.0
r19,19,1000000000,280.0
2802.0
l36,36,199999995,154.0
r16,16,999999996,558.0
e92,92,1799999995,626.0
r9,9,999999996,1265.0
l48,48,199999979,1505.0
e72,72,1799999985,1560.0
r19,19,999999985,1625.0
2803.0
r14,14,999999976,602.0
e99,99,1799999994,780.0
e72,72,1799999994,1335.0
r19,19,999999981,1629.0
2804.0
l36,36,199999987,162.0
e93,93,1799999999,400.0
l41,41,199999985,548.0
e92,92,1799999988,714.0
r9,9,999999984,1277.0
l48,48,199999978,1506.0
e72,72,1799999982,1563.0
r19,19,999999984,1626.0
2805.0
r14,14,999999982,596.0
e99,99,1799999993,781.0
e72,72,1799999989,1340.0
r19,19,999999983,1627.0
2806.0
l43,43,199999999,873.0
r19,19,999999974,2394.0
2807.0
l43,43,199999998,874.0
r19,19,999999973,2395.0
2808.0
l43,43,199999988,884.0
r19,19,999999968,2400.0
2809.0
l36,36,199999996,153.0
r15,15,999999997,235.0
l38,38,200000000,493.0
e75,75,1800000000,739.0
e99,99,1799999990,1045.0
e72,72,1799999991,1338.0
r19,19,999999980,1630.0
2810.0
l36,36,199999993,156.0
r19,19,999999978,1828.0
2811.0
l56,56,199999991,181.0
r19,19,999999996,284.0
2812.0
l36,36,200000000,149.0
r19,19,999999976,1830.0
2813.0
l56,56,199999986,186.0
r19,19,999999992,288.0
2814.0
l36,36,199999988,161.0
l40,40,199999995,644.0
r25,25,999999983,940.0
l58,58,199999989,1000.0
3865.0
r15,15,999999966,1540.0
e98,98,1799999967,2584.0
l58,58,199999961,3034.0
3866.0
r6,6,999999967,1688.0
e71,71,1799999966,2733.0
r18,18,999999964,3313.0
l67,67,199999955,3581.0
l58,58,199999958,3609.0
3867.0
e87,87,1799999983,449.0
e77,77,1799999984,1661.0
l47,47,199999990,1717.0
l58,58,199999965,1770.0
3868.0
r14,14,999999990,588.0
e85,85,1799999985,1062.0
r30,30,999999993,1264.0
r8,8,999999987,1387.0
l58,58,199999973,1632.0
3869.0
r15,15,999999976,1530.0
e98,98,1799999964,2587.0
l58,58,199999963,3032.0
3870.0
r15,15,999999975,1531.0
e98,98,1799999965,2586.0
l58,58,199999964,3031.0
3871.0
e87,87,1799999985,447.0
e77,77,1799999986,1659.0
l47,47,199999986,1721.0
l58,58,199999967,1768.0
3872.0
r14,14,999999983,595.0
e85,85,1799999991,1056.0
r8,8,1000000000,1238.0
l58,58,199999972,1633.0
3873.0
r15,15,999999965,1541.0
e74,74,1799999981,1935.0
e90,90,1799999975,1993.0
e95,95,1799999965,2290.0
l67,67,199999966,2478.0
l58,58,199999954,3613.0
3874.0
r30,30,999999975,1372.0
e91,91,1799999970,1452.0
e98,98,1799999969,1773.0
l58,58,199999962,3033.0
3875.0
e87,87,1799999998,434.0
e77,77,1799999979,1666.0
l47,47,199999987,1720.0
l58,58,199999966,1769.0
3876.0
l56,56,199999987,185.0
r19,19,999999997,283.0
e70,70,1799999993,479.0
l58,58,199999995,759.0
3877.0
l56,56,199999994,178.0
r19,19,999999998,282.0
e70,70,1799999999,473.0
l58,58,199999992,762.0
3878.0
r30,30,999999978,1369.0
r8,8,999999990,1384.0
l58,58,199999976,1629.0
3879.0
r30,30,999999976,1371.0
r8,8,999999981,1393.0
l58,58,199999977,1628.0
3880.0
e87,87,1799999991,441.0
e77,77,1799999987,1658.0
l47,47,199999988,1719.0
l58,58,199999968,1767.0
3881.0
l56,56,199999989,183.0
r34,34,999999995,597.0
e79,79,1799999988,633.0
l67,67,199999987,994.0
l58,58,199999984,1125.0
3882.0
l56,56,199999993,179.0
r19,19,999999987,293.0
e70,70,1799999988,484.0
l58,58,200000000,754.0
3883.0
r25,25,999999974,1573.0
l47,47,199999995,1691.0
l58,58,199999969,1766.0
l54,54,199999971,1865.0
l61,61,199999986,1948.0
e95,95,1799999967,2157.0
l67,67,199999968,2476.0
r26,26,999999964,2500.0
4189.0
r30,30,999999974,1373.0
l67,67,199999975,2412.0
r26,26,999999966,2498.0
4190.0
r6,6,999999971,1684.0
e79,79,1799999979,1690.0
l53,53,199999994,1876.0
r30,30,999999962,1990.0
l67,67,199999976,2411.0
r26,26,999999965,2499.0
4191.0
r6,6,999999969,1686.0
e79,79,1799999971,1698.0
l53,53,199999997,1873.0
r30,30,999999963,1989.0
l39,39,199999965,2423.0
r26,26,999999954,3189.0
4192.0
