r16,16,999999992,791.0
l65,65,199999999,942.0
1301.0
r16,16,999999982,801.0
l65,65,199999997,944.0
1302.0
r16,16,999999990,793.0
l65,65,199999998,943.0
1303.0
r16,16,999999983,800.0
l65,65,199999983,958.0
1304.0
r16,16,999999995,788.0
l65,65,199999993,948.0
1305.0
r34,34,999999985,348.0
l65,65,199999978,1246.0
1306.0
r34,34,999999982,351.0
l65,65,199999981,1243.0
1307.0
r16,16,999999993,790.0
l65,65,199999985,956.0
1308.0
r16,16,999999989,794.0
l65,65,199999987,954.0
1309.0
r16,16,999999985,798.0
l65,65,200000000,941.0
1310.0
r34,34,999999983,350.0
e72,72,1799999987,1351.0
1650.0
r34,34,999999988,345.0
e72,72,1799999984,1354.0
1651.0
r13,13,999999985,574.0
r5,5,999999989,589.0
r15,15,999999996,1233.0
l49,49,199999997,1301.0
e72,72,1799999990,1327.0
1652.0
r13,13,999999994,565.0
r5,5,999999993,585.0
r15,15,999999994,1235.0
l49,49,199999994,1304.0
e72,72,1799999993,1324.0
1653.0
r13,13,999999997,562.0
r5,5,999999991,587.0
r15,15,999999999,1230.0
l49,49,199999999,1299.0
e72,72,1800000000,1317.0
1654.0
r34,34,999999992,341.0
e72,72,1799999981,1357.0
1655.0
r13,13,999999988,571.0
r5,5,999999995,583.0
r15,15,999999995,1234.0
l49,49,199999996,1302.0
e72,72,1799999992,1325.0
1656.0
r13,13,999999995,564.0
r5,5,999999999,579.0
r15,15,999999991,1238.0
l49,49,199999993,1305.0
e72,72,1799999991,1326.0
1657.0
r13,13,999999987,572.0
r5,5,999999998,580.0
r15,15,999999992,1237.0
l49,49,199999995,1303.0
e72,72,1799999996,1321.0
1658.0
r13,13,999999984,575.0
r5,5,999999997,581.0
r15,15,999999997,1232.0
l49,49,199999991,1307.0
e72,72,1799999995,1322.0
1659.0
e96,96,1799999988,301.0
r13,13,999999968,1180.0
r5,5,999999977,1590.0
e95,95,1799999991,1726.0
1783.0
r13,13,999999993,566.0
r5,5,999999978,1589.0
e95,95,1799999990,1727.0
1784.0
r13,13,999999990,569.0
r5,5,999999990,588.0
e95,95,1799999982,1735.0
1785.0
r13,13,999999991,568.0
r5,5,999999992,586.0
e95,95,1799999985,1732.0
1786.0
r13,13,1000000000,559.0
r5,5,999999985,1582.0
e95,95,1799999992,1725.0
1787.0
r13,13,999999989,570.0
r5,5,999999996,582.0
e95,95,1799999983,1734.0
1788.0
r34,34,999999991,342.0
r13,13,999999971,842.0
r5,5,999999976,1591.0
e95,95,1799999986,1731.0
1789.0
r34,34,1000000000,333.0
r13,13,999999975,838.0
e83,83,1799999987,984.0
e81,81,1799999999,1530.0
l64,64,199999999,1581.0
2030.0
r16,16,999999981,802.0
l65,65,199999994,947.0
e84,84,1799999994,996.0
r17,17,999999998,1161.0
e83,83,1799999984,1410.0
e81,81,1799999986,1543.0
l64,64,199999995,1585.0
2031.0
e96,96,1799999993,296.0
e79,79,1799999988,1416.0
2851.0
e96,96,1799999994,295.0
e79,79,1800000000,1404.0
2852.0
e96,96,1799999998,291.0
e79,79,1799999991,1413.0
2853.0
e96,96,1799999999,290.0
e79,79,1799999993,1411.0
2854.0
e96,96,1799999989,300.0
e79,79,1799999982,1422.0
2855.0
r16,16,999999988,795.0
e93,93,1799999992,823.0
e71,71,1799999997,882.0
r35,35,999999999,1064.0
e74,74,1799999995,1670.0
e79,79,1799999979,2076.0
2856.0
r16,16,999999999,784.0
l65,65,199999995,946.0
e84,84,1799999993,997.0
r17,17,999999996,1163.0
e69,69,1799999994,1600.0
e74,74,1799999990,1831.0
e79,79,1799999976,2079.0
2857.0
e96,96,1799999991,298.0
e79,79,1799999989,1415.0
2858.0
e96,96,1799999987,302.0
e79,79,1799999997,1407.0
2859.0
e86,86,1799999988,2170.0
r14,14,999999997,2442.0
r32,32,999999972,2597.0
l57,57,199999977,2835.0
2874.0
e86,86,1799999991,2167.0
r14,14,1000000000,2439.0
r32,32,999999969,2600.0
l57,57,199999980,2832.0
2875.0
r13,13,999999983,576.0
l46,46,199999995,1140.0
l57,57,200000000,1151.0
2876.0
r7,7,999999986,2757.0
r8,8,999999953,3025.0
e69,69,1799999952,3096.0
r15,15,999999966,3682.0
4139.0
r7,7,999999959,3009.0
r8,8,999999959,3019.0
e69,69,1799999960,3088.0
r15,15,999999968,3680.0
4140.0
r20,20,999999992,180.0
l43,43,199999979,1466.0
e101,101,1799999964,2529.0
r9,9,999999976,3802.0
r15,15,999999956,4066.0
4141.0
r7,7,999999981,2762.0
r8,8,999999955,3023.0
e69,69,1799999958,3090.0
r15,15,999999965,3683.0
4142.0
r7,7,999999982,2761.0
r8,8,999999960,3018.0
e69,69,1799999957,3091.0
r15,15,999999967,3681.0
4143.0
r7,7,999999968,3000.0
r8,8,999999956,3022.0
e69,69,1799999959,3089.0
r15,15,999999969,3679.0
4144.0
r20,20,999999991,181.0
l43,43,199999977,1468.0
r16,16,999999962,2715.0
4233.0
r6,6,999999984,2676.0
e80,80,1799999958,3612.0
r2,2,999999962,3759.0
4653.0
r6,6,999999969,2691.0
e72,72,1799999972,2795.0
r2,2,999999951,4451.0
4654.0
