e90,90,1799999984,443.7000000000324
r11,11,999999978,578.1000000000629
l61,61,199999992,1240.5999999999672
3126.199999998252
e90,90,1799999996,442.5000000000321
r11,11,999999958,580.1000000000633
l61,61,199999991,1240.699999999967
3126.299999998252
e90,90,1799999981,444.00000000003246
r11,11,999999985,577.4000000000627
l61,61,199999975,1242.2999999999656
3126.399999998252
e90,90,1799999965,445.6000000000328
r11,11,999999990,576.9000000000626
l61,61,199999964,1243.3999999999646
3126.499999998252
e90,90,1799999994,442.70000000003216
r11,11,999999973,578.600000000063
l61,61,199999976,1242.1999999999657
3126.599999998252
e90,90,1799999975,444.6000000000326
r11,11,999999963,579.6000000000632
l61,61,199999963,1243.4999999999645
3126.6999999982518
e90,90,1799999986,443.50000000003234
r11,11,999999987,577.2000000000627
l61,61,199999977,1242.0999999999658
3126.7999999982517
e90,90,1799999951,447.00000000003314
r11,11,999999983,577.6000000000628
l61,61,199999956,1244.199999999964
3126.8999999982516
e90,90,1799999972,444.90000000003266
r11,11,999999979,578.0000000000629
l61,61,199999966,1243.1999999999648
3126.9999999982515
e90,90,1799999958,446.300000000033
r11,11,999999996,576.3000000000625
l61,61,199999961,1243.6999999999643
3127.0999999982514
e90,90,1799999968,445.30000000003275
r11,11,999999999,576.0000000000624
l61,61,199999985,1241.2999999999665
3127.1999999982513
e90,90,1799999990,443.10000000003225
r11,11,999999968,579.1000000000631
l61,61,199999999,1239.8999999999678
3127.299999998251
e90,90,1799999974,444.7000000000326
r11,11,999999959,580.0000000000633
l61,61,199999954,1244.3999999999637
3127.399999998251
e90,90,1799999979,444.2000000000325
r11,11,999999964,579.5000000000632
l61,61,199999994,1240.3999999999673
3127.499999998251
e90,90,1799999969,445.20000000003273
r11,11,999999961,579.8000000000633
l61,61,199999962,1243.5999999999644
3127.599999998251
e90,90,1799999980,444.1000000000325
r11,11,999999971,578.800000000063
l61,61,199999955,1244.2999999999638
3127.699999998251
e90,90,1799999973,444.80000000003264
r11,11,999999967,579.2000000000631
l61,61,199999987,1241.0999999999667
3127.7999999982508
e90,90,1799999961,446.0000000000329
r11,11,999999954,580.5000000000634
l61,61,199999981,1241.6999999999662
3127.8999999982507
e90,90,1799999985,443.60000000003237
r11,11,999999972,578.700000000063
l61,61,199999972,1242.5999999999653
3127.9999999982506
e90,90,1799999959,446.20000000003296
r11,11,999999986,577.3000000000627
l61,61,199999958,1243.999999999964
3128.0999999982505
e90,90,1799999956,446.500000000033
r11,11,999999969,579.0000000000631
l61,61,199999969,1242.899999999965
3128.1999999982504
e90,90,1799999998,442.30000000003207
r11,11,999999952,580.7000000000635
l61,61,199999953,1244.4999999999636
3128.2999999982503
e90,90,1799999991,443.00000000003223
r11,11,999999975,578.400000000063
l61,61,199999967,1243.099999999965
3128.39999999825
e90,90,1799999964,445.70000000003284
r11,11,999999965,579.4000000000632
l61,61,199999984,1241.3999999999664
3128.49999999825
e90,90,1799999987,443.4000000000323
r11,11,999999980,577.9000000000628
l61,61,199999971,1242.6999999999653
3128.59999999825
e90,90,1799999967,445.4000000000328
r11,11,999999970,578.9000000000631
l61,61,199999997,1240.0999999999676
3128.69999999825
e90,90,1799999970,445.1000000000327
r11,11,999999962,579.7000000000633
l61,61,199999960,1243.7999999999643
3128.79999999825
e90,90,1799999978,444.3000000000325
r11,11,999999984,577.5000000000628
l61,61,199999998,1239.9999999999677
3128.8999999982498
e90,90,1799999953,446.8000000000331
r11,11,999999992,576.7000000000626
l61,61,199999996,1240.1999999999675
3128.9999999982497
e90,90,1799999993,442.8000000000322
r11,11,999999982,577.7000000000628
l61,61,199999993,1240.4999999999673
3129.0999999982496
e90,90,1799999982,443.90000000003243
r11,11,999999997,576.2000000000625
l61,61,199999965,1243.2999999999647
3129.1999999982495
e90,90,1799999977,444.40000000003255
r11,11,999999951,580.8000000000635
l61,61,199999978,1241.999999999966
3129.2999999982494
e90,90,1799999960,446.10000000003294
r11,11,999999995,576.4000000000625
l61,61,199999988,1240.9999999999668
3129.3999999982493
e90,90,1799999989,443.2000000000323
r11,11,999999977,578.2000000000629
l61,61,199999957,1244.099999999964
3129.499999998249
e90,90,1799999963,445.80000000003287
r11,11,999999981,577.8000000000628
l61,61,199999970,1242.7999999999652
3129.599999998249
e90,90,1799999952,446.9000000000331
r11,11,999999974,578.500000000063
l61,61,199999979,1241.899999999966
3129.699999998249
e90,90,1799999954,446.70000000003307
r11,11,999999960,579.9000000000633
l61,61,199999995,1240.2999999999674
3129.799999998249
e90,90,1799999955,446.60000000003305
r11,11,1000000000,575.9000000000624
l61,61,199999986,1241.1999999999666
3129.899999998249
e90,90,1799999983,443.8000000000324
r11,11,999999994,576.5000000000625
l61,61,199999959,1243.8999999999642
3129.9999999982488
e90,90,1799999971,445.0000000000327
r11,11,999999955,580.4000000000634
l61,61,199999990,1240.799999999967
3130.0999999982487
e90,90,1799999957,446.400000000033
r11,11,999999956,580.3000000000634
l61,61,199999968,1242.999999999965
3130.1999999982486
e90,90,1799999966,445.5000000000328
r11,11,999999989,577.0000000000626
l61,61,199999974,1242.3999999999655
3130.2999999982485
e90,90,1800000000,442.100000000032
r11,11,999999988,577.1000000000627
l61,61,199999982,1241.5999999999663
3130.3999999982484
e90,90,1799999995,442.60000000003214
r11,11,999999957,580.2000000000634
l61,61,199999951,1244.6999999999634
3130.4999999982483
e90,90,1799999976,444.50000000003257
r11,11,999999966,579.3000000000632
l61,61,199999989,1240.899999999967
3130.599999998248
e90,90,1799999999,442.20000000003205
r11,11,999999993,576.6000000000626
l61,61,200000000,1239.799999999968
3130.699999998248
e90,90,1799999962,445.9000000000329
r11,11,999999991,576.8000000000626
l61,61,199999973,1242.4999999999654
3130.799999998248
e90,90,1799999997,442.4000000000321
r11,11,999999953,580.6000000000635
l61,61,199999952,1244.5999999999635
3130.899999998248
e90,90,1799999992,442.9000000000322
r11,11,999999976,578.3000000000629
l61,61,199999983,1241.4999999999663
3130.999999998248
e90,90,1799999988,443.3000000000323
r11,11,999999998,576.1000000000624
l61,61,199999980,1241.799999999966
3131.0999999982478
