r29,29,999999958,439.3000000000314
r28,28,999999967,1151.9000000000478
1308.7999999999051
r29,29,999999954,439.7000000000315
r28,28,999999998,1148.8000000000507
1308.899999999905
r29,29,999999989,436.2000000000307
r28,28,999999984,1150.2000000000494
1308.999999999905
r29,29,999999971,438.0000000000311
r28,28,999999962,1152.4000000000474
1309.0999999999049
r29,29,999999980,437.1000000000309
r28,28,999999954,1153.2000000000467
1309.1999999999048
r29,29,999999996,435.5000000000305
r28,28,999999977,1150.9000000000487
1309.2999999999047
r29,29,999999988,436.3000000000307
r28,28,999999956,1153.0000000000468
1309.3999999999046
r29,29,999999998,435.3000000000305
r28,28,999999996,1149.0000000000505
1309.4999999999045
r29,29,999999969,438.20000000003114
r28,28,999999992,1149.40000000005
1309.5999999999044
r29,29,999999952,439.9000000000315
r28,28,999999952,1153.4000000000465
1309.6999999999043
r29,29,999999993,435.8000000000306
r28,28,999999951,1153.5000000000464
1309.7999999999042
r29,29,999999997,435.4000000000305
r28,28,999999980,1150.600000000049
1309.8999999999041
r29,29,999999987,436.40000000003073
r28,28,999999978,1150.8000000000488
1309.999999999904
r29,29,999999994,435.70000000003057
r28,28,999999981,1150.500000000049
1310.099999999904
r29,29,999999966,438.5000000000312
r28,28,999999983,1150.3000000000493
1310.1999999999039
r29,29,999999992,435.9000000000306
r28,28,999999985,1150.1000000000495
1310.2999999999038
r29,29,999999973,437.80000000003105
r28,28,999999975,1151.1000000000486
1310.3999999999037
r29,29,999999975,437.600000000031
r28,28,999999957,1152.900000000047
1310.4999999999036
r29,29,999999990,436.10000000003066
r28,28,999999955,1153.1000000000467
1310.5999999999035
r29,29,999999985,436.6000000000308
r28,28,999999963,1152.3000000000475
1310.6999999999034
r29,29,999999981,437.00000000003087
r28,28,999999986,1150.0000000000496
1310.7999999999033
r29,29,999999956,439.50000000003143
r28,28,999999969,1151.700000000048
1310.8999999999032
r29,29,999999963,438.8000000000313
r28,28,999999970,1151.600000000048
1310.9999999999031
r29,29,999999977,437.40000000003096
r28,28,999999972,1151.4000000000483
1311.099999999903
r29,29,999999972,437.90000000003107
r28,28,999999991,1149.50000000005
1311.199999999903
r29,29,999999976,437.500000000031
r28,28,1000000000,1148.6000000000508
1311.2999999999029
r29,29,999999968,438.30000000003116
r28,28,999999961,1152.5000000000473
1311.3999999999028
r29,29,999999957,439.4000000000314
r28,28,999999988,1149.8000000000497
1311.4999999999027
r29,29,999999967,438.4000000000312
r28,28,999999979,1150.700000000049
1311.5999999999026
r29,29,999999959,439.20000000003137
r28,28,999999993,1149.3000000000502
1311.6999999999025
r29,29,999999991,436.00000000003064
r28,28,999999973,1151.3000000000484
1311.7999999999024
r29,29,999999961,439.0000000000313
r28,28,999999990,1149.60000000005
1311.8999999999023
r29,29,999999970,438.1000000000311
r28,28,999999999,1148.7000000000507
1311.9999999999022
r29,29,1000000000,435.10000000003043
r28,28,999999976,1151.0000000000487
1312.0999999999021
r29,29,999999978,437.30000000003093
r28,28,999999964,1152.2000000000476
1312.199999999902
r29,29,999999951,440.00000000003155
r28,28,999999974,1151.2000000000485
1312.299999999902
r29,29,999999979,437.2000000000309
r28,28,999999965,1152.1000000000477
1312.3999999999019
r29,29,999999960,439.10000000003134
r28,28,999999966,1152.0000000000477
1312.4999999999018
r29,29,999999986,436.50000000003075
r28,28,999999994,1149.2000000000503
1312.5999999999017
r29,29,999999964,438.70000000003125
r28,28,999999968,1151.800000000048
1312.6999999999016
r29,29,999999953,439.8000000000315
r28,28,999999960,1152.6000000000472
1312.7999999999015
r29,29,999999955,439.60000000003146
r28,28,999999982,1150.4000000000492
1312.8999999999014
r29,29,999999982,436.90000000003084
r28,28,999999989,1149.7000000000498
1312.9999999999013
r29,29,999999983,436.8000000000308
r28,28,999999958,1152.800000000047
1313.0999999999012
r29,29,999999974,437.700000000031
r28,28,999999959,1152.700000000047
1313.1999999999011
r29,29,999999962,438.9000000000313
r28,28,999999997,1148.9000000000506
1313.299999999901
r29,29,999999995,435.60000000003055
r28,28,999999971,1151.5000000000482
1313.399999999901
r29,29,999999965,438.60000000003123
r28,28,999999995,1149.1000000000504
1313.4999999999009
r29,29,999999984,436.7000000000308
r28,28,999999987,1149.9000000000497
1313.5999999999008
r29,29,999999999,435.20000000003046
r28,28,999999953,1153.3000000000466
1313.6999999999007
