r13,13,999999962,561.8000000000592
e71,71,1799999956,844.1000000001234
l36,36,199999956,1025.8000000001625
e88,88,1799999980,1204.5
1633.8999999996095
r13,13,999999974,560.6000000000589
e71,71,1799999959,843.8000000001233
l36,36,199999974,1024.0000000001642
e88,88,1799999995,1203.0000000000014
1633.9999999996094
r13,13,1000000000,558.0000000000583
e71,71,1799999975,842.2000000001229
l36,36,199999992,1022.2000000001639
e88,88,1799999996,1202.9000000000015
1634.0999999996093
r13,13,999999978,560.2000000000588
e71,71,1799999955,844.2000000001234
l36,36,199999989,1022.5000000001639
e88,88,1799999994,1203.1000000000013
1634.1999999996092
r13,13,999999966,561.4000000000591
e71,71,1799999960,843.7000000001233
l36,36,199999967,1024.7000000001635
e88,88,1799999970,1205.499999999999
1634.299999999609
r13,13,999999987,559.3000000000586
e71,71,1799999972,842.500000000123
l36,36,199999973,1024.100000000164
e88,88,1799999960,1206.4999999999982
1634.399999999609
r13,13,999999965,561.5000000000591
e71,71,1799999998,839.9000000001224
l36,36,199999996,1021.8000000001638
e88,88,1800000000,1202.5000000000018
1634.499999999609
r13,13,999999981,559.9000000000588
e71,71,1799999979,841.8000000001228
l36,36,199999965,1024.9000000001633
e88,88,1799999982,1204.3000000000002
1634.5999999996088
r13,13,999999960,562.0000000000592
e71,71,1799999987,841.0000000001227
l36,36,199999951,1026.300000000162
e88,88,1799999983,1204.2000000000003
1634.6999999996087
r13,13,999999980,560.0000000000588
e71,71,1799999980,841.7000000001228
l36,36,200000000,1021.4000000001637
e88,88,1799999974,1205.0999999999995
1634.7999999996086
r13,13,999999990,559.0000000000585
e71,71,1799999991,840.6000000001226
l36,36,199999971,1024.300000000164
e88,88,1799999992,1203.300000000001
1634.8999999996086
r13,13,999999971,560.900000000059
e71,71,1799999971,842.600000000123
l36,36,199999962,1025.200000000163
e88,88,1799999984,1204.1000000000004
1634.9999999996085
r13,13,999999982,559.8000000000587
e71,71,1799999976,842.1000000001229
l36,36,199999959,1025.5000000001628
e88,88,1799999978,1204.6999999999998
1635.0999999996084
r13,13,999999956,562.4000000000593
e71,71,1799999993,840.4000000001225
l36,36,199999976,1023.8000000001642
e88,88,1799999975,1204.9999999999995
1635.1999999996083
r13,13,999999986,559.4000000000586
e71,71,1799999973,842.400000000123
l36,36,199999969,1024.5000000001637
e88,88,1799999993,1203.2000000000012
1635.2999999996082
r13,13,999999952,562.8000000000594
e71,71,1799999985,841.2000000001227
l36,36,199999983,1023.1000000001641
e88,88,1799999953,1207.1999999999975
1635.399999999608
r13,13,999999963,561.7000000000592
e71,71,1799999958,843.9000000001233
l36,36,199999978,1023.6000000001642
e88,88,1799999991,1203.400000000001
1635.499999999608
r13,13,999999979,560.1000000000588
e71,71,1800000000,839.7000000001224
l36,36,199999960,1025.400000000163
e88,88,1799999973,1205.1999999999994
1635.599999999608
r13,13,999999976,560.4000000000589
e71,71,1799999992,840.5000000001226
l36,36,199999954,1026.0000000001623
e88,88,1799999969,1205.599999999999
1635.6999999996078
r13,13,999999973,560.7000000000589
e71,71,1799999968,842.9000000001231
l36,36,199999975,1023.9000000001643
e88,88,1799999962,1206.2999999999984
1635.7999999996077
r13,13,999999988,559.2000000000586
e71,71,1799999954,844.3000000001234
l36,36,199999952,1026.2000000001622
e88,88,1799999998,1202.7000000000016
1635.8999999996076
r13,13,999999961,561.9000000000592
e71,71,1799999978,841.9000000001229
l36,36,199999964,1025.0000000001633
e88,88,1799999986,1203.9000000000005
1635.9999999996076
r13,13,999999968,561.200000000059
e71,71,1799999953,844.4000000001234
l36,36,199999955,1025.9000000001624
e88,88,1799999965,1205.9999999999986
1636.0999999996075
r13,13,999999951,562.9000000000594
e71,71,1799999996,840.1000000001225
l36,36,199999972,1024.200000000164
e88,88,1799999976,1204.8999999999996
1636.1999999996074
r13,13,999999969,561.100000000059
e71,71,1799999967,843.0000000001231
l36,36,199999987,1022.700000000164
e88,88,1799999972,1205.2999999999993
1636.2999999996073
r13,13,999999964,561.6000000000591
e71,71,1799999981,841.6000000001228
l36,36,199999957,1025.7000000001626
e88,88,1799999952,1207.2999999999975
1636.3999999996072
r13,13,999999999,558.1000000000583
e71,71,1799999961,843.6000000001233
l36,36,199999970,1024.4000000001638
e88,88,1799999961,1206.3999999999983
1636.499999999607
r13,13,999999984,559.6000000000587
e71,71,1799999957,844.0000000001234
l36,36,199999998,1021.6000000001637
e88,88,1799999971,1205.3999999999992
1636.599999999607
r13,13,999999977,560.3000000000588
e71,71,1799999988,840.9000000001226
l36,36,199999995,1021.9000000001638
e88,88,1799999967,1205.7999999999988
1636.699999999607
r13,13,999999992,558.8000000000585
e71,71,1799999989,840.8000000001226
l36,36,199999981,1023.3000000001641
e88,88,1799999990,1203.500000000001
1636.7999999996068
r20,20,999999990,171.19999999999456
e74,74,1799999990,906.6000000001376
l62,62,199999961,968.9000000001517
e87,87,1799999993,1540.7999999996941
1832.6999999994287
r20,20,999999961,174.0999999999944
e74,74,1799999993,906.3000000001375
l62,62,199999981,966.9000000001513
e87,87,1799999989,1541.1999999996938
1832.7999999994286
r20,20,999999987,171.49999999999454
e74,74,1799999961,909.5000000001382
l62,62,199999998,965.2000000001509
e87,87,1799999982,1541.8999999996931
1832.8999999994285
r20,20,999999982,171.99999999999451
e74,74,1799999985,907.1000000001377
l62,62,199999963,968.7000000001517
e87,87,1799999977,1542.3999999996927
1832.9999999994284
r20,20,999999952,174.99999999999434
e74,74,1799999951,910.5000000001385
l62,62,199999968,968.2000000001516
e87,87,1799999961,1543.9999999996912
1833.0999999994283
r20,20,999999978,172.3999999999945
e74,74,1799999969,908.7000000001381
l62,62,199999962,968.8000000001517
e87,87,1799999994,1540.6999999996942
1833.1999999994282
r20,20,1000000000,170.19999999999462
e74,74,1799999959,909.7000000001383
l62,62,199999959,969.1000000001518
e87,87,1799999952,1544.8999999996904
1833.299999999428
r20,20,999999981,172.0999999999945
e74,74,1799999958,909.8000000001383
l62,62,199999997,965.3000000001509
e87,87,1799999956,1544.4999999996908
1833.399999999428
r20,20,999999979,172.2999999999945
e74,74,1799999957,909.9000000001383
l62,62,199999955,969.5000000001519
e87,87,1799999988,1541.2999999996937
1833.499999999428
r20,20,999999954,174.79999999999436
e74,74,1799999972,908.400000000138
l62,62,199999966,968.4000000001516
e87,87,1799999963,1543.7999999996914
1833.5999999994278
r20,20,999999988,171.39999999999455
e74,74,1799999980,907.6000000001378
l62,62,199999994,965.600000000151
e87,87,1799999969,1543.199999999692
1833.6999999994277
r20,20,999999962,173.9999999999944
e74,74,1799999974,908.200000000138
l62,62,199999952,969.800000000152
e87,87,1799999955,1544.5999999996907
1833.7999999994277
r20,20,999999973,172.89999999999446
e74,74,1799999954,910.2000000001384
l62,62,199999956,969.4000000001519
e87,87,1799999967,1543.3999999996918
1833.8999999994276
r20,20,999999995,170.6999999999946
e74,74,1799999995,906.1000000001375
l62,62,199999991,965.9000000001511
e87,87,1799999999,1540.1999999996947
1833.9999999994275
r20,20,999999957,174.49999999999437
e74,74,1800000000,905.6000000001374
l62,62,199999972,967.8000000001515
e87,87,1799999985,1541.5999999996934
1834.0999999994274
r20,20,999999998,170.3999999999946
e74,74,1799999960,909.6000000001383
l62,62,200000000,965.0000000001509
e87,87,1799999976,1542.4999999996926
1834.1999999994273
r20,20,999999956,174.59999999999437
e74,74,1799999988,906.8000000001376
l62,62,199999977,967.3000000001514
e87,87,1799999964,1543.6999999996915
1834.2999999994272
r20,20,999999980,172.1999999999945
e74,74,1799999997,905.9000000001374
l62,62,199999979,967.1000000001513
e87,87,1799999971,1542.9999999996921
1834.399999999427
r20,20,999999986,171.59999999999454
e74,74,1799999967,908.9000000001381
l62,62,199999988,966.2000000001511
e87,87,1799999972,1542.8999999996922
1834.499999999427
r20,20,999999975,172.69999999999447
e74,74,1799999991,906.5000000001376
l62,62,199999970,968.0000000001515
e87,87,1799999958,1544.299999999691
1834.599999999427
