r25,25,999999996,102.69999999999844
e81,81,1799999997,200.1999999999929
e89,89,1799999990,366.10000000001475
r19,19,999999953,606.5000000000693
r3,3,999999981,627.7000000000742
1043.2000000001467
r25,25,999999962,106.09999999999825
e81,81,1799999961,203.7999999999927
e89,89,1799999978,367.300000000015
r19,19,999999965,605.3000000000691
r3,3,999999958,630.0000000000747
1043.3000000001466
r25,25,999999974,104.89999999999831
e81,81,1799999992,200.69999999999288
e89,89,1799999987,366.4000000000148
r19,19,999999973,604.5000000000689
r3,3,999999967,629.1000000000745
1043.4000000001465
r25,25,999999961,106.19999999999824
e81,81,1799999980,201.89999999999281
e89,89,1799999992,365.9000000000147
r19,19,999999956,606.2000000000693
r3,3,999999997,626.1000000000738
1043.5000000001464
r25,25,999999999,102.39999999999846
e81,81,1799999994,200.4999999999929
e89,89,1799999996,365.5000000000146
r19,19,999999994,602.4000000000684
r3,3,999999996,626.2000000000738
1043.6000000001463
r25,25,999999959,106.39999999999823
e81,81,1799999957,204.19999999999268
e89,89,1799999977,367.40000000001504
r19,19,999999971,604.7000000000689
r3,3,999999984,627.4000000000741
1043.7000000001462
r25,25,1000000000,102.29999999999846
e81,81,1799999952,204.69999999999266
e89,89,1799999960,369.1000000000154
r19,19,999999993,602.5000000000684
r3,3,999999970,628.8000000000744
1043.8000000001462
r25,25,999999977,104.59999999999833
e81,81,1799999978,202.0999999999928
e89,89,1799999991,366.0000000000147
r19,19,1000000000,601.8000000000683
r3,3,999999952,630.6000000000748
1043.900000000146
r25,25,999999964,105.89999999999826
e81,81,1799999960,203.8999999999927
e89,89,1799999983,366.8000000000149
r19,19,999999968,605.000000000069
r3,3,999999969,628.9000000000744
1044.000000000146
r25,25,999999972,105.0999999999983
e81,81,1799999951,204.79999999999265
e89,89,1799999973,367.80000000001513
r19,19,999999999,601.9000000000683
r3,3,999999999,625.9000000000738
1044.1000000001459
r25,25,999999989,103.3999999999984
e81,81,1799999975,202.3999999999928
e89,89,1799999969,368.2000000000152
r19,19,999999989,602.9000000000685
r3,3,999999991,626.7000000000739
1044.2000000001458
r25,25,999999953,106.9999999999982
e81,81,1799999981,201.79999999999282
e89,89,1799999970,368.1000000000152
r19,19,999999964,605.4000000000691
r3,3,999999956,630.2000000000747
1044.3000000001457
r25,25,999999975,104.79999999999832
e81,81,1799999962,203.6999999999927
e89,89,1799999981,367.00000000001495
r19,19,999999990,602.8000000000685
r3,3,999999980,627.8000000000742
1044.4000000001456
r25,25,999999957,106.59999999999822
e81,81,1799999995,200.3999999999929
e89,89,1799999995,365.60000000001463
r19,19,999999978,604.0000000000688
r3,3,999999998,626.0000000000738
1044.5000000001455
r25,25,999999984,103.89999999999837
e81,81,1799999965,203.39999999999273
e89,89,1799999957,369.4000000000155
r19,19,999999963,605.5000000000691
r3,3,999999955,630.3000000000748
1044.6000000001454
r25,25,999999990,103.2999999999984
e81,81,1799999967,203.19999999999274
e89,89,1799999951,370.00000000001563
r19,19,999999958,606.0000000000692
r3,3,999999992,626.6000000000739
1044.7000000001453
r25,25,999999954,106.8999999999982
e81,81,1799999989,200.99999999999287
e89,89,1799999984,366.7000000000149
r19,19,999999979,603.9000000000688
r3,3,999999968,629.0000000000745
1044.8000000001452
r25,25,999999951,107.19999999999818
e81,81,1799999959,203.9999999999927
e89,89,1799999953,369.8000000000156
r19,19,999999962,605.6000000000691
r3,3,999999954,630.4000000000748
1044.9000000001452
r25,25,999999997,102.59999999999845
e81,81,1799999983,201.59999999999283
e89,89,1800000000,365.1000000000145
r19,19,999999995,602.3000000000684
r3,3,999999977,628.1000000000743
1045.000000000145
r25,25,999999966,105.69999999999827
e81,81,1799999985,201.39999999999284
e89,89,1799999965,368.6000000000153
r19,19,999999952,606.6000000000694
r3,3,999999960,629.8000000000746
1045.100000000145
r25,25,999999993,102.99999999999842
e81,81,1799999958,204.0999999999927
e89,89,1799999964,368.70000000001534
r19,19,999999976,604.2000000000688
r3,3,999999951,630.7000000000749
1045.2000000001449
r25,25,999999991,103.19999999999841
e81,81,1799999953,204.59999999999266
e89,89,1799999985,366.60000000001486
r19,19,999999985,603.3000000000686
r3,3,999999966,629.2000000000745
1045.3000000001448
r25,25,999999981,104.19999999999835
e81,81,1799999982,201.69999999999283
e89,89,1799999968,368.30000000001525
r19,19,999999966,605.200000000069
r3,3,999999994,626.4000000000739
1045.4000000001447
r25,25,999999956,106.69999999999821
e81,81,1799999966,203.29999999999274
e89,89,1799999974,367.7000000000151
r19,19,999999954,606.4000000000693
r3,3,1000000000,625.8000000000737
1045.5000000001446
r25,25,999999958,106.49999999999822
e81,81,1799999976,202.2999999999928
e89,89,1799999980,367.100000000015
r19,19,999999970,604.800000000069
r3,3,999999986,627.200000000074
1045.6000000001445
r25,25,999999986,103.69999999999838
e81,81,1799999968,203.09999999999275
e89,89,1799999966,368.5000000000153
r19,19,999999967,605.100000000069
r3,3,999999982,627.6000000000741
1045.7000000001444
r25,25,999999979,104.39999999999834
e81,81,1799999971,202.79999999999276
e89,89,1799999972,367.90000000001515
r19,19,999999991,602.7000000000685
r3,3,999999959,629.9000000000747
1045.8000000001443
r25,25,999999971,105.1999999999983
e81,81,1800000000,199.89999999999293
e89,89,1799999998,365.30000000001456
r19,19,999999992,602.6000000000685
r3,3,999999961,629.7000000000746
1045.9000000001442
r25,25,999999978,104.49999999999834
e81,81,1799999993,200.5999999999929
e89,89,1799999971,368.0000000000152
r19,19,999999974,604.4000000000689
r3,3,999999976,628.2000000000743
1046.0000000001442
r25,25,999999965,105.79999999999826
e81,81,1799999954,204.49999999999267
e89,89,1799999997,365.4000000000146
r19,19,999999951,606.7000000000694
r3,3,999999975,628.3000000000743
1046.100000000144
r25,25,999999967,105.59999999999827
e81,81,1799999964,203.49999999999272
e89,89,1799999956,369.5000000000155
r19,19,999999955,606.3000000000693
r3,3,999999987,627.100000000074
1046.200000000144
r25,25,999999985,103.79999999999838
e81,81,1799999999,199.99999999999292
e89,89,1799999962,368.9000000000154
r19,19,999999960,605.8000000000692
r3,3,999999974,628.4000000000743
1046.3000000001439
r25,25,999999976,104.69999999999833
e81,81,1799999998,200.09999999999292
e89,89,1799999986,366.50000000001484
r19,19,999999997,602.1000000000683
r3,3,999999983,627.5000000000741
1046.4000000001438
r25,25,999999963,105.99999999999825
e81,81,1799999996,200.2999999999929
e89,89,1799999955,369.60000000001554
r19,19,999999986,603.2000000000686
r3,3,999999964,629.4000000000746
1046.5000000001437
r25,25,999999970,105.29999999999829
e81,81,1799999969,202.99999999999275
e89,89,1799999975,367.6000000000151
r19,19,999999983,603.5000000000687
r3,3,999999971,628.7000000000744
1046.6000000001436
r25,25,999999998,102.49999999999845
e81,81,1799999974,202.49999999999278
e89,89,1799999979,367.200000000015
r19,19,999999977,604.1000000000688
r3,3,999999972,628.6000000000744
1046.7000000001435
r25,25,999999995,102.79999999999843
e81,81,1799999955,204.39999999999267
e89,89,1799999976,367.50000000001506
r19,19,999999996,602.2000000000684
r3,3,999999993,626.5000000000739
1046.8000000001434
r25,25,999999992,103.09999999999842
e81,81,1799999991,200.79999999999288
e89,89,1799999988,366.3000000000148
r19,19,999999969,604.900000000069
r3,3,999999963,629.5000000000746
1046.9000000001433
r25,25,999999980,104.29999999999835
e81,81,1799999963,203.59999999999272
e89,89,1799999999,365.20000000001454
r19,19,999999957,606.1000000000693
r3,3,999999990,626.800000000074
1047.0000000001432
r25,25,999999973,104.99999999999831
e81,81,1799999970,202.89999999999276
e89,89,1799999967,368.40000000001527
r19,19,999999988,603.0000000000686
r3,3,999999965,629.3000000000745
1047.1000000001432
r25,25,999999969,105.39999999999829
e81,81,1799999973,202.59999999999278
e89,89,1799999961,369.0000000000154
r19,19,999999998,602.0000000000683
r3,3,999999978,628.0000000000742
1047.200000000143
r25,25,999999968,105.49999999999828
e81,81,1799999986,201.29999999999285
e89,89,1799999954,369.70000000001556
r19,19,999999961,605.7000000000692
r3,3,999999995,626.3000000000739
1047.300000000143
r25,25,999999987,103.59999999999839
e81,81,1799999984,201.49999999999284
e89,89,1799999958,369.3000000000155
r19,19,999999982,603.6000000000687
r3,3,999999985,627.3000000000741
1047.4000000001429
r25,25,999999988,103.4999999999984
e81,81,1799999988,201.09999999999286
e89,89,1799999993,365.8000000000147
r19,19,999999959,605.9000000000692
r3,3,999999979,627.9000000000742
1047.5000000001428
r25,25,999999994,102.89999999999843
e81,81,1799999956,204.29999999999268
e89,89,1799999952,369.9000000000156
r19,19,999999981,603.7000000000687
r3,3,999999962,629.6000000000746
1047.6000000001427
r25,25,999999982,104.09999999999836
e81,81,1799999979,201.9999999999928
e89,89,1799999989,366.20000000001477
r19,19,999999972,604.6000000000689
r3,3,999999953,630.5000000000748
1047.7000000001426
r25,25,999999955,106.7999999999982
e81,81,1799999987,201.19999999999285
e89,89,1799999959,369.20000000001545
r19,19,999999987,603.1000000000686
r3,3,999999973,628.5000000000744
1047.8000000001425
r25,25,999999960,106.29999999999824
e81,81,1799999977,202.1999999999928
e89,89,1799999963,368.80000000001536
r19,19,999999975,604.3000000000688
r3,3,999999988,627.000000000074
1047.9000000001424
r25,25,999999952,107.09999999999819
e81,81,1799999990,200.89999999999287
e89,89,1799999982,366.9000000000149
r19,19,999999980,603.8000000000687
r3,3,999999957,630.1000000000747
1048.0000000001423
r25,25,999999983,103.99999999999837
e81,81,1799999972,202.69999999999277
e89,89,1799999994,365.70000000001465
r19,19,999999984,603.4000000000686
r3,3,999999989,626.900000000074
1048.1000000001422
