r20,20,999999995,317.70000000000374
l51,51,199999983,1279.0999999999322
e72,72,1799999969,1344.199999999873
r25,25,999999991,1522.6999999997106
e91,91,1799999970,1536.8999999996977
1822.499999999438
r20,20,999999981,319.10000000000406
l51,51,199999995,1277.8999999999332
e72,72,1799999991,1341.999999999875
r25,25,999999993,1522.4999999997108
e91,91,1799999980,1535.8999999996986
1822.5999999994378
r20,20,999999972,320.00000000000426
l51,51,199999978,1279.5999999999317
e72,72,1799999964,1344.6999999998725
r25,25,999999982,1523.5999999997098
e91,91,1799999963,1537.599999999697
1822.6999999994378
r20,20,999999980,319.2000000000041
l51,51,199999997,1277.6999999999334
e72,72,1799999992,1341.899999999875
r25,25,999999997,1522.0999999997111
e91,91,1799999982,1535.6999999996988
1822.7999999994377
r20,20,999999962,321.0000000000045
l51,51,199999972,1280.1999999999312
e72,72,1799999956,1345.4999999998718
r25,25,999999989,1522.8999999997104
e91,91,1799999981,1535.7999999996987
1822.8999999994376
r20,20,999999979,319.3000000000041
l51,51,199999981,1279.299999999932
e72,72,1799999955,1345.5999999998717
r25,25,999999967,1525.0999999997084
e91,91,1799999998,1534.0999999997002
1822.9999999994375
r20,20,999999977,319.50000000000415
l51,51,199999971,1280.299999999931
e72,72,1799999967,1344.3999999998728
r25,25,999999986,1523.1999999997101
e91,91,1799999958,1538.0999999996966
1823.0999999994374
r20,20,999999996,317.6000000000037
l51,51,199999985,1278.8999999999323
e72,72,1799999962,1344.8999999998723
r25,25,999999990,1522.7999999997105
e91,91,1799999984,1535.499999999699
1823.1999999994373
r20,20,999999973,319.90000000000424
l51,51,200000000,1277.3999999999337
e72,72,1799999986,1342.4999999998745
r25,25,999999958,1525.9999999997076
e91,91,1799999974,1536.499999999698
1823.2999999994372
r20,20,999999989,318.3000000000039
l51,51,199999973,1280.0999999999312
e72,72,1799999973,1343.7999999998733
r25,25,999999987,1523.0999999997102
e91,91,1799999964,1537.4999999996971
1823.3999999994371
r20,20,999999997,317.5000000000037
l51,51,199999975,1279.8999999999314
e72,72,1799999957,1345.3999999998719
r25,25,999999969,1524.8999999997086
e91,91,1799999972,1536.6999999996979
1823.499999999437
r20,20,999999952,322.0000000000047
l51,51,199999991,1278.2999999999329
e72,72,1799999951,1345.9999999998713
r25,25,999999953,1526.4999999997071
e91,91,1799999973,1536.599999999698
1823.599999999437
r20,20,999999958,321.4000000000046
l51,51,199999994,1277.9999999999332
e72,72,1799999977,1343.3999999998737
r25,25,999999971,1524.6999999997088
e91,91,1799999983,1535.5999999996989
1823.6999999994368
r20,20,999999983,318.900000000004
l51,51,199999966,1280.7999999999306
e72,72,1799999959,1345.199999999872
r25,25,999999977,1524.0999999997093
e91,91,1799999954,1538.4999999996962
1823.7999999994367
r20,20,999999982,319.00000000000404
l51,51,199999965,1280.8999999999305
e72,72,1799999961,1344.9999999998722
r25,25,999999999,1521.8999999997113
e91,91,1799999951,1538.799999999696
1823.8999999994367
r20,20,999999975,319.7000000000042
l51,51,199999986,1278.7999999999324
e72,72,1799999978,1343.2999999998738
r25,25,999999965,1525.2999999997082
e91,91,1799999957,1538.1999999996965
1823.9999999994366
r20,20,999999969,320.30000000000433
l51,51,199999980,1279.3999999999319
e72,72,1799999966,1344.4999999998727
r25,25,999999996,1522.199999999711
e91,91,1799999979,1535.9999999996985
1824.0999999994365
r20,20,999999993,317.9000000000038
l51,51,199999955,1281.8999999999296
e72,72,1799999970,1344.099999999873
r25,25,999999964,1525.3999999997081
e91,91,1799999997,1534.1999999997001
1824.1999999994364
r20,20,999999953,321.9000000000047
l51,51,199999977,1279.6999999999316
e72,72,1799999953,1345.7999999998715
r25,25,999999963,1525.499999999708
e91,91,1799999955,1538.3999999996963
1824.2999999994363
r20,20,999999967,320.5000000000044
l51,51,199999993,1278.099999999933
e72,72,1799999984,1342.6999999998743
r25,25,999999995,1522.299999999711
e91,91,1799999986,1535.2999999996991
1824.3999999994362
r20,20,999999976,319.6000000000042
l51,51,199999963,1281.0999999999303
e72,72,1799999985,1342.5999999998744
r25,25,999999959,1525.8999999997077
e91,91,1799999960,1537.8999999996968
1824.499999999436
r20,20,999999992,318.0000000000038
l51,51,199999988,1278.5999999999326
e72,72,1799999987,1342.3999999998746
r25,25,999999972,1524.5999999997089
e91,91,1799999991,1534.7999999996996
1824.599999999436
r20,20,999999960,321.20000000000454
l51,51,199999982,1279.199999999932
e72,72,1799999997,1341.3999999998755
r25,25,999999956,1526.1999999997074
e91,91,1799999961,1537.7999999996969
1824.699999999436
r20,20,999999994,317.80000000000376
l51,51,199999999,1277.4999999999336
e72,72,1799999982,1342.8999999998741
r25,25,999999985,1523.29999999971
e91,91,1799999966,1537.2999999996973
1824.7999999994358
r20,20,999999990,318.20000000000385
l51,51,199999956,1281.7999999999297
e72,72,1799999971,1343.9999999998731
r25,25,999999984,1523.39999999971
e91,91,1799999952,1538.699999999696
1824.8999999994357
r20,20,999999959,321.30000000000456
l51,51,199999953,1282.0999999999294
e72,72,1799999995,1341.5999999998753
r25,25,999999988,1522.9999999997103
e91,91,1799999990,1534.8999999996995
1824.9999999994357
r20,20,999999955,321.70000000000465
l51,51,199999951,1282.2999999999292
e72,72,1799999994,1341.6999999998752
r25,25,999999992,1522.5999999997107
e91,91,1799999969,1536.9999999996976
1825.0999999994356
r20,20,999999987,318.5000000000039
l51,51,199999962,1281.1999999999302
e72,72,1799999958,1345.299999999872
r25,25,1000000000,1521.7999999997114
e91,91,1799999992,1534.6999999996997
1825.1999999994355
r20,20,999999984,318.800000000004
l51,51,199999998,1277.5999999999335
e72,72,1799999965,1344.5999999998726
r25,25,999999957,1526.0999999997075
e91,91,1799999971,1536.7999999996978
1825.2999999994354
r20,20,999999954,321.8000000000047
l51,51,199999957,1281.6999999999298
e72,72,1799999983,1342.7999999998742
r25,25,999999960,1525.7999999997078
e91,91,1799999995,1534.3999999997
1825.3999999994353
r20,20,999999999,317.30000000000365
l51,51,199999954,1281.9999999999295
e72,72,1799999963,1344.7999999998724
r25,25,999999951,1526.699999999707
e91,91,1800000000,1533.8999999997004
1825.4999999994352
r20,20,999999966,320.6000000000044
l51,51,199999958,1281.5999999999299
e72,72,1799999996,1341.4999999998754
r25,25,999999962,1525.599999999708
e91,91,1799999976,1536.2999999996982
1825.599999999435
r20,20,999999971,320.1000000000043
l51,51,199999969,1280.4999999999309
e72,72,1799999990,1342.0999999998749
r25,25,999999980,1523.7999999997096
e91,91,1799999987,1535.1999999996992
1825.699999999435
r20,20,999999951,322.10000000000474
l51,51,199999990,1278.3999999999328
e72,72,1799999976,1343.4999999998736
r25,25,999999970,1524.7999999997087
e91,91,1799999996,1534.2999999997
1825.799999999435
r20,20,999999998,317.4000000000037
l51,51,199999964,1280.9999999999304
e72,72,1799999988,1342.2999999998747
r25,25,999999961,1525.6999999997079
e91,91,1799999953,1538.5999999996961
1825.8999999994348
r20,20,999999963,320.90000000000447
l51,51,199999996,1277.7999999999333
e72,72,1799999980,1343.099999999874
r25,25,999999976,1524.1999999997092
e91,91,1799999994,1534.4999999996999
1825.9999999994347
r20,20,1000000000,317.2000000000036
l51,51,199999984,1278.9999999999322
e72,72,1799999972,1343.8999999998732
r25,25,999999973,1524.499999999709
e91,91,1799999985,1535.399999999699
1826.0999999994347
r20,20,999999988,318.4000000000039
l51,51,199999970,1280.399999999931
e72,72,1799999968,1344.2999999998729
r25,25,999999952,1526.599999999707
e91,91,1799999975,1536.3999999996981
1826.1999999994346
r20,20,999999974,319.8000000000042
l51,51,199999959,1281.49999999993
e72,72,1799999999,1341.1999999998757
r25,25,999999975,1524.2999999997091
e91,91,1799999989,1534.9999999996994
1826.2999999994345
r20,20,999999986,318.60000000000394
l51,51,199999960,1281.39999999993
e72,72,1799999960,1345.0999999998721
r25,25,999999968,1524.9999999997085
e91,91,1799999999,1533.9999999997003
1826.3999999994344
r20,20,999999965,320.7000000000044
l51,51,199999967,1280.6999999999307
e72,72,1799999974,1343.6999999998734
r25,25,999999954,1526.3999999997072
e91,91,1799999965,1537.3999999996972
1826.4999999994343
r20,20,999999961,321.1000000000045
l51,51,199999961,1281.2999999999302
e72,72,1799999954,1345.6999999998716
r25,25,999999994,1522.3999999997109
e91,91,1799999967,1537.1999999996974
1826.5999999994342
r20,20,999999970,320.2000000000043
l51,51,199999974,1279.9999999999313
e72,72,1799999989,1342.1999999998748
r25,25,999999966,1525.1999999997083
e91,91,1799999956,1538.2999999996964
1826.699999999434
r20,20,999999985,318.70000000000397
l51,51,199999987,1278.6999999999325
e72,72,1800000000,1341.0999999998758
r25,25,999999979,1523.8999999997095
e91,91,1799999988,1535.0999999996993
1826.799999999434
r20,20,999999968,320.40000000000435
l51,51,199999992,1278.199999999933
e72,72,1799999979,1343.1999999998739
r25,25,999999983,1523.4999999997099
e91,91,1799999962,1537.699999999697
1826.899999999434
r20,20,999999991,318.10000000000383
l51,51,199999979,1279.4999999999318
e72,72,1799999952,1345.8999999998714
r25,25,999999981,1523.6999999997097
e91,91,1799999993,1534.5999999996998
1826.9999999994338
r20,20,999999956,321.6000000000046
l51,51,199999968,1280.5999999999308
e72,72,1799999998,1341.2999999998756
r25,25,999999978,1523.9999999997094
e91,91,1799999977,1536.1999999996983
1827.0999999994337
r20,20,999999978,319.4000000000041
l51,51,199999976,1279.7999999999315
e72,72,1799999981,1342.999999999874
r25,25,999999955,1526.2999999997073
e91,91,1799999959,1537.9999999996967
1827.1999999994337
r20,20,999999957,321.5000000000046
l51,51,199999952,1282.1999999999293
e72,72,1799999993,1341.7999999998751
r25,25,999999998,1521.9999999997112
e91,91,1799999978,1536.0999999996984
1827.2999999994336
r20,20,999999964,320.80000000000445
l51,51,199999989,1278.4999999999327
e72,72,1799999975,1343.5999999998735
r25,25,999999974,1524.399999999709
e91,91,1799999968,1537.0999999996975
1827.3999999994335
