e72,72,1799999986,120.8999999999974
l47,47,199999984,830.0000000001202
1133.9000000000642
e72,72,1799999977,121.79999999999735
l47,47,199999951,833.3000000001209
1134.0000000000641
e72,72,1799999969,122.59999999999731
l47,47,199999978,830.6000000001203
1134.100000000064
e72,72,1799999961,123.39999999999726
l47,47,199999960,832.4000000001207
1134.200000000064
e72,72,1799999995,119.99999999999746
l47,47,199999985,829.9000000001201
1134.3000000000638
e72,72,1799999965,122.99999999999729
l47,47,199999991,829.30000000012
1134.4000000000638
e72,72,1799999996,119.89999999999746
l47,47,199999986,829.8000000001201
1134.5000000000637
e72,72,1799999967,122.7999999999973
l47,47,199999962,832.2000000001207
1134.6000000000636
e72,72,1799999994,120.09999999999745
l47,47,199999974,831.0000000001204
1134.7000000000635
e72,72,1799999954,124.09999999999722
l47,47,199999954,833.0000000001208
1134.8000000000634
e72,72,1799999988,120.69999999999742
l47,47,199999968,831.6000000001205
1134.9000000000633
e72,72,1799999982,121.29999999999738
l47,47,199999977,830.7000000001203
1135.0000000000632
e72,72,1799999985,120.9999999999974
l47,47,199999995,828.9000000001199
1135.1000000000631
e72,72,1800000000,119.49999999999748
l47,47,200000000,828.4000000001198
1135.200000000063
e72,72,1799999971,122.39999999999732
l47,47,199999992,829.20000000012
1135.300000000063
e72,72,1799999966,122.89999999999729
l47,47,199999982,830.2000000001202
1135.4000000000628
e72,72,1799999959,123.59999999999725
l47,47,199999983,830.1000000001202
1135.5000000000628
e72,72,1799999979,121.59999999999737
l47,47,199999997,828.7000000001199
1135.6000000000627
e72,72,1799999955,123.99999999999723
l47,47,199999998,828.6000000001198
1135.7000000000626
e72,72,1799999970,122.49999999999731
l47,47,199999976,830.8000000001203
1135.8000000000625
e72,72,1799999953,124.19999999999722
l47,47,199999994,829.0000000001199
1135.9000000000624
e72,72,1799999990,120.49999999999743
l47,47,199999959,832.5000000001207
1136.0000000000623
e72,72,1799999987,120.79999999999741
l47,47,199999972,831.2000000001204
1136.1000000000622
e72,72,1799999992,120.29999999999744
l47,47,199999957,832.7000000001208
1136.2000000000621
e72,72,1799999976,121.89999999999735
l47,47,199999953,833.1000000001209
1136.300000000062
e72,72,1799999963,123.19999999999727
l47,47,199999971,831.3000000001205
1136.400000000062
e72,72,1799999984,121.0999999999974
l47,47,199999955,832.9000000001208
1136.5000000000618
e72,72,1799999997,119.79999999999747
l47,47,199999969,831.5000000001205
1136.6000000000618
e72,72,1799999960,123.49999999999726
l47,47,199999963,832.1000000001206
1136.7000000000617
e72,72,1799999951,124.3999999999972
l47,47,199999989,829.50000000012
1136.8000000000616
e72,72,1799999989,120.59999999999742
l47,47,199999970,831.4000000001205
1136.9000000000615
e72,72,1799999968,122.6999999999973
l47,47,199999966,831.8000000001206
1137.0000000000614
e72,72,1799999973,122.19999999999733
l47,47,199999981,830.3000000001202
1137.1000000000613
e72,72,1799999983,121.19999999999739
l47,47,199999987,829.7000000001201
1137.2000000000612
e72,72,1799999991,120.39999999999743
l47,47,199999996,828.8000000001199
1137.3000000000611
e72,72,1799999964,123.09999999999728
l47,47,199999975,830.9000000001204
1137.400000000061
e72,72,1799999999,119.59999999999748
l47,47,199999958,832.6000000001208
1137.500000000061
e72,72,1799999952,124.29999999999721
l47,47,199999961,832.3000000001207
1137.6000000000608
e72,72,1799999957,123.79999999999724
l47,47,199999973,831.1000000001204
1137.7000000000608
e72,72,1799999975,121.99999999999734
l47,47,199999999,828.5000000001198
1137.8000000000607
e72,72,1799999974,122.09999999999734
l47,47,199999980,830.4000000001203
1137.9000000000606
e72,72,1799999978,121.69999999999736
l47,47,199999993,829.10000000012
1138.0000000000605
e72,72,1799999956,123.89999999999723
l47,47,199999990,829.40000000012
1138.1000000000604
e72,72,1799999980,121.49999999999737
l47,47,199999952,833.2000000001209
1138.2000000000603
e72,72,1799999981,121.39999999999738
l47,47,199999964,832.0000000001206
1138.3000000000602
e72,72,1799999958,123.69999999999725
l47,47,199999979,830.5000000001203
1138.4000000000601
e72,72,1799999972,122.29999999999733
l47,47,199999967,831.7000000001206
1138.50000000006
e72,72,1799999993,120.19999999999744
l47,47,199999956,832.8000000001208
1138.60000000006
e72,72,1799999962,123.29999999999727
l47,47,199999988,829.6000000001201
1138.7000000000598
e72,72,1799999998,119.69999999999747
l47,47,199999965,831.9000000001206
1138.8000000000598
