e99,99,1799999951,445.1000000000327
e94,94,1799999964,612.2000000000706
l39,39,199999966,1141.6000000000572
r26,26,999999976,1544.0999999996911
l49,49,199999997,1593.2999999996464
e76,76,1799999990,1788.299999999469
l42,42,199999998,2087.499999999197
2527.399999998797
e99,99,1799999977,442.5000000000321
e94,94,1799999984,610.2000000000702
l39,39,200000000,1138.2000000000603
r26,26,999999979,1543.7999999996914
l49,49,199999992,1593.799999999646
e76,76,1799999968,1790.499999999467
l42,42,199999954,2091.899999999193
2527.4999999987967
e99,99,1799999957,444.50000000003257
e94,94,1799999986,610.0000000000701
l39,39,199999978,1140.4000000000583
r26,26,999999977,1543.9999999996912
l49,49,199999991,1593.8999999996458
e76,76,1799999981,1789.1999999994682
l42,42,199999989,2088.399999999196
2527.5999999987966
e99,99,1799999990,441.2000000000318
e94,94,1799999978,610.8000000000703
l39,39,199999980,1140.2000000000585
r26,26,999999960,1545.6999999996897
l49,49,199999978,1595.1999999996447
e76,76,1799999962,1791.0999999994665
l42,42,199999958,2091.4999999991933
2527.6999999987966
e99,99,1799999983,441.900000000032
e94,94,1799999997,608.9000000000699
l39,39,199999971,1141.1000000000577
r26,26,999999958,1545.8999999996895
l49,49,199999965,1596.4999999996435
e76,76,1799999954,1791.8999999994658
l42,42,199999962,2091.0999999991936
2527.7999999987965
e99,99,1799999958,444.40000000003255
e94,94,1799999966,612.0000000000706
l39,39,199999951,1143.1000000000558
r26,26,999999961,1545.5999999996898
l49,49,199999981,1594.899999999645
e76,76,1799999967,1790.599999999467
l42,42,199999977,2089.599999999195
2527.8999999987964
e99,99,1799999980,442.20000000003205
e94,94,1799999988,609.8000000000701
l39,39,199999956,1142.6000000000563
r26,26,999999972,1544.4999999996908
l49,49,199999974,1595.5999999996443
e76,76,1799999982,1789.0999999994683
l42,42,199999984,2088.8999999991956
2527.9999999987963
e99,99,1799999961,444.1000000000325
e94,94,1799999999,608.7000000000698
l39,39,199999959,1142.3000000000566
r26,26,999999963,1545.39999999969
l49,49,199999962,1596.7999999996432
e76,76,1799999978,1789.499999999468
l42,42,199999956,2091.699999999193
2528.099999998796
e99,99,1799999982,442.000000000032
e94,94,1799999992,609.40000000007
l39,39,199999965,1141.7000000000571
r26,26,999999953,1546.399999999689
l49,49,199999986,1594.3999999996454
e76,76,1799999959,1791.3999999994662
l42,42,199999963,2090.9999999991937
2528.199999998796
e99,99,1799999967,443.50000000003234
e94,94,1799999955,613.1000000000708
l39,39,199999958,1142.4000000000565
r26,26,999999962,1545.4999999996899
l49,49,199999966,1596.3999999996436
e76,76,1799999956,1791.699999999466
l42,42,199999985,2088.7999999991957
2528.299999998796
e99,99,1799999973,442.9000000000322
e94,94,1799999971,611.5000000000705
l39,39,199999985,1139.700000000059
r26,26,999999997,1541.999999999693
l49,49,199999951,1597.8999999996422
e76,76,1799999973,1789.9999999994675
l42,42,199999961,2091.1999999991936
2528.399999998796
e99,99,1799999960,444.2000000000325
e94,94,1799999990,609.60000000007
l39,39,199999990,1139.2000000000594
r26,26,999999952,1546.499999999689
l49,49,199999963,1596.6999999996433
e76,76,1799999991,1788.1999999994691
l42,42,199999970,2090.2999999991944
2528.499999998796
e99,99,1799999988,441.40000000003187
e94,94,1799999975,611.1000000000704
l39,39,199999961,1142.1000000000568
r26,26,999999994,1542.2999999996928
l49,49,199999998,1593.1999999996465
e76,76,1799999984,1788.8999999994685
l42,42,199999992,2088.0999999991964
2528.5999999987957
e99,99,1799999966,443.60000000003237
e94,94,1799999969,611.7000000000705
l39,39,199999954,1142.8000000000561
r26,26,999999992,1542.4999999996926
l49,49,199999970,1595.999999999644
e76,76,1799999974,1789.8999999994676
l42,42,199999967,2090.599999999194
2528.6999999987956
e99,99,1799999999,440.3000000000316
e94,94,1799999977,610.9000000000703
l39,39,199999969,1141.3000000000575
r26,26,999999981,1543.5999999996916
l49,49,199999984,1594.5999999996452
e76,76,1800000000,1787.29999999947
l42,42,199999968,2090.499999999194
2528.7999999987956
e99,99,1799999984,441.80000000003196
e94,94,1799999952,613.4000000000709
l39,39,199999992,1139.0000000000596
r26,26,999999982,1543.4999999996917
l49,49,199999994,1593.5999999996461
e76,76,1799999953,1791.9999999994657
l42,42,199999959,2091.3999999991934
2528.8999999987955
e99,99,1799999991,441.1000000000318
e94,94,1799999991,609.50000000007
l39,39,199999997,1138.50000000006
r26,26,999999955,1546.1999999996892
l49,49,199999977,1595.2999999996446
e76,76,1799999977,1789.5999999994679
l42,42,200000000,2087.299999999197
2528.9999999987954
e99,99,1799999981,442.100000000032
e94,94,1799999974,611.2000000000704
l39,39,199999962,1142.0000000000568
r26,26,999999973,1544.3999999996909
l49,49,199999953,1597.6999999996424
e76,76,1799999995,1787.7999999994695
l42,42,199999975,2089.799999999195
2529.0999999987953
e99,99,1799999962,444.00000000003246
e94,94,1799999998,608.8000000000699
l39,39,199999953,1142.900000000056
r26,26,999999980,1543.6999999996915
l49,49,199999975,1595.4999999996444
e76,76,1799999951,1792.1999999994655
l42,42,199999971,2090.1999999991945
2529.199999998795
e99,99,1799999963,443.90000000003243
e94,94,1799999956,613.0000000000708
l39,39,199999998,1138.4000000000601
r26,26,999999965,1545.1999999996901
l49,49,199999987,1594.2999999996455
e76,76,1799999996,1787.6999999994696
l42,42,199999964,2090.899999999194
2529.299999998795
e99,99,1799999979,442.30000000003207
e94,94,1799999958,612.8000000000708
l39,39,199999987,1139.5000000000591
r26,26,999999988,1542.8999999996922
l49,49,199999968,1596.1999999996438
e76,76,1799999958,1791.4999999994661
l42,42,199999973,2089.9999999991946
2529.399999998795
e99,99,1799999976,442.60000000003214
e94,94,1799999961,612.5000000000707
l39,39,199999974,1140.800000000058
r26,26,999999966,1545.0999999996902
l49,49,199999980,1594.9999999996448
e76,76,1799999987,1788.5999999994688
l42,42,199999990,2088.299999999196
2529.499999998795
e99,99,1799999954,444.80000000003264
e94,94,1799999953,613.3000000000709
l39,39,199999977,1140.5000000000582
r26,26,999999999,1541.7999999996932
l49,49,199999972,1595.7999999996441
e76,76,1799999985,1788.7999999994686
l42,42,199999988,2088.499999999196
2529.599999998795
e99,99,1799999993,440.90000000003175
e94,94,1799999980,610.6000000000703
l39,39,199999964,1141.800000000057
r26,26,999999998,1541.8999999996931
l49,49,199999954,1597.5999999996425
e76,76,1799999957,1791.599999999466
l42,42,199999960,2091.2999999991935
2529.6999999987947
e99,99,1799999975,442.70000000003216
e94,94,1799999993,609.30000000007
l39,39,199999988,1139.4000000000592
r26,26,999999987,1542.9999999996921
l49,49,199999971,1595.899999999644
e76,76,1799999998,1787.4999999994698
l42,42,199999993,2087.9999999991965
2529.7999999987946
e99,99,1799999997,440.50000000003166
e94,94,1799999983,610.3000000000702
l39,39,199999967,1141.5000000000573
r26,26,999999956,1546.0999999996893
l49,49,199999985,1594.4999999996453
e76,76,1799999979,1789.399999999468
l42,42,199999976,2089.699999999195
2529.8999999987946
e99,99,1799999996,440.6000000000317
e94,94,1799999954,613.2000000000709
l39,39,199999983,1139.9000000000588
r26,26,999999991,1542.5999999996925
l49,49,199999973,1595.6999999996442
e76,76,1799999955,1791.7999999994659
l42,42,199999991,2088.1999999991963
2529.9999999987945
e99,99,1799999986,441.6000000000319
e94,94,1799999972,611.4000000000705
l39,39,199999968,1141.4000000000574
r26,26,999999989,1542.7999999996923
l49,49,199999983,1594.6999999996451
e76,76,1799999963,1790.9999999994666
l42,42,199999951,2092.1999999991926
2530.0999999987944
e99,99,1799999994,440.80000000003173
e94,94,1799999960,612.6000000000707
l39,39,199999957,1142.5000000000564
r26,26,999999996,1542.099999999693
l49,49,199999995,1593.4999999996462
e76,76,1799999964,1790.8999999994667
l42,42,199999982,2089.0999999991955
2530.1999999987943
e99,99,1799999969,443.3000000000323
e94,94,1799999963,612.3000000000707
l39,39,199999999,1138.3000000000602
r26,26,999999957,1545.9999999996894
l49,49,199999952,1597.7999999996423
e76,76,1799999966,1790.6999999994669
l42,42,199999980,2089.2999999991953
2530.299999998794
e99,99,1799999970,443.2000000000323
e94,94,1799999981,610.5000000000703
l39,39,199999979,1140.3000000000584
r26,26,999999951,1546.5999999996889
l49,49,199999969,1596.0999999996438
e76,76,1799999952,1792.0999999994656
l42,42,199999957,2091.599999999193
2530.399999998794
e99,99,1799999952,445.0000000000327
e94,94,1799999996,609.0000000000699
l39,39,199999972,1141.0000000000578
r26,26,999999959,1545.7999999996896
l49,49,199999990,1593.9999999996458
e76,76,1799999997,1787.5999999994697
l42,42,199999969,2090.3999999991943
2530.499999998794
e99,99,1799999971,443.10000000003225
e94,94,1799999967,611.9000000000706
l39,39,199999981,1140.1000000000586
r26,26,999999970,1544.6999999996906
l49,49,199999961,1596.8999999996431
e76,76,1799999971,1790.1999999994673
l42,42,199999966,2090.699999999194
2530.599999998794
e99,99,1799999985,441.70000000003193
e94,94,1799999995,609.1000000000699
l39,39,199999989,1139.3000000000593
r26,26,999999975,1544.199999999691
l49,49,200000000,1592.9999999996467
e76,76,1799999969,1790.3999999994671
l42,42,199999952,2092.0999999991927
2530.699999998794
e99,99,1799999992,441.0000000000318
e94,94,1799999962,612.4000000000707
l39,39,199999993,1138.9000000000597
r26,26,999999969,1544.7999999996905
l49,49,199999955,1597.4999999996426
e76,76,1799999983,1788.9999999994684
l42,42,199999974,2089.8999999991947
2530.7999999987937
e99,99,1799999978,442.4000000000321
e94,94,1799999987,609.9000000000701
l39,39,199999994,1138.8000000000598
r26,26,999999954,1546.2999999996891
l49,49,199999996,1593.3999999996463
e76,76,1799999970,1790.2999999994672
l42,42,199999955,2091.799999999193
2530.8999999987936
e99,99,1799999955,444.7000000000326
e94,94,1799999989,609.7000000000701
l39,39,199999982,1140.0000000000587
r26,26,999999974,1544.299999999691
l49,49,199999957,1597.2999999996428
e76,76,1799999993,1787.9999999994693
l42,42,199999987,2088.599999999196
2530.9999999987936
e99,99,1799999953,444.90000000003266
e94,94,1799999968,611.8000000000706
l39,39,199999955,1142.7000000000562
r26,26,999999983,1543.3999999996918
l49,49,199999964,1596.5999999996434
e76,76,1799999989,1788.399999999469
l42,42,199999994,2087.8999999991966
2531.0999999987935
e99,99,1799999968,443.4000000000323
e94,94,1799999959,612.7000000000708
l39,39,199999986,1139.600000000059
r26,26,999999968,1544.8999999996904
l49,49,199999976,1595.3999999996445
e76,76,1799999999,1787.3999999994699
l42,42,199999953,2091.999999999193
2531.1999999987934
e99,99,1799999964,443.8000000000324
e94,94,1799999985,610.1000000000702
l39,39,199999996,1138.60000000006
r26,26,999999986,1543.099999999692
l49,49,199999967,1596.2999999996437
e76,76,1799999960,1791.2999999994663
l42,42,199999986,2088.699999999196
2531.2999999987933
e99,99,1799999995,440.7000000000317
e94,94,1799999973,611.3000000000704
l39,39,199999970,1141.2000000000576
r26,26,999999978,1543.8999999996913
l49,49,199999999,1593.0999999996466
e76,76,1799999972,1790.0999999994674
l42,42,199999996,2087.6999999991967
2531.399999998793
e99,99,1799999972,443.00000000003223
e94,94,1799999957,612.9000000000708
l39,39,199999975,1140.700000000058
r26,26,999999984,1543.2999999996919
l49,49,199999988,1594.1999999996456
e76,76,1799999986,1788.6999999994687
l42,42,199999965,2090.799999999194
2531.499999998793
e99,99,1799999987,441.5000000000319
e94,94,1799999965,612.1000000000706
l39,39,199999960,1142.2000000000567
r26,26,999999967,1544.9999999996903
l49,49,199999979,1595.0999999996448
e76,76,1799999988,1788.4999999994689
l42,42,199999999,2087.399999999197
2531.599999998793
e99,99,1800000000,440.2000000000316
e94,94,1799999994,609.20000000007
l39,39,199999984,1139.8000000000588
r26,26,999999995,1542.1999999996929
l49,49,199999956,1597.3999999996427
e76,76,1799999975,1789.7999999994677
l42,42,199999981,2089.1999999991954
2531.699999998793
e99,99,1799999956,444.6000000000326
e94,94,1799999976,611.0000000000704
l39,39,199999976,1140.6000000000581
r26,26,1000000000,1541.6999999996933
l49,49,199999989,1594.0999999996457
e76,76,1799999992,1788.0999999994692
l42,42,199999995,2087.7999999991966
2531.799999998793
e99,99,1799999998,440.40000000003164
e94,94,1799999979,610.7000000000703
l39,39,199999963,1141.900000000057
r26,26,999999985,1543.199999999692
l49,49,199999960,1596.999999999643
e76,76,1799999965,1790.7999999994668
l42,42,199999979,2089.399999999195
2531.8999999987927
e99,99,1799999974,442.8000000000322
e94,94,1799999982,610.4000000000702
l39,39,199999991,1139.1000000000595
r26,26,999999964,1545.29999999969
l49,49,199999958,1597.1999999996428
e76,76,1799999961,1791.1999999994664
l42,42,199999972,2090.0999999991946
2531.9999999987926
e99,99,1799999989,441.30000000003184
e94,94,1800000000,608.6000000000698
l39,39,199999952,1143.000000000056
r26,26,999999990,1542.6999999996924
l49,49,199999982,1594.799999999645
e76,76,1799999994,1787.8999999994694
l42,42,199999983,2088.9999999991956
2532.0999999987926
e99,99,1799999959,444.3000000000325
e94,94,1799999970,611.6000000000705
l39,39,199999973,1140.9000000000578
r26,26,999999971,1544.5999999996907
l49,49,199999959,1597.099999999643
e76,76,1799999980,1789.2999999994681
l42,42,199999978,2089.499999999195
2532.1999999987925
e99,99,1799999965,443.7000000000324
e94,94,1799999951,613.5000000000709
l39,39,199999995,1138.7000000000598
r26,26,999999993,1542.3999999996927
l49,49,199999993,1593.699999999646
e76,76,1799999976,1789.6999999994678
l42,42,199999997,2087.599999999197
2532.2999999987924
